[
  {
    "graph_name": "50_0",
    "n_pass": 2,
    "winning_ride": {
      "driver": {
        "arrive_until": 2400,
        "direct_cost": 567
      },
      "passengers": [
        {
          "bid": 3554,
          "id": 49,
          "price": 3403,
          "cost": 389,
          "direct_dist": 12943,
          "direct_cost": 389,
          "direct_time": 871
        },
        {
          "bid": 4016,
          "id": 33,
          "price": 3865,
          "cost": 436,
          "direct_dist": 14533,
          "direct_cost": 436,
          "direct_time": 948
        }
      ],
      "cost": 364,
      "virtual_welfare": 7206
    },
    "profit": 6904,
    "cost_profit": 461.0,
    "welfare": 7206,
    "virtual_welfare": 7206,
    "running_time": 6
  },
  {
    "graph_name": "50_1",
    "n_pass": 3,
    "winning_ride": {
      "driver": {
        "arrive_until": 2400,
        "direct_cost": 508
      },
      "passengers": [
        {
          "bid": 3365,
          "id": 23,
          "price": 3244,
          "cost": 337,
          "direct_dist": 11217,
          "direct_cost": 337,
          "direct_time": 752
        },
        {
          "bid": 2556,
          "id": 18,
          "price": 2435,
          "cost": 296,
          "direct_dist": 9857,
          "direct_cost": 296,
          "direct_time": 731
        },
        {
          "bid": 1822,
          "id": 16,
          "price": 1031,
          "cost": 183,
          "direct_dist": 6074,
          "direct_cost": 183,
          "direct_time": 404
        }
      ],
      "cost": 290,
      "virtual_welfare": 7453
    },
    "profit": 6420,
    "cost_profit": 526.0,
    "welfare": 7453,
    "virtual_welfare": 7453,
    "running_time": 54
  },
  {
    "graph_name": "50_10",
    "n_pass": 2,
    "winning_ride": {
      "driver": {
        "arrive_until": 2400,
        "direct_cost": 461
      },
      "passengers": [
        {
          "bid": 2952,
          "id": 24,
          "price": 2880,
          "cost": 296,
          "direct_dist": 9840,
          "direct_cost": 296,
          "direct_time": 706
        },
        {
          "bid": 3388,
          "id": 3,
          "price": 3081,
          "cost": 530,
          "direct_dist": 17646,
          "direct_cost": 530,
          "direct_time": 1211
        }
      ],
      "cost": 456,
      "virtual_welfare": 5884
    },
    "profit": 5505,
    "cost_profit": 370.0,
    "welfare": 5884,
    "virtual_welfare": 5884,
    "running_time": 41
  },
  {
    "graph_name": "50_11",
    "n_pass": 2,
    "winning_ride": {
      "driver": {
        "arrive_until": 2400,
        "direct_cost": 576
      },
      "passengers": [
        {
          "bid": 5606,
          "id": 18,
          "price": 3688,
          "cost": 561,
          "direct_dist": 18687,
          "direct_cost": 561,
          "direct_time": 1196
        },
        {
          "bid": 3842,
          "id": 3,
          "price": 3410,
          "cost": 385,
          "direct_dist": 12809,
          "direct_cost": 385,
          "direct_time": 828
        }
      ],
      "cost": 461,
      "virtual_welfare": 8987
    },
    "profit": 6637,
    "cost_profit": 485.0,
    "welfare": 8987,
    "virtual_welfare": 8987,
    "running_time": 9
  },
  {
    "graph_name": "50_12",
    "n_pass": 2,
    "winning_ride": {
      "driver": {
        "arrive_until": 2400,
        "direct_cost": 429
      },
      "passengers": [
        {
          "bid": 5499,
          "id": 17,
          "price": 3564,
          "cost": 550,
          "direct_dist": 18330,
          "direct_cost": 550,
          "direct_time": 1221
        },
        {
          "bid": 3149,
          "id": 3,
          "price": 1214,
          "cost": 554,
          "direct_dist": 18440,
          "direct_cost": 554,
          "direct_time": 1177
        }
      ],
      "cost": 599,
      "virtual_welfare": 8049
    },
    "profit": 4179,
    "cost_profit": 505.0,
    "welfare": 8049,
    "virtual_welfare": 8049,
    "running_time": 26
  },
  {
    "graph_name": "50_13",
    "n_pass": 2,
    "winning_ride": {
      "driver": {
        "arrive_until": 2400,
        "direct_cost": 410
      },
      "passengers": [
        {
          "bid": 3790,
          "id": 43,
          "price": 2424,
          "cost": 380,
          "direct_dist": 12636,
          "direct_cost": 380,
          "direct_time": 871
        },
        {
          "bid": 5843,
          "id": 19,
          "price": 4527,
          "cost": 585,
          "direct_dist": 19477,
          "direct_cost": 585,
          "direct_time": 1293
        }
      ],
      "cost": 561,
      "virtual_welfare": 9072
    },
    "profit": 6390,
    "cost_profit": 404.0,
    "welfare": 9072,
    "virtual_welfare": 9072,
    "running_time": 127
  },
  {
    "graph_name": "50_14",
    "n_pass": 3,
    "winning_ride": {
      "driver": {
        "arrive_until": 2400,
        "direct_cost": 486
      },
      "passengers": [
        {
          "bid": 3257,
          "id": 45,
          "price": 3198,
          "cost": 326,
          "direct_dist": 10859,
          "direct_cost": 326,
          "direct_time": 764
        },
        {
          "bid": 80,
          "id": 28,
          "price": 89,
          "cost": 89,
          "direct_dist": 2949,
          "direct_cost": 89,
          "direct_time": 225
        },
        {
          "bid": 2674,
          "id": 12,
          "price": 2615,
          "cost": 353,
          "direct_dist": 11746,
          "direct_cost": 353,
          "direct_time": 841
        }
      ],
      "cost": 343,
      "virtual_welfare": 5668
    },
    "profit": 5559,
    "cost_profit": 425.0,
    "welfare": 5668,
    "virtual_welfare": 5668,
    "running_time": 59
  },
  {
    "graph_name": "50_15",
    "n_pass": 2,
    "winning_ride": {
      "driver": {
        "arrive_until": 2400,
        "direct_cost": 524
      },
      "passengers": [
        {
          "bid": 3983,
          "id": 46,
          "price": 3874,
          "cost": 399,
          "direct_dist": 13279,
          "direct_cost": 399,
          "direct_time": 922
        },
        {
          "bid": 4172,
          "id": 9,
          "price": 3557,
          "cost": 418,
          "direct_dist": 13909,
          "direct_cost": 418,
          "direct_time": 893
        }
      ],
      "cost": 455,
      "virtual_welfare": 7700
    },
    "profit": 6976,
    "cost_profit": 362.0,
    "welfare": 7700,
    "virtual_welfare": 7700,
    "running_time": 396
  },
  {
    "graph_name": "50_16",
    "n_pass": 2,
    "winning_ride": {
      "driver": {
        "arrive_until": 2400,
        "direct_cost": 381
      },
      "passengers": [
        {
          "bid": 2606,
          "id": 44,
          "price": 2386,
          "cost": 261,
          "direct_dist": 8688,
          "direct_cost": 261,
          "direct_time": 632
        },
        {
          "bid": 3554,
          "id": 24,
          "price": 3334,
          "cost": 356,
          "direct_dist": 11847,
          "direct_cost": 356,
          "direct_time": 929
        }
      ],
      "cost": 518,
      "virtual_welfare": 5642
    },
    "profit": 5202,
    "cost_profit": 99.0,
    "welfare": 5642,
    "virtual_welfare": 5642,
    "running_time": 57
  },
  {
    "graph_name": "50_17",
    "n_pass": 2,
    "winning_ride": {
      "driver": {
        "arrive_until": 2400,
        "direct_cost": 449
      },
      "passengers": [
        {
          "bid": 3984,
          "id": 9,
          "price": 2696,
          "cost": 399,
          "direct_dist": 13282,
          "direct_cost": 399,
          "direct_time": 878
        },
        {
          "bid": 3636,
          "id": 2,
          "price": 2684,
          "cost": 364,
          "direct_dist": 12122,
          "direct_cost": 364,
          "direct_time": 707
        }
      ],
      "cost": 470,
      "virtual_welfare": 7150
    },
    "profit": 4910,
    "cost_profit": 293.0,
    "welfare": 7150,
    "virtual_welfare": 7150,
    "running_time": 65
  },
  {
    "graph_name": "50_18",
    "n_pass": 2,
    "winning_ride": {
      "driver": {
        "arrive_until": 2400,
        "direct_cost": 442
      },
      "passengers": [
        {
          "bid": 2540,
          "id": 40,
          "price": 1909,
          "cost": 379,
          "direct_dist": 12601,
          "direct_cost": 379,
          "direct_time": 793
        },
        {
          "bid": 3921,
          "id": 22,
          "price": 3792,
          "cost": 431,
          "direct_dist": 14359,
          "direct_cost": 431,
          "direct_time": 1053
        }
      ],
      "cost": 547,
      "virtual_welfare": 5914
    },
    "profit": 5154,
    "cost_profit": 263.0,
    "welfare": 5914,
    "virtual_welfare": 5914,
    "running_time": 27
  },
  {
    "graph_name": "50_19",
    "n_pass": 2,
    "winning_ride": {
      "driver": {
        "arrive_until": 2400,
        "direct_cost": 435
      },
      "passengers": [
        {
          "bid": 2646,
          "id": 37,
          "price": 2511,
          "cost": 265,
          "direct_dist": 8821,
          "direct_cost": 265,
          "direct_time": 647
        },
        {
          "bid": 4040,
          "id": 23,
          "price": 2973,
          "cost": 405,
          "direct_dist": 13468,
          "direct_cost": 405,
          "direct_time": 887
        }
      ],
      "cost": 441,
      "virtual_welfare": 6245
    },
    "profit": 5043,
    "cost_profit": 229.0,
    "welfare": 6245,
    "virtual_welfare": 6245,
    "running_time": 121
  },
  {
    "graph_name": "50_2",
    "n_pass": 2,
    "winning_ride": {
      "driver": {
        "arrive_until": 2400,
        "direct_cost": 423
      },
      "passengers": [
        {
          "bid": 4444,
          "id": 45,
          "price": 3495,
          "cost": 445,
          "direct_dist": 14814,
          "direct_cost": 445,
          "direct_time": 994
        },
        {
          "bid": 3951,
          "id": 39,
          "price": 3429,
          "cost": 396,
          "direct_dist": 13170,
          "direct_cost": 396,
          "direct_time": 881
        }
      ],
      "cost": 461,
      "virtual_welfare": 7934
    },
    "profit": 6463,
    "cost_profit": 380.0,
    "welfare": 7934,
    "virtual_welfare": 7934,
    "running_time": 26
  },
  {
    "graph_name": "50_20",
    "n_pass": 2,
    "winning_ride": {
      "driver": {
        "arrive_until": 2400,
        "direct_cost": 602
      },
      "passengers": [
        {
          "bid": 6017,
          "id": 20,
          "price": 5051,
          "cost": 602,
          "direct_dist": 20058,
          "direct_cost": 602,
          "direct_time": 1258
        },
        {
          "bid": 3426,
          "id": 14,
          "price": 2460,
          "cost": 343,
          "direct_dist": 11420,
          "direct_cost": 343,
          "direct_time": 814
        }
      ],
      "cost": 297,
      "virtual_welfare": 9146
    },
    "profit": 7214,
    "cost_profit": 648.0,
    "welfare": 9146,
    "virtual_welfare": 9146,
    "running_time": 38
  },
  {
    "graph_name": "50_21",
    "n_pass": 3,
    "winning_ride": {
      "driver": {
        "arrive_until": 2400,
        "direct_cost": 475
      },
      "passengers": [
        {
          "bid": 1631,
          "id": 44,
          "price": 834,
          "cost": 164,
          "direct_dist": 5439,
          "direct_cost": 164,
          "direct_time": 411
        },
        {
          "bid": 4871,
          "id": 39,
          "price": 2539,
          "cost": 488,
          "direct_dist": 16239,
          "direct_cost": 488,
          "direct_time": 1021
        },
        {
          "bid": 2654,
          "id": 6,
          "price": 1857,
          "cost": 266,
          "direct_dist": 8847,
          "direct_cost": 266,
          "direct_time": 605
        }
      ],
      "cost": 436,
      "virtual_welfare": 8720
    },
    "profit": 4794,
    "cost_profit": 482.0,
    "welfare": 8720,
    "virtual_welfare": 8720,
    "running_time": 38
  },
  {
    "graph_name": "50_22",
    "n_pass": 3,
    "winning_ride": {
      "driver": {
        "arrive_until": 2400,
        "direct_cost": 482
      },
      "passengers": [
        {
          "bid": 2935,
          "id": 49,
          "price": 2746,
          "cost": 294,
          "direct_dist": 9784,
          "direct_cost": 294,
          "direct_time": 657
        },
        {
          "bid": 4272,
          "id": 38,
          "price": 3476,
          "cost": 428,
          "direct_dist": 14241,
          "direct_cost": 428,
          "direct_time": 942
        },
        {
          "bid": 600,
          "id": 13,
          "price": 411,
          "cost": 130,
          "direct_dist": 4325,
          "direct_cost": 130,
          "direct_time": 349
        }
      ],
      "cost": 507,
      "virtual_welfare": 7300
    },
    "profit": 6126,
    "cost_profit": 345.0,
    "welfare": 7300,
    "virtual_welfare": 7300,
    "running_time": 38
  },
  {
    "graph_name": "50_23",
    "n_pass": 2,
    "winning_ride": {
      "driver": {
        "arrive_until": 2400,
        "direct_cost": 522
      },
      "passengers": [
        {
          "bid": 3978,
          "id": 48,
          "price": 3227,
          "cost": 398,
          "direct_dist": 13262,
          "direct_cost": 398,
          "direct_time": 963
        },
        {
          "bid": 4221,
          "id": 44,
          "price": 3259,
          "cost": 423,
          "direct_dist": 14070,
          "direct_cost": 423,
          "direct_time": 905
        }
      ],
      "cost": 466,
      "virtual_welfare": 7733
    },
    "profit": 6020,
    "cost_profit": 355.0,
    "welfare": 7733,
    "virtual_welfare": 7733,
    "running_time": 11
  },
  {
    "graph_name": "50_24",
    "n_pass": 2,
    "winning_ride": {
      "driver": {
        "arrive_until": 2400,
        "direct_cost": 405
      },
      "passengers": [
        {
          "bid": 4320,
          "id": 22,
          "price": 4237,
          "cost": 433,
          "direct_dist": 14401,
          "direct_cost": 433,
          "direct_time": 956
        },
        {
          "bid": 4813,
          "id": 17,
          "price": 4492,
          "cost": 577,
          "direct_dist": 19222,
          "direct_cost": 577,
          "direct_time": 1188
        }
      ],
      "cost": 542,
      "virtual_welfare": 8591
    },
    "profit": 8187,
    "cost_profit": 468.0,
    "welfare": 8591,
    "virtual_welfare": 8591,
    "running_time": 82
  },
  {
    "graph_name": "50_25",
    "n_pass": 2,
    "winning_ride": {
      "driver": {
        "arrive_until": 2400,
        "direct_cost": 442
      },
      "passengers": [
        {
          "bid": 3287,
          "id": 44,
          "price": 2625,
          "cost": 329,
          "direct_dist": 10957,
          "direct_cost": 329,
          "direct_time": 774
        },
        {
          "bid": 3408,
          "id": 16,
          "price": 2339,
          "cost": 341,
          "direct_dist": 11362,
          "direct_cost": 341,
          "direct_time": 757
        }
      ],
      "cost": 447,
      "virtual_welfare": 6248
    },
    "profit": 4517,
    "cost_profit": 223.0,
    "welfare": 6248,
    "virtual_welfare": 6248,
    "running_time": 174
  },
  {
    "graph_name": "50_26",
    "n_pass": 2,
    "winning_ride": {
      "driver": {
        "arrive_until": 2400,
        "direct_cost": 425
      },
      "passengers": [
        {
          "bid": 4025,
          "id": 42,
          "price": 2359,
          "cost": 403,
          "direct_dist": 13419,
          "direct_cost": 403,
          "direct_time": 862
        },
        {
          "bid": 4281,
          "id": 26,
          "price": 3012,
          "cost": 562,
          "direct_dist": 18716,
          "direct_cost": 562,
          "direct_time": 1147
        }
      ],
      "cost": 519,
      "virtual_welfare": 7787
    },
    "profit": 4852,
    "cost_profit": 446.0,
    "welfare": 7787,
    "virtual_welfare": 7787,
    "running_time": 86
  },
  {
    "graph_name": "50_27",
    "n_pass": 2,
    "winning_ride": {
      "driver": {
        "arrive_until": 2400,
        "direct_cost": 429
      },
      "passengers": [
        {
          "bid": 5535,
          "id": 44,
          "price": 4106,
          "cost": 554,
          "direct_dist": 18452,
          "direct_cost": 554,
          "direct_time": 1194
        },
        {
          "bid": 3549,
          "id": 20,
          "price": 3456,
          "cost": 355,
          "direct_dist": 11831,
          "direct_cost": 355,
          "direct_time": 725
        }
      ],
      "cost": 565,
      "virtual_welfare": 8519
    },
    "profit": 6997,
    "cost_profit": 344.0,
    "welfare": 8519,
    "virtual_welfare": 8519,
    "running_time": 34
  },
  {
    "graph_name": "50_28",
    "n_pass": 3,
    "winning_ride": {
      "driver": {
        "arrive_until": 2400,
        "direct_cost": 506
      },
      "passengers": [
        {
          "bid": 3936,
          "id": 45,
          "price": 2609,
          "cost": 394,
          "direct_dist": 13123,
          "direct_cost": 394,
          "direct_time": 925
        },
        {
          "bid": 3545,
          "id": 28,
          "price": 2698,
          "cost": 355,
          "direct_dist": 11819,
          "direct_cost": 355,
          "direct_time": 782
        },
        {
          "bid": 1090,
          "id": 1,
          "price": 313,
          "cost": 110,
          "direct_dist": 3636,
          "direct_cost": 110,
          "direct_time": 244
        }
      ],
      "cost": 335,
      "virtual_welfare": 8236
    },
    "profit": 5285,
    "cost_profit": 524.0,
    "welfare": 8236,
    "virtual_welfare": 8236,
    "running_time": 17
  },
  {
    "graph_name": "50_29",
    "n_pass": 3,
    "winning_ride": {
      "driver": {
        "arrive_until": 2400,
        "direct_cost": 528
      },
      "passengers": [
        {
          "bid": 327,
          "id": 49,
          "price": 70,
          "cost": 33,
          "direct_dist": 1093,
          "direct_cost": 33,
          "direct_time": 101
        },
        {
          "bid": 3608,
          "id": 46,
          "price": 3171,
          "cost": 361,
          "direct_dist": 12029,
          "direct_cost": 361,
          "direct_time": 758
        },
        {
          "bid": 4818,
          "id": 37,
          "price": 3447,
          "cost": 503,
          "direct_dist": 16745,
          "direct_cost": 503,
          "direct_time": 1143
        }
      ],
      "cost": 366,
      "virtual_welfare": 8387
    },
    "profit": 6322,
    "cost_profit": 531.0,
    "welfare": 8387,
    "virtual_welfare": 8387,
    "running_time": 21
  },
  {
    "graph_name": "50_3",
    "n_pass": 2,
    "winning_ride": {
      "driver": {
        "arrive_until": 2400,
        "direct_cost": 449
      },
      "passengers": [
        {
          "bid": 4822,
          "id": 38,
          "price": 2666,
          "cost": 483,
          "direct_dist": 16076,
          "direct_cost": 483,
          "direct_time": 1001
        },
        {
          "bid": 4656,
          "id": 34,
          "price": 4338,
          "cost": 466,
          "direct_dist": 15520,
          "direct_cost": 466,
          "direct_time": 1147
        }
      ],
      "cost": 494,
      "virtual_welfare": 8984
    },
    "profit": 6510,
    "cost_profit": 455.0,
    "welfare": 8984,
    "virtual_welfare": 8984,
    "running_time": 33
  },
  {
    "graph_name": "50_30",
    "n_pass": 2,
    "winning_ride": {
      "driver": {
        "arrive_until": 2400,
        "direct_cost": 560
      },
      "passengers": [
        {
          "bid": 5234,
          "id": 29,
          "price": 3101,
          "cost": 524,
          "direct_dist": 17448,
          "direct_cost": 524,
          "direct_time": 1116
        },
        {
          "bid": 3231,
          "id": 8,
          "price": 3068,
          "cost": 504,
          "direct_dist": 16773,
          "direct_cost": 504,
          "direct_time": 1132
        }
      ],
      "cost": 320,
      "virtual_welfare": 8145
    },
    "profit": 5849,
    "cost_profit": 708.0,
    "welfare": 8145,
    "virtual_welfare": 8145,
    "running_time": 20
  },
  {
    "graph_name": "50_31",
    "n_pass": 2,
    "winning_ride": {
      "driver": {
        "arrive_until": 2400,
        "direct_cost": 467
      },
      "passengers": [
        {
          "bid": 3668,
          "id": 47,
          "price": 3431,
          "cost": 367,
          "direct_dist": 12228,
          "direct_cost": 367,
          "direct_time": 857
        },
        {
          "bid": 2894,
          "id": 8,
          "price": 2560,
          "cost": 290,
          "direct_dist": 9649,
          "direct_cost": 290,
          "direct_time": 710
        }
      ],
      "cost": 432,
      "virtual_welfare": 6130
    },
    "profit": 5559,
    "cost_profit": 225.0,
    "welfare": 6130,
    "virtual_welfare": 6130,
    "running_time": 63
  },
  {
    "graph_name": "50_32",
    "n_pass": 3,
    "winning_ride": {
      "driver": {
        "arrive_until": 2400,
        "direct_cost": 367
      },
      "passengers": [
        {
          "bid": 3024,
          "id": 41,
          "price": 2337,
          "cost": 306,
          "direct_dist": 10184,
          "direct_cost": 306,
          "direct_time": 627
        },
        {
          "bid": 458,
          "id": 25,
          "price": 248,
          "cost": 56,
          "direct_dist": 1861,
          "direct_cost": 56,
          "direct_time": 202
        },
        {
          "bid": 2839,
          "id": 1,
          "price": 2629,
          "cost": 284,
          "direct_dist": 9464,
          "direct_cost": 284,
          "direct_time": 746
        }
      ],
      "cost": 324,
      "virtual_welfare": 5997
    },
    "profit": 4890,
    "cost_profit": 322.0,
    "welfare": 5997,
    "virtual_welfare": 5997,
    "running_time": 84
  },
  {
    "graph_name": "50_33",
    "n_pass": 2,
    "winning_ride": {
      "driver": {
        "arrive_until": 2400,
        "direct_cost": 463
      },
      "passengers": [
        {
          "bid": 6231,
          "id": 36,
          "price": 4204,
          "cost": 624,
          "direct_dist": 20770,
          "direct_cost": 624,
          "direct_time": 1399
        },
        {
          "bid": 4255,
          "id": 3,
          "price": 3639,
          "cost": 426,
          "direct_dist": 14186,
          "direct_cost": 426,
          "direct_time": 937
        }
      ],
      "cost": 532,
      "virtual_welfare": 9954
    },
    "profit": 7311,
    "cost_profit": 518.0,
    "welfare": 9954,
    "virtual_welfare": 9954,
    "running_time": 26
  },
  {
    "graph_name": "50_34",
    "n_pass": 3,
    "winning_ride": {
      "driver": {
        "arrive_until": 2400,
        "direct_cost": 534
      },
      "passengers": [
        {
          "bid": 1231,
          "id": 44,
          "price": 929,
          "cost": 124,
          "direct_dist": 4104,
          "direct_cost": 124,
          "direct_time": 283
        },
        {
          "bid": 2888,
          "id": 24,
          "price": 2586,
          "cost": 289,
          "direct_dist": 9627,
          "direct_cost": 289,
          "direct_time": 753
        },
        {
          "bid": 3672,
          "id": 3,
          "price": 3466,
          "cost": 368,
          "direct_dist": 12241,
          "direct_cost": 368,
          "direct_time": 917
        }
      ],
      "cost": 426,
      "virtual_welfare": 7365
    },
    "profit": 6555,
    "cost_profit": 355.0,
    "welfare": 7365,
    "virtual_welfare": 7365,
    "running_time": 65
  },
  {
    "graph_name": "50_35",
    "n_pass": 2,
    "winning_ride": {
      "driver": {
        "arrive_until": 2400,
        "direct_cost": 434
      },
      "passengers": [
        {
          "bid": 5675,
          "id": 50,
          "price": 4532,
          "cost": 568,
          "direct_dist": 18917,
          "direct_cost": 568,
          "direct_time": 1304
        },
        {
          "bid": 4288,
          "id": 11,
          "price": 1508,
          "cost": 429,
          "direct_dist": 14295,
          "direct_cost": 429,
          "direct_time": 939
        }
      ],
      "cost": 543,
      "virtual_welfare": 9420
    },
    "profit": 5497,
    "cost_profit": 454.0,
    "welfare": 9420,
    "virtual_welfare": 9420,
    "running_time": 43
  },
  {
    "graph_name": "50_36",
    "n_pass": 2,
    "winning_ride": {
      "driver": {
        "arrive_until": 2400,
        "direct_cost": 478
      },
      "passengers": [
        {
          "bid": 3250,
          "id": 46,
          "price": 3046,
          "cost": 455,
          "direct_dist": 15141,
          "direct_cost": 455,
          "direct_time": 966
        },
        {
          "bid": 5407,
          "id": 35,
          "price": 3675,
          "cost": 541,
          "direct_dist": 18026,
          "direct_cost": 541,
          "direct_time": 1135
        }
      ],
      "cost": 375,
      "virtual_welfare": 8282
    },
    "profit": 6346,
    "cost_profit": 621.0,
    "welfare": 8282,
    "virtual_welfare": 8282,
    "running_time": 174
  },
  {
    "graph_name": "50_37",
    "n_pass": 3,
    "winning_ride": {
      "driver": {
        "arrive_until": 2400,
        "direct_cost": 542
      },
      "passengers": [
        {
          "bid": 461,
          "id": 39,
          "price": 225,
          "cost": 48,
          "direct_dist": 1569,
          "direct_cost": 48,
          "direct_time": 109
        },
        {
          "bid": 2814,
          "id": 26,
          "price": 2702,
          "cost": 282,
          "direct_dist": 9383,
          "direct_cost": 282,
          "direct_time": 751
        },
        {
          "bid": 4517,
          "id": 7,
          "price": 2809,
          "cost": 495,
          "direct_dist": 16489,
          "direct_cost": 495,
          "direct_time": 1098
        }
      ],
      "cost": 362,
      "virtual_welfare": 7430
    },
    "profit": 5374,
    "cost_profit": 463.0,
    "welfare": 7430,
    "virtual_welfare": 7430,
    "running_time": 13
  },
  {
    "graph_name": "50_38",
    "n_pass": 2,
    "winning_ride": {
      "driver": {
        "arrive_until": 2400,
        "direct_cost": 426
      },
      "passengers": [
        {
          "bid": 6272,
          "id": 50,
          "price": 4780,
          "cost": 628,
          "direct_dist": 20907,
          "direct_cost": 628,
          "direct_time": 1332
        },
        {
          "bid": 1733,
          "id": 37,
          "price": 693,
          "cost": 174,
          "direct_dist": 5778,
          "direct_cost": 174,
          "direct_time": 378
        }
      ],
      "cost": 553,
      "virtual_welfare": 7452
    },
    "profit": 4920,
    "cost_profit": 249.0,
    "welfare": 7452,
    "virtual_welfare": 7452,
    "running_time": 63
  },
  {
    "graph_name": "50_39",
    "n_pass": 2,
    "winning_ride": {
      "driver": {
        "arrive_until": 2400,
        "direct_cost": 501
      },
      "passengers": [
        {
          "bid": 5000,
          "id": 40,
          "price": 3407,
          "cost": 501,
          "direct_dist": 16667,
          "direct_cost": 501,
          "direct_time": 1184
        },
        {
          "bid": 2530,
          "id": 14,
          "price": 2259,
          "cost": 549,
          "direct_dist": 18279,
          "direct_cost": 549,
          "direct_time": 1190
        }
      ],
      "cost": 525,
      "virtual_welfare": 7005
    },
    "profit": 5141,
    "cost_profit": 525.0,
    "welfare": 7005,
    "virtual_welfare": 7005,
    "running_time": 64
  },
  {
    "graph_name": "50_4",
    "n_pass": 3,
    "winning_ride": {
      "driver": {
        "arrive_until": 2400,
        "direct_cost": 470
      },
      "passengers": [
        {
          "bid": 2835,
          "id": 37,
          "price": 2467,
          "cost": 284,
          "direct_dist": 9453,
          "direct_cost": 284,
          "direct_time": 610
        },
        {
          "bid": 417,
          "id": 32,
          "price": 147,
          "cost": 42,
          "direct_dist": 1390,
          "direct_cost": 42,
          "direct_time": 82
        },
        {
          "bid": 3807,
          "id": 21,
          "price": 2876,
          "cost": 397,
          "direct_dist": 13228,
          "direct_cost": 397,
          "direct_time": 823
        }
      ],
      "cost": 514,
      "virtual_welfare": 6545
    },
    "profit": 4976,
    "cost_profit": 209.0,
    "welfare": 6545,
    "virtual_welfare": 6545,
    "running_time": 78
  },
  {
    "graph_name": "50_40",
    "n_pass": 2,
    "winning_ride": {
      "driver": {
        "arrive_until": 2400,
        "direct_cost": 455
      },
      "passengers": [
        {
          "bid": 2905,
          "id": 22,
          "price": 2602,
          "cost": 291,
          "direct_dist": 9685,
          "direct_cost": 291,
          "direct_time": 640
        },
        {
          "bid": 3064,
          "id": 4,
          "price": 2761,
          "cost": 307,
          "direct_dist": 10215,
          "direct_cost": 307,
          "direct_time": 656
        }
      ],
      "cost": 146,
      "virtual_welfare": 5823
    },
    "profit": 5217,
    "cost_profit": 452.0,
    "welfare": 5823,
    "virtual_welfare": 5823,
    "running_time": 21
  },
  {
    "graph_name": "50_41",
    "n_pass": 3,
    "winning_ride": {
      "driver": {
        "arrive_until": 2400,
        "direct_cost": 509
      },
      "passengers": [
        {
          "bid": 3886,
          "id": 44,
          "price": 1898,
          "cost": 415,
          "direct_dist": 13803,
          "direct_cost": 415,
          "direct_time": 880
        },
        {
          "bid": 3144,
          "id": 39,
          "price": 2256,
          "cost": 315,
          "direct_dist": 10480,
          "direct_cost": 315,
          "direct_time": 700
        },
        {
          "bid": 1070,
          "id": 10,
          "price": 541,
          "cost": 147,
          "direct_dist": 4880,
          "direct_cost": 147,
          "direct_time": 308
        }
      ],
      "cost": 397,
      "virtual_welfare": 7703
    },
    "profit": 4298,
    "cost_profit": 480.0,
    "welfare": 7703,
    "virtual_welfare": 7703,
    "running_time": 52
  },
  {
    "graph_name": "50_42",
    "n_pass": 3,
    "winning_ride": {
      "driver": {
        "arrive_until": 2400,
        "direct_cost": 491
      },
      "passengers": [
        {
          "bid": 4587,
          "id": 49,
          "price": 3288,
          "cost": 459,
          "direct_dist": 15292,
          "direct_cost": 459,
          "direct_time": 952
        },
        {
          "bid": 2508,
          "id": 14,
          "price": 551,
          "cost": 303,
          "direct_dist": 10100,
          "direct_cost": 303,
          "direct_time": 657
        },
        {
          "bid": 1742,
          "id": 11,
          "price": 1279,
          "cost": 175,
          "direct_dist": 5809,
          "direct_cost": 175,
          "direct_time": 432
        }
      ],
      "cost": 542,
      "virtual_welfare": 8295
    },
    "profit": 4576,
    "cost_profit": 395.0,
    "welfare": 8295,
    "virtual_welfare": 8295,
    "running_time": 129
  },
  {
    "graph_name": "50_43",
    "n_pass": 3,
    "winning_ride": {
      "driver": {
        "arrive_until": 2400,
        "direct_cost": 429
      },
      "passengers": [
        {
          "bid": 4025,
          "id": 36,
          "price": 2350,
          "cost": 403,
          "direct_dist": 13419,
          "direct_cost": 403,
          "direct_time": 805
        },
        {
          "bid": 1251,
          "id": 26,
          "price": 154,
          "cost": 126,
          "direct_dist": 4173,
          "direct_cost": 126,
          "direct_time": 258
        },
        {
          "bid": 4260,
          "id": 2,
          "price": 2416,
          "cost": 427,
          "direct_dist": 14202,
          "direct_cost": 427,
          "direct_time": 950
        }
      ],
      "cost": 542,
      "virtual_welfare": 8994
    },
    "profit": 4378,
    "cost_profit": 414.0,
    "welfare": 8994,
    "virtual_welfare": 8994,
    "running_time": 108
  },
  {
    "graph_name": "50_44",
    "n_pass": 3,
    "winning_ride": {
      "driver": {
        "arrive_until": 2400,
        "direct_cost": 474
      },
      "passengers": [
        {
          "bid": 4643,
          "id": 44,
          "price": 3521,
          "cost": 501,
          "direct_dist": 16696,
          "direct_cost": 501,
          "direct_time": 1099
        },
        {
          "bid": 726,
          "id": 27,
          "price": 73,
          "cost": 73,
          "direct_dist": 2420,
          "direct_cost": 73,
          "direct_time": 209
        },
        {
          "bid": 4208,
          "id": 23,
          "price": 3546,
          "cost": 452,
          "direct_dist": 15036,
          "direct_cost": 452,
          "direct_time": 947
        }
      ],
      "cost": 547,
      "virtual_welfare": 9030
    },
    "profit": 6593,
    "cost_profit": 479.0,
    "welfare": 9030,
    "virtual_welfare": 9030,
    "running_time": 14
  },
  {
    "graph_name": "50_45",
    "n_pass": 2,
    "winning_ride": {
      "driver": {
        "arrive_until": 2400,
        "direct_cost": 552
      },
      "passengers": [
        {
          "bid": 3346,
          "id": 27,
          "price": 3225,
          "cost": 335,
          "direct_dist": 11156,
          "direct_cost": 335,
          "direct_time": 746
        },
        {
          "bid": 2597,
          "id": 18,
          "price": 2476,
          "cost": 260,
          "direct_dist": 8659,
          "direct_cost": 260,
          "direct_time": 569
        }
      ],
      "cost": 322,
      "virtual_welfare": 5621
    },
    "profit": 5379,
    "cost_profit": 273.0,
    "welfare": 5621,
    "virtual_welfare": 5621,
    "running_time": 14
  },
  {
    "graph_name": "50_46",
    "n_pass": 2,
    "winning_ride": {
      "driver": {
        "arrive_until": 2400,
        "direct_cost": 479
      },
      "passengers": [
        {
          "bid": 3522,
          "id": 44,
          "price": 2722,
          "cost": 408,
          "direct_dist": 13592,
          "direct_cost": 408,
          "direct_time": 897
        },
        {
          "bid": 2900,
          "id": 18,
          "price": 2433,
          "cost": 387,
          "direct_dist": 12892,
          "direct_cost": 387,
          "direct_time": 789
        }
      ],
      "cost": 559,
      "virtual_welfare": 5863
    },
    "profit": 4596,
    "cost_profit": 236.0,
    "welfare": 5863,
    "virtual_welfare": 5863,
    "running_time": 23
  },
  {
    "graph_name": "50_47",
    "n_pass": 2,
    "winning_ride": {
      "driver": {
        "arrive_until": 2400,
        "direct_cost": 539
      },
      "passengers": [
        {
          "bid": 2895,
          "id": 49,
          "price": 2678,
          "cost": 290,
          "direct_dist": 9653,
          "direct_cost": 290,
          "direct_time": 701
        },
        {
          "bid": 3225,
          "id": 12,
          "price": 3000,
          "cost": 323,
          "direct_dist": 10753,
          "direct_cost": 323,
          "direct_time": 727
        }
      ],
      "cost": 89,
      "virtual_welfare": 6031
    },
    "profit": 5589,
    "cost_profit": 524.0,
    "welfare": 6031,
    "virtual_welfare": 6031,
    "running_time": 30
  },
  {
    "graph_name": "50_48",
    "n_pass": 3,
    "winning_ride": {
      "driver": {
        "arrive_until": 2400,
        "direct_cost": 349
      },
      "passengers": [
        {
          "bid": 454,
          "id": 40,
          "price": 46,
          "cost": 46,
          "direct_dist": 1514,
          "direct_cost": 46,
          "direct_time": 141
        },
        {
          "bid": 4405,
          "id": 29,
          "price": 529,
          "cost": 529,
          "direct_dist": 17621,
          "direct_cost": 529,
          "direct_time": 1130
        },
        {
          "bid": 5334,
          "id": 5,
          "price": 1748,
          "cost": 553,
          "direct_dist": 18414,
          "direct_cost": 553,
          "direct_time": 1203
        }
      ],
      "cost": 582,
      "virtual_welfare": 9611
    },
    "profit": 1741,
    "cost_profit": 546.0,
    "welfare": 9611,
    "virtual_welfare": 9611,
    "running_time": 82
  },
  {
    "graph_name": "50_49",
    "n_pass": 2,
    "winning_ride": {
      "driver": {
        "arrive_until": 2400,
        "direct_cost": 442
      },
      "passengers": [
        {
          "bid": 3073,
          "id": 42,
          "price": 2954,
          "cost": 443,
          "direct_dist": 14740,
          "direct_cost": 443,
          "direct_time": 965
        },
        {
          "bid": 3306,
          "id": 16,
          "price": 3129,
          "cost": 331,
          "direct_dist": 11021,
          "direct_cost": 331,
          "direct_time": 718
        }
      ],
      "cost": 484,
      "virtual_welfare": 5895
    },
    "profit": 5599,
    "cost_profit": 290.0,
    "welfare": 5895,
    "virtual_welfare": 5895,
    "running_time": 47
  },
  {
    "graph_name": "50_5",
    "n_pass": 2,
    "winning_ride": {
      "driver": {
        "arrive_until": 2400,
        "direct_cost": 487
      },
      "passengers": [
        {
          "bid": 4529,
          "id": 50,
          "price": 4483,
          "cost": 474,
          "direct_dist": 15787,
          "direct_cost": 474,
          "direct_time": 1088
        },
        {
          "bid": 4393,
          "id": 45,
          "price": 4388,
          "cost": 440,
          "direct_dist": 14645,
          "direct_cost": 440,
          "direct_time": 1000
        }
      ],
      "cost": 506,
      "virtual_welfare": 8416
    },
    "profit": 8365,
    "cost_profit": 408.0,
    "welfare": 8416,
    "virtual_welfare": 8416,
    "running_time": 14
  },
  {
    "graph_name": "50_50",
    "n_pass": 2,
    "winning_ride": {
      "driver": {
        "arrive_until": 2400,
        "direct_cost": 396
      },
      "passengers": [
        {
          "bid": 4950,
          "id": 12,
          "price": 2911,
          "cost": 496,
          "direct_dist": 16501,
          "direct_cost": 496,
          "direct_time": 1035
        },
        {
          "bid": 3115,
          "id": 5,
          "price": 1933,
          "cost": 312,
          "direct_dist": 10385,
          "direct_cost": 312,
          "direct_time": 656
        }
      ],
      "cost": 538,
      "virtual_welfare": 7527
    },
    "profit": 4306,
    "cost_profit": 270.0,
    "welfare": 7527,
    "virtual_welfare": 7527,
    "running_time": 101
  },
  {
    "graph_name": "50_51",
    "n_pass": 2,
    "winning_ride": {
      "driver": {
        "arrive_until": 2400,
        "direct_cost": 411
      },
      "passengers": [
        {
          "bid": 4903,
          "id": 16,
          "price": 4877,
          "cost": 491,
          "direct_dist": 16346,
          "direct_cost": 491,
          "direct_time": 1054
        },
        {
          "bid": 591,
          "id": 9,
          "price": 369,
          "cost": 60,
          "direct_dist": 1971,
          "direct_cost": 60,
          "direct_time": 172
        }
      ],
      "cost": 524,
      "virtual_welfare": 4970
    },
    "profit": 4722,
    "cost_profit": 27.0,
    "welfare": 4970,
    "virtual_welfare": 4970,
    "running_time": 157
  },
  {
    "graph_name": "50_52",
    "n_pass": 2,
    "winning_ride": {
      "driver": {
        "arrive_until": 2400,
        "direct_cost": 469
      },
      "passengers": [
        {
          "bid": 3977,
          "id": 16,
          "price": 3132,
          "cost": 398,
          "direct_dist": 13258,
          "direct_cost": 398,
          "direct_time": 842
        },
        {
          "bid": 3810,
          "id": 13,
          "price": 3098,
          "cost": 382,
          "direct_dist": 12703,
          "direct_cost": 382,
          "direct_time": 781
        }
      ],
      "cost": 514,
      "virtual_welfare": 7273
    },
    "profit": 5716,
    "cost_profit": 266.0,
    "welfare": 7273,
    "virtual_welfare": 7273,
    "running_time": 74
  },
  {
    "graph_name": "50_53",
    "n_pass": 2,
    "winning_ride": {
      "driver": {
        "arrive_until": 2400,
        "direct_cost": 519
      },
      "passengers": [
        {
          "bid": 3821,
          "id": 7,
          "price": 3538,
          "cost": 383,
          "direct_dist": 12737,
          "direct_cost": 383,
          "direct_time": 930
        },
        {
          "bid": 3514,
          "id": 4,
          "price": 3448,
          "cost": 382,
          "direct_dist": 12731,
          "direct_cost": 382,
          "direct_time": 857
        }
      ],
      "cost": 120,
      "virtual_welfare": 7215
    },
    "profit": 6866,
    "cost_profit": 645.0,
    "welfare": 7215,
    "virtual_welfare": 7215,
    "running_time": 106
  },
  {
    "graph_name": "50_54",
    "n_pass": 2,
    "winning_ride": {
      "driver": {
        "arrive_until": 2400,
        "direct_cost": 400
      },
      "passengers": [
        {
          "bid": 3597,
          "id": 33,
          "price": 2794,
          "cost": 360,
          "direct_dist": 11992,
          "direct_cost": 360,
          "direct_time": 814
        },
        {
          "bid": 4002,
          "id": 32,
          "price": 2698,
          "cost": 401,
          "direct_dist": 13340,
          "direct_cost": 401,
          "direct_time": 833
        }
      ],
      "cost": 389,
      "virtual_welfare": 7210
    },
    "profit": 5103,
    "cost_profit": 372.0,
    "welfare": 7210,
    "virtual_welfare": 7210,
    "running_time": 49
  },
  {
    "graph_name": "50_55",
    "n_pass": 2,
    "winning_ride": {
      "driver": {
        "arrive_until": 2400,
        "direct_cost": 431
      },
      "passengers": [
        {
          "bid": 4511,
          "id": 42,
          "price": 4080,
          "cost": 452,
          "direct_dist": 15038,
          "direct_cost": 452,
          "direct_time": 1047
        },
        {
          "bid": 5505,
          "id": 12,
          "price": 4162,
          "cost": 551,
          "direct_dist": 18351,
          "direct_cost": 551,
          "direct_time": 1176
        }
      ],
      "cost": 515,
      "virtual_welfare": 9501
    },
    "profit": 7727,
    "cost_profit": 488.0,
    "welfare": 9501,
    "virtual_welfare": 9501,
    "running_time": 13
  },
  {
    "graph_name": "50_56",
    "n_pass": 3,
    "winning_ride": {
      "driver": {
        "arrive_until": 2400,
        "direct_cost": 376
      },
      "passengers": [
        {
          "bid": 1887,
          "id": 40,
          "price": 1547,
          "cost": 189,
          "direct_dist": 6291,
          "direct_cost": 189,
          "direct_time": 586
        },
        {
          "bid": 1053,
          "id": 22,
          "price": 906,
          "cost": 106,
          "direct_dist": 3511,
          "direct_cost": 106,
          "direct_time": 301
        },
        {
          "bid": 2788,
          "id": 12,
          "price": 2167,
          "cost": 279,
          "direct_dist": 9295,
          "direct_cost": 279,
          "direct_time": 641
        }
      ],
      "cost": 453,
      "virtual_welfare": 5275
    },
    "profit": 4167,
    "cost_profit": 121.0,
    "welfare": 5275,
    "virtual_welfare": 5275,
    "running_time": 72
  },
  {
    "graph_name": "50_57",
    "n_pass": 2,
    "winning_ride": {
      "driver": {
        "arrive_until": 2400,
        "direct_cost": 358
      },
      "passengers": [
        {
          "bid": 4083,
          "id": 43,
          "price": 3265,
          "cost": 580,
          "direct_dist": 19307,
          "direct_cost": 580,
          "direct_time": 1222
        },
        {
          "bid": 3095,
          "id": 40,
          "price": 2277,
          "cost": 335,
          "direct_dist": 11165,
          "direct_cost": 335,
          "direct_time": 731
        }
      ],
      "cost": 655,
      "virtual_welfare": 6523
    },
    "profit": 4887,
    "cost_profit": 260.0,
    "welfare": 6523,
    "virtual_welfare": 6523,
    "running_time": 20
  },
  {
    "graph_name": "50_58",
    "n_pass": 2,
    "winning_ride": {
      "driver": {
        "arrive_until": 2400,
        "direct_cost": 510
      },
      "passengers": [
        {
          "bid": 5216,
          "id": 19,
          "price": 3937,
          "cost": 522,
          "direct_dist": 17389,
          "direct_cost": 522,
          "direct_time": 1096
        },
        {
          "bid": 3080,
          "id": 18,
          "price": 2557,
          "cost": 398,
          "direct_dist": 13266,
          "direct_cost": 398,
          "direct_time": 860
        }
      ],
      "cost": 510,
      "virtual_welfare": 7786
    },
    "profit": 5984,
    "cost_profit": 410.0,
    "welfare": 7786,
    "virtual_welfare": 7786,
    "running_time": 26
  },
  {
    "graph_name": "50_59",
    "n_pass": 3,
    "winning_ride": {
      "driver": {
        "arrive_until": 2400,
        "direct_cost": 361
      },
      "passengers": [
        {
          "bid": 558,
          "id": 38,
          "price": 192,
          "cost": 168,
          "direct_dist": 5587,
          "direct_cost": 168,
          "direct_time": 384
        },
        {
          "bid": 2521,
          "id": 20,
          "price": 2155,
          "cost": 254,
          "direct_dist": 8443,
          "direct_cost": 254,
          "direct_time": 616
        },
        {
          "bid": 2577,
          "id": 10,
          "price": 2211,
          "cost": 258,
          "direct_dist": 8592,
          "direct_cost": 258,
          "direct_time": 533
        }
      ],
      "cost": 522,
      "virtual_welfare": 5134
    },
    "profit": 4036,
    "cost_profit": 158.0,
    "welfare": 5134,
    "virtual_welfare": 5134,
    "running_time": 434
  },
  {
    "graph_name": "50_6",
    "n_pass": 2,
    "winning_ride": {
      "driver": {
        "arrive_until": 2400,
        "direct_cost": 428
      },
      "passengers": [
        {
          "bid": 4972,
          "id": 50,
          "price": 3798,
          "cost": 498,
          "direct_dist": 16576,
          "direct_cost": 498,
          "direct_time": 1116
        },
        {
          "bid": 4359,
          "id": 28,
          "price": 4050,
          "cost": 436,
          "direct_dist": 14533,
          "direct_cost": 436,
          "direct_time": 1025
        }
      ],
      "cost": 383,
      "virtual_welfare": 8948
    },
    "profit": 7465,
    "cost_profit": 551.0,
    "welfare": 8948,
    "virtual_welfare": 8948,
    "running_time": 142
  },
  {
    "graph_name": "50_60",
    "n_pass": 3,
    "winning_ride": {
      "driver": {
        "arrive_until": 2400,
        "direct_cost": 523
      },
      "passengers": [
        {
          "bid": 2489,
          "id": 50,
          "price": 2146,
          "cost": 355,
          "direct_dist": 11819,
          "direct_cost": 355,
          "direct_time": 802
        },
        {
          "bid": 4990,
          "id": 37,
          "price": 3392,
          "cost": 500,
          "direct_dist": 16636,
          "direct_cost": 500,
          "direct_time": 1027
        },
        {
          "bid": 1433,
          "id": 34,
          "price": 1090,
          "cost": 144,
          "direct_dist": 4778,
          "direct_cost": 144,
          "direct_time": 335
        }
      ],
      "cost": 328,
      "virtual_welfare": 8584
    },
    "profit": 6300,
    "cost_profit": 671.0,
    "welfare": 8584,
    "virtual_welfare": 8584,
    "running_time": 30
  },
  {
    "graph_name": "50_61",
    "n_pass": 2,
    "winning_ride": {
      "driver": {
        "arrive_until": 2400,
        "direct_cost": 446
      },
      "passengers": [
        {
          "bid": 5403,
          "id": 38,
          "price": 5188,
          "cost": 541,
          "direct_dist": 18012,
          "direct_cost": 541,
          "direct_time": 1174
        },
        {
          "bid": 1306,
          "id": 26,
          "price": 1091,
          "cost": 273,
          "direct_dist": 9070,
          "direct_cost": 273,
          "direct_time": 578
        }
      ],
      "cost": 568,
      "virtual_welfare": 6141
    },
    "profit": 5711,
    "cost_profit": 246.0,
    "welfare": 6141,
    "virtual_welfare": 6141,
    "running_time": 20
  },
  {
    "graph_name": "50_62",
    "n_pass": 2,
    "winning_ride": {
      "driver": {
        "arrive_until": 2400,
        "direct_cost": 466
      },
      "passengers": [
        {
          "bid": 3651,
          "id": 40,
          "price": 3488,
          "cost": 366,
          "direct_dist": 12172,
          "direct_cost": 366,
          "direct_time": 806
        },
        {
          "bid": 4081,
          "id": 38,
          "price": 3918,
          "cost": 409,
          "direct_dist": 13606,
          "direct_cost": 409,
          "direct_time": 854
        }
      ],
      "cost": 547,
      "virtual_welfare": 7185
    },
    "profit": 6859,
    "cost_profit": 228.0,
    "welfare": 7185,
    "virtual_welfare": 7185,
    "running_time": 17
  },
  {
    "graph_name": "50_63",
    "n_pass": 3,
    "winning_ride": {
      "driver": {
        "arrive_until": 2400,
        "direct_cost": 462
      },
      "passengers": [
        {
          "bid": 790,
          "id": 23,
          "price": 389,
          "cost": 80,
          "direct_dist": 2634,
          "direct_cost": 80,
          "direct_time": 200
        },
        {
          "bid": 4113,
          "id": 15,
          "price": 3662,
          "cost": 412,
          "direct_dist": 13713,
          "direct_cost": 412,
          "direct_time": 865
        },
        {
          "bid": 3016,
          "id": 11,
          "price": 2664,
          "cost": 302,
          "direct_dist": 10056,
          "direct_cost": 302,
          "direct_time": 654
        }
      ],
      "cost": 591,
      "virtual_welfare": 7328
    },
    "profit": 6124,
    "cost_profit": 203.0,
    "welfare": 7328,
    "virtual_welfare": 7328,
    "running_time": 33
  },
  {
    "graph_name": "50_64",
    "n_pass": 2,
    "winning_ride": {
      "driver": {
        "arrive_until": 2400,
        "direct_cost": 507
      },
      "passengers": [
        {
          "bid": 5044,
          "id": 38,
          "price": 2874,
          "cost": 505,
          "direct_dist": 16815,
          "direct_cost": 505,
          "direct_time": 1077
        },
        {
          "bid": 4692,
          "id": 7,
          "price": 2339,
          "cost": 470,
          "direct_dist": 15641,
          "direct_cost": 470,
          "direct_time": 1023
        }
      ],
      "cost": 528,
      "virtual_welfare": 9208
    },
    "profit": 4685,
    "cost_profit": 447.0,
    "welfare": 9208,
    "virtual_welfare": 9208,
    "running_time": 17
  },
  {
    "graph_name": "50_65",
    "n_pass": 2,
    "winning_ride": {
      "driver": {
        "arrive_until": 2400,
        "direct_cost": 455
      },
      "passengers": [
        {
          "bid": 5315,
          "id": 36,
          "price": 4484,
          "cost": 532,
          "direct_dist": 17719,
          "direct_cost": 532,
          "direct_time": 1155
        },
        {
          "bid": 5566,
          "id": 22,
          "price": 4396,
          "cost": 557,
          "direct_dist": 18555,
          "direct_cost": 557,
          "direct_time": 1247
        }
      ],
      "cost": 522,
      "virtual_welfare": 10359
    },
    "profit": 8358,
    "cost_profit": 567.0,
    "welfare": 10359,
    "virtual_welfare": 10359,
    "running_time": 38
  },
  {
    "graph_name": "50_66",
    "n_pass": 2,
    "winning_ride": {
      "driver": {
        "arrive_until": 2400,
        "direct_cost": 471
      },
      "passengers": [
        {
          "bid": 2924,
          "id": 48,
          "price": 2567,
          "cost": 293,
          "direct_dist": 9749,
          "direct_cost": 293,
          "direct_time": 728
        },
        {
          "bid": 2726,
          "id": 7,
          "price": 2361,
          "cost": 418,
          "direct_dist": 13931,
          "direct_cost": 418,
          "direct_time": 872
        }
      ],
      "cost": 325,
      "virtual_welfare": 5325
    },
    "profit": 4603,
    "cost_profit": 386.0,
    "welfare": 5325,
    "virtual_welfare": 5325,
    "running_time": 241
  },
  {
    "graph_name": "50_67",
    "n_pass": 2,
    "winning_ride": {
      "driver": {
        "arrive_until": 2400,
        "direct_cost": 493
      },
      "passengers": [
        {
          "bid": 3730,
          "id": 26,
          "price": 3475,
          "cost": 517,
          "direct_dist": 17213,
          "direct_cost": 517,
          "direct_time": 1178
        },
        {
          "bid": 4825,
          "id": 18,
          "price": 3504,
          "cost": 483,
          "direct_dist": 16086,
          "direct_cost": 483,
          "direct_time": 1005
        }
      ],
      "cost": 474,
      "virtual_welfare": 8081
    },
    "profit": 6505,
    "cost_profit": 526.0,
    "welfare": 8081,
    "virtual_welfare": 8081,
    "running_time": 65
  },
  {
    "graph_name": "50_68",
    "n_pass": 2,
    "winning_ride": {
      "driver": {
        "arrive_until": 2400,
        "direct_cost": 408
      },
      "passengers": [
        {
          "bid": 1180,
          "id": 42,
          "price": 831,
          "cost": 165,
          "direct_dist": 5478,
          "direct_cost": 165,
          "direct_time": 375
        },
        {
          "bid": 5857,
          "id": 41,
          "price": 5508,
          "cost": 586,
          "direct_dist": 19526,
          "direct_cost": 586,
          "direct_time": 1337
        }
      ],
      "cost": 603,
      "virtual_welfare": 6434
    },
    "profit": 5736,
    "cost_profit": 148.0,
    "welfare": 6434,
    "virtual_welfare": 6434,
    "running_time": 23
  },
  {
    "graph_name": "50_69",
    "n_pass": 2,
    "winning_ride": {
      "driver": {
        "arrive_until": 2400,
        "direct_cost": 458
      },
      "passengers": [
        {
          "bid": 4740,
          "id": 36,
          "price": 4223,
          "cost": 475,
          "direct_dist": 15803,
          "direct_cost": 475,
          "direct_time": 1071
        },
        {
          "bid": 4333,
          "id": 3,
          "price": 3968,
          "cost": 434,
          "direct_dist": 14444,
          "direct_cost": 434,
          "direct_time": 985
        }
      ],
      "cost": 342,
      "virtual_welfare": 8731
    },
    "profit": 7849,
    "cost_profit": 567.0,
    "welfare": 8731,
    "virtual_welfare": 8731,
    "running_time": 17
  },
  {
    "graph_name": "50_7",
    "n_pass": 2,
    "winning_ride": {
      "driver": {
        "arrive_until": 2400,
        "direct_cost": 428
      },
      "passengers": [
        {
          "bid": 3843,
          "id": 46,
          "price": 2811,
          "cost": 385,
          "direct_dist": 12812,
          "direct_cost": 385,
          "direct_time": 839
        },
        {
          "bid": 4315,
          "id": 4,
          "price": 2974,
          "cost": 432,
          "direct_dist": 14386,
          "direct_cost": 432,
          "direct_time": 897
        }
      ],
      "cost": 392,
      "virtual_welfare": 7766
    },
    "profit": 5393,
    "cost_profit": 425.0,
    "welfare": 7766,
    "virtual_welfare": 7766,
    "running_time": 115
  },
  {
    "graph_name": "50_70",
    "n_pass": 2,
    "winning_ride": {
      "driver": {
        "arrive_until": 2400,
        "direct_cost": 553
      },
      "passengers": [
        {
          "bid": 4410,
          "id": 31,
          "price": 3837,
          "cost": 442,
          "direct_dist": 14703,
          "direct_cost": 442,
          "direct_time": 1102
        },
        {
          "bid": 4950,
          "id": 16,
          "price": 3927,
          "cost": 496,
          "direct_dist": 16502,
          "direct_cost": 496,
          "direct_time": 1066
        }
      ],
      "cost": 366,
      "virtual_welfare": 8994
    },
    "profit": 7398,
    "cost_profit": 572.0,
    "welfare": 8994,
    "virtual_welfare": 8994,
    "running_time": 12
  },
  {
    "graph_name": "50_71",
    "n_pass": 2,
    "winning_ride": {
      "driver": {
        "arrive_until": 2400,
        "direct_cost": 435
      },
      "passengers": [
        {
          "bid": 4782,
          "id": 47,
          "price": 2547,
          "cost": 479,
          "direct_dist": 15940,
          "direct_cost": 479,
          "direct_time": 1009
        },
        {
          "bid": 2643,
          "id": 22,
          "price": 2258,
          "cost": 520,
          "direct_dist": 17329,
          "direct_cost": 520,
          "direct_time": 1143
        }
      ],
      "cost": 501,
      "virtual_welfare": 6924
    },
    "profit": 4304,
    "cost_profit": 498.0,
    "welfare": 6924,
    "virtual_welfare": 6924,
    "running_time": 121
  },
  {
    "graph_name": "50_72",
    "n_pass": 2,
    "winning_ride": {
      "driver": {
        "arrive_until": 2400,
        "direct_cost": 493
      },
      "passengers": [
        {
          "bid": 4898,
          "id": 34,
          "price": 2719,
          "cost": 541,
          "direct_dist": 18020,
          "direct_cost": 541,
          "direct_time": 1298
        },
        {
          "bid": 3087,
          "id": 30,
          "price": 2556,
          "cost": 393,
          "direct_dist": 13090,
          "direct_cost": 393,
          "direct_time": 982
        }
      ],
      "cost": 511,
      "virtual_welfare": 7474
    },
    "profit": 4764,
    "cost_profit": 423.0,
    "welfare": 7474,
    "virtual_welfare": 7474,
    "running_time": 19
  },
  {
    "graph_name": "50_73",
    "n_pass": 2,
    "winning_ride": {
      "driver": {
        "arrive_until": 2400,
        "direct_cost": 394
      },
      "passengers": [
        {
          "bid": 2988,
          "id": 24,
          "price": 2464,
          "cost": 299,
          "direct_dist": 9962,
          "direct_cost": 299,
          "direct_time": 751
        },
        {
          "bid": 3416,
          "id": 1,
          "price": 2561,
          "cost": 608,
          "direct_dist": 20246,
          "direct_cost": 608,
          "direct_time": 1259
        }
      ],
      "cost": 603,
      "virtual_welfare": 5801
    },
    "profit": 4422,
    "cost_profit": 304.0,
    "welfare": 5801,
    "virtual_welfare": 5801,
    "running_time": 146
  },
  {
    "graph_name": "50_74",
    "n_pass": 2,
    "winning_ride": {
      "driver": {
        "arrive_until": 2400,
        "direct_cost": 449
      },
      "passengers": [
        {
          "bid": 3283,
          "id": 18,
          "price": 3191,
          "cost": 387,
          "direct_dist": 12887,
          "direct_cost": 387,
          "direct_time": 840
        },
        {
          "bid": 4599,
          "id": 2,
          "price": 4507,
          "cost": 460,
          "direct_dist": 15331,
          "direct_cost": 460,
          "direct_time": 926
        }
      ],
      "cost": 428,
      "virtual_welfare": 7454
    },
    "profit": 7270,
    "cost_profit": 419.0,
    "welfare": 7454,
    "virtual_welfare": 7454,
    "running_time": 48
  },
  {
    "graph_name": "50_75",
    "n_pass": 2,
    "winning_ride": {
      "driver": {
        "arrive_until": 2400,
        "direct_cost": 417
      },
      "passengers": [
        {
          "bid": 4612,
          "id": 30,
          "price": 3975,
          "cost": 462,
          "direct_dist": 15375,
          "direct_cost": 462,
          "direct_time": 960
        },
        {
          "bid": 3088,
          "id": 17,
          "price": 2890,
          "cost": 309,
          "direct_dist": 10296,
          "direct_cost": 309,
          "direct_time": 627
        }
      ],
      "cost": 438,
      "virtual_welfare": 7262
    },
    "profit": 6427,
    "cost_profit": 333.0,
    "welfare": 7262,
    "virtual_welfare": 7262,
    "running_time": 31
  },
  {
    "graph_name": "50_76",
    "n_pass": 2,
    "winning_ride": {
      "driver": {
        "arrive_until": 2400,
        "direct_cost": 511
      },
      "passengers": [
        {
          "bid": 2419,
          "id": 50,
          "price": 2163,
          "cost": 242,
          "direct_dist": 8064,
          "direct_cost": 242,
          "direct_time": 574
        },
        {
          "bid": 2584,
          "id": 36,
          "price": 2328,
          "cost": 407,
          "direct_dist": 13554,
          "direct_cost": 407,
          "direct_time": 1053
        }
      ],
      "cost": 474,
      "virtual_welfare": 4529
    },
    "profit": 4017,
    "cost_profit": 175.0,
    "welfare": 4529,
    "virtual_welfare": 4529,
    "running_time": 193
  },
  {
    "graph_name": "50_77",
    "n_pass": 2,
    "winning_ride": {
      "driver": {
        "arrive_until": 2400,
        "direct_cost": 471
      },
      "passengers": [
        {
          "bid": 3016,
          "id": 36,
          "price": 2043,
          "cost": 315,
          "direct_dist": 10471,
          "direct_cost": 315,
          "direct_time": 822
        },
        {
          "bid": 4400,
          "id": 13,
          "price": 2118,
          "cost": 441,
          "direct_dist": 14669,
          "direct_cost": 441,
          "direct_time": 950
        }
      ],
      "cost": 225,
      "virtual_welfare": 7191
    },
    "profit": 3936,
    "cost_profit": 531.0,
    "welfare": 7191,
    "virtual_welfare": 7191,
    "running_time": 18
  },
  {
    "graph_name": "50_78",
    "n_pass": 2,
    "winning_ride": {
      "driver": {
        "arrive_until": 2400,
        "direct_cost": 507
      },
      "passengers": [
        {
          "bid": 3081,
          "id": 45,
          "price": 2013,
          "cost": 309,
          "direct_dist": 10272,
          "direct_cost": 309,
          "direct_time": 657
        },
        {
          "bid": 2253,
          "id": 23,
          "price": 1257,
          "cost": 234,
          "direct_dist": 7796,
          "direct_cost": 234,
          "direct_time": 571
        }
      ],
      "cost": 354,
      "virtual_welfare": 4980
    },
    "profit": 2916,
    "cost_profit": 189.0,
    "welfare": 4980,
    "virtual_welfare": 4980,
    "running_time": 56
  },
  {
    "graph_name": "50_79",
    "n_pass": 2,
    "winning_ride": {
      "driver": {
        "arrive_until": 2400,
        "direct_cost": 460
      },
      "passengers": [
        {
          "bid": 3996,
          "id": 27,
          "price": 3569,
          "cost": 400,
          "direct_dist": 13323,
          "direct_cost": 400,
          "direct_time": 796
        },
        {
          "bid": 3486,
          "id": 26,
          "price": 2936,
          "cost": 349,
          "direct_dist": 11620,
          "direct_cost": 349,
          "direct_time": 767
        }
      ],
      "cost": 418,
      "virtual_welfare": 7064
    },
    "profit": 6087,
    "cost_profit": 331.0,
    "welfare": 7064,
    "virtual_welfare": 7064,
    "running_time": 65
  },
  {
    "graph_name": "50_8",
    "n_pass": 2,
    "winning_ride": {
      "driver": {
        "arrive_until": 2400,
        "direct_cost": 413
      },
      "passengers": [
        {
          "bid": 2528,
          "id": 50,
          "price": 1647,
          "cost": 330,
          "direct_dist": 10998,
          "direct_cost": 330,
          "direct_time": 729
        },
        {
          "bid": 3131,
          "id": 21,
          "price": 2249,
          "cost": 314,
          "direct_dist": 10438,
          "direct_cost": 314,
          "direct_time": 669
        }
      ],
      "cost": 513,
      "virtual_welfare": 5146
    },
    "profit": 3383,
    "cost_profit": 131.0,
    "welfare": 5146,
    "virtual_welfare": 5146,
    "running_time": 43
  },
  {
    "graph_name": "50_80",
    "n_pass": 2,
    "winning_ride": {
      "driver": {
        "arrive_until": 2400,
        "direct_cost": 470
      },
      "passengers": [
        {
          "bid": 4962,
          "id": 36,
          "price": 4438,
          "cost": 577,
          "direct_dist": 19223,
          "direct_cost": 577,
          "direct_time": 1167
        },
        {
          "bid": 2984,
          "id": 27,
          "price": 2460,
          "cost": 299,
          "direct_dist": 9949,
          "direct_cost": 299,
          "direct_time": 635
        }
      ],
      "cost": 577,
      "virtual_welfare": 7369
    },
    "profit": 6321,
    "cost_profit": 299.0,
    "welfare": 7369,
    "virtual_welfare": 7369,
    "running_time": 50
  },
  {
    "graph_name": "50_81",
    "n_pass": 2,
    "winning_ride": {
      "driver": {
        "arrive_until": 2400,
        "direct_cost": 498
      },
      "passengers": [
        {
          "bid": 3939,
          "id": 22,
          "price": 3239,
          "cost": 394,
          "direct_dist": 13132,
          "direct_cost": 394,
          "direct_time": 862
        },
        {
          "bid": 5186,
          "id": 1,
          "price": 4787,
          "cost": 519,
          "direct_dist": 17287,
          "direct_cost": 519,
          "direct_time": 1095
        }
      ],
      "cost": 433,
      "virtual_welfare": 8692
    },
    "profit": 7593,
    "cost_profit": 480.0,
    "welfare": 8692,
    "virtual_welfare": 8692,
    "running_time": 23
  },
  {
    "graph_name": "50_82",
    "n_pass": 3,
    "winning_ride": {
      "driver": {
        "arrive_until": 2400,
        "direct_cost": 436
      },
      "passengers": [
        {
          "bid": 4128,
          "id": 47,
          "price": 2671,
          "cost": 413,
          "direct_dist": 13760,
          "direct_cost": 413,
          "direct_time": 896
        },
        {
          "bid": 4572,
          "id": 39,
          "price": 2687,
          "cost": 458,
          "direct_dist": 15243,
          "direct_cost": 458,
          "direct_time": 974
        },
        {
          "bid": 1537,
          "id": 2,
          "price": 200,
          "cost": 200,
          "direct_dist": 6652,
          "direct_cost": 200,
          "direct_time": 403
        }
      ],
      "cost": 537,
      "virtual_welfare": 9700
    },
    "profit": 5021,
    "cost_profit": 534.0,
    "welfare": 9700,
    "virtual_welfare": 9700,
    "running_time": 30
  },
  {
    "graph_name": "50_83",
    "n_pass": 3,
    "winning_ride": {
      "driver": {
        "arrive_until": 2400,
        "direct_cost": 378
      },
      "passengers": [
        {
          "bid": 2207,
          "id": 50,
          "price": 2020,
          "cost": 221,
          "direct_dist": 7359,
          "direct_cost": 221,
          "direct_time": 527
        },
        {
          "bid": 2837,
          "id": 24,
          "price": 2731,
          "cost": 353,
          "direct_dist": 11759,
          "direct_cost": 353,
          "direct_time": 711
        },
        {
          "bid": 1833,
          "id": 17,
          "price": 1727,
          "cost": 184,
          "direct_dist": 6111,
          "direct_cost": 184,
          "direct_time": 391
        }
      ],
      "cost": 575,
      "virtual_welfare": 6302
    },
    "profit": 5903,
    "cost_profit": 183.0,
    "welfare": 6302,
    "virtual_welfare": 6302,
    "running_time": 24
  },
  {
    "graph_name": "50_84",
    "n_pass": 2,
    "winning_ride": {
      "driver": {
        "arrive_until": 2400,
        "direct_cost": 467
      },
      "passengers": [
        {
          "bid": 3960,
          "id": 18,
          "price": 3934,
          "cost": 408,
          "direct_dist": 13589,
          "direct_cost": 408,
          "direct_time": 854
        },
        {
          "bid": 2542,
          "id": 12,
          "price": 2516,
          "cost": 372,
          "direct_dist": 12383,
          "direct_cost": 372,
          "direct_time": 858
        }
      ],
      "cost": 436,
      "virtual_welfare": 6066
    },
    "profit": 6014,
    "cost_profit": 344.0,
    "welfare": 6066,
    "virtual_welfare": 6066,
    "running_time": 43
  },
  {
    "graph_name": "50_85",
    "n_pass": 3,
    "winning_ride": {
      "driver": {
        "arrive_until": 2400,
        "direct_cost": 428
      },
      "passengers": [
        {
          "bid": 3078,
          "id": 43,
          "price": 1992,
          "cost": 339,
          "direct_dist": 11272,
          "direct_cost": 339,
          "direct_time": 733
        },
        {
          "bid": 286,
          "id": 13,
          "price": 238,
          "cost": 67,
          "direct_dist": 2216,
          "direct_cost": 67,
          "direct_time": 163
        },
        {
          "bid": 3082,
          "id": 10,
          "price": 3034,
          "cost": 309,
          "direct_dist": 10275,
          "direct_cost": 309,
          "direct_time": 749
        }
      ],
      "cost": 271,
      "virtual_welfare": 6175
    },
    "profit": 4993,
    "cost_profit": 444.0,
    "welfare": 6175,
    "virtual_welfare": 6175,
    "running_time": 102
  },
  {
    "graph_name": "50_86",
    "n_pass": 2,
    "winning_ride": {
      "driver": {
        "arrive_until": 2400,
        "direct_cost": 498
      },
      "passengers": [
        {
          "bid": 3305,
          "id": 25,
          "price": 2406,
          "cost": 331,
          "direct_dist": 11018,
          "direct_cost": 331,
          "direct_time": 702
        },
        {
          "bid": 4681,
          "id": 1,
          "price": 3782,
          "cost": 469,
          "direct_dist": 15604,
          "direct_cost": 469,
          "direct_time": 1026
        }
      ],
      "cost": 338,
      "virtual_welfare": 7648
    },
    "profit": 5850,
    "cost_profit": 462.0,
    "welfare": 7648,
    "virtual_welfare": 7648,
    "running_time": 12
  },
  {
    "graph_name": "50_87",
    "n_pass": 3,
    "winning_ride": {
      "driver": {
        "arrive_until": 2400,
        "direct_cost": 434
      },
      "passengers": [
        {
          "bid": 3959,
          "id": 32,
          "price": 1741,
          "cost": 396,
          "direct_dist": 13199,
          "direct_cost": 396,
          "direct_time": 900
        },
        {
          "bid": 1715,
          "id": 13,
          "price": 1041,
          "cost": 172,
          "direct_dist": 5717,
          "direct_cost": 172,
          "direct_time": 411
        },
        {
          "bid": 2690,
          "id": 7,
          "price": 2016,
          "cost": 270,
          "direct_dist": 8967,
          "direct_cost": 270,
          "direct_time": 807
        }
      ],
      "cost": 212,
      "virtual_welfare": 8152
    },
    "profit": 4586,
    "cost_profit": 626.0,
    "welfare": 8152,
    "virtual_welfare": 8152,
    "running_time": 72
  },
  {
    "graph_name": "50_88",
    "n_pass": 2,
    "winning_ride": {
      "driver": {
        "arrive_until": 2400,
        "direct_cost": 444
      },
      "passengers": [
        {
          "bid": 2823,
          "id": 26,
          "price": 2607,
          "cost": 283,
          "direct_dist": 9413,
          "direct_cost": 283,
          "direct_time": 584
        },
        {
          "bid": 2889,
          "id": 12,
          "price": 2666,
          "cost": 289,
          "direct_dist": 9632,
          "direct_cost": 289,
          "direct_time": 643
        }
      ],
      "cost": 549,
      "virtual_welfare": 5163
    },
    "profit": 4724,
    "cost_profit": 23.0,
    "welfare": 5163,
    "virtual_welfare": 5163,
    "running_time": 42
  },
  {
    "graph_name": "50_89",
    "n_pass": 2,
    "winning_ride": {
      "driver": {
        "arrive_until": 2400,
        "direct_cost": 522
      },
      "passengers": [
        {
          "bid": 4217,
          "id": 16,
          "price": 3977,
          "cost": 422,
          "direct_dist": 14059,
          "direct_cost": 422,
          "direct_time": 953
        },
        {
          "bid": 4216,
          "id": 11,
          "price": 3976,
          "cost": 422,
          "direct_dist": 14054,
          "direct_cost": 422,
          "direct_time": 987
        }
      ],
      "cost": 421,
      "virtual_welfare": 8012
    },
    "profit": 7532,
    "cost_profit": 423.0,
    "welfare": 8012,
    "virtual_welfare": 8012,
    "running_time": 16
  },
  {
    "graph_name": "50_9",
    "n_pass": 2,
    "winning_ride": {
      "driver": {
        "arrive_until": 2400,
        "direct_cost": 463
      },
      "passengers": [
        {
          "bid": 3713,
          "id": 30,
          "price": 3383,
          "cost": 372,
          "direct_dist": 12378,
          "direct_cost": 372,
          "direct_time": 748
        },
        {
          "bid": 2329,
          "id": 23,
          "price": 2111,
          "cost": 238,
          "direct_dist": 7926,
          "direct_cost": 238,
          "direct_time": 556
        }
      ],
      "cost": 562,
      "virtual_welfare": 5480
    },
    "profit": 4932,
    "cost_profit": 48.0,
    "welfare": 5480,
    "virtual_welfare": 5480,
    "running_time": 41
  },
  {
    "graph_name": "50_90",
    "n_pass": 3,
    "winning_ride": {
      "driver": {
        "arrive_until": 2400,
        "direct_cost": 475
      },
      "passengers": [
        {
          "bid": 3303,
          "id": 50,
          "price": 3159,
          "cost": 331,
          "direct_dist": 11013,
          "direct_cost": 331,
          "direct_time": 767
        },
        {
          "bid": 4846,
          "id": 30,
          "price": 4676,
          "cost": 485,
          "direct_dist": 16156,
          "direct_cost": 485,
          "direct_time": 1077
        },
        {
          "bid": 809,
          "id": 4,
          "price": 665,
          "cost": 210,
          "direct_dist": 6980,
          "direct_cost": 210,
          "direct_time": 394
        }
      ],
      "cost": 530,
      "virtual_welfare": 8428
    },
    "profit": 7970,
    "cost_profit": 496.0,
    "welfare": 8428,
    "virtual_welfare": 8428,
    "running_time": 4
  },
  {
    "graph_name": "50_91",
    "n_pass": 3,
    "winning_ride": {
      "driver": {
        "arrive_until": 2400,
        "direct_cost": 439
      },
      "passengers": [
        {
          "bid": 4863,
          "id": 45,
          "price": 4318,
          "cost": 487,
          "direct_dist": 16213,
          "direct_cost": 487,
          "direct_time": 1118
        },
        {
          "bid": 589,
          "id": 33,
          "price": 59,
          "cost": 59,
          "direct_dist": 1965,
          "direct_cost": 59,
          "direct_time": 152
        },
        {
          "bid": 4838,
          "id": 6,
          "price": 4151,
          "cost": 484,
          "direct_dist": 16129,
          "direct_cost": 484,
          "direct_time": 936
        }
      ],
      "cost": 393,
      "virtual_welfare": 9897
    },
    "profit": 8135,
    "cost_profit": 637.0,
    "welfare": 9897,
    "virtual_welfare": 9897,
    "running_time": 25
  },
  {
    "graph_name": "50_92",
    "n_pass": 3,
    "winning_ride": {
      "driver": {
        "arrive_until": 2400,
        "direct_cost": 395
      },
      "passengers": [
        {
          "bid": 2800,
          "id": 26,
          "price": 2518,
          "cost": 345,
          "direct_dist": 11474,
          "direct_cost": 345,
          "direct_time": 764
        },
        {
          "bid": 2932,
          "id": 21,
          "price": 2616,
          "cost": 294,
          "direct_dist": 9774,
          "direct_cost": 294,
          "direct_time": 621
        },
        {
          "bid": 837,
          "id": 1,
          "price": 815,
          "cost": 84,
          "direct_dist": 2793,
          "direct_cost": 84,
          "direct_time": 204
        }
      ],
      "cost": 439,
      "virtual_welfare": 6130
    },
    "profit": 5510,
    "cost_profit": 284.0,
    "welfare": 6130,
    "virtual_welfare": 6130,
    "running_time": 49
  },
  {
    "graph_name": "50_93",
    "n_pass": 3,
    "winning_ride": {
      "driver": {
        "arrive_until": 2400,
        "direct_cost": 529
      },
      "passengers": [
        {
          "bid": 1691,
          "id": 34,
          "price": 969,
          "cost": 170,
          "direct_dist": 5637,
          "direct_cost": 170,
          "direct_time": 472
        },
        {
          "bid": 1804,
          "id": 19,
          "price": 1082,
          "cost": 194,
          "direct_dist": 6437,
          "direct_cost": 194,
          "direct_time": 448
        },
        {
          "bid": 4253,
          "id": 5,
          "price": 2894,
          "cost": 443,
          "direct_dist": 14748,
          "direct_cost": 443,
          "direct_time": 959
        }
      ],
      "cost": 440,
      "virtual_welfare": 7308
    },
    "profit": 4505,
    "cost_profit": 367.0,
    "welfare": 7308,
    "virtual_welfare": 7308,
    "running_time": 44
  },
  {
    "graph_name": "50_94",
    "n_pass": 2,
    "winning_ride": {
      "driver": {
        "arrive_until": 2400,
        "direct_cost": 444
      },
      "passengers": [
        {
          "bid": 3808,
          "id": 48,
          "price": 3722,
          "cost": 381,
          "direct_dist": 12695,
          "direct_cost": 381,
          "direct_time": 819
        },
        {
          "bid": 5208,
          "id": 47,
          "price": 3477,
          "cost": 521,
          "direct_dist": 17361,
          "direct_cost": 521,
          "direct_time": 1175
        }
      ],
      "cost": 495,
      "virtual_welfare": 8521
    },
    "profit": 6704,
    "cost_profit": 407.0,
    "welfare": 8521,
    "virtual_welfare": 8521,
    "running_time": 27
  },
  {
    "graph_name": "50_95",
    "n_pass": 2,
    "winning_ride": {
      "driver": {
        "arrive_until": 2400,
        "direct_cost": 408
      },
      "passengers": [
        {
          "bid": 4875,
          "id": 30,
          "price": 3561,
          "cost": 488,
          "direct_dist": 16252,
          "direct_cost": 488,
          "direct_time": 1049
        },
        {
          "bid": 4456,
          "id": 2,
          "price": 3427,
          "cost": 446,
          "direct_dist": 14854,
          "direct_cost": 446,
          "direct_time": 1030
        }
      ],
      "cost": 395,
      "virtual_welfare": 8936
    },
    "profit": 6593,
    "cost_profit": 539.0,
    "welfare": 8936,
    "virtual_welfare": 8936,
    "running_time": 6
  },
  {
    "graph_name": "50_96",
    "n_pass": 2,
    "winning_ride": {
      "driver": {
        "arrive_until": 2400,
        "direct_cost": 447
      },
      "passengers": [
        {
          "bid": 2949,
          "id": 38,
          "price": 2855,
          "cost": 295,
          "direct_dist": 9830,
          "direct_cost": 295,
          "direct_time": 694
        },
        {
          "bid": 3249,
          "id": 13,
          "price": 2721,
          "cost": 325,
          "direct_dist": 10833,
          "direct_cost": 325,
          "direct_time": 805
        }
      ],
      "cost": 477,
      "virtual_welfare": 5721
    },
    "profit": 5099,
    "cost_profit": 143.0,
    "welfare": 5721,
    "virtual_welfare": 5721,
    "running_time": 121
  },
  {
    "graph_name": "50_97",
    "n_pass": 3,
    "winning_ride": {
      "driver": {
        "arrive_until": 2400,
        "direct_cost": 473
      },
      "passengers": [
        {
          "bid": 2774,
          "id": 41,
          "price": 2279,
          "cost": 327,
          "direct_dist": 10890,
          "direct_cost": 327,
          "direct_time": 748
        },
        {
          "bid": 3596,
          "id": 35,
          "price": 2340,
          "cost": 360,
          "direct_dist": 11989,
          "direct_cost": 360,
          "direct_time": 686
        },
        {
          "bid": 866,
          "id": 16,
          "price": 202,
          "cost": 129,
          "direct_dist": 4270,
          "direct_cost": 129,
          "direct_time": 291
        }
      ],
      "cost": 256,
      "virtual_welfare": 6980
    },
    "profit": 4565,
    "cost_profit": 560.0,
    "welfare": 6980,
    "virtual_welfare": 6980,
    "running_time": 121
  },
  {
    "graph_name": "50_98",
    "n_pass": 2,
    "winning_ride": {
      "driver": {
        "arrive_until": 2400,
        "direct_cost": 456
      },
      "passengers": [
        {
          "bid": 4148,
          "id": 45,
          "price": 4092,
          "cost": 415,
          "direct_dist": 13829,
          "direct_cost": 415,
          "direct_time": 931
        },
        {
          "bid": 4971,
          "id": 25,
          "price": 4115,
          "cost": 498,
          "direct_dist": 16571,
          "direct_cost": 498,
          "direct_time": 967
        }
      ],
      "cost": 443,
      "virtual_welfare": 8676
    },
    "profit": 7764,
    "cost_profit": 470.0,
    "welfare": 8676,
    "virtual_welfare": 8676,
    "running_time": 30
  },
  {
    "graph_name": "50_99",
    "n_pass": 3,
    "winning_ride": {
      "driver": {
        "arrive_until": 2400,
        "direct_cost": 478
      },
      "passengers": [
        {
          "bid": 3476,
          "id": 32,
          "price": 2964,
          "cost": 357,
          "direct_dist": 11890,
          "direct_cost": 357,
          "direct_time": 796
        },
        {
          "bid": 492,
          "id": 6,
          "price": 99,
          "cost": 50,
          "direct_dist": 1640,
          "direct_cost": 50,
          "direct_time": 141
        },
        {
          "bid": 3582,
          "id": 3,
          "price": 2552,
          "cost": 378,
          "direct_dist": 12576,
          "direct_cost": 378,
          "direct_time": 837
        }
      ],
      "cost": 461,
      "virtual_welfare": 7089
    },
    "profit": 5154,
    "cost_profit": 324.0,
    "welfare": 7089,
    "virtual_welfare": 7089,
    "running_time": 8
  }
]