{
  "nodes": [
    {
      "Delivery": {
        "bid": 1122,
        "id": 10,
        "price": null,
        "cost": null,
        "direct_dist": 6458,
        "direct_cost": 194,
        "direct_time": 469
      }
    },
    {
      "Pickup": {
        "bid": 1122,
        "id": 10,
        "price": null,
        "cost": null,
        "direct_dist": 6458,
        "direct_cost": 194,
        "direct_time": 469
      }
    },
    {
      "Delivery": {
        "bid": 127,
        "id": 8,
        "price": null,
        "cost": null,
        "direct_dist": 2437,
        "direct_cost": 74,
        "direct_time": 188
      }
    },
    {
      "Pickup": {
        "bid": 127,
        "id": 8,
        "price": null,
        "cost": null,
        "direct_dist": 2437,
        "direct_cost": 74,
        "direct_time": 188
      }
    },
    {
      "Delivery": {
        "bid": 220,
        "id": 4,
        "price": null,
        "cost": null,
        "direct_dist": 5168,
        "direct_cost": 156,
        "direct_time": 368
      }
    },
    {
      "Pickup": {
        "bid": 220,
        "id": 4,
        "price": null,
        "cost": null,
        "direct_dist": 5168,
        "direct_cost": 156,
        "direct_time": 368
      }
    },
    {
      "Delivery": {
        "bid": 1040,
        "id": 2,
        "price": null,
        "cost": null,
        "direct_dist": 3467,
        "direct_cost": 105,
        "direct_time": 269
      }
    },
    {
      "Pickup": {
        "bid": 1040,
        "id": 2,
        "price": null,
        "cost": null,
        "direct_dist": 3467,
        "direct_cost": 105,
        "direct_time": 269
      }
    },
    {
      "Delivery": {
        "bid": 1721,
        "id": 1,
        "price": null,
        "cost": null,
        "direct_dist": 5737,
        "direct_cost": 173,
        "direct_time": 405
      }
    },
    {
      "Pickup": {
        "bid": 1721,
        "id": 1,
        "price": null,
        "cost": null,
        "direct_dist": 5737,
        "direct_cost": 173,
        "direct_time": 405
      }
    },
    {
      "DriverStart": {
        "arrive_until": 2400,
        "direct_cost": 350
      }
    },
    {
      "DriverEnd": {
        "arrive_until": 2400,
        "direct_cost": 350
      }
    }
  ],
  "node_holes": [],
  "edge_property": "directed",
  "edges": [
    [
      0,
      8,
      {
        "cost": 102.86999999999999,
        "seconds": 298
      }
    ],
    [
      0,
      9,
      {
        "cost": 183.95999999999999,
        "seconds": 412
      }
    ],
    [
      0,
      6,
      {
        "cost": 216.39,
        "seconds": 487
      }
    ],
    [
      0,
      4,
      {
        "cost": 140.07,
        "seconds": 409
      }
    ],
    [
      0,
      2,
      {
        "cost": 231.20999999999999,
        "seconds": 567
      }
    ],
    [
      0,
      7,
      {
        "cost": 159.57,
        "seconds": 390
      }
    ],
    [
      1,
      8,
      {
        "cost": 285.99,
        "seconds": 607
      }
    ],
    [
      1,
      9,
      {
        "cost": 211.56,
        "seconds": 506
      }
    ],
    [
      1,
      6,
      {
        "cost": 255.35999999999999,
        "seconds": 607
      }
    ],
    [
      1,
      4,
      {
        "cost": 99.06,
        "seconds": 247
      }
    ],
    [
      1,
      2,
      {
        "cost": 107.28,
        "seconds": 244
      }
    ],
    [
      1,
      7,
      {
        "cost": 183.42,
        "seconds": 437
      }
    ],
    [
      1,
      3,
      {
        "cost": 165.84,
        "seconds": 359
      }
    ],
    [
      1,
      5,
      {
        "cost": 114.03,
        "seconds": 252
      }
    ],
    [
      1,
      0,
      {
        "cost": 193.73999999999999,
        "seconds": 469
      }
    ],
    [
      2,
      0,
      {
        "cost": 248.85,
        "seconds": 563
      }
    ],
    [
      2,
      1,
      {
        "cost": 118.89,
        "seconds": 320
      }
    ],
    [
      2,
      8,
      {
        "cost": 341.09999999999999,
        "seconds": 701
      }
    ],
    [
      2,
      6,
      {
        "cost": 295.44,
        "seconds": 662
      }
    ],
    [
      2,
      4,
      {
        "cost": 119.69999999999999,
        "seconds": 259
      }
    ],
    [
      2,
      7,
      {
        "cost": 210.54,
        "seconds": 461
      }
    ],
    [
      2,
      9,
      {
        "cost": 259.38,
        "seconds": 572
      }
    ],
    [
      2,
      5,
      {
        "cost": 178.76999999999999,
        "seconds": 466
      }
    ],
    [
      3,
      1,
      {
        "cost": 195.95999999999999,
        "seconds": 450
      }
    ],
    [
      3,
      0,
      {
        "cost": 231.29999999999999,
        "seconds": 572
      }
    ],
    [
      3,
      4,
      {
        "cost": 102.14999999999999,
        "seconds": 268
      }
    ],
    [
      3,
      9,
      {
        "cost": 227.07,
        "seconds": 491
      }
    ],
    [
      3,
      7,
      {
        "cost": 202.5,
        "seconds": 431
      }
    ],
    [
      3,
      5,
      {
        "cost": 256.44,
        "seconds": 598
      }
    ],
    [
      3,
      2,
      {
        "cost": 73.11,
        "seconds": 188
      }
    ],
    [
      4,
      0,
      {
        "cost": 170.79,
        "seconds": 414
      }
    ],
    [
      4,
      1,
      {
        "cost": 120.47999999999999,
        "seconds": 296
      }
    ],
    [
      4,
      2,
      {
        "cost": 106.28999999999999,
        "seconds": 276
      }
    ],
    [
      4,
      3,
      {
        "cost": 124.11,
        "seconds": 312
      }
    ],
    [
      4,
      8,
      {
        "cost": 263.03999999999999,
        "seconds": 552
      }
    ],
    [
      4,
      6,
      {
        "cost": 195.45,
        "seconds": 472
      }
    ],
    [
      4,
      9,
      {
        "cost": 159.35999999999999,
        "seconds": 382
      }
    ],
    [
      4,
      7,
      {
        "cost": 110.52,
        "seconds": 271
      }
    ],
    [
      5,
      1,
      {
        "cost": 82.59,
        "seconds": 200
      }
    ],
    [
      5,
      0,
      {
        "cost": 214.41,
        "seconds": 568
      }
    ],
    [
      5,
      3,
      {
        "cost": 248.42999999999999,
        "seconds": 559
      }
    ],
    [
      5,
      2,
      {
        "cost": 189.87,
        "seconds": 444
      }
    ],
    [
      5,
      8,
      {
        "cost": 316.22999999999998,
        "seconds": 707
      }
    ],
    [
      5,
      6,
      {
        "cost": 308.82,
        "seconds": 718
      }
    ],
    [
      5,
      9,
      {
        "cost": 265.02,
        "seconds": 617
      }
    ],
    [
      5,
      7,
      {
        "cost": 239.42999999999999,
        "seconds": 558
      }
    ],
    [
      5,
      4,
      {
        "cost": 155.04,
        "seconds": 368
      }
    ],
    [
      6,
      0,
      {
        "cost": 228.0,
        "seconds": 473
      }
    ],
    [
      6,
      2,
      {
        "cost": 307.65,
        "seconds": 655
      }
    ],
    [
      6,
      4,
      {
        "cost": 210.03,
        "seconds": 516
      }
    ],
    [
      6,
      8,
      {
        "cost": 187.65,
        "seconds": 381
      }
    ],
    [
      6,
      9,
      {
        "cost": 102.86999999999999,
        "seconds": 257
      }
    ],
    [
      7,
      1,
      {
        "cost": 173.34,
        "seconds": 397
      }
    ],
    [
      7,
      0,
      {
        "cost": 170.51999999999999,
        "seconds": 332
      }
    ],
    [
      7,
      3,
      {
        "cost": 159.32999999999999,
        "seconds": 422
      }
    ],
    [
      7,
      2,
      {
        "cost": 213.15,
        "seconds": 477
      }
    ],
    [
      7,
      5,
      {
        "cost": 241.07999999999999,
        "seconds": 527
      }
    ],
    [
      7,
      4,
      {
        "cost": 100.95,
        "seconds": 254
      }
    ],
    [
      7,
      8,
      {
        "cost": 211.35,
        "seconds": 481
      }
    ],
    [
      7,
      9,
      {
        "cost": 67.95,
        "seconds": 179
      }
    ],
    [
      7,
      6,
      {
        "cost": 104.00999999999999,
        "seconds": 269
      }
    ],
    [
      8,
      0,
      {
        "cost": 87.21,
        "seconds": 245
      }
    ],
    [
      8,
      2,
      {
        "cost": 328.77,
        "seconds": 719
      }
    ],
    [
      8,
      4,
      {
        "cost": 237.63,
        "seconds": 561
      }
    ],
    [
      8,
      6,
      {
        "cost": 213.0,
        "seconds": 424
      }
    ],
    [
      9,
      1,
      {
        "cost": 231.09,
        "seconds": 535
      }
    ],
    [
      9,
      0,
      {
        "cost": 187.32,
        "seconds": 395
      }
    ],
    [
      9,
      3,
      {
        "cost": 200.1,
        "seconds": 499
      }
    ],
    [
      9,
      2,
      {
        "cost": 265.71,
        "seconds": 553
      }
    ],
    [
      9,
      5,
      {
        "cost": 298.86,
        "seconds": 665
      }
    ],
    [
      9,
      4,
      {
        "cost": 158.73,
        "seconds": 392
      }
    ],
    [
      9,
      7,
      {
        "cost": 79.59,
        "seconds": 201
      }
    ],
    [
      9,
      6,
      {
        "cost": 55.05,
        "seconds": 143
      }
    ],
    [
      9,
      8,
      {
        "cost": 172.10999999999999,
        "seconds": 405
      }
    ],
    [
      8,
      11,
      {
        "cost": 282.71999999999999,
        "seconds": 595
      }
    ],
    [
      10,
      9,
      {
        "cost": 272.76,
        "seconds": 757
      }
    ],
    [
      8,
      10,
      {
        "cost": 306.21,
        "seconds": 789
      }
    ],
    [
      11,
      9,
      {
        "cost": 168.03,
        "seconds": 477
      }
    ],
    [
      6,
      11,
      {
        "cost": 186.12,
        "seconds": 465
      }
    ],
    [
      10,
      7,
      {
        "cost": 248.37,
        "seconds": 735
      }
    ],
    [
      6,
      10,
      {
        "cost": 337.2,
        "seconds": 862
      }
    ],
    [
      11,
      7,
      {
        "cost": 141.42,
        "seconds": 432
      }
    ],
    [
      4,
      11,
      {
        "cost": 197.04,
        "seconds": 459
      }
    ],
    [
      10,
      5,
      {
        "cost": 160.85999999999999,
        "seconds": 477
      }
    ],
    [
      4,
      10,
      {
        "cost": 222.92999999999999,
        "seconds": 624
      }
    ],
    [
      11,
      5,
      {
        "cost": 331.53,
        "seconds": 889
      }
    ],
    [
      2,
      11,
      {
        "cost": 293.94,
        "seconds": 597
      }
    ],
    [
      10,
      3,
      {
        "cost": 321.21,
        "seconds": 802
      }
    ],
    [
      2,
      10,
      {
        "cost": 243.35999999999999,
        "seconds": 718
      }
    ],
    [
      11,
      3,
      {
        "cost": 162.0,
        "seconds": 541
      }
    ],
    [
      0,
      11,
      {
        "cost": 260.4,
        "seconds": 560
      }
    ],
    [
      10,
      1,
      {
        "cost": 155.37,
        "seconds": 443
      }
    ],
    [
      0,
      10,
      {
        "cost": 208.65,
        "seconds": 637
      }
    ],
    [
      11,
      1,
      {
        "cost": 271.05,
        "seconds": 742
      }
    ]
  ]
}