{
  "nodes": [
    {
      "Delivery": {
        "bid": 1055,
        "id": 10,
        "price": null,
        "cost": null,
        "direct_dist": 8509,
        "direct_cost": 256,
        "direct_time": 635
      }
    },
    {
      "Pickup": {
        "bid": 1055,
        "id": 10,
        "price": null,
        "cost": null,
        "direct_dist": 8509,
        "direct_cost": 256,
        "direct_time": 635
      }
    },
    {
      "Delivery": {
        "bid": 2472,
        "id": 7,
        "price": null,
        "cost": null,
        "direct_dist": 8241,
        "direct_cost": 248,
        "direct_time": 625
      }
    },
    {
      "Pickup": {
        "bid": 2472,
        "id": 7,
        "price": null,
        "cost": null,
        "direct_dist": 8241,
        "direct_cost": 248,
        "direct_time": 625
      }
    },
    {
      "Delivery": {
        "bid": 1117,
        "id": 6,
        "price": null,
        "cost": null,
        "direct_dist": 4084,
        "direct_cost": 123,
        "direct_time": 382
      }
    },
    {
      "Pickup": {
        "bid": 1117,
        "id": 6,
        "price": null,
        "cost": null,
        "direct_dist": 4084,
        "direct_cost": 123,
        "direct_time": 382
      }
    },
    {
      "Delivery": {
        "bid": 128,
        "id": 5,
        "price": null,
        "cost": null,
        "direct_dist": 3344,
        "direct_cost": 101,
        "direct_time": 298
      }
    },
    {
      "Pickup": {
        "bid": 128,
        "id": 5,
        "price": null,
        "cost": null,
        "direct_dist": 3344,
        "direct_cost": 101,
        "direct_time": 298
      }
    },
    {
      "Delivery": {
        "bid": 2643,
        "id": 4,
        "price": null,
        "cost": null,
        "direct_dist": 11483,
        "direct_cost": 345,
        "direct_time": 741
      }
    },
    {
      "Pickup": {
        "bid": 2643,
        "id": 4,
        "price": null,
        "cost": null,
        "direct_dist": 11483,
        "direct_cost": 345,
        "direct_time": 741
      }
    },
    {
      "Delivery": {
        "bid": 1833,
        "id": 3,
        "price": null,
        "cost": null,
        "direct_dist": 11632,
        "direct_cost": 349,
        "direct_time": 797
      }
    },
    {
      "Pickup": {
        "bid": 1833,
        "id": 3,
        "price": null,
        "cost": null,
        "direct_dist": 11632,
        "direct_cost": 349,
        "direct_time": 797
      }
    },
    {
      "Delivery": {
        "bid": 372,
        "id": 2,
        "price": null,
        "cost": null,
        "direct_dist": 6189,
        "direct_cost": 186,
        "direct_time": 514
      }
    },
    {
      "Pickup": {
        "bid": 372,
        "id": 2,
        "price": null,
        "cost": null,
        "direct_dist": 6189,
        "direct_cost": 186,
        "direct_time": 514
      }
    },
    {
      "DriverStart": {
        "arrive_until": 2400,
        "direct_cost": 391
      }
    },
    {
      "DriverEnd": {
        "arrive_until": 2400,
        "direct_cost": 391
      }
    }
  ],
  "node_holes": [],
  "edge_property": "directed",
  "edges": [
    [
      0,
      4,
      {
        "cost": 194.64,
        "seconds": 473
      }
    ],
    [
      0,
      8,
      {
        "cost": 64.41,
        "seconds": 169
      }
    ],
    [
      0,
      10,
      {
        "cost": 91.53,
        "seconds": 249
      }
    ],
    [
      1,
      4,
      {
        "cost": 113.1,
        "seconds": 296
      }
    ],
    [
      1,
      5,
      {
        "cost": 29.25,
        "seconds": 115
      }
    ],
    [
      1,
      12,
      {
        "cost": 187.47,
        "seconds": 575
      }
    ],
    [
      1,
      8,
      {
        "cost": 199.76999999999999,
        "seconds": 561
      }
    ],
    [
      1,
      10,
      {
        "cost": 308.61,
        "seconds": 754
      }
    ],
    [
      1,
      13,
      {
        "cost": 304.65,
        "seconds": 801
      }
    ],
    [
      1,
      9,
      {
        "cost": 244.23,
        "seconds": 680
      }
    ],
    [
      1,
      11,
      {
        "cost": 200.76,
        "seconds": 607
      }
    ],
    [
      1,
      0,
      {
        "cost": 255.26999999999999,
        "seconds": 635
      }
    ],
    [
      2,
      12,
      {
        "cost": 236.04,
        "seconds": 570
      }
    ],
    [
      2,
      6,
      {
        "cost": 79.71,
        "seconds": 295
      }
    ],
    [
      3,
      6,
      {
        "cost": 276.21,
        "seconds": 716
      }
    ],
    [
      3,
      12,
      {
        "cost": 120.72,
        "seconds": 261
      }
    ],
    [
      3,
      5,
      {
        "cost": 168.57,
        "seconds": 470
      }
    ],
    [
      3,
      13,
      {
        "cost": 261.99,
        "seconds": 642
      }
    ],
    [
      3,
      7,
      {
        "cost": 218.57999999999999,
        "seconds": 498
      }
    ],
    [
      3,
      2,
      {
        "cost": 247.23,
        "seconds": 625
      }
    ],
    [
      4,
      0,
      {
        "cost": 181.04999999999999,
        "seconds": 469
      }
    ],
    [
      4,
      1,
      {
        "cost": 130.71,
        "seconds": 343
      }
    ],
    [
      4,
      2,
      {
        "cost": 487.28999999999999,
        "seconds": 1108
      }
    ],
    [
      4,
      12,
      {
        "cost": 317.94,
        "seconds": 758
      }
    ],
    [
      4,
      8,
      {
        "cost": 126.96,
        "seconds": 378
      }
    ],
    [
      4,
      10,
      {
        "cost": 244.41,
        "seconds": 600
      }
    ],
    [
      5,
      1,
      {
        "cost": 33.66,
        "seconds": 130
      }
    ],
    [
      5,
      0,
      {
        "cost": 265.74,
        "seconds": 706
      }
    ],
    [
      5,
      8,
      {
        "cost": 209.16,
        "seconds": 648
      }
    ],
    [
      5,
      12,
      {
        "cost": 166.2,
        "seconds": 489
      }
    ],
    [
      5,
      11,
      {
        "cost": 179.48999999999999,
        "seconds": 521
      }
    ],
    [
      5,
      9,
      {
        "cost": 222.95999999999999,
        "seconds": 594
      }
    ],
    [
      5,
      13,
      {
        "cost": 283.34999999999999,
        "seconds": 715
      }
    ],
    [
      5,
      4,
      {
        "cost": 122.52,
        "seconds": 382
      }
    ],
    [
      6,
      2,
      {
        "cost": 79.71,
        "seconds": 295
      }
    ],
    [
      6,
      8,
      {
        "cost": 533.91,
        "seconds": 1212
      }
    ],
    [
      6,
      10,
      {
        "cost": 584.73,
        "seconds": 1338
      }
    ],
    [
      6,
      12,
      {
        "cost": 272.34,
        "seconds": 667
      }
    ],
    [
      7,
      3,
      {
        "cost": 172.65,
        "seconds": 388
      }
    ],
    [
      7,
      2,
      {
        "cost": 91.92,
        "seconds": 256
      }
    ],
    [
      7,
      13,
      {
        "cost": 217.59,
        "seconds": 487
      }
    ],
    [
      7,
      6,
      {
        "cost": 100.32,
        "seconds": 298
      }
    ],
    [
      8,
      0,
      {
        "cost": 53.85,
        "seconds": 144
      }
    ],
    [
      8,
      4,
      {
        "cost": 135.54,
        "seconds": 348
      }
    ],
    [
      8,
      10,
      {
        "cost": 128.37,
        "seconds": 322
      }
    ],
    [
      9,
      1,
      {
        "cost": 316.53,
        "seconds": 731
      }
    ],
    [
      9,
      0,
      {
        "cost": 363.24,
        "seconds": 788
      }
    ],
    [
      9,
      5,
      {
        "cost": 221.42999999999999,
        "seconds": 663
      }
    ],
    [
      9,
      4,
      {
        "cost": 317.25,
        "seconds": 707
      }
    ],
    [
      9,
      7,
      {
        "cost": 233.39999999999999,
        "seconds": 510
      }
    ],
    [
      9,
      10,
      {
        "cost": 371.13,
        "seconds": 858
      }
    ],
    [
      9,
      12,
      {
        "cost": 151.07999999999999,
        "seconds": 392
      }
    ],
    [
      9,
      11,
      {
        "cost": 80.85,
        "seconds": 238
      }
    ],
    [
      9,
      13,
      {
        "cost": 103.35,
        "seconds": 283
      }
    ],
    [
      9,
      8,
      {
        "cost": 344.49,
        "seconds": 741
      }
    ],
    [
      10,
      0,
      {
        "cost": 73.67999999999999,
        "seconds": 273
      }
    ],
    [
      10,
      8,
      {
        "cost": 127.35,
        "seconds": 337
      }
    ],
    [
      11,
      1,
      {
        "cost": 226.89,
        "seconds": 657
      }
    ],
    [
      11,
      0,
      {
        "cost": 338.28,
        "seconds": 739
      }
    ],
    [
      11,
      5,
      {
        "cost": 193.07999999999999,
        "seconds": 584
      }
    ],
    [
      11,
      4,
      {
        "cost": 292.26,
        "seconds": 658
      }
    ],
    [
      11,
      7,
      {
        "cost": 157.82999999999999,
        "seconds": 343
      }
    ],
    [
      11,
      9,
      {
        "cost": 101.91,
        "seconds": 251
      }
    ],
    [
      11,
      8,
      {
        "cost": 319.5,
        "seconds": 693
      }
    ],
    [
      11,
      12,
      {
        "cost": 109.86,
        "seconds": 280
      }
    ],
    [
      11,
      13,
      {
        "cost": 162.29999999999999,
        "seconds": 372
      }
    ],
    [
      11,
      10,
      {
        "cost": 348.96,
        "seconds": 797
      }
    ],
    [
      12,
      0,
      {
        "cost": 323.88,
        "seconds": 722
      }
    ],
    [
      12,
      2,
      {
        "cost": 248.22,
        "seconds": 597
      }
    ],
    [
      12,
      3,
      {
        "cost": 127.94999999999999,
        "seconds": 311
      }
    ],
    [
      12,
      4,
      {
        "cost": 277.86,
        "seconds": 641
      }
    ],
    [
      12,
      8,
      {
        "cost": 305.09999999999999,
        "seconds": 675
      }
    ],
    [
      12,
      10,
      {
        "cost": 324.78,
        "seconds": 780
      }
    ],
    [
      12,
      11,
      {
        "cost": 85.5,
        "seconds": 233
      }
    ],
    [
      13,
      1,
      {
        "cost": 384.57,
        "seconds": 870
      }
    ],
    [
      13,
      3,
      {
        "cost": 247.82999999999999,
        "seconds": 636
      }
    ],
    [
      13,
      2,
      {
        "cost": 199.44,
        "seconds": 551
      }
    ],
    [
      13,
      5,
      {
        "cost": 289.46999999999999,
        "seconds": 803
      }
    ],
    [
      13,
      7,
      {
        "cost": 226.38,
        "seconds": 518
      }
    ],
    [
      13,
      6,
      {
        "cost": 264.09,
        "seconds": 706
      }
    ],
    [
      13,
      9,
      {
        "cost": 110.97,
        "seconds": 327
      }
    ],
    [
      13,
      11,
      {
        "cost": 148.89,
        "seconds": 377
      }
    ],
    [
      13,
      12,
      {
        "cost": 185.67,
        "seconds": 514
      }
    ],
    [
      12,
      15,
      {
        "cost": 404.46,
        "seconds": 849
      }
    ],
    [
      14,
      13,
      {
        "cost": 193.98,
        "seconds": 509
      }
    ],
    [
      12,
      14,
      {
        "cost": 126.39,
        "seconds": 300
      }
    ],
    [
      15,
      13,
      {
        "cost": 517.8,
        "seconds": 1143
      }
    ],
    [
      10,
      15,
      {
        "cost": 263.15999999999999,
        "seconds": 574
      }
    ],
    [
      14,
      11,
      {
        "cost": 143.4,
        "seconds": 346
      }
    ],
    [
      10,
      14,
      {
        "cost": 484.16999999999998,
        "seconds": 1050
      }
    ],
    [
      15,
      11,
      {
        "cost": 459.47999999999998,
        "seconds": 998
      }
    ],
    [
      8,
      15,
      {
        "cost": 167.46,
        "seconds": 362
      }
    ],
    [
      14,
      9,
      {
        "cost": 214.53,
        "seconds": 506
      }
    ],
    [
      8,
      14,
      {
        "cost": 427.59,
        "seconds": 896
      }
    ],
    [
      15,
      9,
      {
        "cost": 457.38,
        "seconds": 1022
      }
    ],
    [
      6,
      15,
      {
        "cost": 633.3,
        "seconds": 1386
      }
    ],
    [
      14,
      7,
      {
        "cost": 119.75999999999999,
        "seconds": 262
      }
    ],
    [
      6,
      14,
      {
        "cost": 155.13,
        "seconds": 416
      }
    ],
    [
      15,
      7,
      {
        "cost": 600.66,
        "seconds": 1261
      }
    ],
    [
      4,
      15,
      {
        "cost": 119.25,
        "seconds": 349
      }
    ],
    [
      14,
      5,
      {
        "cost": 238.5,
        "seconds": 556
      }
    ],
    [
      4,
      14,
      {
        "cost": 385.86,
        "seconds": 859
      }
    ],
    [
      15,
      5,
      {
        "cost": 212.64,
        "seconds": 593
      }
    ],
    [
      2,
      15,
      {
        "cost": 599.88,
        "seconds": 1265
      }
    ],
    [
      14,
      3,
      {
        "cost": 117.53999999999999,
        "seconds": 266
      }
    ],
    [
      2,
      14,
      {
        "cost": 153.39,
        "seconds": 354
      }
    ],
    [
      15,
      3,
      {
        "cost": 369.45,
        "seconds": 954
      }
    ],
    [
      0,
      15,
      {
        "cost": 206.42999999999999,
        "seconds": 444
      }
    ],
    [
      14,
      1,
      {
        "cost": 248.54999999999999,
        "seconds": 613
      }
    ],
    [
      0,
      14,
      {
        "cost": 435.21,
        "seconds": 910
      }
    ],
    [
      15,
      1,
      {
        "cost": 183.81,
        "seconds": 499
      }
    ]
  ]
}