{
  "nodes": [
    {
      "Delivery": {
        "bid": 1233,
        "id": 10,
        "price": null,
        "cost": null,
        "direct_dist": 9140,
        "direct_cost": 275,
        "direct_time": 597
      }
    },
    {
      "Pickup": {
        "bid": 1233,
        "id": 10,
        "price": null,
        "cost": null,
        "direct_dist": 9140,
        "direct_cost": 275,
        "direct_time": 597
      }
    },
    {
      "Delivery": {
        "bid": 2660,
        "id": 9,
        "price": null,
        "cost": null,
        "direct_dist": 8963,
        "direct_cost": 269,
        "direct_time": 616
      }
    },
    {
      "Pickup": {
        "bid": 2660,
        "id": 9,
        "price": null,
        "cost": null,
        "direct_dist": 8963,
        "direct_cost": 269,
        "direct_time": 616
      }
    },
    {
      "Delivery": {
        "bid": 687,
        "id": 8,
        "price": null,
        "cost": null,
        "direct_dist": 18824,
        "direct_cost": 565,
        "direct_time": 1292
      }
    },
    {
      "Pickup": {
        "bid": 687,
        "id": 8,
        "price": null,
        "cost": null,
        "direct_dist": 18824,
        "direct_cost": 565,
        "direct_time": 1292
      }
    },
    {
      "Delivery": {
        "bid": 2209,
        "id": 7,
        "price": null,
        "cost": null,
        "direct_dist": 7365,
        "direct_cost": 221,
        "direct_time": 485
      }
    },
    {
      "Pickup": {
        "bid": 2209,
        "id": 7,
        "price": null,
        "cost": null,
        "direct_dist": 7365,
        "direct_cost": 221,
        "direct_time": 485
      }
    },
    {
      "Delivery": {
        "bid": 1065,
        "id": 6,
        "price": null,
        "cost": null,
        "direct_dist": 3553,
        "direct_cost": 107,
        "direct_time": 377
      }
    },
    {
      "Pickup": {
        "bid": 1065,
        "id": 6,
        "price": null,
        "cost": null,
        "direct_dist": 3553,
        "direct_cost": 107,
        "direct_time": 377
      }
    },
    {
      "Delivery": {
        "bid": 491,
        "id": 5,
        "price": null,
        "cost": null,
        "direct_dist": 6793,
        "direct_cost": 204,
        "direct_time": 445
      }
    },
    {
      "Pickup": {
        "bid": 491,
        "id": 5,
        "price": null,
        "cost": null,
        "direct_dist": 6793,
        "direct_cost": 204,
        "direct_time": 445
      }
    },
    {
      "Delivery": {
        "bid": 732,
        "id": 3,
        "price": null,
        "cost": null,
        "direct_dist": 2443,
        "direct_cost": 74,
        "direct_time": 243
      }
    },
    {
      "Pickup": {
        "bid": 732,
        "id": 3,
        "price": null,
        "cost": null,
        "direct_dist": 2443,
        "direct_cost": 74,
        "direct_time": 243
      }
    },
    {
      "Delivery": {
        "bid": 1745,
        "id": 1,
        "price": null,
        "cost": null,
        "direct_dist": 5817,
        "direct_cost": 175,
        "direct_time": 452
      }
    },
    {
      "Pickup": {
        "bid": 1745,
        "id": 1,
        "price": null,
        "cost": null,
        "direct_dist": 5817,
        "direct_cost": 175,
        "direct_time": 452
      }
    },
    {
      "DriverStart": {
        "arrive_until": 2400,
        "direct_cost": 456
      }
    },
    {
      "DriverEnd": {
        "arrive_until": 2400,
        "direct_cost": 456
      }
    }
  ],
  "node_holes": [],
  "edge_property": "directed",
  "edges": [
    [
      0,
      14,
      {
        "cost": 272.55,
        "seconds": 716
      }
    ],
    [
      0,
      2,
      {
        "cost": 187.92,
        "seconds": 473
      }
    ],
    [
      0,
      10,
      {
        "cost": 123.03,
        "seconds": 323
      }
    ],
    [
      0,
      8,
      {
        "cost": 295.8,
        "seconds": 665
      }
    ],
    [
      0,
      6,
      {
        "cost": 200.04,
        "seconds": 432
      }
    ],
    [
      0,
      4,
      {
        "cost": 373.86,
        "seconds": 882
      }
    ],
    [
      1,
      10,
      {
        "cost": 236.31,
        "seconds": 500
      }
    ],
    [
      1,
      2,
      {
        "cost": 443.76,
        "seconds": 936
      }
    ],
    [
      1,
      8,
      {
        "cost": 110.82,
        "seconds": 341
      }
    ],
    [
      1,
      6,
      {
        "cost": 129.75,
        "seconds": 313
      }
    ],
    [
      1,
      3,
      {
        "cost": 201.20999999999999,
        "seconds": 458
      }
    ],
    [
      1,
      11,
      {
        "cost": 282.12,
        "seconds": 717
      }
    ],
    [
      1,
      9,
      {
        "cost": 205.98,
        "seconds": 575
      }
    ],
    [
      1,
      5,
      {
        "cost": 58.379999999999998,
        "seconds": 184
      }
    ],
    [
      1,
      7,
      {
        "cost": 358.89,
        "seconds": 781
      }
    ],
    [
      1,
      0,
      {
        "cost": 274.2,
        "seconds": 597
      }
    ],
    [
      2,
      0,
      {
        "cost": 204.54,
        "seconds": 481
      }
    ],
    [
      2,
      14,
      {
        "cost": 84.66,
        "seconds": 243
      }
    ],
    [
      2,
      10,
      {
        "cost": 325.86,
        "seconds": 691
      }
    ],
    [
      2,
      6,
      {
        "cost": 362.52,
        "seconds": 756
      }
    ],
    [
      2,
      4,
      {
        "cost": 345.81,
        "seconds": 867
      }
    ],
    [
      2,
      12,
      {
        "cost": 47.82,
        "seconds": 151
      }
    ],
    [
      2,
      13,
      {
        "cost": 59.099999999999997,
        "seconds": 159
      }
    ],
    [
      3,
      1,
      {
        "cost": 256.83,
        "seconds": 535
      }
    ],
    [
      3,
      0,
      {
        "cost": 99.33,
        "seconds": 276
      }
    ],
    [
      3,
      10,
      {
        "cost": 51.69,
        "seconds": 179
      }
    ],
    [
      3,
      14,
      {
        "cost": 353.55,
        "seconds": 858
      }
    ],
    [
      3,
      6,
      {
        "cost": 176.48999999999999,
        "seconds": 388
      }
    ],
    [
      3,
      12,
      {
        "cost": 316.71,
        "seconds": 767
      }
    ],
    [
      3,
      15,
      {
        "cost": 270.0,
        "seconds": 611
      }
    ],
    [
      3,
      5,
      {
        "cost": 191.79,
        "seconds": 537
      }
    ],
    [
      3,
      11,
      {
        "cost": 225.69,
        "seconds": 547
      }
    ],
    [
      3,
      7,
      {
        "cost": 237.6,
        "seconds": 547
      }
    ],
    [
      3,
      9,
      {
        "cost": 258.42,
        "seconds": 631
      }
    ],
    [
      3,
      13,
      {
        "cost": 267.51,
        "seconds": 649
      }
    ],
    [
      3,
      2,
      {
        "cost": 268.89,
        "seconds": 616
      }
    ],
    [
      5,
      1,
      {
        "cost": 49.8,
        "seconds": 140
      }
    ],
    [
      5,
      0,
      {
        "cost": 233.82,
        "seconds": 565
      }
    ],
    [
      5,
      3,
      {
        "cost": 155.60999999999999,
        "seconds": 392
      }
    ],
    [
      5,
      2,
      {
        "cost": 403.38,
        "seconds": 904
      }
    ],
    [
      5,
      14,
      {
        "cost": 488.03999999999999,
        "seconds": 1147
      }
    ],
    [
      5,
      10,
      {
        "cost": 178.98,
        "seconds": 468
      }
    ],
    [
      5,
      6,
      {
        "cost": 115.64999999999999,
        "seconds": 297
      }
    ],
    [
      5,
      8,
      {
        "cost": 154.65,
        "seconds": 436
      }
    ],
    [
      5,
      12,
      {
        "cost": 451.2,
        "seconds": 1056
      }
    ],
    [
      5,
      15,
      {
        "cost": 404.49,
        "seconds": 899
      }
    ],
    [
      5,
      11,
      {
        "cost": 296.76,
        "seconds": 738
      }
    ],
    [
      5,
      9,
      {
        "cost": 218.73,
        "seconds": 622
      }
    ],
    [
      5,
      7,
      {
        "cost": 308.7,
        "seconds": 738
      }
    ],
    [
      5,
      4,
      {
        "cost": 564.72,
        "seconds": 1292
      }
    ],
    [
      6,
      0,
      {
        "cost": 187.59,
        "seconds": 425
      }
    ],
    [
      6,
      1,
      {
        "cost": 83.64,
        "seconds": 190
      }
    ],
    [
      6,
      2,
      {
        "cost": 357.18,
        "seconds": 764
      }
    ],
    [
      6,
      3,
      {
        "cost": 123.99,
        "seconds": 303
      }
    ],
    [
      6,
      4,
      {
        "cost": 518.49,
        "seconds": 1152
      }
    ],
    [
      6,
      5,
      {
        "cost": 86.34,
        "seconds": 198
      }
    ],
    [
      6,
      8,
      {
        "cost": 117.39,
        "seconds": 305
      }
    ],
    [
      6,
      10,
      {
        "cost": 147.32999999999999,
        "seconds": 379
      }
    ],
    [
      7,
      1,
      {
        "cost": 304.59,
        "seconds": 674
      }
    ],
    [
      7,
      0,
      {
        "cost": 192.15,
        "seconds": 429
      }
    ],
    [
      7,
      3,
      {
        "cost": 192.42,
        "seconds": 416
      }
    ],
    [
      7,
      2,
      {
        "cost": 299.46,
        "seconds": 656
      }
    ],
    [
      7,
      5,
      {
        "cost": 307.28999999999999,
        "seconds": 683
      }
    ],
    [
      7,
      8,
      {
        "cost": 201.29999999999999,
        "seconds": 539
      }
    ],
    [
      7,
      10,
      {
        "cost": 211.65,
        "seconds": 456
      }
    ],
    [
      7,
      15,
      {
        "cost": 214.70999999999999,
        "seconds": 483
      }
    ],
    [
      7,
      9,
      {
        "cost": 87.09,
        "seconds": 276
      }
    ],
    [
      7,
      13,
      {
        "cost": 270.39,
        "seconds": 614
      }
    ],
    [
      7,
      11,
      {
        "cost": 22.169999999999999,
        "seconds": 86
      }
    ],
    [
      7,
      6,
      {
        "cost": 220.95,
        "seconds": 485
      }
    ],
    [
      8,
      0,
      {
        "cost": 283.65,
        "seconds": 715
      }
    ],
    [
      8,
      1,
      {
        "cost": 122.78999999999999,
        "seconds": 374
      }
    ],
    [
      8,
      2,
      {
        "cost": 429.71999999999999,
        "seconds": 960
      }
    ],
    [
      8,
      4,
      {
        "cost": 450.75,
        "seconds": 1118
      }
    ],
    [
      8,
      5,
      {
        "cost": 125.49,
        "seconds": 382
      }
    ],
    [
      8,
      6,
      {
        "cost": 121.83,
        "seconds": 360
      }
    ],
    [
      8,
      10,
      {
        "cost": 243.39,
        "seconds": 669
      }
    ],
    [
      8,
      11,
      {
        "cost": 167.88,
        "seconds": 472
      }
    ],
    [
      9,
      1,
      {
        "cost": 191.76,
        "seconds": 519
      }
    ],
    [
      9,
      0,
      {
        "cost": 231.39,
        "seconds": 547
      }
    ],
    [
      9,
      5,
      {
        "cost": 194.45999999999999,
        "seconds": 528
      }
    ],
    [
      9,
      7,
      {
        "cost": 102.69,
        "seconds": 345
      }
    ],
    [
      9,
      6,
      {
        "cost": 132.84,
        "seconds": 364
      }
    ],
    [
      9,
      10,
      {
        "cost": 228.98999999999999,
        "seconds": 570
      }
    ],
    [
      9,
      11,
      {
        "cost": 76.17,
        "seconds": 273
      }
    ],
    [
      9,
      8,
      {
        "cost": 106.58999999999999,
        "seconds": 377
      }
    ],
    [
      10,
      0,
      {
        "cost": 101.39999999999999,
        "seconds": 263
      }
    ],
    [
      10,
      3,
      {
        "cost": 44.46,
        "seconds": 144
      }
    ],
    [
      10,
      2,
      {
        "cost": 270.96,
        "seconds": 602
      }
    ],
    [
      10,
      4,
      {
        "cost": 432.3,
        "seconds": 990
      }
    ],
    [
      10,
      6,
      {
        "cost": 178.56,
        "seconds": 374
      }
    ],
    [
      10,
      8,
      {
        "cost": 274.34999999999999,
        "seconds": 607
      }
    ],
    [
      10,
      14,
      {
        "cost": 355.62,
        "seconds": 845
      }
    ],
    [
      11,
      1,
      {
        "cost": 296.72999999999998,
        "seconds": 664
      }
    ],
    [
      11,
      0,
      {
        "cost": 184.29,
        "seconds": 419
      }
    ],
    [
      11,
      3,
      {
        "cost": 184.56,
        "seconds": 405
      }
    ],
    [
      11,
      2,
      {
        "cost": 299.61,
        "seconds": 661
      }
    ],
    [
      11,
      5,
      {
        "cost": 299.43,
        "seconds": 673
      }
    ],
    [
      11,
      7,
      {
        "cost": 43.019999999999999,
        "seconds": 173
      }
    ],
    [
      11,
      6,
      {
        "cost": 213.09,
        "seconds": 474
      }
    ],
    [
      11,
      9,
      {
        "cost": 62.309999999999998,
        "seconds": 214
      }
    ],
    [
      11,
      8,
      {
        "cost": 182.51999999999999,
        "seconds": 541
      }
    ],
    [
      11,
      15,
      {
        "cost": 226.89,
        "seconds": 524
      }
    ],
    [
      11,
      13,
      {
        "cost": 271.86,
        "seconds": 640
      }
    ],
    [
      11,
      10,
      {
        "cost": 203.79,
        "seconds": 445
      }
    ],
    [
      12,
      2,
      {
        "cost": 49.589999999999999,
        "seconds": 163
      }
    ],
    [
      12,
      4,
      {
        "cost": 285.24,
        "seconds": 766
      }
    ],
    [
      12,
      6,
      {
        "cost": 378.84,
        "seconds": 813
      }
    ],
    [
      12,
      10,
      {
        "cost": 346.59,
        "seconds": 766
      }
    ],
    [
      12,
      14,
      {
        "cost": 94.86,
        "seconds": 286
      }
    ],
    [
      12,
      15,
      {
        "cost": 85.38,
        "seconds": 294
      }
    ],
    [
      13,
      3,
      {
        "cost": 287.94,
        "seconds": 583
      }
    ],
    [
      13,
      2,
      {
        "cost": 54.39,
        "seconds": 146
      }
    ],
    [
      13,
      5,
      {
        "cost": 402.78,
        "seconds": 851
      }
    ],
    [
      13,
      14,
      {
        "cost": 139.04999999999999,
        "seconds": 389
      }
    ],
    [
      13,
      15,
      {
        "cost": 43.08,
        "seconds": 100
      }
    ],
    [
      13,
      12,
      {
        "cost": 73.28999999999999,
        "seconds": 243
      }
    ],
    [
      14,
      2,
      {
        "cost": 96.42,
        "seconds": 258
      }
    ],
    [
      14,
      4,
      {
        "cost": 286.08,
        "seconds": 750
      }
    ],
    [
      14,
      6,
      {
        "cost": 430.08,
        "seconds": 926
      }
    ],
    [
      14,
      10,
      {
        "cost": 393.41999999999998,
        "seconds": 861
      }
    ],
    [
      14,
      12,
      {
        "cost": 83.49,
        "seconds": 266
      }
    ],
    [
      14,
      13,
      {
        "cost": 126.63,
        "seconds": 329
      }
    ],
    [
      15,
      1,
      {
        "cost": 423.65999999999999,
        "seconds": 871
      }
    ],
    [
      15,
      3,
      {
        "cost": 311.52,
        "seconds": 613
      }
    ],
    [
      15,
      2,
      {
        "cost": 89.85,
        "seconds": 210
      }
    ],
    [
      15,
      5,
      {
        "cost": 426.35999999999998,
        "seconds": 880
      }
    ],
    [
      15,
      11,
      {
        "cost": 222.78,
        "seconds": 511
      }
    ],
    [
      15,
      13,
      {
        "cost": 55.53,
        "seconds": 194
      }
    ],
    [
      15,
      12,
      {
        "cost": 83.91,
        "seconds": 310
      }
    ],
    [
      15,
      14,
      {
        "cost": 174.51,
        "seconds": 452
      }
    ],
    [
      14,
      17,
      {
        "cost": 241.98,
        "seconds": 617
      }
    ],
    [
      16,
      15,
      {
        "cost": 424.26,
        "seconds": 858
      }
    ],
    [
      14,
      16,
      {
        "cost": 551.16,
        "seconds": 1133
      }
    ],
    [
      17,
      15,
      {
        "cost": 190.5,
        "seconds": 410
      }
    ],
    [
      12,
      17,
      {
        "cost": 224.13,
        "seconds": 572
      }
    ],
    [
      16,
      13,
      {
        "cost": 421.77,
        "seconds": 897
      }
    ],
    [
      12,
      16,
      {
        "cost": 499.95,
        "seconds": 1019
      }
    ],
    [
      17,
      13,
      {
        "cost": 240.89999999999999,
        "seconds": 569
      }
    ],
    [
      10,
      17,
      {
        "cost": 306.3,
        "seconds": 696
      }
    ],
    [
      16,
      11,
      {
        "cost": 308.43,
        "seconds": 678
      }
    ],
    [
      10,
      16,
      {
        "cost": 206.57999999999999,
        "seconds": 426
      }
    ],
    [
      17,
      11,
      {
        "cost": 181.89,
        "seconds": 431
      }
    ],
    [
      8,
      17,
      {
        "cost": 332.03999999999999,
        "seconds": 806
      }
    ],
    [
      16,
      9,
      {
        "cost": 230.34,
        "seconds": 618
      }
    ],
    [
      8,
      16,
      {
        "cost": 157.56,
        "seconds": 441
      }
    ],
    [
      17,
      9,
      {
        "cost": 227.04,
        "seconds": 525
      }
    ],
    [
      6,
      17,
      {
        "cost": 392.49,
        "seconds": 858
      }
    ],
    [
      16,
      7,
      {
        "cost": 320.34,
        "seconds": 678
      }
    ],
    [
      6,
      16,
      {
        "cost": 115.19999999999999,
        "seconds": 294
      }
    ],
    [
      17,
      7,
      {
        "cost": 159.03,
        "seconds": 461
      }
    ],
    [
      4,
      17,
      {
        "cost": 141.29999999999999,
        "seconds": 368
      }
    ],
    [
      16,
      5,
      {
        "cost": 64.08,
        "seconds": 144
      }
    ],
    [
      4,
      16,
      {
        "cost": 568.26,
        "seconds": 1235
      }
    ],
    [
      17,
      5,
      {
        "cost": 406.68,
        "seconds": 924
      }
    ],
    [
      2,
      17,
      {
        "cost": 288.12,
        "seconds": 632
      }
    ],
    [
      16,
      3,
      {
        "cost": 179.43,
        "seconds": 372
      }
    ],
    [
      2,
      16,
      {
        "cost": 483.63,
        "seconds": 963
      }
    ],
    [
      17,
      3,
      {
        "cost": 291.84,
        "seconds": 657
      }
    ],
    [
      0,
      17,
      {
        "cost": 247.85999999999999,
        "seconds": 588
      }
    ],
    [
      16,
      1,
      {
        "cost": 54.51,
        "seconds": 120
      }
    ],
    [
      0,
      16,
      {
        "cost": 317.84999999999999,
        "seconds": 665
      }
    ],
    [
      17,
      1,
      {
        "cost": 403.97999999999998,
        "seconds": 916
      }
    ]
  ]
}