{
  "nodes": [
    {
      "Delivery": {
        "bid": 144,
        "id": 10,
        "price": null,
        "cost": null,
        "direct_dist": 8583,
        "direct_cost": 258,
        "direct_time": 602
      }
    },
    {
      "Pickup": {
        "bid": 144,
        "id": 10,
        "price": null,
        "cost": null,
        "direct_dist": 8583,
        "direct_cost": 258,
        "direct_time": 602
      }
    },
    {
      "Delivery": {
        "bid": 803,
        "id": 9,
        "price": null,
        "cost": null,
        "direct_dist": 9350,
        "direct_cost": 281,
        "direct_time": 673
      }
    },
    {
      "Pickup": {
        "bid": 803,
        "id": 9,
        "price": null,
        "cost": null,
        "direct_dist": 9350,
        "direct_cost": 281,
        "direct_time": 673
      }
    },
    {
      "Delivery": {
        "bid": 561,
        "id": 8,
        "price": null,
        "cost": null,
        "direct_dist": 1872,
        "direct_cost": 57,
        "direct_time": 146
      }
    },
    {
      "Pickup": {
        "bid": 561,
        "id": 8,
        "price": null,
        "cost": null,
        "direct_dist": 1872,
        "direct_cost": 57,
        "direct_time": 146
      }
    },
    {
      "Delivery": {
        "bid": 800,
        "id": 6,
        "price": null,
        "cost": null,
        "direct_dist": 2669,
        "direct_cost": 81,
        "direct_time": 246
      }
    },
    {
      "Pickup": {
        "bid": 800,
        "id": 6,
        "price": null,
        "cost": null,
        "direct_dist": 2669,
        "direct_cost": 81,
        "direct_time": 246
      }
    },
    {
      "Delivery": {
        "bid": 2142,
        "id": 5,
        "price": null,
        "cost": null,
        "direct_dist": 7140,
        "direct_cost": 215,
        "direct_time": 523
      }
    },
    {
      "Pickup": {
        "bid": 2142,
        "id": 5,
        "price": null,
        "cost": null,
        "direct_dist": 7140,
        "direct_cost": 215,
        "direct_time": 523
      }
    },
    {
      "Delivery": {
        "bid": 2705,
        "id": 4,
        "price": null,
        "cost": null,
        "direct_dist": 11586,
        "direct_cost": 348,
        "direct_time": 841
      }
    },
    {
      "Pickup": {
        "bid": 2705,
        "id": 4,
        "price": null,
        "cost": null,
        "direct_dist": 11586,
        "direct_cost": 348,
        "direct_time": 841
      }
    },
    {
      "Delivery": {
        "bid": 2850,
        "id": 2,
        "price": null,
        "cost": null,
        "direct_dist": 9622,
        "direct_cost": 289,
        "direct_time": 732
      }
    },
    {
      "Pickup": {
        "bid": 2850,
        "id": 2,
        "price": null,
        "cost": null,
        "direct_dist": 9622,
        "direct_cost": 289,
        "direct_time": 732
      }
    },
    {
      "DriverStart": {
        "arrive_until": 2400,
        "direct_cost": 439
      }
    },
    {
      "DriverEnd": {
        "arrive_until": 2400,
        "direct_cost": 439
      }
    }
  ],
  "node_holes": [],
  "edge_property": "directed",
  "edges": [
    [
      0,
      10,
      {
        "cost": 233.28,
        "seconds": 552
      }
    ],
    [
      0,
      12,
      {
        "cost": 308.01,
        "seconds": 642
      }
    ],
    [
      0,
      8,
      {
        "cost": 62.129999999999998,
        "seconds": 187
      }
    ],
    [
      0,
      2,
      {
        "cost": 270.12,
        "seconds": 572
      }
    ],
    [
      1,
      6,
      {
        "cost": 139.29,
        "seconds": 503
      }
    ],
    [
      1,
      10,
      {
        "cost": 88.92,
        "seconds": 241
      }
    ],
    [
      1,
      7,
      {
        "cost": 116.33999999999999,
        "seconds": 362
      }
    ],
    [
      1,
      11,
      {
        "cost": 360.93,
        "seconds": 798
      }
    ],
    [
      1,
      12,
      {
        "cost": 309.12,
        "seconds": 663
      }
    ],
    [
      1,
      8,
      {
        "cost": 236.94,
        "seconds": 507
      }
    ],
    [
      1,
      4,
      {
        "cost": 134.76,
        "seconds": 473
      }
    ],
    [
      1,
      2,
      {
        "cost": 52.589999999999999,
        "seconds": 135
      }
    ],
    [
      1,
      13,
      {
        "cost": 114.21,
        "seconds": 362
      }
    ],
    [
      1,
      9,
      {
        "cost": 107.1,
        "seconds": 373
      }
    ],
    [
      1,
      5,
      {
        "cost": 209.88,
        "seconds": 635
      }
    ],
    [
      1,
      3,
      {
        "cost": 328.56,
        "seconds": 749
      }
    ],
    [
      1,
      0,
      {
        "cost": 257.49,
        "seconds": 602
      }
    ],
    [
      2,
      1,
      {
        "cost": 39.99,
        "seconds": 91
      }
    ],
    [
      2,
      0,
      {
        "cost": 263.78999999999999,
        "seconds": 627
      }
    ],
    [
      2,
      12,
      {
        "cost": 336.06,
        "seconds": 683
      }
    ],
    [
      2,
      8,
      {
        "cost": 263.88,
        "seconds": 527
      }
    ],
    [
      2,
      10,
      {
        "cost": 46.62,
        "seconds": 111
      }
    ],
    [
      3,
      1,
      {
        "cost": 280.86,
        "seconds": 676
      }
    ],
    [
      3,
      0,
      {
        "cost": 320.84999999999999,
        "seconds": 726
      }
    ],
    [
      3,
      6,
      {
        "cost": 117.11999999999999,
        "seconds": 308
      }
    ],
    [
      3,
      4,
      {
        "cost": 107.7,
        "seconds": 263
      }
    ],
    [
      3,
      12,
      {
        "cost": 166.71,
        "seconds": 381
      }
    ],
    [
      3,
      8,
      {
        "cost": 277.68,
        "seconds": 565
      }
    ],
    [
      3,
      10,
      {
        "cost": 327.12,
        "seconds": 785
      }
    ],
    [
      3,
      7,
      {
        "cost": 162.54,
        "seconds": 418
      }
    ],
    [
      3,
      5,
      {
        "cost": 63.69,
        "seconds": 154
      }
    ],
    [
      3,
      9,
      {
        "cost": 155.46,
        "seconds": 443
      }
    ],
    [
      3,
      13,
      {
        "cost": 188.37,
        "seconds": 453
      }
    ],
    [
      3,
      11,
      {
        "cost": 44.82,
        "seconds": 130
      }
    ],
    [
      3,
      2,
      {
        "cost": 280.5,
        "seconds": 673
      }
    ],
    [
      4,
      0,
      {
        "cost": 282.71999999999999,
        "seconds": 660
      }
    ],
    [
      4,
      1,
      {
        "cost": 176.54999999999999,
        "seconds": 425
      }
    ],
    [
      4,
      2,
      {
        "cost": 176.19,
        "seconds": 422
      }
    ],
    [
      4,
      3,
      {
        "cost": 123.08999999999999,
        "seconds": 303
      }
    ],
    [
      4,
      10,
      {
        "cost": 222.81,
        "seconds": 533
      }
    ],
    [
      4,
      6,
      {
        "cost": 20.7,
        "seconds": 79
      }
    ],
    [
      4,
      12,
      {
        "cost": 197.13,
        "seconds": 492
      }
    ],
    [
      4,
      8,
      {
        "cost": 239.57999999999999,
        "seconds": 499
      }
    ],
    [
      4,
      11,
      {
        "cost": 147.93,
        "seconds": 348
      }
    ],
    [
      4,
      7,
      {
        "cost": 58.23,
        "seconds": 166
      }
    ],
    [
      4,
      13,
      {
        "cost": 84.09,
        "seconds": 201
      }
    ],
    [
      4,
      9,
      {
        "cost": 47.76,
        "seconds": 180
      }
    ],
    [
      5,
      1,
      {
        "cost": 229.32,
        "seconds": 559
      }
    ],
    [
      5,
      3,
      {
        "cost": 63.51,
        "seconds": 164
      }
    ],
    [
      5,
      6,
      {
        "cost": 65.55,
        "seconds": 191
      }
    ],
    [
      5,
      11,
      {
        "cost": 82.47,
        "seconds": 199
      }
    ],
    [
      5,
      13,
      {
        "cost": 136.82999999999999,
        "seconds": 336
      }
    ],
    [
      5,
      7,
      {
        "cost": 111.0,
        "seconds": 301
      }
    ],
    [
      5,
      9,
      {
        "cost": 103.92,
        "seconds": 326
      }
    ],
    [
      5,
      4,
      {
        "cost": 56.16,
        "seconds": 146
      }
    ],
    [
      6,
      0,
      {
        "cost": 270.0,
        "seconds": 656
      }
    ],
    [
      6,
      1,
      {
        "cost": 197.76,
        "seconds": 497
      }
    ],
    [
      6,
      2,
      {
        "cost": 197.4,
        "seconds": 494
      }
    ],
    [
      6,
      3,
      {
        "cost": 123.81,
        "seconds": 340
      }
    ],
    [
      6,
      4,
      {
        "cost": 19.98,
        "seconds": 77
      }
    ],
    [
      6,
      5,
      {
        "cost": 52.08,
        "seconds": 211
      }
    ],
    [
      6,
      10,
      {
        "cost": 244.01999999999999,
        "seconds": 605
      }
    ],
    [
      6,
      12,
      {
        "cost": 197.88,
        "seconds": 529
      }
    ],
    [
      6,
      8,
      {
        "cost": 226.85999999999999,
        "seconds": 495
      }
    ],
    [
      6,
      13,
      {
        "cost": 105.3,
        "seconds": 273
      }
    ],
    [
      6,
      9,
      {
        "cost": 44.73,
        "seconds": 171
      }
    ],
    [
      6,
      11,
      {
        "cost": 148.65,
        "seconds": 385
      }
    ],
    [
      7,
      1,
      {
        "cost": 109.61999999999999,
        "seconds": 316
      }
    ],
    [
      7,
      3,
      {
        "cost": 177.12,
        "seconds": 447
      }
    ],
    [
      7,
      5,
      {
        "cost": 105.42,
        "seconds": 319
      }
    ],
    [
      7,
      4,
      {
        "cost": 59.37,
        "seconds": 167
      }
    ],
    [
      7,
      8,
      {
        "cost": 238.5,
        "seconds": 579
      }
    ],
    [
      7,
      11,
      {
        "cost": 201.95999999999999,
        "seconds": 493
      }
    ],
    [
      7,
      13,
      {
        "cost": 70.67999999999999,
        "seconds": 198
      }
    ],
    [
      7,
      9,
      {
        "cost": 66.84,
        "seconds": 241
      }
    ],
    [
      7,
      6,
      {
        "cost": 80.07,
        "seconds": 246
      }
    ],
    [
      8,
      0,
      {
        "cost": 61.019999999999999,
        "seconds": 225
      }
    ],
    [
      8,
      2,
      {
        "cost": 255.23999999999999,
        "seconds": 573
      }
    ],
    [
      8,
      6,
      {
        "cost": 244.79999999999999,
        "seconds": 590
      }
    ],
    [
      8,
      10,
      {
        "cost": 248.01,
        "seconds": 593
      }
    ],
    [
      8,
      12,
      {
        "cost": 229.73999999999999,
        "seconds": 584
      }
    ],
    [
      9,
      1,
      {
        "cost": 121.22999999999999,
        "seconds": 430
      }
    ],
    [
      9,
      0,
      {
        "cost": 248.31,
        "seconds": 593
      }
    ],
    [
      9,
      3,
      {
        "cost": 171.9,
        "seconds": 475
      }
    ],
    [
      9,
      2,
      {
        "cost": 120.86999999999999,
        "seconds": 427
      }
    ],
    [
      9,
      5,
      {
        "cost": 100.2,
        "seconds": 346
      }
    ],
    [
      9,
      4,
      {
        "cost": 48.839999999999999,
        "seconds": 172
      }
    ],
    [
      9,
      7,
      {
        "cost": 58.89,
        "seconds": 212
      }
    ],
    [
      9,
      6,
      {
        "cost": 45.03,
        "seconds": 176
      }
    ],
    [
      9,
      11,
      {
        "cost": 196.73999999999999,
        "seconds": 520
      }
    ],
    [
      9,
      12,
      {
        "cost": 239.73,
        "seconds": 621
      }
    ],
    [
      9,
      13,
      {
        "cost": 99.81,
        "seconds": 350
      }
    ],
    [
      9,
      8,
      {
        "cost": 214.2,
        "seconds": 523
      }
    ],
    [
      10,
      0,
      {
        "cost": 250.67999999999999,
        "seconds": 610
      }
    ],
    [
      10,
      2,
      {
        "cost": 63.089999999999999,
        "seconds": 154
      }
    ],
    [
      10,
      12,
      {
        "cost": 359.52,
        "seconds": 749
      }
    ],
    [
      11,
      1,
      {
        "cost": 301.32,
        "seconds": 733
      }
    ],
    [
      11,
      0,
      {
        "cost": 341.31,
        "seconds": 782
      }
    ],
    [
      11,
      3,
      {
        "cost": 53.97,
        "seconds": 170
      }
    ],
    [
      11,
      2,
      {
        "cost": 300.96,
        "seconds": 730
      }
    ],
    [
      11,
      5,
      {
        "cost": 84.14999999999999,
        "seconds": 211
      }
    ],
    [
      11,
      4,
      {
        "cost": 128.19,
        "seconds": 319
      }
    ],
    [
      11,
      7,
      {
        "cost": 183.0,
        "seconds": 474
      }
    ],
    [
      11,
      6,
      {
        "cost": 137.57999999999999,
        "seconds": 364
      }
    ],
    [
      11,
      9,
      {
        "cost": 175.92,
        "seconds": 499
      }
    ],
    [
      11,
      8,
      {
        "cost": 298.17,
        "seconds": 621
      }
    ],
    [
      11,
      12,
      {
        "cost": 209.16,
        "seconds": 439
      }
    ],
    [
      11,
      13,
      {
        "cost": 208.85999999999999,
        "seconds": 509
      }
    ],
    [
      11,
      10,
      {
        "cost": 347.58,
        "seconds": 841
      }
    ],
    [
      12,
      0,
      {
        "cost": 290.46,
        "seconds": 670
      }
    ],
    [
      12,
      2,
      {
        "cost": 353.55,
        "seconds": 732
      }
    ],
    [
      12,
      8,
      {
        "cost": 247.32,
        "seconds": 510
      }
    ],
    [
      12,
      10,
      {
        "cost": 360.51,
        "seconds": 756
      }
    ],
    [
      13,
      1,
      {
        "cost": 127.02,
        "seconds": 337
      }
    ],
    [
      13,
      0,
      {
        "cost": 290.01,
        "seconds": 670
      }
    ],
    [
      13,
      3,
      {
        "cost": 214.59,
        "seconds": 543
      }
    ],
    [
      13,
      2,
      {
        "cost": 126.66,
        "seconds": 334
      }
    ],
    [
      13,
      5,
      {
        "cost": 142.85999999999999,
        "seconds": 414
      }
    ],
    [
      13,
      4,
      {
        "cost": 96.81,
        "seconds": 263
      }
    ],
    [
      13,
      7,
      {
        "cost": 77.52,
        "seconds": 249
      }
    ],
    [
      13,
      6,
      {
        "cost": 117.50999999999999,
        "seconds": 341
      }
    ],
    [
      13,
      9,
      {
        "cost": 104.36999999999999,
        "seconds": 326
      }
    ],
    [
      13,
      8,
      {
        "cost": 255.89999999999999,
        "seconds": 600
      }
    ],
    [
      13,
      11,
      {
        "cost": 174.95999999999999,
        "seconds": 559
      }
    ],
    [
      13,
      10,
      {
        "cost": 173.25,
        "seconds": 445
      }
    ],
    [
      13,
      12,
      {
        "cost": 288.65999999999999,
        "seconds": 732
      }
    ],
    [
      12,
      15,
      {
        "cost": 404.03999999999999,
        "seconds": 883
      }
    ],
    [
      14,
      13,
      {
        "cost": 131.67,
        "seconds": 402
      }
    ],
    [
      12,
      14,
      {
        "cost": 204.81,
        "seconds": 462
      }
    ],
    [
      15,
      13,
      {
        "cost": 260.58,
        "seconds": 616
      }
    ],
    [
      10,
      15,
      {
        "cost": 139.5,
        "seconds": 366
      }
    ],
    [
      14,
      11,
      {
        "cost": 63.03,
        "seconds": 165
      }
    ],
    [
      10,
      14,
      {
        "cost": 271.46999999999999,
        "seconds": 763
      }
    ],
    [
      15,
      11,
      {
        "cost": 439.08,
        "seconds": 952
      }
    ],
    [
      8,
      15,
      {
        "cost": 234.57,
        "seconds": 573
      }
    ],
    [
      14,
      9,
      {
        "cost": 137.25,
        "seconds": 411
      }
    ],
    [
      8,
      14,
      {
        "cost": 272.34,
        "seconds": 617
      }
    ],
    [
      15,
      9,
      {
        "cost": 296.01,
        "seconds": 726
      }
    ],
    [
      6,
      15,
      {
        "cost": 292.22999999999998,
        "seconds": 805
      }
    ],
    [
      14,
      7,
      {
        "cost": 105.83999999999999,
        "seconds": 366
      }
    ],
    [
      6,
      14,
      {
        "cost": 97.67999999999999,
        "seconds": 282
      }
    ],
    [
      15,
      7,
      {
        "cost": 269.15999999999999,
        "seconds": 649
      }
    ],
    [
      4,
      15,
      {
        "cost": 294.45,
        "seconds": 802
      }
    ],
    [
      14,
      5,
      {
        "cost": 45.48,
        "seconds": 123
      }
    ],
    [
      4,
      14,
      {
        "cost": 96.92999999999999,
        "seconds": 245
      }
    ],
    [
      15,
      5,
      {
        "cost": 368.03999999999999,
        "seconds": 811
      }
    ],
    [
      2,
      15,
      {
        "cost": 163.92,
        "seconds": 426
      }
    ],
    [
      14,
      3,
      {
        "cost": 65.16,
        "seconds": 167
      }
    ],
    [
      2,
      14,
      {
        "cost": 248.01,
        "seconds": 697
      }
    ],
    [
      15,
      3,
      {
        "cost": 406.71,
        "seconds": 903
      }
    ],
    [
      0,
      15,
      {
        "cost": 226.32,
        "seconds": 518
      }
    ],
    [
      14,
      1,
      {
        "cost": 224.16,
        "seconds": 625
      }
    ],
    [
      0,
      14,
      {
        "cost": 308.82,
        "seconds": 673
      }
    ],
    [
      15,
      1,
      {
        "cost": 162.23999999999999,
        "seconds": 377
      }
    ]
  ]
}