{
  "nodes": [
    {
      "Delivery": {
        "bid": 971,
        "id": 10,
        "price": null,
        "cost": null,
        "direct_dist": 8160,
        "direct_cost": 245,
        "direct_time": 645
      }
    },
    {
      "Pickup": {
        "bid": 971,
        "id": 10,
        "price": null,
        "cost": null,
        "direct_dist": 8160,
        "direct_cost": 245,
        "direct_time": 645
      }
    },
    {
      "Delivery": {
        "bid": 892,
        "id": 9,
        "price": null,
        "cost": null,
        "direct_dist": 13186,
        "direct_cost": 396,
        "direct_time": 811
      }
    },
    {
      "Pickup": {
        "bid": 892,
        "id": 9,
        "price": null,
        "cost": null,
        "direct_dist": 13186,
        "direct_cost": 396,
        "direct_time": 811
      }
    },
    {
      "Delivery": {
        "bid": 2243,
        "id": 8,
        "price": null,
        "cost": null,
        "direct_dist": 7477,
        "direct_cost": 225,
        "direct_time": 466
      }
    },
    {
      "Pickup": {
        "bid": 2243,
        "id": 8,
        "price": null,
        "cost": null,
        "direct_dist": 7477,
        "direct_cost": 225,
        "direct_time": 466
      }
    },
    {
      "Delivery": {
        "bid": 4307,
        "id": 7,
        "price": null,
        "cost": null,
        "direct_dist": 14359,
        "direct_cost": 431,
        "direct_time": 924
      }
    },
    {
      "Pickup": {
        "bid": 4307,
        "id": 7,
        "price": null,
        "cost": null,
        "direct_dist": 14359,
        "direct_cost": 431,
        "direct_time": 924
      }
    },
    {
      "Delivery": {
        "bid": 1355,
        "id": 6,
        "price": null,
        "cost": null,
        "direct_dist": 4906,
        "direct_cost": 148,
        "direct_time": 294
      }
    },
    {
      "Pickup": {
        "bid": 1355,
        "id": 6,
        "price": null,
        "cost": null,
        "direct_dist": 4906,
        "direct_cost": 148,
        "direct_time": 294
      }
    },
    {
      "Delivery": {
        "bid": 2453,
        "id": 5,
        "price": null,
        "cost": null,
        "direct_dist": 8178,
        "direct_cost": 246,
        "direct_time": 557
      }
    },
    {
      "Pickup": {
        "bid": 2453,
        "id": 5,
        "price": null,
        "cost": null,
        "direct_dist": 8178,
        "direct_cost": 246,
        "direct_time": 557
      }
    },
    {
      "Delivery": {
        "bid": 118,
        "id": 4,
        "price": null,
        "cost": null,
        "direct_dist": 13208,
        "direct_cost": 397,
        "direct_time": 966
      }
    },
    {
      "Pickup": {
        "bid": 118,
        "id": 4,
        "price": null,
        "cost": null,
        "direct_dist": 13208,
        "direct_cost": 397,
        "direct_time": 966
      }
    },
    {
      "Delivery": {
        "bid": 2024,
        "id": 3,
        "price": null,
        "cost": null,
        "direct_dist": 6815,
        "direct_cost": 205,
        "direct_time": 509
      }
    },
    {
      "Pickup": {
        "bid": 2024,
        "id": 3,
        "price": null,
        "cost": null,
        "direct_dist": 6815,
        "direct_cost": 205,
        "direct_time": 509
      }
    },
    {
      "Delivery": {
        "bid": 951,
        "id": 2,
        "price": null,
        "cost": null,
        "direct_dist": 11415,
        "direct_cost": 343,
        "direct_time": 707
      }
    },
    {
      "Pickup": {
        "bid": 951,
        "id": 2,
        "price": null,
        "cost": null,
        "direct_dist": 11415,
        "direct_cost": 343,
        "direct_time": 707
      }
    },
    {
      "DriverStart": {
        "arrive_until": 2400,
        "direct_cost": 433
      }
    },
    {
      "DriverEnd": {
        "arrive_until": 2400,
        "direct_cost": 433
      }
    }
  ],
  "node_holes": [],
  "edge_property": "directed",
  "edges": [
    [
      0,
      10,
      {
        "cost": 186.93,
        "seconds": 458
      }
    ],
    [
      0,
      12,
      {
        "cost": 282.09,
        "seconds": 607
      }
    ],
    [
      0,
      4,
      {
        "cost": 104.13,
        "seconds": 249
      }
    ],
    [
      0,
      16,
      {
        "cost": 149.28,
        "seconds": 339
      }
    ],
    [
      0,
      2,
      {
        "cost": 147.06,
        "seconds": 357
      }
    ],
    [
      0,
      8,
      {
        "cost": 151.59,
        "seconds": 340
      }
    ],
    [
      0,
      14,
      {
        "cost": 123.86999999999999,
        "seconds": 282
      }
    ],
    [
      0,
      6,
      {
        "cost": 168.18,
        "seconds": 431
      }
    ],
    [
      1,
      10,
      {
        "cost": 332.55,
        "seconds": 741
      }
    ],
    [
      1,
      4,
      {
        "cost": 223.73999999999999,
        "seconds": 545
      }
    ],
    [
      1,
      13,
      {
        "cost": 297.36,
        "seconds": 682
      }
    ],
    [
      1,
      11,
      {
        "cost": 242.94,
        "seconds": 542
      }
    ],
    [
      1,
      2,
      {
        "cost": 267.03,
        "seconds": 616
      }
    ],
    [
      1,
      5,
      {
        "cost": 331.34999999999999,
        "seconds": 750
      }
    ],
    [
      1,
      16,
      {
        "cost": 116.31,
        "seconds": 361
      }
    ],
    [
      1,
      8,
      {
        "cost": 192.48,
        "seconds": 429
      }
    ],
    [
      1,
      6,
      {
        "cost": 343.38,
        "seconds": 784
      }
    ],
    [
      1,
      14,
      {
        "cost": 264.63,
        "seconds": 642
      }
    ],
    [
      1,
      17,
      {
        "cost": 342.24,
        "seconds": 751
      }
    ],
    [
      1,
      15,
      {
        "cost": 90.21,
        "seconds": 278
      }
    ],
    [
      1,
      9,
      {
        "cost": 45.3,
        "seconds": 135
      }
    ],
    [
      1,
      3,
      {
        "cost": 350.82,
        "seconds": 794
      }
    ],
    [
      1,
      7,
      {
        "cost": 331.83,
        "seconds": 766
      }
    ],
    [
      1,
      0,
      {
        "cost": 244.79999999999999,
        "seconds": 645
      }
    ],
    [
      2,
      0,
      {
        "cost": 140.97,
        "seconds": 341
      }
    ],
    [
      2,
      12,
      {
        "cost": 175.29,
        "seconds": 406
      }
    ],
    [
      2,
      16,
      {
        "cost": 218.73,
        "seconds": 505
      }
    ],
    [
      2,
      8,
      {
        "cost": 148.35,
        "seconds": 309
      }
    ],
    [
      2,
      10,
      {
        "cost": 73.59,
        "seconds": 150
      }
    ],
    [
      2,
      14,
      {
        "cost": 22.47,
        "seconds": 63
      }
    ],
    [
      2,
      6,
      {
        "cost": 84.42,
        "seconds": 192
      }
    ],
    [
      2,
      4,
      {
        "cost": 78.36,
        "seconds": 155
      }
    ],
    [
      3,
      1,
      {
        "cost": 363.21,
        "seconds": 836
      }
    ],
    [
      3,
      0,
      {
        "cost": 415.5,
        "seconds": 918
      }
    ],
    [
      3,
      12,
      {
        "cost": 510.35999999999998,
        "seconds": 1135
      }
    ],
    [
      3,
      8,
      {
        "cost": 307.08,
        "seconds": 635
      }
    ],
    [
      3,
      16,
      {
        "cost": 404.49,
        "seconds": 828
      }
    ],
    [
      3,
      10,
      {
        "cost": 461.09999999999999,
        "seconds": 936
      }
    ],
    [
      3,
      13,
      {
        "cost": 98.55,
        "seconds": 283
      }
    ],
    [
      3,
      6,
      {
        "cost": 471.93,
        "seconds": 978
      }
    ],
    [
      3,
      14,
      {
        "cost": 393.18,
        "seconds": 836
      }
    ],
    [
      3,
      4,
      {
        "cost": 364.16999999999998,
        "seconds": 752
      }
    ],
    [
      3,
      9,
      {
        "cost": 367.38,
        "seconds": 838
      }
    ],
    [
      3,
      17,
      {
        "cost": 384.03,
        "seconds": 780
      }
    ],
    [
      3,
      11,
      {
        "cost": 284.7,
        "seconds": 570
      }
    ],
    [
      3,
      15,
      {
        "cost": 303.51,
        "seconds": 752
      }
    ],
    [
      3,
      7,
      {
        "cost": 39.39,
        "seconds": 123
      }
    ],
    [
      3,
      5,
      {
        "cost": 244.38,
        "seconds": 686
      }
    ],
    [
      3,
      2,
      {
        "cost": 395.58,
        "seconds": 811
      }
    ],
    [
      4,
      0,
      {
        "cost": 109.71,
        "seconds": 288
      }
    ],
    [
      4,
      2,
      {
        "cost": 88.44,
        "seconds": 215
      }
    ],
    [
      4,
      6,
      {
        "cost": 164.79,
        "seconds": 383
      }
    ],
    [
      4,
      8,
      {
        "cost": 102.0,
        "seconds": 257
      }
    ],
    [
      4,
      10,
      {
        "cost": 153.96,
        "seconds": 340
      }
    ],
    [
      4,
      16,
      {
        "cost": 183.84,
        "seconds": 443
      }
    ],
    [
      4,
      12,
      {
        "cost": 255.66,
        "seconds": 597
      }
    ],
    [
      4,
      14,
      {
        "cost": 86.03999999999999,
        "seconds": 241
      }
    ],
    [
      4,
      17,
      {
        "cost": 187.47,
        "seconds": 418
      }
    ],
    [
      4,
      11,
      {
        "cost": 123.75,
        "seconds": 308
      }
    ],
    [
      5,
      1,
      {
        "cost": 356.31,
        "seconds": 728
      }
    ],
    [
      5,
      0,
      {
        "cost": 296.88,
        "seconds": 612
      }
    ],
    [
      5,
      3,
      {
        "cost": 216.09,
        "seconds": 475
      }
    ],
    [
      5,
      2,
      {
        "cost": 211.53,
        "seconds": 477
      }
    ],
    [
      5,
      6,
      {
        "cost": 270.84,
        "seconds": 618
      }
    ],
    [
      5,
      10,
      {
        "cost": 260.01,
        "seconds": 576
      }
    ],
    [
      5,
      8,
      {
        "cost": 191.01,
        "seconds": 376
      }
    ],
    [
      5,
      16,
      {
        "cost": 323.90999999999999,
        "seconds": 637
      }
    ],
    [
      5,
      14,
      {
        "cost": 251.42999999999999,
        "seconds": 474
      }
    ],
    [
      5,
      7,
      {
        "cost": 197.1,
        "seconds": 447
      }
    ],
    [
      5,
      9,
      {
        "cost": 328.65,
        "seconds": 717
      }
    ],
    [
      5,
      13,
      {
        "cost": 162.63,
        "seconds": 363
      }
    ],
    [
      5,
      17,
      {
        "cost": 80.42999999999999,
        "seconds": 212
      }
    ],
    [
      5,
      11,
      {
        "cost": 113.7,
        "seconds": 272
      }
    ],
    [
      5,
      15,
      {
        "cost": 277.56,
        "seconds": 629
      }
    ],
    [
      5,
      4,
      {
        "cost": 224.31,
        "seconds": 466
      }
    ],
    [
      6,
      0,
      {
        "cost": 179.25,
        "seconds": 461
      }
    ],
    [
      6,
      2,
      {
        "cost": 89.07,
        "seconds": 265
      }
    ],
    [
      6,
      4,
      {
        "cost": 154.71,
        "seconds": 327
      }
    ],
    [
      6,
      14,
      {
        "cost": 98.78999999999999,
        "seconds": 235
      }
    ],
    [
      6,
      10,
      {
        "cost": 35.519999999999999,
        "seconds": 122
      }
    ],
    [
      6,
      16,
      {
        "cost": 270.71999999999999,
        "seconds": 659
      }
    ],
    [
      6,
      12,
      {
        "cost": 131.60999999999999,
        "seconds": 365
      }
    ],
    [
      7,
      1,
      {
        "cost": 325.40999999999999,
        "seconds": 783
      }
    ],
    [
      7,
      0,
      {
        "cost": 373.56,
        "seconds": 855
      }
    ],
    [
      7,
      3,
      {
        "cost": 38.91,
        "seconds": 93
      }
    ],
    [
      7,
      2,
      {
        "cost": 354.45,
        "seconds": 757
      }
    ],
    [
      7,
      5,
      {
        "cost": 211.41,
        "seconds": 583
      }
    ],
    [
      7,
      4,
      {
        "cost": 287.78999999999999,
        "seconds": 689
      }
    ],
    [
      7,
      10,
      {
        "cost": 419.94,
        "seconds": 882
      }
    ],
    [
      7,
      8,
      {
        "cost": 265.92,
        "seconds": 581
      }
    ],
    [
      7,
      14,
      {
        "cost": 352.02,
        "seconds": 782
      }
    ],
    [
      7,
      16,
      {
        "cost": 363.33,
        "seconds": 774
      }
    ],
    [
      7,
      12,
      {
        "cost": 433.97999999999998,
        "seconds": 1072
      }
    ],
    [
      7,
      15,
      {
        "cost": 262.34999999999999,
        "seconds": 698
      }
    ],
    [
      7,
      9,
      {
        "cost": 329.58,
        "seconds": 785
      }
    ],
    [
      7,
      17,
      {
        "cost": 264.51,
        "seconds": 696
      }
    ],
    [
      7,
      11,
      {
        "cost": 208.32,
        "seconds": 507
      }
    ],
    [
      7,
      13,
      {
        "cost": 65.55,
        "seconds": 180
      }
    ],
    [
      7,
      6,
      {
        "cost": 430.77,
        "seconds": 924
      }
    ],
    [
      8,
      0,
      {
        "cost": 146.28,
        "seconds": 334
      }
    ],
    [
      8,
      1,
      {
        "cost": 205.07999999999999,
        "seconds": 486
      }
    ],
    [
      8,
      2,
      {
        "cost": 133.14,
        "seconds": 255
      }
    ],
    [
      8,
      3,
      {
        "cost": 197.76,
        "seconds": 426
      }
    ],
    [
      8,
      4,
      {
        "cost": 78.6,
        "seconds": 169
      }
    ],
    [
      8,
      5,
      {
        "cost": 138.87,
        "seconds": 321
      }
    ],
    [
      8,
      6,
      {
        "cost": 209.48999999999999,
        "seconds": 422
      }
    ],
    [
      8,
      7,
      {
        "cost": 178.76999999999999,
        "seconds": 398
      }
    ],
    [
      8,
      10,
      {
        "cost": 198.63,
        "seconds": 380
      }
    ],
    [
      8,
      16,
      {
        "cost": 191.04,
        "seconds": 427
      }
    ],
    [
      8,
      12,
      {
        "cost": 300.36,
        "seconds": 637
      }
    ],
    [
      8,
      14,
      {
        "cost": 130.74,
        "seconds": 281
      }
    ],
    [
      8,
      11,
      {
        "cost": 50.46,
        "seconds": 113
      }
    ],
    [
      8,
      15,
      {
        "cost": 143.16,
        "seconds": 355
      }
    ],
    [
      8,
      17,
      {
        "cost": 149.76,
        "seconds": 322
      }
    ],
    [
      8,
      13,
      {
        "cost": 144.29999999999999,
        "seconds": 314
      }
    ],
    [
      9,
      1,
      {
        "cost": 48.9,
        "seconds": 166
      }
    ],
    [
      9,
      0,
      {
        "cost": 199.53,
        "seconds": 510
      }
    ],
    [
      9,
      3,
      {
        "cost": 305.55,
        "seconds": 659
      }
    ],
    [
      9,
      2,
      {
        "cost": 221.76,
        "seconds": 481
      }
    ],
    [
      9,
      5,
      {
        "cost": 286.08,
        "seconds": 615
      }
    ],
    [
      9,
      4,
      {
        "cost": 178.47,
        "seconds": 410
      }
    ],
    [
      9,
      7,
      {
        "cost": 286.56,
        "seconds": 631
      }
    ],
    [
      9,
      10,
      {
        "cost": 287.25,
        "seconds": 606
      }
    ],
    [
      9,
      14,
      {
        "cost": 219.32999999999999,
        "seconds": 507
      }
    ],
    [
      9,
      16,
      {
        "cost": 103.08,
        "seconds": 272
      }
    ],
    [
      9,
      13,
      {
        "cost": 252.09,
        "seconds": 547
      }
    ],
    [
      9,
      11,
      {
        "cost": 197.64,
        "seconds": 407
      }
    ],
    [
      9,
      15,
      {
        "cost": 44.91,
        "seconds": 143
      }
    ],
    [
      9,
      17,
      {
        "cost": 296.96999999999999,
        "seconds": 616
      }
    ],
    [
      9,
      8,
      {
        "cost": 147.18,
        "seconds": 294
      }
    ],
    [
      10,
      0,
      {
        "cost": 182.1,
        "seconds": 453
      }
    ],
    [
      10,
      2,
      {
        "cost": 78.21,
        "seconds": 223
      }
    ],
    [
      10,
      4,
      {
        "cost": 143.85,
        "seconds": 285
      }
    ],
    [
      10,
      6,
      {
        "cost": 31.919999999999999,
        "seconds": 94
      }
    ],
    [
      10,
      8,
      {
        "cost": 213.84,
        "seconds": 440
      }
    ],
    [
      10,
      12,
      {
        "cost": 101.72999999999999,
        "seconds": 257
      }
    ],
    [
      10,
      16,
      {
        "cost": 259.86,
        "seconds": 617
      }
    ],
    [
      10,
      14,
      {
        "cost": 87.96,
        "seconds": 193
      }
    ],
    [
      11,
      1,
      {
        "cost": 286.68,
        "seconds": 711
      }
    ],
    [
      11,
      0,
      {
        "cost": 233.7,
        "seconds": 582
      }
    ],
    [
      11,
      3,
      {
        "cost": 235.44,
        "seconds": 607
      }
    ],
    [
      11,
      2,
      {
        "cost": 179.85,
        "seconds": 432
      }
    ],
    [
      11,
      5,
      {
        "cost": 86.1,
        "seconds": 224
      }
    ],
    [
      11,
      4,
      {
        "cost": 165.63,
        "seconds": 405
      }
    ],
    [
      11,
      7,
      {
        "cost": 216.45,
        "seconds": 579
      }
    ],
    [
      11,
      6,
      {
        "cost": 256.2,
        "seconds": 599
      }
    ],
    [
      11,
      9,
      {
        "cost": 275.88,
        "seconds": 668
      }
    ],
    [
      11,
      8,
      {
        "cost": 123.42,
        "seconds": 303
      }
    ],
    [
      11,
      12,
      {
        "cost": 238.59,
        "seconds": 648
      }
    ],
    [
      11,
      16,
      {
        "cost": 285.03,
        "seconds": 645
      }
    ],
    [
      11,
      14,
      {
        "cost": 200.82,
        "seconds": 462
      }
    ],
    [
      11,
      17,
      {
        "cost": 112.25999999999999,
        "seconds": 293
      }
    ],
    [
      11,
      13,
      {
        "cost": 181.98,
        "seconds": 495
      }
    ],
    [
      11,
      15,
      {
        "cost": 224.76,
        "seconds": 580
      }
    ],
    [
      11,
      10,
      {
        "cost": 245.34,
        "seconds": 557
      }
    ],
    [
      12,
      2,
      {
        "cost": 158.31,
        "seconds": 479
      }
    ],
    [
      12,
      6,
      {
        "cost": 127.61999999999999,
        "seconds": 361
      }
    ],
    [
      12,
      10,
      {
        "cost": 95.7,
        "seconds": 267
      }
    ],
    [
      13,
      1,
      {
        "cost": 310.40999999999999,
        "seconds": 696
      }
    ],
    [
      13,
      0,
      {
        "cost": 323.09999999999999,
        "seconds": 752
      }
    ],
    [
      13,
      3,
      {
        "cost": 53.46,
        "seconds": 112
      }
    ],
    [
      13,
      2,
      {
        "cost": 289.38,
        "seconds": 656
      }
    ],
    [
      13,
      5,
      {
        "cost": 181.70999999999999,
        "seconds": 502
      }
    ],
    [
      13,
      4,
      {
        "cost": 250.01999999999999,
        "seconds": 583
      }
    ],
    [
      13,
      7,
      {
        "cost": 34.47,
        "seconds": 84
      }
    ],
    [
      13,
      6,
      {
        "cost": 365.7,
        "seconds": 823
      }
    ],
    [
      13,
      9,
      {
        "cost": 314.58,
        "seconds": 697
      }
    ],
    [
      13,
      8,
      {
        "cost": 217.2,
        "seconds": 515
      }
    ],
    [
      13,
      11,
      {
        "cost": 170.54999999999999,
        "seconds": 401
      }
    ],
    [
      13,
      10,
      {
        "cost": 354.87,
        "seconds": 781
      }
    ],
    [
      13,
      16,
      {
        "cost": 350.09999999999999,
        "seconds": 776
      }
    ],
    [
      13,
      14,
      {
        "cost": 286.95,
        "seconds": 681
      }
    ],
    [
      13,
      17,
      {
        "cost": 269.88,
        "seconds": 611
      }
    ],
    [
      13,
      15,
      {
        "cost": 273.51,
        "seconds": 702
      }
    ],
    [
      13,
      12,
      {
        "cost": 396.24,
        "seconds": 966
      }
    ],
    [
      14,
      0,
      {
        "cost": 142.01999999999999,
        "seconds": 315
      }
    ],
    [
      14,
      2,
      {
        "cost": 34.199999999999999,
        "seconds": 82
      }
    ],
    [
      14,
      4,
      {
        "cost": 75.39,
        "seconds": 167
      }
    ],
    [
      14,
      5,
      {
        "cost": 196.95,
        "seconds": 346
      }
    ],
    [
      14,
      6,
      {
        "cost": 110.55,
        "seconds": 249
      }
    ],
    [
      14,
      8,
      {
        "cost": 145.38,
        "seconds": 322
      }
    ],
    [
      14,
      10,
      {
        "cost": 99.69,
        "seconds": 207
      }
    ],
    [
      14,
      11,
      {
        "cost": 145.82999999999999,
        "seconds": 337
      }
    ],
    [
      14,
      12,
      {
        "cost": 201.42,
        "seconds": 464
      }
    ],
    [
      14,
      16,
      {
        "cost": 219.78,
        "seconds": 479
      }
    ],
    [
      14,
      17,
      {
        "cost": 160.53,
        "seconds": 284
      }
    ],
    [
      15,
      1,
      {
        "cost": 82.44,
        "seconds": 314
      }
    ],
    [
      15,
      0,
      {
        "cost": 213.48,
        "seconds": 566
      }
    ],
    [
      15,
      3,
      {
        "cost": 290.64,
        "seconds": 661
      }
    ],
    [
      15,
      2,
      {
        "cost": 206.85,
        "seconds": 483
      }
    ],
    [
      15,
      5,
      {
        "cost": 271.17,
        "seconds": 617
      }
    ],
    [
      15,
      4,
      {
        "cost": 163.56,
        "seconds": 412
      }
    ],
    [
      15,
      7,
      {
        "cost": 271.65,
        "seconds": 633
      }
    ],
    [
      15,
      6,
      {
        "cost": 283.2,
        "seconds": 650
      }
    ],
    [
      15,
      9,
      {
        "cost": 61.65,
        "seconds": 230
      }
    ],
    [
      15,
      8,
      {
        "cost": 132.29999999999999,
        "seconds": 296
      }
    ],
    [
      15,
      11,
      {
        "cost": 182.76,
        "seconds": 409
      }
    ],
    [
      15,
      10,
      {
        "cost": 272.37,
        "seconds": 608
      }
    ],
    [
      15,
      13,
      {
        "cost": 237.17999999999999,
        "seconds": 549
      }
    ],
    [
      15,
      16,
      {
        "cost": 129.96,
        "seconds": 347
      }
    ],
    [
      15,
      17,
      {
        "cost": 282.06,
        "seconds": 618
      }
    ],
    [
      15,
      14,
      {
        "cost": 204.45,
        "seconds": 509
      }
    ],
    [
      16,
      0,
      {
        "cost": 161.60999999999999,
        "seconds": 395
      }
    ],
    [
      16,
      2,
      {
        "cost": 230.45999999999999,
        "seconds": 531
      }
    ],
    [
      16,
      4,
      {
        "cost": 170.22,
        "seconds": 403
      }
    ],
    [
      16,
      6,
      {
        "cost": 281.15999999999999,
        "seconds": 674
      }
    ],
    [
      16,
      8,
      {
        "cost": 184.41,
        "seconds": 367
      }
    ],
    [
      16,
      10,
      {
        "cost": 270.3,
        "seconds": 632
      }
    ],
    [
      16,
      12,
      {
        "cost": 372.03,
        "seconds": 889
      }
    ],
    [
      16,
      14,
      {
        "cost": 207.26999999999999,
        "seconds": 457
      }
    ],
    [
      17,
      1,
      {
        "cost": 348.51,
        "seconds": 781
      }
    ],
    [
      17,
      0,
      {
        "cost": 268.28999999999999,
        "seconds": 552
      }
    ],
    [
      17,
      3,
      {
        "cost": 292.95,
        "seconds": 615
      }
    ],
    [
      17,
      2,
      {
        "cost": 165.35999999999999,
        "seconds": 342
      }
    ],
    [
      17,
      5,
      {
        "cost": 79.28999999999999,
        "seconds": 178
      }
    ],
    [
      17,
      4,
      {
        "cost": 174.42,
        "seconds": 332
      }
    ],
    [
      17,
      7,
      {
        "cost": 273.96,
        "seconds": 587
      }
    ],
    [
      17,
      6,
      {
        "cost": 207.78,
        "seconds": 486
      }
    ],
    [
      17,
      9,
      {
        "cost": 337.71,
        "seconds": 738
      }
    ],
    [
      17,
      8,
      {
        "cost": 185.25,
        "seconds": 373
      }
    ],
    [
      17,
      11,
      {
        "cost": 106.56,
        "seconds": 249
      }
    ],
    [
      17,
      10,
      {
        "cost": 196.95,
        "seconds": 443
      }
    ],
    [
      17,
      13,
      {
        "cost": 239.48999999999999,
        "seconds": 503
      }
    ],
    [
      17,
      15,
      {
        "cost": 286.62,
        "seconds": 650
      }
    ],
    [
      17,
      14,
      {
        "cost": 188.37,
        "seconds": 342
      }
    ],
    [
      17,
      16,
      {
        "cost": 342.45,
        "seconds": 707
      }
    ],
    [
      16,
      19,
      {
        "cost": 188.7,
        "seconds": 464
      }
    ],
    [
      18,
      17,
      {
        "cost": 403.46999999999999,
        "seconds": 857
      }
    ],
    [
      16,
      18,
      {
        "cost": 381.12,
        "seconds": 828
      }
    ],
    [
      19,
      17,
      {
        "cost": 242.04,
        "seconds": 461
      }
    ],
    [
      14,
      19,
      {
        "cost": 90.39,
        "seconds": 184
      }
    ],
    [
      18,
      15,
      {
        "cost": 322.97999999999998,
        "seconds": 828
      }
    ],
    [
      14,
      18,
      {
        "cost": 386.09999999999999,
        "seconds": 858
      }
    ],
    [
      19,
      15,
      {
        "cost": 218.07,
        "seconds": 503
      }
    ],
    [
      12,
      19,
      {
        "cost": 227.73,
        "seconds": 584
      }
    ],
    [
      18,
      13,
      {
        "cost": 164.94,
        "seconds": 395
      }
    ],
    [
      12,
      18,
      {
        "cost": 527.49,
        "seconds": 1158
      }
    ],
    [
      19,
      13,
      {
        "cost": 280.14,
        "seconds": 615
      }
    ],
    [
      10,
      19,
      {
        "cost": 130.47,
        "seconds": 322
      }
    ],
    [
      18,
      11,
      {
        "cost": 304.17,
        "seconds": 647
      }
    ],
    [
      10,
      18,
      {
        "cost": 454.56,
        "seconds": 975
      }
    ],
    [
      19,
      11,
      {
        "cost": 169.92,
        "seconds": 386
      }
    ],
    [
      8,
      19,
      {
        "cost": 150.48,
        "seconds": 331
      }
    ],
    [
      18,
      9,
      {
        "cost": 315.9,
        "seconds": 788
      }
    ],
    [
      8,
      18,
      {
        "cost": 251.57999999999999,
        "seconds": 618
      }
    ],
    [
      19,
      9,
      {
        "cost": 208.2,
        "seconds": 473
      }
    ],
    [
      6,
      19,
      {
        "cost": 141.29999999999999,
        "seconds": 364
      }
    ],
    [
      18,
      7,
      {
        "cost": 120.44999999999999,
        "seconds": 323
      }
    ],
    [
      6,
      18,
      {
        "cost": 465.41999999999998,
        "seconds": 1017
      }
    ],
    [
      19,
      7,
      {
        "cost": 314.61,
        "seconds": 699
      }
    ],
    [
      4,
      19,
      {
        "cost": 63.599999999999997,
        "seconds": 232
      }
    ],
    [
      18,
      5,
      {
        "cost": 363.87,
        "seconds": 763
      }
    ],
    [
      4,
      18,
      {
        "cost": 356.37,
        "seconds": 820
      }
    ],
    [
      19,
      5,
      {
        "cost": 247.14,
        "seconds": 522
      }
    ],
    [
      2,
      19,
      {
        "cost": 89.34,
        "seconds": 211
      }
    ],
    [
      18,
      3,
      {
        "cost": 143.51999999999999,
        "seconds": 328
      }
    ],
    [
      2,
      18,
      {
        "cost": 389.07,
        "seconds": 845
      }
    ],
    [
      19,
      3,
      {
        "cost": 333.59999999999999,
        "seconds": 727
      }
    ],
    [
      0,
      19,
      {
        "cost": 73.25999999999999,
        "seconds": 202
      }
    ],
    [
      18,
      1,
      {
        "cost": 311.72999999999998,
        "seconds": 786
      }
    ],
    [
      0,
      18,
      {
        "cost": 395.7,
        "seconds": 906
      }
    ],
    [
      19,
      1,
      {
        "cost": 219.03,
        "seconds": 516
      }
    ]
  ]
}