{
  "nodes": [
    {
      "Delivery": {
        "bid": 1825,
        "id": 10,
        "price": null,
        "cost": null,
        "direct_dist": 6084,
        "direct_cost": 183,
        "direct_time": 402
      }
    },
    {
      "Pickup": {
        "bid": 1825,
        "id": 10,
        "price": null,
        "cost": null,
        "direct_dist": 6084,
        "direct_cost": 183,
        "direct_time": 402
      }
    },
    {
      "Delivery": {
        "bid": 2169,
        "id": 9,
        "price": null,
        "cost": null,
        "direct_dist": 7233,
        "direct_cost": 217,
        "direct_time": 478
      }
    },
    {
      "Pickup": {
        "bid": 2169,
        "id": 9,
        "price": null,
        "cost": null,
        "direct_dist": 7233,
        "direct_cost": 217,
        "direct_time": 478
      }
    },
    {
      "Delivery": {
        "bid": 87,
        "id": 8,
        "price": null,
        "cost": null,
        "direct_dist": 5710,
        "direct_cost": 172,
        "direct_time": 471
      }
    },
    {
      "Pickup": {
        "bid": 87,
        "id": 8,
        "price": null,
        "cost": null,
        "direct_dist": 5710,
        "direct_cost": 172,
        "direct_time": 471
      }
    },
    {
      "Delivery": {
        "bid": 1885,
        "id": 7,
        "price": null,
        "cost": null,
        "direct_dist": 18441,
        "direct_cost": 554,
        "direct_time": 1211
      }
    },
    {
      "Pickup": {
        "bid": 1885,
        "id": 7,
        "price": null,
        "cost": null,
        "direct_dist": 18441,
        "direct_cost": 554,
        "direct_time": 1211
      }
    },
    {
      "Delivery": {
        "bid": 1117,
        "id": 6,
        "price": null,
        "cost": null,
        "direct_dist": 5429,
        "direct_cost": 163,
        "direct_time": 356
      }
    },
    {
      "Pickup": {
        "bid": 1117,
        "id": 6,
        "price": null,
        "cost": null,
        "direct_dist": 5429,
        "direct_cost": 163,
        "direct_time": 356
      }
    },
    {
      "Delivery": {
        "bid": 1035,
        "id": 5,
        "price": null,
        "cost": null,
        "direct_dist": 8537,
        "direct_cost": 257,
        "direct_time": 554
      }
    },
    {
      "Pickup": {
        "bid": 1035,
        "id": 5,
        "price": null,
        "cost": null,
        "direct_dist": 8537,
        "direct_cost": 257,
        "direct_time": 554
      }
    },
    {
      "Delivery": {
        "bid": 203,
        "id": 4,
        "price": null,
        "cost": null,
        "direct_dist": 3000,
        "direct_cost": 90,
        "direct_time": 209
      }
    },
    {
      "Pickup": {
        "bid": 203,
        "id": 4,
        "price": null,
        "cost": null,
        "direct_dist": 3000,
        "direct_cost": 90,
        "direct_time": 209
      }
    },
    {
      "Delivery": {
        "bid": 4058,
        "id": 3,
        "price": null,
        "cost": null,
        "direct_dist": 13528,
        "direct_cost": 406,
        "direct_time": 913
      }
    },
    {
      "Pickup": {
        "bid": 4058,
        "id": 3,
        "price": null,
        "cost": null,
        "direct_dist": 13528,
        "direct_cost": 406,
        "direct_time": 913
      }
    },
    {
      "Delivery": {
        "bid": 2092,
        "id": 2,
        "price": null,
        "cost": null,
        "direct_dist": 6974,
        "direct_cost": 210,
        "direct_time": 572
      }
    },
    {
      "Pickup": {
        "bid": 2092,
        "id": 2,
        "price": null,
        "cost": null,
        "direct_dist": 6974,
        "direct_cost": 210,
        "direct_time": 572
      }
    },
    {
      "DriverStart": {
        "arrive_until": 2400,
        "direct_cost": 476
      }
    },
    {
      "DriverEnd": {
        "arrive_until": 2400,
        "direct_cost": 476
      }
    }
  ],
  "node_holes": [],
  "edge_property": "directed",
  "edges": [
    [
      0,
      10,
      {
        "cost": 137.37,
        "seconds": 291
      }
    ],
    [
      0,
      2,
      {
        "cost": 203.76,
        "seconds": 448
      }
    ],
    [
      0,
      8,
      {
        "cost": 164.1,
        "seconds": 366
      }
    ],
    [
      0,
      11,
      {
        "cost": 222.09,
        "seconds": 406
      }
    ],
    [
      0,
      12,
      {
        "cost": 131.51999999999999,
        "seconds": 252
      }
    ],
    [
      0,
      16,
      {
        "cost": 299.09999999999999,
        "seconds": 734
      }
    ],
    [
      0,
      4,
      {
        "cost": 109.71,
        "seconds": 255
      }
    ],
    [
      0,
      14,
      {
        "cost": 255.17999999999999,
        "seconds": 547
      }
    ],
    [
      0,
      6,
      {
        "cost": 423.87,
        "seconds": 924
      }
    ],
    [
      0,
      9,
      {
        "cost": 79.61999999999999,
        "seconds": 230
      }
    ],
    [
      0,
      13,
      {
        "cost": 92.94,
        "seconds": 239
      }
    ],
    [
      0,
      15,
      {
        "cost": 207.03,
        "seconds": 479
      }
    ],
    [
      0,
      5,
      {
        "cost": 191.54999999999999,
        "seconds": 448
      }
    ],
    [
      1,
      10,
      {
        "cost": 276.27,
        "seconds": 589
      }
    ],
    [
      1,
      2,
      {
        "cost": 280.95,
        "seconds": 574
      }
    ],
    [
      1,
      8,
      {
        "cost": 212.57999999999999,
        "seconds": 455
      }
    ],
    [
      1,
      12,
      {
        "cost": 131.43,
        "seconds": 339
      }
    ],
    [
      1,
      16,
      {
        "cost": 252.48,
        "seconds": 533
      }
    ],
    [
      1,
      11,
      {
        "cost": 72.14999999999999,
        "seconds": 179
      }
    ],
    [
      1,
      4,
      {
        "cost": 157.62,
        "seconds": 346
      }
    ],
    [
      1,
      3,
      {
        "cost": 362.90999999999999,
        "seconds": 746
      }
    ],
    [
      1,
      9,
      {
        "cost": 140.07,
        "seconds": 338
      }
    ],
    [
      1,
      15,
      {
        "cost": 358.5,
        "seconds": 811
      }
    ],
    [
      1,
      13,
      {
        "cost": 203.97,
        "seconds": 451
      }
    ],
    [
      1,
      17,
      {
        "cost": 194.79,
        "seconds": 503
      }
    ],
    [
      1,
      5,
      {
        "cost": 300.69,
        "seconds": 690
      }
    ],
    [
      1,
      0,
      {
        "cost": 182.51999999999999,
        "seconds": 402
      }
    ],
    [
      2,
      0,
      {
        "cost": 154.65,
        "seconds": 377
      }
    ],
    [
      2,
      12,
      {
        "cost": 275.34,
        "seconds": 586
      }
    ],
    [
      2,
      14,
      {
        "cost": 222.26999999999999,
        "seconds": 509
      }
    ],
    [
      2,
      4,
      {
        "cost": 238.85999999999999,
        "seconds": 541
      }
    ],
    [
      2,
      6,
      {
        "cost": 390.96,
        "seconds": 885
      }
    ],
    [
      2,
      8,
      {
        "cost": 30.36,
        "seconds": 98
      }
    ],
    [
      2,
      10,
      {
        "cost": 204.42,
        "seconds": 512
      }
    ],
    [
      3,
      1,
      {
        "cost": 356.72999999999998,
        "seconds": 792
      }
    ],
    [
      3,
      0,
      {
        "cost": 217.92,
        "seconds": 488
      }
    ],
    [
      3,
      4,
      {
        "cost": 326.25,
        "seconds": 728
      }
    ],
    [
      3,
      15,
      {
        "cost": 213.63,
        "seconds": 454
      }
    ],
    [
      3,
      8,
      {
        "cost": 247.35,
        "seconds": 576
      }
    ],
    [
      3,
      13,
      {
        "cost": 275.73,
        "seconds": 630
      }
    ],
    [
      3,
      10,
      {
        "cost": 139.07999999999999,
        "seconds": 333
      }
    ],
    [
      3,
      7,
      {
        "cost": 143.60999999999999,
        "seconds": 390
      }
    ],
    [
      3,
      5,
      {
        "cost": 315.39,
        "seconds": 702
      }
    ],
    [
      3,
      9,
      {
        "cost": 266.84999999999999,
        "seconds": 645
      }
    ],
    [
      3,
      11,
      {
        "cost": 376.86,
        "seconds": 794
      }
    ],
    [
      3,
      2,
      {
        "cost": 216.98999999999999,
        "seconds": 478
      }
    ],
    [
      4,
      1,
      {
        "cost": 186.72,
        "seconds": 378
      }
    ],
    [
      4,
      0,
      {
        "cost": 129.87,
        "seconds": 286
      }
    ],
    [
      4,
      2,
      {
        "cost": 290.61,
        "seconds": 634
      }
    ],
    [
      4,
      12,
      {
        "cost": 51.059999999999998,
        "seconds": 131
      }
    ],
    [
      4,
      6,
      {
        "cost": 409.97999999999998,
        "seconds": 923
      }
    ],
    [
      4,
      14,
      {
        "cost": 241.29,
        "seconds": 547
      }
    ],
    [
      4,
      10,
      {
        "cost": 227.07,
        "seconds": 483
      }
    ],
    [
      4,
      8,
      {
        "cost": 208.92,
        "seconds": 453
      }
    ],
    [
      4,
      13,
      {
        "cost": 70.67999999999999,
        "seconds": 213
      }
    ],
    [
      4,
      11,
      {
        "cost": 141.63,
        "seconds": 285
      }
    ],
    [
      4,
      9,
      {
        "cost": 48.66,
        "seconds": 163
      }
    ],
    [
      5,
      1,
      {
        "cost": 311.09999999999999,
        "seconds": 653
      }
    ],
    [
      5,
      0,
      {
        "cost": 196.41,
        "seconds": 447
      }
    ],
    [
      5,
      3,
      {
        "cost": 296.55,
        "seconds": 638
      }
    ],
    [
      5,
      2,
      {
        "cost": 276.36,
        "seconds": 691
      }
    ],
    [
      5,
      12,
      {
        "cost": 175.41,
        "seconds": 405
      }
    ],
    [
      5,
      10,
      {
        "cost": 185.7,
        "seconds": 498
      }
    ],
    [
      5,
      8,
      {
        "cost": 288.69,
        "seconds": 652
      }
    ],
    [
      5,
      7,
      {
        "cost": 371.61,
        "seconds": 865
      }
    ],
    [
      5,
      15,
      {
        "cost": 146.67,
        "seconds": 373
      }
    ],
    [
      5,
      13,
      {
        "cost": 136.62,
        "seconds": 374
      }
    ],
    [
      5,
      11,
      {
        "cost": 265.98,
        "seconds": 559
      }
    ],
    [
      5,
      9,
      {
        "cost": 186.95999999999999,
        "seconds": 473
      }
    ],
    [
      5,
      4,
      {
        "cost": 171.29999999999999,
        "seconds": 471
      }
    ],
    [
      6,
      14,
      {
        "cost": 201.75,
        "seconds": 454
      }
    ],
    [
      7,
      1,
      {
        "cost": 355.65,
        "seconds": 789
      }
    ],
    [
      7,
      3,
      {
        "cost": 177.93,
        "seconds": 315
      }
    ],
    [
      7,
      2,
      {
        "cost": 245.7,
        "seconds": 543
      }
    ],
    [
      7,
      5,
      {
        "cost": 247.01999999999999,
        "seconds": 522
      }
    ],
    [
      7,
      4,
      {
        "cost": 284.15999999999999,
        "seconds": 631
      }
    ],
    [
      7,
      12,
      {
        "cost": 305.96999999999999,
        "seconds": 627
      }
    ],
    [
      7,
      10,
      {
        "cost": 95.28,
        "seconds": 196
      }
    ],
    [
      7,
      14,
      {
        "cost": 384.53999999999999,
        "seconds": 835
      }
    ],
    [
      7,
      8,
      {
        "cost": 276.06,
        "seconds": 641
      }
    ],
    [
      7,
      13,
      {
        "cost": 238.53,
        "seconds": 529
      }
    ],
    [
      7,
      9,
      {
        "cost": 249.69,
        "seconds": 587
      }
    ],
    [
      7,
      15,
      {
        "cost": 145.26,
        "seconds": 274
      }
    ],
    [
      7,
      11,
      {
        "cost": 330.36,
        "seconds": 760
      }
    ],
    [
      7,
      6,
      {
        "cost": 553.23,
        "seconds": 1211
      }
    ],
    [
      8,
      0,
      {
        "cost": 139.98,
        "seconds": 359
      }
    ],
    [
      8,
      1,
      {
        "cost": 197.64,
        "seconds": 464
      }
    ],
    [
      8,
      2,
      {
        "cost": 82.56,
        "seconds": 236
      }
    ],
    [
      8,
      4,
      {
        "cost": 209.79,
        "seconds": 484
      }
    ],
    [
      8,
      6,
      {
        "cost": 322.89,
        "seconds": 861
      }
    ],
    [
      8,
      12,
      {
        "cost": 246.26999999999999,
        "seconds": 528
      }
    ],
    [
      8,
      14,
      {
        "cost": 199.62,
        "seconds": 498
      }
    ],
    [
      8,
      16,
      {
        "cost": 158.13,
        "seconds": 461
      }
    ],
    [
      8,
      10,
      {
        "cost": 234.12,
        "seconds": 566
      }
    ],
    [
      8,
      13,
      {
        "cost": 221.57999999999999,
        "seconds": 535
      }
    ],
    [
      8,
      11,
      {
        "cost": 230.97,
        "seconds": 488
      }
    ],
    [
      9,
      1,
      {
        "cost": 138.6,
        "seconds": 347
      }
    ],
    [
      9,
      0,
      {
        "cost": 99.27,
        "seconds": 268
      }
    ],
    [
      9,
      3,
      {
        "cost": 280.44,
        "seconds": 658
      }
    ],
    [
      9,
      2,
      {
        "cost": 244.56,
        "seconds": 538
      }
    ],
    [
      9,
      5,
      {
        "cost": 198.42,
        "seconds": 514
      }
    ],
    [
      9,
      4,
      {
        "cost": 55.379999999999998,
        "seconds": 170
      }
    ],
    [
      9,
      7,
      {
        "cost": 347.43,
        "seconds": 819
      }
    ],
    [
      9,
      12,
      {
        "cost": 91.86,
        "seconds": 214
      }
    ],
    [
      9,
      16,
      {
        "cost": 290.84999999999999,
        "seconds": 665
      }
    ],
    [
      9,
      10,
      {
        "cost": 193.01999999999999,
        "seconds": 456
      }
    ],
    [
      9,
      15,
      {
        "cost": 275.28,
        "seconds": 678
      }
    ],
    [
      9,
      13,
      {
        "cost": 101.7,
        "seconds": 275
      }
    ],
    [
      9,
      17,
      {
        "cost": 290.88,
        "seconds": 657
      }
    ],
    [
      9,
      11,
      {
        "cost": 100.83,
        "seconds": 278
      }
    ],
    [
      9,
      8,
      {
        "cost": 162.87,
        "seconds": 356
      }
    ],
    [
      10,
      0,
      {
        "cost": 143.97,
        "seconds": 363
      }
    ],
    [
      10,
      2,
      {
        "cost": 205.26,
        "seconds": 497
      }
    ],
    [
      10,
      3,
      {
        "cost": 131.73,
        "seconds": 230
      }
    ],
    [
      10,
      4,
      {
        "cost": 228.29999999999999,
        "seconds": 568
      }
    ],
    [
      10,
      6,
      {
        "cost": 512.13,
        "seconds": 1159
      }
    ],
    [
      10,
      8,
      {
        "cost": 235.62,
        "seconds": 595
      }
    ],
    [
      10,
      12,
      {
        "cost": 266.90999999999999,
        "seconds": 528
      }
    ],
    [
      10,
      16,
      {
        "cost": 344.07,
        "seconds": 854
      }
    ],
    [
      10,
      14,
      {
        "cost": 343.46999999999999,
        "seconds": 783
      }
    ],
    [
      10,
      15,
      {
        "cost": 105.11999999999999,
        "seconds": 234
      }
    ],
    [
      11,
      1,
      {
        "cost": 88.74,
        "seconds": 200
      }
    ],
    [
      11,
      0,
      {
        "cost": 177.42,
        "seconds": 364
      }
    ],
    [
      11,
      3,
      {
        "cost": 340.95,
        "seconds": 687
      }
    ],
    [
      11,
      2,
      {
        "cost": 259.02,
        "seconds": 515
      }
    ],
    [
      11,
      5,
      {
        "cost": 280.53,
        "seconds": 655
      }
    ],
    [
      11,
      4,
      {
        "cost": 137.49,
        "seconds": 311
      }
    ],
    [
      11,
      7,
      {
        "cost": 385.59,
        "seconds": 841
      }
    ],
    [
      11,
      9,
      {
        "cost": 119.91,
        "seconds": 303
      }
    ],
    [
      11,
      8,
      {
        "cost": 190.62,
        "seconds": 396
      }
    ],
    [
      11,
      12,
      {
        "cost": 119.39999999999999,
        "seconds": 294
      }
    ],
    [
      11,
      16,
      {
        "cost": 282.45,
        "seconds": 602
      }
    ],
    [
      11,
      15,
      {
        "cost": 353.4,
        "seconds": 773
      }
    ],
    [
      11,
      13,
      {
        "cost": 183.81,
        "seconds": 416
      }
    ],
    [
      11,
      17,
      {
        "cost": 278.21999999999999,
        "seconds": 615
      }
    ],
    [
      11,
      10,
      {
        "cost": 256.11,
        "seconds": 554
      }
    ],
    [
      12,
      0,
      {
        "cost": 163.98,
        "seconds": 339
      }
    ],
    [
      12,
      1,
      {
        "cost": 154.76999999999999,
        "seconds": 299
      }
    ],
    [
      12,
      2,
      {
        "cost": 326.61,
        "seconds": 675
      }
    ],
    [
      12,
      4,
      {
        "cost": 95.58,
        "seconds": 211
      }
    ],
    [
      12,
      5,
      {
        "cost": 197.82,
        "seconds": 458
      }
    ],
    [
      12,
      6,
      {
        "cost": 446.21999999999999,
        "seconds": 902
      }
    ],
    [
      12,
      8,
      {
        "cost": 255.32999999999999,
        "seconds": 535
      }
    ],
    [
      12,
      9,
      {
        "cost": 101.1,
        "seconds": 235
      }
    ],
    [
      12,
      10,
      {
        "cost": 261.21,
        "seconds": 536
      }
    ],
    [
      12,
      11,
      {
        "cost": 109.64999999999999,
        "seconds": 205
      }
    ],
    [
      12,
      14,
      {
        "cost": 277.56,
        "seconds": 526
      }
    ],
    [
      12,
      16,
      {
        "cost": 374.09999999999999,
        "seconds": 746
      }
    ],
    [
      13,
      1,
      {
        "cost": 225.66,
        "seconds": 457
      }
    ],
    [
      13,
      0,
      {
        "cost": 82.77,
        "seconds": 192
      }
    ],
    [
      13,
      3,
      {
        "cost": 281.37,
        "seconds": 581
      }
    ],
    [
      13,
      2,
      {
        "cost": 246.35999999999999,
        "seconds": 546
      }
    ],
    [
      13,
      5,
      {
        "cost": 145.14,
        "seconds": 386
      }
    ],
    [
      13,
      4,
      {
        "cost": 68.19,
        "seconds": 212
      }
    ],
    [
      13,
      7,
      {
        "cost": 323.58,
        "seconds": 757
      }
    ],
    [
      13,
      9,
      {
        "cost": 80.31,
        "seconds": 230
      }
    ],
    [
      13,
      8,
      {
        "cost": 206.7,
        "seconds": 464
      }
    ],
    [
      13,
      11,
      {
        "cost": 180.57,
        "seconds": 363
      }
    ],
    [
      13,
      10,
      {
        "cost": 173.48999999999999,
        "seconds": 389
      }
    ],
    [
      13,
      15,
      {
        "cost": 220.53,
        "seconds": 516
      }
    ],
    [
      13,
      17,
      {
        "cost": 371.13,
        "seconds": 807
      }
    ],
    [
      13,
      12,
      {
        "cost": 90.0,
        "seconds": 209
      }
    ],
    [
      14,
      6,
      {
        "cost": 191.7,
        "seconds": 444
      }
    ],
    [
      15,
      1,
      {
        "cost": 376.95,
        "seconds": 867
      }
    ],
    [
      15,
      0,
      {
        "cost": 208.76999999999999,
        "seconds": 498
      }
    ],
    [
      15,
      3,
      {
        "cost": 207.39,
        "seconds": 370
      }
    ],
    [
      15,
      2,
      {
        "cost": 270.06,
        "seconds": 633
      }
    ],
    [
      15,
      5,
      {
        "cost": 135.18,
        "seconds": 351
      }
    ],
    [
      15,
      4,
      {
        "cost": 272.13,
        "seconds": 670
      }
    ],
    [
      15,
      7,
      {
        "cost": 282.45,
        "seconds": 596
      }
    ],
    [
      15,
      6,
      {
        "cost": 574.53,
        "seconds": 1289
      }
    ],
    [
      15,
      9,
      {
        "cost": 270.96,
        "seconds": 665
      }
    ],
    [
      15,
      8,
      {
        "cost": 300.42,
        "seconds": 731
      }
    ],
    [
      15,
      11,
      {
        "cost": 401.31,
        "seconds": 784
      }
    ],
    [
      15,
      10,
      {
        "cost": 124.97999999999999,
        "seconds": 283
      }
    ],
    [
      15,
      13,
      {
        "cost": 214.82999999999999,
        "seconds": 525
      }
    ],
    [
      15,
      12,
      {
        "cost": 310.74,
        "seconds": 629
      }
    ],
    [
      15,
      14,
      {
        "cost": 405.84,
        "seconds": 913
      }
    ],
    [
      16,
      0,
      {
        "cost": 260.07,
        "seconds": 636
      }
    ],
    [
      16,
      8,
      {
        "cost": 161.88,
        "seconds": 451
      }
    ],
    [
      16,
      10,
      {
        "cost": 354.21,
        "seconds": 842
      }
    ],
    [
      17,
      1,
      {
        "cost": 202.29,
        "seconds": 466
      }
    ],
    [
      17,
      0,
      {
        "cost": 318.33,
        "seconds": 739
      }
    ],
    [
      17,
      9,
      {
        "cost": 295.56,
        "seconds": 688
      }
    ],
    [
      17,
      8,
      {
        "cost": 295.38,
        "seconds": 704
      }
    ],
    [
      17,
      11,
      {
        "cost": 285.87,
        "seconds": 611
      }
    ],
    [
      17,
      13,
      {
        "cost": 359.46,
        "seconds": 801
      }
    ],
    [
      17,
      12,
      {
        "cost": 349.59,
        "seconds": 741
      }
    ],
    [
      17,
      16,
      {
        "cost": 209.22,
        "seconds": 572
      }
    ],
    [
      16,
      19,
      {
        "cost": 178.79999999999999,
        "seconds": 495
      }
    ],
    [
      18,
      17,
      {
        "cost": 370.8,
        "seconds": 805
      }
    ],
    [
      16,
      18,
      {
        "cost": 318.47999999999998,
        "seconds": 768
      }
    ],
    [
      19,
      17,
      {
        "cost": 110.49,
        "seconds": 269
      }
    ],
    [
      14,
      19,
      {
        "cost": 195.23999999999999,
        "seconds": 439
      }
    ],
    [
      18,
      15,
      {
        "cost": 151.59,
        "seconds": 372
      }
    ],
    [
      14,
      18,
      {
        "cost": 317.55,
        "seconds": 680
      }
    ],
    [
      19,
      15,
      {
        "cost": 561.0,
        "seconds": 1237
      }
    ],
    [
      12,
      19,
      {
        "cost": 441.93,
        "seconds": 883
      }
    ],
    [
      18,
      13,
      {
        "cost": 89.28,
        "seconds": 244
      }
    ],
    [
      12,
      18,
      {
        "cost": 192.26999999999999,
        "seconds": 363
      }
    ],
    [
      19,
      13,
      {
        "cost": 426.12,
        "seconds": 890
      }
    ],
    [
      10,
      19,
      {
        "cost": 543.9,
        "seconds": 1120
      }
    ],
    [
      18,
      11,
      {
        "cost": 275.76,
        "seconds": 503
      }
    ],
    [
      10,
      18,
      {
        "cost": 104.28,
        "seconds": 286
      }
    ],
    [
      19,
      11,
      {
        "cost": 352.56,
        "seconds": 700
      }
    ],
    [
      8,
      19,
      {
        "cost": 400.05,
        "seconds": 835
      }
    ],
    [
      18,
      9,
      {
        "cost": 140.31,
        "seconds": 350
      }
    ],
    [
      8,
      18,
      {
        "cost": 198.39,
        "seconds": 492
      }
    ],
    [
      19,
      9,
      {
        "cost": 362.21999999999999,
        "seconds": 777
      }
    ],
    [
      6,
      19,
      {
        "cost": 68.42999999999999,
        "seconds": 226
      }
    ],
    [
      18,
      7,
      {
        "cost": 249.98999999999999,
        "seconds": 621
      }
    ],
    [
      6,
      18,
      {
        "cost": 490.10999999999998,
        "seconds": 1083
      }
    ],
    [
      19,
      7,
      {
        "cost": 500.84999999999999,
        "seconds": 1235
      }
    ],
    [
      4,
      19,
      {
        "cost": 441.71999999999999,
        "seconds": 883
      }
    ],
    [
      18,
      5,
      {
        "cost": 129.32999999999999,
        "seconds": 380
      }
    ],
    [
      4,
      18,
      {
        "cost": 141.63,
        "seconds": 346
      }
    ],
    [
      19,
      5,
      {
        "cost": 522.84,
        "seconds": 1129
      }
    ],
    [
      2,
      19,
      {
        "cost": 422.7,
        "seconds": 846
      }
    ],
    [
      18,
      3,
      {
        "cost": 207.78,
        "seconds": 445
      }
    ],
    [
      2,
      18,
      {
        "cost": 183.39,
        "seconds": 473
      }
    ],
    [
      19,
      3,
      {
        "cost": 579.6899999999999,
        "seconds": 1187
      }
    ],
    [
      0,
      19,
      {
        "cost": 455.60999999999998,
        "seconds": 884
      }
    ],
    [
      18,
      1,
      {
        "cost": 246.26999999999999,
        "seconds": 552
      }
    ],
    [
      0,
      18,
      {
        "cost": 89.42999999999999,
        "seconds": 202
      }
    ],
    [
      19,
      1,
      {
        "cost": 268.98,
        "seconds": 555
      }
    ]
  ]
}