{
  "nodes": [
    {
      "Delivery": {
        "bid": 613,
        "id": 10,
        "price": null,
        "cost": null,
        "direct_dist": 2076,
        "direct_cost": 63,
        "direct_time": 180
      }
    },
    {
      "Pickup": {
        "bid": 613,
        "id": 10,
        "price": null,
        "cost": null,
        "direct_dist": 2076,
        "direct_cost": 63,
        "direct_time": 180
      }
    },
    {
      "Delivery": {
        "bid": 1916,
        "id": 9,
        "price": null,
        "cost": null,
        "direct_dist": 8242,
        "direct_cost": 248,
        "direct_time": 591
      }
    },
    {
      "Pickup": {
        "bid": 1916,
        "id": 9,
        "price": null,
        "cost": null,
        "direct_dist": 8242,
        "direct_cost": 248,
        "direct_time": 591
      }
    },
    {
      "Delivery": {
        "bid": 1957,
        "id": 8,
        "price": null,
        "cost": null,
        "direct_dist": 9668,
        "direct_cost": 291,
        "direct_time": 598
      }
    },
    {
      "Pickup": {
        "bid": 1957,
        "id": 8,
        "price": null,
        "cost": null,
        "direct_dist": 9668,
        "direct_cost": 291,
        "direct_time": 598
      }
    },
    {
      "Delivery": {
        "bid": 780,
        "id": 7,
        "price": null,
        "cost": null,
        "direct_dist": 2600,
        "direct_cost": 78,
        "direct_time": 231
      }
    },
    {
      "Pickup": {
        "bid": 780,
        "id": 7,
        "price": null,
        "cost": null,
        "direct_dist": 2600,
        "direct_cost": 78,
        "direct_time": 231
      }
    },
    {
      "Delivery": {
        "bid": 723,
        "id": 6,
        "price": null,
        "cost": null,
        "direct_dist": 2410,
        "direct_cost": 73,
        "direct_time": 163
      }
    },
    {
      "Pickup": {
        "bid": 723,
        "id": 6,
        "price": null,
        "cost": null,
        "direct_dist": 2410,
        "direct_cost": 73,
        "direct_time": 163
      }
    },
    {
      "Delivery": {
        "bid": 2013,
        "id": 5,
        "price": null,
        "cost": null,
        "direct_dist": 7232,
        "direct_cost": 217,
        "direct_time": 468
      }
    },
    {
      "Pickup": {
        "bid": 2013,
        "id": 5,
        "price": null,
        "cost": null,
        "direct_dist": 7232,
        "direct_cost": 217,
        "direct_time": 468
      }
    },
    {
      "Delivery": {
        "bid": 3761,
        "id": 4,
        "price": null,
        "cost": null,
        "direct_dist": 17824,
        "direct_cost": 535,
        "direct_time": 1157
      }
    },
    {
      "Pickup": {
        "bid": 3761,
        "id": 4,
        "price": null,
        "cost": null,
        "direct_dist": 17824,
        "direct_cost": 535,
        "direct_time": 1157
      }
    },
    {
      "Delivery": {
        "bid": 229,
        "id": 3,
        "price": null,
        "cost": null,
        "direct_dist": 9638,
        "direct_cost": 290,
        "direct_time": 671
      }
    },
    {
      "Pickup": {
        "bid": 229,
        "id": 3,
        "price": null,
        "cost": null,
        "direct_dist": 9638,
        "direct_cost": 290,
        "direct_time": 671
      }
    },
    {
      "Delivery": {
        "bid": 506,
        "id": 2,
        "price": null,
        "cost": null,
        "direct_dist": 4924,
        "direct_cost": 148,
        "direct_time": 372
      }
    },
    {
      "Pickup": {
        "bid": 506,
        "id": 2,
        "price": null,
        "cost": null,
        "direct_dist": 4924,
        "direct_cost": 148,
        "direct_time": 372
      }
    },
    {
      "Delivery": {
        "bid": 839,
        "id": 1,
        "price": null,
        "cost": null,
        "direct_dist": 8784,
        "direct_cost": 264,
        "direct_time": 676
      }
    },
    {
      "Pickup": {
        "bid": 839,
        "id": 1,
        "price": null,
        "cost": null,
        "direct_dist": 8784,
        "direct_cost": 264,
        "direct_time": 676
      }
    },
    {
      "DriverStart": {
        "arrive_until": 2400,
        "direct_cost": 466
      }
    },
    {
      "DriverEnd": {
        "arrive_until": 2400,
        "direct_cost": 466
      }
    }
  ],
  "node_holes": [],
  "edge_property": "directed",
  "edges": [
    [
      0,
      18,
      {
        "cost": 468.53999999999999,
        "seconds": 1004
      }
    ],
    [
      0,
      12,
      {
        "cost": 482.64,
        "seconds": 1043
      }
    ],
    [
      0,
      16,
      {
        "cost": 388.5,
        "seconds": 813
      }
    ],
    [
      0,
      13,
      {
        "cost": 74.34,
        "seconds": 167
      }
    ],
    [
      0,
      19,
      {
        "cost": 225.35999999999999,
        "seconds": 574
      }
    ],
    [
      0,
      10,
      {
        "cost": 202.5,
        "seconds": 449
      }
    ],
    [
      0,
      14,
      {
        "cost": 193.2,
        "seconds": 369
      }
    ],
    [
      0,
      4,
      {
        "cost": 175.17,
        "seconds": 438
      }
    ],
    [
      0,
      2,
      {
        "cost": 150.48,
        "seconds": 389
      }
    ],
    [
      0,
      6,
      {
        "cost": 206.97,
        "seconds": 527
      }
    ],
    [
      0,
      8,
      {
        "cost": 136.01999999999999,
        "seconds": 335
      }
    ],
    [
      0,
      11,
      {
        "cost": 194.13,
        "seconds": 448
      }
    ],
    [
      0,
      15,
      {
        "cost": 234.87,
        "seconds": 534
      }
    ],
    [
      0,
      5,
      {
        "cost": 290.90999999999999,
        "seconds": 681
      }
    ],
    [
      0,
      3,
      {
        "cost": 102.08999999999999,
        "seconds": 244
      }
    ],
    [
      0,
      9,
      {
        "cost": 224.45999999999999,
        "seconds": 550
      }
    ],
    [
      0,
      7,
      {
        "cost": 142.76999999999999,
        "seconds": 360
      }
    ],
    [
      1,
      19,
      {
        "cost": 195.12,
        "seconds": 530
      }
    ],
    [
      1,
      13,
      {
        "cost": 136.62,
        "seconds": 347
      }
    ],
    [
      1,
      10,
      {
        "cost": 141.18,
        "seconds": 369
      }
    ],
    [
      1,
      4,
      {
        "cost": 173.31,
        "seconds": 361
      }
    ],
    [
      1,
      2,
      {
        "cost": 140.34,
        "seconds": 314
      }
    ],
    [
      1,
      8,
      {
        "cost": 125.64,
        "seconds": 283
      }
    ],
    [
      1,
      6,
      {
        "cost": 170.43,
        "seconds": 414
      }
    ],
    [
      1,
      17,
      {
        "cost": 270.75,
        "seconds": 636
      }
    ],
    [
      1,
      15,
      {
        "cost": 183.09,
        "seconds": 462
      }
    ],
    [
      1,
      11,
      {
        "cost": 192.26999999999999,
        "seconds": 370
      }
    ],
    [
      1,
      5,
      {
        "cost": 219.57,
        "seconds": 527
      }
    ],
    [
      1,
      3,
      {
        "cost": 135.75,
        "seconds": 350
      }
    ],
    [
      1,
      9,
      {
        "cost": 197.16,
        "seconds": 440
      }
    ],
    [
      1,
      7,
      {
        "cost": 106.25999999999999,
        "seconds": 247
      }
    ],
    [
      1,
      0,
      {
        "cost": 62.28,
        "seconds": 180
      }
    ],
    [
      2,
      1,
      {
        "cost": 112.2,
        "seconds": 272
      }
    ],
    [
      2,
      0,
      {
        "cost": 135.96,
        "seconds": 283
      }
    ],
    [
      2,
      18,
      {
        "cost": 350.66999999999998,
        "seconds": 774
      }
    ],
    [
      2,
      4,
      {
        "cost": 145.47,
        "seconds": 401
      }
    ],
    [
      2,
      16,
      {
        "cost": 286.62,
        "seconds": 574
      }
    ],
    [
      2,
      8,
      {
        "cost": 37.769999999999999,
        "seconds": 121
      }
    ],
    [
      2,
      6,
      {
        "cost": 148.82999999999999,
        "seconds": 424
      }
    ],
    [
      2,
      14,
      {
        "cost": 212.25,
        "seconds": 533
      }
    ],
    [
      2,
      12,
      {
        "cost": 380.78999999999999,
        "seconds": 804
      }
    ],
    [
      2,
      10,
      {
        "cost": 89.46,
        "seconds": 199
      }
    ],
    [
      2,
      7,
      {
        "cost": 86.28,
        "seconds": 247
      }
    ],
    [
      3,
      1,
      {
        "cost": 147.09,
        "seconds": 391
      }
    ],
    [
      3,
      0,
      {
        "cost": 105.0,
        "seconds": 269
      }
    ],
    [
      3,
      4,
      {
        "cost": 280.26,
        "seconds": 638
      }
    ],
    [
      3,
      19,
      {
        "cost": 306.39,
        "seconds": 756
      }
    ],
    [
      3,
      16,
      {
        "cost": 405.06,
        "seconds": 876
      }
    ],
    [
      3,
      8,
      {
        "cost": 232.56,
        "seconds": 560
      }
    ],
    [
      3,
      6,
      {
        "cost": 277.34999999999999,
        "seconds": 691
      }
    ],
    [
      3,
      14,
      {
        "cost": 256.89,
        "seconds": 545
      }
    ],
    [
      3,
      10,
      {
        "cost": 253.53,
        "seconds": 603
      }
    ],
    [
      3,
      5,
      {
        "cost": 323.25,
        "seconds": 727
      }
    ],
    [
      3,
      9,
      {
        "cost": 304.08,
        "seconds": 717
      }
    ],
    [
      3,
      17,
      {
        "cost": 373.22999999999998,
        "seconds": 852
      }
    ],
    [
      3,
      13,
      {
        "cost": 145.59,
        "seconds": 371
      }
    ],
    [
      3,
      7,
      {
        "cost": 213.17999999999999,
        "seconds": 524
      }
    ],
    [
      3,
      15,
      {
        "cost": 286.77,
        "seconds": 662
      }
    ],
    [
      3,
      11,
      {
        "cost": 299.21999999999999,
        "seconds": 647
      }
    ],
    [
      3,
      2,
      {
        "cost": 247.26,
        "seconds": 591
      }
    ],
    [
      4,
      0,
      {
        "cost": 181.10999999999999,
        "seconds": 394
      }
    ],
    [
      4,
      2,
      {
        "cost": 116.97,
        "seconds": 304
      }
    ],
    [
      4,
      10,
      {
        "cost": 206.42999999999999,
        "seconds": 503
      }
    ],
    [
      4,
      14,
      {
        "cost": 113.88,
        "seconds": 327
      }
    ],
    [
      4,
      8,
      {
        "cost": 119.97,
        "seconds": 304
      }
    ],
    [
      4,
      12,
      {
        "cost": 497.76,
        "seconds": 1108
      }
    ],
    [
      4,
      11,
      {
        "cost": 37.98,
        "seconds": 101
      }
    ],
    [
      4,
      6,
      {
        "cost": 40.89,
        "seconds": 137
      }
    ],
    [
      4,
      7,
      {
        "cost": 69.14999999999999,
        "seconds": 212
      }
    ],
    [
      5,
      1,
      {
        "cost": 221.91,
        "seconds": 463
      }
    ],
    [
      5,
      0,
      {
        "cost": 203.73,
        "seconds": 429
      }
    ],
    [
      5,
      3,
      {
        "cost": 277.2,
        "seconds": 599
      }
    ],
    [
      5,
      2,
      {
        "cost": 159.6,
        "seconds": 369
      }
    ],
    [
      5,
      10,
      {
        "cost": 106.17,
        "seconds": 282
      }
    ],
    [
      5,
      14,
      {
        "cost": 321.99,
        "seconds": 724
      }
    ],
    [
      5,
      16,
      {
        "cost": 137.37,
        "seconds": 267
      }
    ],
    [
      5,
      8,
      {
        "cost": 147.72,
        "seconds": 324
      }
    ],
    [
      5,
      6,
      {
        "cost": 264.09,
        "seconds": 637
      }
    ],
    [
      5,
      11,
      {
        "cost": 256.71,
        "seconds": 587
      }
    ],
    [
      5,
      13,
      {
        "cost": 278.07,
        "seconds": 596
      }
    ],
    [
      5,
      15,
      {
        "cost": 48.839999999999999,
        "seconds": 165
      }
    ],
    [
      5,
      9,
      {
        "cost": 185.60999999999999,
        "seconds": 443
      }
    ],
    [
      5,
      17,
      {
        "cost": 194.19,
        "seconds": 400
      }
    ],
    [
      5,
      7,
      {
        "cost": 201.54,
        "seconds": 460
      }
    ],
    [
      5,
      4,
      {
        "cost": 290.03999999999999,
        "seconds": 598
      }
    ],
    [
      6,
      0,
      {
        "cost": 160.59,
        "seconds": 404
      }
    ],
    [
      6,
      1,
      {
        "cost": 139.17,
        "seconds": 367
      }
    ],
    [
      6,
      2,
      {
        "cost": 90.75,
        "seconds": 251
      }
    ],
    [
      6,
      3,
      {
        "cost": 234.03,
        "seconds": 575
      }
    ],
    [
      6,
      4,
      {
        "cost": 70.5,
        "seconds": 224
      }
    ],
    [
      6,
      16,
      {
        "cost": 377.37,
        "seconds": 825
      }
    ],
    [
      6,
      10,
      {
        "cost": 180.20999999999999,
        "seconds": 450
      }
    ],
    [
      6,
      18,
      {
        "cost": 445.89,
        "seconds": 1022
      }
    ],
    [
      6,
      12,
      {
        "cost": 471.53999999999999,
        "seconds": 1055
      }
    ],
    [
      6,
      14,
      {
        "cost": 192.93,
        "seconds": 475
      }
    ],
    [
      6,
      8,
      {
        "cost": 93.75,
        "seconds": 251
      }
    ],
    [
      6,
      11,
      {
        "cost": 81.39,
        "seconds": 241
      }
    ],
    [
      6,
      13,
      {
        "cost": 226.14,
        "seconds": 568
      }
    ],
    [
      6,
      19,
      {
        "cost": 147.15,
        "seconds": 485
      }
    ],
    [
      6,
      15,
      {
        "cost": 196.95,
        "seconds": 551
      }
    ],
    [
      6,
      9,
      {
        "cost": 99.96,
        "seconds": 287
      }
    ],
    [
      7,
      1,
      {
        "cost": 112.08,
        "seconds": 266
      }
    ],
    [
      7,
      0,
      {
        "cost": 133.47,
        "seconds": 302
      }
    ],
    [
      7,
      3,
      {
        "cost": 206.94,
        "seconds": 473
      }
    ],
    [
      7,
      2,
      {
        "cost": 75.06,
        "seconds": 183
      }
    ],
    [
      7,
      5,
      {
        "cost": 278.72999999999998,
        "seconds": 622
      }
    ],
    [
      7,
      4,
      {
        "cost": 74.67,
        "seconds": 207
      }
    ],
    [
      7,
      10,
      {
        "cost": 164.51999999999999,
        "seconds": 381
      }
    ],
    [
      7,
      14,
      {
        "cost": 184.85999999999999,
        "seconds": 424
      }
    ],
    [
      7,
      8,
      {
        "cost": 78.06,
        "seconds": 183
      }
    ],
    [
      7,
      19,
      {
        "cost": 131.46,
        "seconds": 417
      }
    ],
    [
      7,
      13,
      {
        "cost": 199.01999999999999,
        "seconds": 466
      }
    ],
    [
      7,
      11,
      {
        "cost": 85.53,
        "seconds": 224
      }
    ],
    [
      7,
      15,
      {
        "cost": 181.26,
        "seconds": 483
      }
    ],
    [
      7,
      9,
      {
        "cost": 84.27,
        "seconds": 218
      }
    ],
    [
      7,
      6,
      {
        "cost": 78.0,
        "seconds": 231
      }
    ],
    [
      8,
      0,
      {
        "cost": 125.1,
        "seconds": 270
      }
    ],
    [
      8,
      1,
      {
        "cost": 103.71,
        "seconds": 233
      }
    ],
    [
      8,
      2,
      {
        "cost": 36.75,
        "seconds": 108
      }
    ],
    [
      8,
      3,
      {
        "cost": 198.57,
        "seconds": 440
      }
    ],
    [
      8,
      4,
      {
        "cost": 129.24,
        "seconds": 349
      }
    ],
    [
      8,
      5,
      {
        "cost": 210.06,
        "seconds": 465
      }
    ],
    [
      8,
      6,
      {
        "cost": 132.6,
        "seconds": 373
      }
    ],
    [
      8,
      7,
      {
        "cost": 85.67999999999999,
        "seconds": 226
      }
    ],
    [
      8,
      18,
      {
        "cost": 366.65999999999999,
        "seconds": 803
      }
    ],
    [
      8,
      10,
      {
        "cost": 95.75999999999999,
        "seconds": 220
      }
    ],
    [
      8,
      14,
      {
        "cost": 203.79,
        "seconds": 493
      }
    ],
    [
      8,
      16,
      {
        "cost": 293.01,
        "seconds": 599
      }
    ],
    [
      8,
      12,
      {
        "cost": 387.18,
        "seconds": 830
      }
    ],
    [
      8,
      19,
      {
        "cost": 125.22,
        "seconds": 366
      }
    ],
    [
      8,
      13,
      {
        "cost": 181.17,
        "seconds": 404
      }
    ],
    [
      8,
      15,
      {
        "cost": 117.75,
        "seconds": 332
      }
    ],
    [
      8,
      17,
      {
        "cost": 261.18,
        "seconds": 575
      }
    ],
    [
      8,
      11,
      {
        "cost": 140.13,
        "seconds": 366
      }
    ],
    [
      9,
      1,
      {
        "cost": 146.51999999999999,
        "seconds": 352
      }
    ],
    [
      9,
      0,
      {
        "cost": 167.94,
        "seconds": 389
      }
    ],
    [
      9,
      3,
      {
        "cost": 241.38,
        "seconds": 560
      }
    ],
    [
      9,
      2,
      {
        "cost": 54.629999999999998,
        "seconds": 121
      }
    ],
    [
      9,
      5,
      {
        "cost": 258.39,
        "seconds": 551
      }
    ],
    [
      9,
      4,
      {
        "cost": 90.09,
        "seconds": 243
      }
    ],
    [
      9,
      7,
      {
        "cost": 57.809999999999998,
        "seconds": 170
      }
    ],
    [
      9,
      6,
      {
        "cost": 93.45,
        "seconds": 267
      }
    ],
    [
      9,
      10,
      {
        "cost": 144.54,
        "seconds": 319
      }
    ],
    [
      9,
      19,
      {
        "cost": 105.69,
        "seconds": 345
      }
    ],
    [
      9,
      15,
      {
        "cost": 156.35999999999999,
        "seconds": 424
      }
    ],
    [
      9,
      13,
      {
        "cost": 241.04999999999999,
        "seconds": 538
      }
    ],
    [
      9,
      11,
      {
        "cost": 91.38,
        "seconds": 204
      }
    ],
    [
      9,
      17,
      {
        "cost": 309.53999999999999,
        "seconds": 662
      }
    ],
    [
      9,
      8,
      {
        "cost": 72.3,
        "seconds": 163
      }
    ],
    [
      10,
      0,
      {
        "cost": 162.0,
        "seconds": 350
      }
    ],
    [
      10,
      1,
      {
        "cost": 169.26,
        "seconds": 397
      }
    ],
    [
      10,
      2,
      {
        "cost": 134.34,
        "seconds": 330
      }
    ],
    [
      10,
      4,
      {
        "cost": 264.78,
        "seconds": 559
      }
    ],
    [
      10,
      5,
      {
        "cost": 116.00999999999999,
        "seconds": 283
      }
    ],
    [
      10,
      6,
      {
        "cost": 236.88,
        "seconds": 588
      }
    ],
    [
      10,
      8,
      {
        "cost": 122.46,
        "seconds": 285
      }
    ],
    [
      10,
      9,
      {
        "cost": 164.57999999999999,
        "seconds": 384
      }
    ],
    [
      10,
      16,
      {
        "cost": 211.26,
        "seconds": 442
      }
    ],
    [
      10,
      12,
      {
        "cost": 305.4,
        "seconds": 672
      }
    ],
    [
      10,
      14,
      {
        "cost": 296.72999999999998,
        "seconds": 685
      }
    ],
    [
      10,
      18,
      {
        "cost": 311.78999999999999,
        "seconds": 671
      }
    ],
    [
      10,
      15,
      {
        "cost": 65.13,
        "seconds": 178
      }
    ],
    [
      10,
      19,
      {
        "cost": 112.22999999999999,
        "seconds": 336
      }
    ],
    [
      11,
      1,
      {
        "cost": 185.45999999999999,
        "seconds": 411
      }
    ],
    [
      11,
      0,
      {
        "cost": 206.85,
        "seconds": 448
      }
    ],
    [
      11,
      3,
      {
        "cost": 280.32,
        "seconds": 618
      }
    ],
    [
      11,
      2,
      {
        "cost": 127.05,
        "seconds": 269
      }
    ],
    [
      11,
      5,
      {
        "cost": 330.81,
        "seconds": 699
      }
    ],
    [
      11,
      4,
      {
        "cost": 46.41,
        "seconds": 124
      }
    ],
    [
      11,
      7,
      {
        "cost": 89.36999999999999,
        "seconds": 256
      }
    ],
    [
      11,
      6,
      {
        "cost": 50.64,
        "seconds": 151
      }
    ],
    [
      11,
      9,
      {
        "cost": 89.82,
        "seconds": 219
      }
    ],
    [
      11,
      8,
      {
        "cost": 135.35999999999999,
        "seconds": 294
      }
    ],
    [
      11,
      16,
      {
        "cost": 413.78999999999999,
        "seconds": 834
      }
    ],
    [
      11,
      14,
      {
        "cost": 105.63,
        "seconds": 309
      }
    ],
    [
      11,
      13,
      {
        "cost": 217.98,
        "seconds": 570
      }
    ],
    [
      11,
      17,
      {
        "cost": 381.96,
        "seconds": 810
      }
    ],
    [
      11,
      15,
      {
        "cost": 228.78,
        "seconds": 573
      }
    ],
    [
      11,
      19,
      {
        "cost": 178.10999999999999,
        "seconds": 493
      }
    ],
    [
      11,
      10,
      {
        "cost": 216.95999999999999,
        "seconds": 468
      }
    ],
    [
      13,
      1,
      {
        "cost": 124.32,
        "seconds": 359
      }
    ],
    [
      13,
      0,
      {
        "cost": 129.99,
        "seconds": 371
      }
    ],
    [
      13,
      3,
      {
        "cost": 105.21,
        "seconds": 247
      }
    ],
    [
      13,
      2,
      {
        "cost": 199.17,
        "seconds": 501
      }
    ],
    [
      13,
      5,
      {
        "cost": 343.77,
        "seconds": 803
      }
    ],
    [
      13,
      4,
      {
        "cost": 219.32999999999999,
        "seconds": 549
      }
    ],
    [
      13,
      7,
      {
        "cost": 231.0,
        "seconds": 520
      }
    ],
    [
      13,
      6,
      {
        "cost": 248.79,
        "seconds": 642
      }
    ],
    [
      13,
      9,
      {
        "cost": 273.15,
        "seconds": 662
      }
    ],
    [
      13,
      8,
      {
        "cost": 184.70999999999999,
        "seconds": 448
      }
    ],
    [
      13,
      11,
      {
        "cost": 238.29,
        "seconds": 559
      }
    ],
    [
      13,
      10,
      {
        "cost": 251.22,
        "seconds": 561
      }
    ],
    [
      13,
      18,
      {
        "cost": 520.62,
        "seconds": 1117
      }
    ],
    [
      13,
      14,
      {
        "cost": 174.23999999999999,
        "seconds": 360
      }
    ],
    [
      13,
      16,
      {
        "cost": 440.55,
        "seconds": 926
      }
    ],
    [
      13,
      19,
      {
        "cost": 277.40999999999999,
        "seconds": 688
      }
    ],
    [
      13,
      15,
      {
        "cost": 286.92,
        "seconds": 647
      }
    ],
    [
      13,
      12,
      {
        "cost": 534.72,
        "seconds": 1157
      }
    ],
    [
      14,
      2,
      {
        "cost": 198.18,
        "seconds": 470
      }
    ],
    [
      14,
      4,
      {
        "cost": 106.11,
        "seconds": 286
      }
    ],
    [
      14,
      6,
      {
        "cost": 111.89999999999999,
        "seconds": 332
      }
    ],
    [
      14,
      10,
      {
        "cost": 265.86,
        "seconds": 616
      }
    ],
    [
      14,
      12,
      {
        "cost": 537.54,
        "seconds": 1209
      }
    ],
    [
      15,
      1,
      {
        "cost": 161.67,
        "seconds": 383
      }
    ],
    [
      15,
      0,
      {
        "cost": 154.41,
        "seconds": 335
      }
    ],
    [
      15,
      3,
      {
        "cost": 227.85,
        "seconds": 506
      }
    ],
    [
      15,
      2,
      {
        "cost": 126.75,
        "seconds": 316
      }
    ],
    [
      15,
      5,
      {
        "cost": 72.45,
        "seconds": 231
      }
    ],
    [
      15,
      4,
      {
        "cost": 257.19,
        "seconds": 545
      }
    ],
    [
      15,
      7,
      {
        "cost": 168.69,
        "seconds": 407
      }
    ],
    [
      15,
      6,
      {
        "cost": 229.29,
        "seconds": 573
      }
    ],
    [
      15,
      9,
      {
        "cost": 156.98999999999999,
        "seconds": 369
      }
    ],
    [
      15,
      8,
      {
        "cost": 114.86999999999999,
        "seconds": 271
      }
    ],
    [
      15,
      11,
      {
        "cost": 228.09,
        "seconds": 513
      }
    ],
    [
      15,
      10,
      {
        "cost": 70.08,
        "seconds": 181
      }
    ],
    [
      15,
      13,
      {
        "cost": 228.72,
        "seconds": 503
      }
    ],
    [
      15,
      16,
      {
        "cost": 193.98,
        "seconds": 386
      }
    ],
    [
      15,
      17,
      {
        "cost": 195.12,
        "seconds": 459
      }
    ],
    [
      15,
      14,
      {
        "cost": 289.14,
        "seconds": 671
      }
    ],
    [
      16,
      0,
      {
        "cost": 309.59999999999999,
        "seconds": 633
      }
    ],
    [
      16,
      2,
      {
        "cost": 289.65,
        "seconds": 583
      }
    ],
    [
      16,
      4,
      {
        "cost": 420.06,
        "seconds": 812
      }
    ],
    [
      16,
      5,
      {
        "cost": 133.71,
        "seconds": 289
      }
    ],
    [
      16,
      8,
      {
        "cost": 277.74,
        "seconds": 538
      }
    ],
    [
      16,
      10,
      {
        "cost": 225.26999999999999,
        "seconds": 479
      }
    ],
    [
      16,
      12,
      {
        "cost": 99.42,
        "seconds": 252
      }
    ],
    [
      16,
      14,
      {
        "cost": 452.01,
        "seconds": 938
      }
    ],
    [
      16,
      15,
      {
        "cost": 181.62,
        "seconds": 375
      }
    ],
    [
      16,
      18,
      {
        "cost": 212.97,
        "seconds": 524
      }
    ],
    [
      17,
      1,
      {
        "cost": 300.84,
        "seconds": 647
      }
    ],
    [
      17,
      3,
      {
        "cost": 330.69,
        "seconds": 690
      }
    ],
    [
      17,
      2,
      {
        "cost": 275.25,
        "seconds": 564
      }
    ],
    [
      17,
      5,
      {
        "cost": 193.32,
        "seconds": 421
      }
    ],
    [
      17,
      7,
      {
        "cost": 317.19,
        "seconds": 656
      }
    ],
    [
      17,
      9,
      {
        "cost": 301.26,
        "seconds": 639
      }
    ],
    [
      17,
      8,
      {
        "cost": 263.37,
        "seconds": 519
      }
    ],
    [
      17,
      11,
      {
        "cost": 372.36,
        "seconds": 783
      }
    ],
    [
      17,
      10,
      {
        "cost": 206.51999999999999,
        "seconds": 492
      }
    ],
    [
      17,
      13,
      {
        "cost": 367.89,
        "seconds": 767
      }
    ],
    [
      17,
      15,
      {
        "cost": 188.13,
        "seconds": 402
      }
    ],
    [
      17,
      18,
      {
        "cost": 318.27,
        "seconds": 714
      }
    ],
    [
      17,
      19,
      {
        "cost": 269.61,
        "seconds": 584
      }
    ],
    [
      17,
      16,
      {
        "cost": 147.72,
        "seconds": 372
      }
    ],
    [
      18,
      2,
      {
        "cost": 362.94,
        "seconds": 735
      }
    ],
    [
      18,
      10,
      {
        "cost": 318.33,
        "seconds": 644
      }
    ],
    [
      18,
      12,
      {
        "cost": 278.01,
        "seconds": 594
      }
    ],
    [
      18,
      16,
      {
        "cost": 196.53,
        "seconds": 474
      }
    ],
    [
      19,
      1,
      {
        "cost": 192.03,
        "seconds": 450
      }
    ],
    [
      19,
      0,
      {
        "cost": 173.54999999999999,
        "seconds": 415
      }
    ],
    [
      19,
      3,
      {
        "cost": 247.01999999999999,
        "seconds": 586
      }
    ],
    [
      19,
      2,
      {
        "cost": 110.75999999999999,
        "seconds": 337
      }
    ],
    [
      19,
      7,
      {
        "cost": 132.57,
        "seconds": 432
      }
    ],
    [
      19,
      6,
      {
        "cost": 168.21,
        "seconds": 529
      }
    ],
    [
      19,
      9,
      {
        "cost": 95.94,
        "seconds": 325
      }
    ],
    [
      19,
      8,
      {
        "cost": 117.83999999999999,
        "seconds": 310
      }
    ],
    [
      19,
      11,
      {
        "cost": 167.04,
        "seconds": 469
      }
    ],
    [
      19,
      10,
      {
        "cost": 94.74,
        "seconds": 295
      }
    ],
    [
      19,
      13,
      {
        "cost": 247.89,
        "seconds": 582
      }
    ],
    [
      19,
      17,
      {
        "cost": 287.15999999999999,
        "seconds": 653
      }
    ],
    [
      19,
      16,
      {
        "cost": 230.34,
        "seconds": 520
      }
    ],
    [
      19,
      18,
      {
        "cost": 263.52,
        "seconds": 676
      }
    ],
    [
      18,
      21,
      {
        "cost": 278.09999999999999,
        "seconds": 590
      }
    ],
    [
      20,
      19,
      {
        "cost": 112.56,
        "seconds": 355
      }
    ],
    [
      18,
      20,
      {
        "cost": 338.28,
        "seconds": 783
      }
    ],
    [
      21,
      19,
      {
        "cost": 362.37,
        "seconds": 852
      }
    ],
    [
      16,
      21,
      {
        "cost": 122.82,
        "seconds": 298
      }
    ],
    [
      20,
      17,
      {
        "cost": 316.40999999999999,
        "seconds": 672
      }
    ],
    [
      16,
      20,
      {
        "cost": 320.25,
        "seconds": 653
      }
    ],
    [
      21,
      17,
      {
        "cost": 175.56,
        "seconds": 451
      }
    ],
    [
      14,
      21,
      {
        "cost": 560.9399999999999,
        "seconds": 1254
      }
    ],
    [
      20,
      15,
      {
        "cost": 163.23,
        "seconds": 434
      }
    ],
    [
      14,
      20,
      {
        "cost": 147.26999999999999,
        "seconds": 376
      }
    ],
    [
      21,
      15,
      {
        "cost": 299.25,
        "seconds": 655
      }
    ],
    [
      12,
      21,
      {
        "cost": 27.18,
        "seconds": 101
      }
    ],
    [
      20,
      13,
      {
        "cost": 231.0,
        "seconds": 511
      }
    ],
    [
      12,
      20,
      {
        "cost": 416.31,
        "seconds": 894
      }
    ],
    [
      21,
      13,
      {
        "cost": 501.53999999999999,
        "seconds": 1081
      }
    ],
    [
      10,
      21,
      {
        "cost": 328.8,
        "seconds": 718
      }
    ],
    [
      20,
      11,
      {
        "cost": 88.56,
        "seconds": 201
      }
    ],
    [
      10,
      20,
      {
        "cost": 169.17,
        "seconds": 379
      }
    ],
    [
      21,
      11,
      {
        "cost": 504.35999999999998,
        "seconds": 1082
      }
    ],
    [
      8,
      21,
      {
        "cost": 410.55,
        "seconds": 875
      }
    ],
    [
      20,
      9,
      {
        "cost": 65.34,
        "seconds": 156
      }
    ],
    [
      8,
      20,
      {
        "cost": 71.61,
        "seconds": 175
      }
    ],
    [
      21,
      9,
      {
        "cost": 433.26,
        "seconds": 938
      }
    ],
    [
      6,
      21,
      {
        "cost": 494.94,
        "seconds": 1101
      }
    ],
    [
      20,
      7,
      {
        "cost": 47.76,
        "seconds": 144
      }
    ],
    [
      6,
      20,
      {
        "cost": 71.13,
        "seconds": 220
      }
    ],
    [
      21,
      7,
      {
        "cost": 449.19,
        "seconds": 955
      }
    ],
    [
      4,
      21,
      {
        "cost": 521.13,
        "seconds": 1154
      }
    ],
    [
      20,
      5,
      {
        "cost": 265.26,
        "seconds": 561
      }
    ],
    [
      4,
      20,
      {
        "cost": 111.06,
        "seconds": 258
      }
    ],
    [
      21,
      5,
      {
        "cost": 251.34,
        "seconds": 569
      }
    ],
    [
      2,
      21,
      {
        "cost": 404.19,
        "seconds": 850
      }
    ],
    [
      20,
      3,
      {
        "cost": 231.35999999999999,
        "seconds": 533
      }
    ],
    [
      2,
      20,
      {
        "cost": 97.35,
        "seconds": 271
      }
    ],
    [
      21,
      3,
      {
        "cost": 479.66999999999998,
        "seconds": 1059
      }
    ],
    [
      0,
      21,
      {
        "cost": 506.03999999999999,
        "seconds": 1089
      }
    ],
    [
      20,
      1,
      {
        "cost": 136.5,
        "seconds": 326
      }
    ],
    [
      0,
      20,
      {
        "cost": 204.87,
        "seconds": 487
      }
    ],
    [
      21,
      1,
      {
        "cost": 469.56,
        "seconds": 958
      }
    ]
  ]
}