{
  "nodes": [
    {
      "Delivery": {
        "bid": 2035,
        "id": 9,
        "price": null,
        "cost": null,
        "direct_dist": 11641,
        "direct_cost": 350,
        "direct_time": 723
      }
    },
    {
      "Pickup": {
        "bid": 2035,
        "id": 9,
        "price": null,
        "cost": null,
        "direct_dist": 11641,
        "direct_cost": 350,
        "direct_time": 723
      }
    },
    {
      "Delivery": {
        "bid": 294,
        "id": 7,
        "price": null,
        "cost": null,
        "direct_dist": 11421,
        "direct_cost": 343,
        "direct_time": 857
      }
    },
    {
      "Pickup": {
        "bid": 294,
        "id": 7,
        "price": null,
        "cost": null,
        "direct_dist": 11421,
        "direct_cost": 343,
        "direct_time": 857
      }
    },
    {
      "Delivery": {
        "bid": 1815,
        "id": 6,
        "price": null,
        "cost": null,
        "direct_dist": 7862,
        "direct_cost": 236,
        "direct_time": 516
      }
    },
    {
      "Pickup": {
        "bid": 1815,
        "id": 6,
        "price": null,
        "cost": null,
        "direct_dist": 7862,
        "direct_cost": 236,
        "direct_time": 516
      }
    },
    {
      "Delivery": {
        "bid": 862,
        "id": 5,
        "price": null,
        "cost": null,
        "direct_dist": 8703,
        "direct_cost": 262,
        "direct_time": 576
      }
    },
    {
      "Pickup": {
        "bid": 862,
        "id": 5,
        "price": null,
        "cost": null,
        "direct_dist": 8703,
        "direct_cost": 262,
        "direct_time": 576
      }
    },
    {
      "Delivery": {
        "bid": 244,
        "id": 1,
        "price": null,
        "cost": null,
        "direct_dist": 10375,
        "direct_cost": 312,
        "direct_time": 726
      }
    },
    {
      "Pickup": {
        "bid": 244,
        "id": 1,
        "price": null,
        "cost": null,
        "direct_dist": 10375,
        "direct_cost": 312,
        "direct_time": 726
      }
    },
    {
      "DriverStart": {
        "arrive_until": 2400,
        "direct_cost": 509
      }
    },
    {
      "DriverEnd": {
        "arrive_until": 2400,
        "direct_cost": 509
      }
    }
  ],
  "node_holes": [],
  "edge_property": "directed",
  "edges": [
    [
      0,
      2,
      {
        "cost": 351.9,
        "seconds": 704
      }
    ],
    [
      0,
      4,
      {
        "cost": 284.01,
        "seconds": 619
      }
    ],
    [
      0,
      8,
      {
        "cost": 123.57,
        "seconds": 286
      }
    ],
    [
      1,
      8,
      {
        "cost": 277.97999999999998,
        "seconds": 629
      }
    ],
    [
      1,
      9,
      {
        "cost": 278.13,
        "seconds": 653
      }
    ],
    [
      1,
      3,
      {
        "cost": 130.85999999999999,
        "seconds": 308
      }
    ],
    [
      1,
      5,
      {
        "cost": 226.62,
        "seconds": 498
      }
    ],
    [
      1,
      7,
      {
        "cost": 314.46,
        "seconds": 670
      }
    ],
    [
      1,
      0,
      {
        "cost": 349.22999999999998,
        "seconds": 723
      }
    ],
    [
      2,
      0,
      {
        "cost": 344.28,
        "seconds": 709
      }
    ],
    [
      2,
      8,
      {
        "cost": 250.07999999999999,
        "seconds": 547
      }
    ],
    [
      2,
      6,
      {
        "cost": 136.5,
        "seconds": 429
      }
    ],
    [
      3,
      1,
      {
        "cost": 163.01999999999999,
        "seconds": 379
      }
    ],
    [
      3,
      0,
      {
        "cost": 344.7,
        "seconds": 728
      }
    ],
    [
      3,
      8,
      {
        "cost": 242.88,
        "seconds": 559
      }
    ],
    [
      3,
      4,
      {
        "cost": 427.34999999999999,
        "seconds": 870
      }
    ],
    [
      3,
      6,
      {
        "cost": 414.18,
        "seconds": 906
      }
    ],
    [
      3,
      9,
      {
        "cost": 364.38,
        "seconds": 842
      }
    ],
    [
      3,
      7,
      {
        "cost": 279.36,
        "seconds": 599
      }
    ],
    [
      3,
      5,
      {
        "cost": 191.51999999999999,
        "seconds": 427
      }
    ],
    [
      3,
      2,
      {
        "cost": 342.63,
        "seconds": 857
      }
    ],
    [
      4,
      0,
      {
        "cost": 352.38,
        "seconds": 729
      }
    ],
    [
      4,
      2,
      {
        "cost": 235.62,
        "seconds": 572
      }
    ],
    [
      4,
      8,
      {
        "cost": 258.18,
        "seconds": 568
      }
    ],
    [
      4,
      6,
      {
        "cost": 112.22999999999999,
        "seconds": 255
      }
    ],
    [
      5,
      1,
      {
        "cost": 245.45999999999999,
        "seconds": 553
      }
    ],
    [
      5,
      0,
      {
        "cost": 157.29,
        "seconds": 388
      }
    ],
    [
      5,
      3,
      {
        "cost": 227.42999999999999,
        "seconds": 461
      }
    ],
    [
      5,
      8,
      {
        "cost": 88.22999999999999,
        "seconds": 236
      }
    ],
    [
      5,
      6,
      {
        "cost": 239.19,
        "seconds": 592
      }
    ],
    [
      5,
      9,
      {
        "cost": 324.15,
        "seconds": 743
      }
    ],
    [
      5,
      7,
      {
        "cost": 124.71,
        "seconds": 276
      }
    ],
    [
      5,
      4,
      {
        "cost": 235.85999999999999,
        "seconds": 516
      }
    ],
    [
      6,
      0,
      {
        "cost": 355.32,
        "seconds": 747
      }
    ],
    [
      6,
      2,
      {
        "cost": 164.67,
        "seconds": 422
      }
    ],
    [
      6,
      4,
      {
        "cost": 94.47,
        "seconds": 246
      }
    ],
    [
      6,
      8,
      {
        "cost": 261.12,
        "seconds": 585
      }
    ],
    [
      7,
      3,
      {
        "cost": 322.5,
        "seconds": 637
      }
    ],
    [
      7,
      2,
      {
        "cost": 270.12,
        "seconds": 555
      }
    ],
    [
      7,
      5,
      {
        "cost": 170.07,
        "seconds": 340
      }
    ],
    [
      7,
      4,
      {
        "cost": 202.23,
        "seconds": 470
      }
    ],
    [
      7,
      8,
      {
        "cost": 83.00999999999999,
        "seconds": 197
      }
    ],
    [
      7,
      9,
      {
        "cost": 354.87,
        "seconds": 844
      }
    ],
    [
      7,
      6,
      {
        "cost": 261.09,
        "seconds": 576
      }
    ],
    [
      8,
      0,
      {
        "cost": 142.82999999999999,
        "seconds": 335
      }
    ],
    [
      8,
      2,
      {
        "cost": 225.69,
        "seconds": 493
      }
    ],
    [
      8,
      4,
      {
        "cost": 221.37,
        "seconds": 477
      }
    ],
    [
      8,
      6,
      {
        "cost": 229.47,
        "seconds": 549
      }
    ],
    [
      9,
      1,
      {
        "cost": 318.78,
        "seconds": 653
      }
    ],
    [
      9,
      0,
      {
        "cost": 256.95,
        "seconds": 563
      }
    ],
    [
      9,
      3,
      {
        "cost": 382.8,
        "seconds": 847
      }
    ],
    [
      9,
      2,
      {
        "cost": 521.0699999999999,
        "seconds": 1120
      }
    ],
    [
      9,
      5,
      {
        "cost": 314.58,
        "seconds": 657
      }
    ],
    [
      9,
      4,
      {
        "cost": 516.27,
        "seconds": 1097
      }
    ],
    [
      9,
      7,
      {
        "cost": 322.8,
        "seconds": 677
      }
    ],
    [
      9,
      8,
      {
        "cost": 311.25,
        "seconds": 726
      }
    ],
    [
      8,
      11,
      {
        "cost": 293.01,
        "seconds": 633
      }
    ],
    [
      10,
      9,
      {
        "cost": 93.47999999999999,
        "seconds": 289
      }
    ],
    [
      8,
      10,
      {
        "cost": 226.98,
        "seconds": 532
      }
    ],
    [
      11,
      9,
      {
        "cost": 605.43,
        "seconds": 1359
      }
    ],
    [
      6,
      11,
      {
        "cost": 188.64,
        "seconds": 481
      }
    ],
    [
      10,
      7,
      {
        "cost": 237.81,
        "seconds": 505
      }
    ],
    [
      6,
      10,
      {
        "cost": 439.46999999999999,
        "seconds": 944
      }
    ],
    [
      11,
      7,
      {
        "cost": 362.78999999999999,
        "seconds": 751
      }
    ],
    [
      4,
      11,
      {
        "cost": 266.21999999999999,
        "seconds": 634
      }
    ],
    [
      10,
      5,
      {
        "cost": 229.56,
        "seconds": 485
      }
    ],
    [
      4,
      10,
      {
        "cost": 436.53,
        "seconds": 926
      }
    ],
    [
      11,
      5,
      {
        "cost": 374.31,
        "seconds": 837
      }
    ],
    [
      2,
      11,
      {
        "cost": 94.59,
        "seconds": 261
      }
    ],
    [
      10,
      3,
      {
        "cost": 297.81,
        "seconds": 675
      }
    ],
    [
      2,
      10,
      {
        "cost": 428.43,
        "seconds": 906
      }
    ],
    [
      11,
      3,
      {
        "cost": 426.27,
        "seconds": 1052
      }
    ],
    [
      0,
      11,
      {
        "cost": 419.21999999999999,
        "seconds": 843
      }
    ],
    [
      10,
      1,
      {
        "cost": 322.22999999999998,
        "seconds": 687
      }
    ],
    [
      0,
      10,
      {
        "cost": 157.35,
        "seconds": 325
      }
    ],
    [
      11,
      1,
      {
        "cost": 595.98,
        "seconds": 1255
      }
    ]
  ]
}