[
  {
    "graph_name": "10_0",
    "n_pass": 2,
    "winning_ride": {
      "driver": {
        "arrive_until": 2400,
        "direct_cost": 457
      },
      "passengers": [
        {
          "bid": 1397,
          "id": 5,
          "price": 182,
          "cost": 182,
          "direct_dist": 6066,
          "direct_cost": 182,
          "direct_time": 434
        },
        {
          "bid": 175,
          "id": 3,
          "price": 60,
          "cost": 60,
          "direct_dist": 1988,
          "direct_cost": 60,
          "direct_time": 165
        }
      ],
      "cost": 117,
      "virtual_welfare": 1330
    },
    "profit": 125,
    "cost_profit": 125.0,
    "welfare": 1455,
    "virtual_welfare": 1330,
    "running_time": 0
  },
  {
    "graph_name": "10_1",
    "n_pass": 2,
    "winning_ride": {
      "driver": {
        "arrive_until": 2400,
        "direct_cost": 406
      },
      "passengers": [
        {
          "bid": 956,
          "id": 8,
          "price": 275,
          "cost": 275,
          "direct_dist": 9141,
          "direct_cost": 275,
          "direct_time": 574
        },
        {
          "bid": 5124,
          "id": 3,
          "price": 513,
          "cost": 513,
          "direct_dist": 17083,
          "direct_cost": 513,
          "direct_time": 1118
        }
      ],
      "cost": 561,
      "virtual_welfare": 5292
    },
    "profit": 227,
    "cost_profit": 227.0,
    "welfare": 5519,
    "virtual_welfare": 5292,
    "running_time": 0
  },
  {
    "graph_name": "10_10",
    "n_pass": 2,
    "winning_ride": {
      "driver": {
        "arrive_until": 2400,
        "direct_cost": 459
      },
      "passengers": [
        {
          "bid": 2987,
          "id": 6,
          "price": 880,
          "cost": 366,
          "direct_dist": 12186,
          "direct_cost": 366,
          "direct_time": 829
        },
        {
          "bid": 2300,
          "id": 4,
          "price": 1904,
          "cost": 231,
          "direct_dist": 7669,
          "direct_cost": 231,
          "direct_time": 535
        }
      ],
      "cost": 320,
      "virtual_welfare": 4690
    },
    "profit": 2464,
    "cost_profit": 277.0,
    "welfare": 4967,
    "virtual_welfare": 4690,
    "running_time": 0
  },
  {
    "graph_name": "10_11",
    "n_pass": 2,
    "winning_ride": {
      "driver": {
        "arrive_until": 2400,
        "direct_cost": 425
      },
      "passengers": [
        {
          "bid": 1252,
          "id": 9,
          "price": 939,
          "cost": 126,
          "direct_dist": 4175,
          "direct_cost": 126,
          "direct_time": 275
        },
        {
          "bid": 2683,
          "id": 6,
          "price": 1007,
          "cost": 285,
          "direct_dist": 9472,
          "direct_cost": 285,
          "direct_time": 689
        }
      ],
      "cost": 133,
      "virtual_welfare": 3524
    },
    "profit": 1813,
    "cost_profit": 278.0,
    "welfare": 3802,
    "virtual_welfare": 3524,
    "running_time": 0
  },
  {
    "graph_name": "10_12",
    "n_pass": 2,
    "winning_ride": {
      "driver": {
        "arrive_until": 2400,
        "direct_cost": 516
      },
      "passengers": [
        {
          "bid": 3753,
          "id": 2,
          "price": 862,
          "cost": 397,
          "direct_dist": 13204,
          "direct_cost": 397,
          "direct_time": 874
        },
        {
          "bid": 3252,
          "id": 1,
          "price": 1094,
          "cost": 326,
          "direct_dist": 10841,
          "direct_cost": 326,
          "direct_time": 704
        }
      ],
      "cost": 407,
      "virtual_welfare": 6282
    },
    "profit": 1549,
    "cost_profit": 316.0,
    "welfare": 6598,
    "virtual_welfare": 6282,
    "running_time": 0
  },
  {
    "graph_name": "10_13",
    "n_pass": 2,
    "winning_ride": {
      "driver": {
        "arrive_until": 2400,
        "direct_cost": 486
      },
      "passengers": [
        {
          "bid": 1307,
          "id": 6,
          "price": 378,
          "cost": 378,
          "direct_dist": 12579,
          "direct_cost": 378,
          "direct_time": 785
        },
        {
          "bid": 4807,
          "id": 1,
          "price": 2837,
          "cost": 481,
          "direct_dist": 16024,
          "direct_cost": 481,
          "direct_time": 1053
        }
      ],
      "cost": 494,
      "virtual_welfare": 5255
    },
    "profit": 2721,
    "cost_profit": 365.0,
    "welfare": 5620,
    "virtual_welfare": 5255,
    "running_time": 0
  },
  {
    "graph_name": "10_14",
    "n_pass": 2,
    "winning_ride": {
      "driver": {
        "arrive_until": 2400,
        "direct_cost": 501
      },
      "passengers": [
        {
          "bid": 2547,
          "id": 10,
          "price": 255,
          "cost": 255,
          "direct_dist": 8491,
          "direct_cost": 255,
          "direct_time": 547
        },
        {
          "bid": 1657,
          "id": 8,
          "price": 244,
          "cost": 244,
          "direct_dist": 8126,
          "direct_cost": 244,
          "direct_time": 561
        }
      ],
      "cost": 483,
      "virtual_welfare": 3705
    },
    "profit": 16,
    "cost_profit": 16.0,
    "welfare": 3721,
    "virtual_welfare": 3705,
    "running_time": 0
  },
  {
    "graph_name": "10_15",
    "n_pass": 2,
    "winning_ride": {
      "driver": {
        "arrive_until": 2400,
        "direct_cost": 485
      },
      "passengers": [
        {
          "bid": 1267,
          "id": 6,
          "price": 330,
          "cost": 303,
          "direct_dist": 10087,
          "direct_cost": 303,
          "direct_time": 673
        },
        {
          "bid": 3207,
          "id": 3,
          "price": 348,
          "cost": 321,
          "direct_dist": 10690,
          "direct_cost": 321,
          "direct_time": 736
        }
      ],
      "cost": 415,
      "virtual_welfare": 3850
    },
    "profit": 263,
    "cost_profit": 209.0,
    "welfare": 4059,
    "virtual_welfare": 3850,
    "running_time": 0
  },
  {
    "graph_name": "10_16",
    "n_pass": 2,
    "winning_ride": {
      "driver": {
        "arrive_until": 2400,
        "direct_cost": 432
      },
      "passengers": [
        {
          "bid": 3755,
          "id": 7,
          "price": 393,
          "cost": 393,
          "direct_dist": 13074,
          "direct_cost": 393,
          "direct_time": 884
        },
        {
          "bid": 3466,
          "id": 3,
          "price": 1552,
          "cost": 347,
          "direct_dist": 11555,
          "direct_cost": 347,
          "direct_time": 774
        }
      ],
      "cost": 534,
      "virtual_welfare": 6481
    },
    "profit": 1411,
    "cost_profit": 206.0,
    "welfare": 6687,
    "virtual_welfare": 6481,
    "running_time": 0
  },
  {
    "graph_name": "10_17",
    "n_pass": 2,
    "winning_ride": {
      "driver": {
        "arrive_until": 2400,
        "direct_cost": 461
      },
      "passengers": [
        {
          "bid": 5770,
          "id": 10,
          "price": 758,
          "cost": 578,
          "direct_dist": 19235,
          "direct_cost": 578,
          "direct_time": 1200
        },
        {
          "bid": 2616,
          "id": 2,
          "price": 1951,
          "cost": 262,
          "direct_dist": 8720,
          "direct_cost": 262,
          "direct_time": 612
        }
      ],
      "cost": 532,
      "virtual_welfare": 7546
    },
    "profit": 2177,
    "cost_profit": 308.0,
    "welfare": 7854,
    "virtual_welfare": 7546,
    "running_time": 0
  },
  {
    "graph_name": "10_18",
    "n_pass": 0,
    "winning_ride": {
      "driver": {
        "arrive_until": 0,
        "direct_cost": 0
      },
      "passengers": [],
      "cost": 0,
      "virtual_welfare": 0
    },
    "profit": 0,
    "cost_profit": 0.0,
    "welfare": 0,
    "virtual_welfare": 0,
    "running_time": 0
  },
  {
    "graph_name": "10_19",
    "n_pass": 2,
    "winning_ride": {
      "driver": {
        "arrive_until": 2400,
        "direct_cost": 418
      },
      "passengers": [
        {
          "bid": 4007,
          "id": 9,
          "price": 1355,
          "cost": 401,
          "direct_dist": 13357,
          "direct_cost": 401,
          "direct_time": 780
        },
        {
          "bid": 933,
          "id": 4,
          "price": 418,
          "cost": 418,
          "direct_dist": 13922,
          "direct_cost": 418,
          "direct_time": 896
        }
      ],
      "cost": 637,
      "virtual_welfare": 4121
    },
    "profit": 1136,
    "cost_profit": 182.0,
    "welfare": 4303,
    "virtual_welfare": 4121,
    "running_time": 0
  },
  {
    "graph_name": "10_2",
    "n_pass": 2,
    "winning_ride": {
      "driver": {
        "arrive_until": 2400,
        "direct_cost": 489
      },
      "passengers": [
        {
          "bid": 3275,
          "id": 6,
          "price": 2783,
          "cost": 421,
          "direct_dist": 14027,
          "direct_cost": 421,
          "direct_time": 951
        },
        {
          "bid": 2833,
          "id": 2,
          "price": 2646,
          "cost": 284,
          "direct_dist": 9444,
          "direct_cost": 284,
          "direct_time": 610
        }
      ],
      "cost": 474,
      "virtual_welfare": 5403
    },
    "profit": 4955,
    "cost_profit": 231.0,
    "welfare": 5634,
    "virtual_welfare": 5403,
    "running_time": 0
  },
  {
    "graph_name": "10_20",
    "n_pass": 2,
    "winning_ride": {
      "driver": {
        "arrive_until": 2400,
        "direct_cost": 575
      },
      "passengers": [
        {
          "bid": 4788,
          "id": 3,
          "price": 479,
          "cost": 479,
          "direct_dist": 15960,
          "direct_cost": 479,
          "direct_time": 1086
        },
        {
          "bid": 3073,
          "id": 1,
          "price": 362,
          "cost": 317,
          "direct_dist": 10559,
          "direct_cost": 317,
          "direct_time": 681
        }
      ],
      "cost": 207,
      "virtual_welfare": 7065
    },
    "profit": 634,
    "cost_profit": 589.0,
    "welfare": 7654,
    "virtual_welfare": 7065,
    "running_time": 0
  },
  {
    "graph_name": "10_21",
    "n_pass": 2,
    "winning_ride": {
      "driver": {
        "arrive_until": 2400,
        "direct_cost": 423
      },
      "passengers": [
        {
          "bid": 1073,
          "id": 10,
          "price": 659,
          "cost": 263,
          "direct_dist": 8745,
          "direct_cost": 263,
          "direct_time": 569
        },
        {
          "bid": 4093,
          "id": 9,
          "price": 3679,
          "cost": 410,
          "direct_dist": 13646,
          "direct_cost": 410,
          "direct_time": 1023
        }
      ],
      "cost": 559,
      "virtual_welfare": 4493
    },
    "profit": 3779,
    "cost_profit": 114.0,
    "welfare": 4607,
    "virtual_welfare": 4493,
    "running_time": 0
  },
  {
    "graph_name": "10_22",
    "n_pass": 2,
    "winning_ride": {
      "driver": {
        "arrive_until": 2400,
        "direct_cost": 538
      },
      "passengers": [
        {
          "bid": 2539,
          "id": 9,
          "price": 889,
          "cost": 265,
          "direct_dist": 8829,
          "direct_cost": 265,
          "direct_time": 604
        },
        {
          "bid": 1662,
          "id": 4,
          "price": 477,
          "cost": 342,
          "direct_dist": 11385,
          "direct_cost": 342,
          "direct_time": 765
        }
      ],
      "cost": 310,
      "virtual_welfare": 3594
    },
    "profit": 1056,
    "cost_profit": 297.0,
    "welfare": 3891,
    "virtual_welfare": 3594,
    "running_time": 0
  },
  {
    "graph_name": "10_23",
    "n_pass": 2,
    "winning_ride": {
      "driver": {
        "arrive_until": 2400,
        "direct_cost": 424
      },
      "passengers": [
        {
          "bid": 3146,
          "id": 8,
          "price": 1974,
          "cost": 324,
          "direct_dist": 10789,
          "direct_cost": 324,
          "direct_time": 875
        },
        {
          "bid": 2333,
          "id": 3,
          "price": 1884,
          "cost": 234,
          "direct_dist": 7778,
          "direct_cost": 234,
          "direct_time": 588
        }
      ],
      "cost": 396,
      "virtual_welfare": 4921
    },
    "profit": 3462,
    "cost_profit": 162.0,
    "welfare": 5083,
    "virtual_welfare": 4921,
    "running_time": 0
  },
  {
    "graph_name": "10_24",
    "n_pass": 2,
    "winning_ride": {
      "driver": {
        "arrive_until": 2400,
        "direct_cost": 475
      },
      "passengers": [
        {
          "bid": 3861,
          "id": 9,
          "price": 2974,
          "cost": 387,
          "direct_dist": 12872,
          "direct_cost": 387,
          "direct_time": 1029
        },
        {
          "bid": 868,
          "id": 1,
          "price": 426,
          "cost": 143,
          "direct_dist": 4753,
          "direct_cost": 143,
          "direct_time": 328
        }
      ],
      "cost": 462,
      "virtual_welfare": 4199
    },
    "profit": 2938,
    "cost_profit": 68.0,
    "welfare": 4267,
    "virtual_welfare": 4199,
    "running_time": 0
  },
  {
    "graph_name": "10_25",
    "n_pass": 2,
    "winning_ride": {
      "driver": {
        "arrive_until": 2400,
        "direct_cost": 529
      },
      "passengers": [
        {
          "bid": 3899,
          "id": 5,
          "price": 3873,
          "cost": 390,
          "direct_dist": 12998,
          "direct_cost": 390,
          "direct_time": 864
        },
        {
          "bid": 729,
          "id": 4,
          "price": 703,
          "cost": 74,
          "direct_dist": 2464,
          "direct_cost": 74,
          "direct_time": 252
        }
      ],
      "cost": 366,
      "virtual_welfare": 4164
    },
    "profit": 4210,
    "cost_profit": 98.0,
    "welfare": 4262,
    "virtual_welfare": 4164,
    "running_time": 0
  },
  {
    "graph_name": "10_26",
    "n_pass": 2,
    "winning_ride": {
      "driver": {
        "arrive_until": 2400,
        "direct_cost": 402
      },
      "passengers": [
        {
          "bid": 4044,
          "id": 5,
          "price": 2186,
          "cost": 405,
          "direct_dist": 13483,
          "direct_cost": 405,
          "direct_time": 849
        },
        {
          "bid": 1888,
          "id": 2,
          "price": 251,
          "cost": 251,
          "direct_dist": 8347,
          "direct_cost": 251,
          "direct_time": 579
        }
      ],
      "cost": 474,
      "virtual_welfare": 5276
    },
    "profit": 1963,
    "cost_profit": 182.0,
    "welfare": 5458,
    "virtual_welfare": 5276,
    "running_time": 0
  },
  {
    "graph_name": "10_27",
    "n_pass": 2,
    "winning_ride": {
      "driver": {
        "arrive_until": 2400,
        "direct_cost": 475
      },
      "passengers": [
        {
          "bid": 1937,
          "id": 10,
          "price": 1630,
          "cost": 359,
          "direct_dist": 11939,
          "direct_cost": 359,
          "direct_time": 745
        },
        {
          "bid": 3384,
          "id": 2,
          "price": 1688,
          "cost": 339,
          "direct_dist": 11280,
          "direct_cost": 339,
          "direct_time": 771
        }
      ],
      "cost": 365,
      "virtual_welfare": 4623
    },
    "profit": 2953,
    "cost_profit": 333.0,
    "welfare": 4956,
    "virtual_welfare": 4623,
    "running_time": 0
  },
  {
    "graph_name": "10_28",
    "n_pass": 2,
    "winning_ride": {
      "driver": {
        "arrive_until": 2400,
        "direct_cost": 410
      },
      "passengers": [
        {
          "bid": 2247,
          "id": 3,
          "price": 251,
          "cost": 251,
          "direct_dist": 8334,
          "direct_cost": 251,
          "direct_time": 558
        },
        {
          "bid": 1419,
          "id": 1,
          "price": 232,
          "cost": 142,
          "direct_dist": 4732,
          "direct_cost": 142,
          "direct_time": 339
        }
      ],
      "cost": 319,
      "virtual_welfare": 3273
    },
    "profit": 164,
    "cost_profit": 74.0,
    "welfare": 3347,
    "virtual_welfare": 3273,
    "running_time": 0
  },
  {
    "graph_name": "10_29",
    "n_pass": 2,
    "winning_ride": {
      "driver": {
        "arrive_until": 2400,
        "direct_cost": 495
      },
      "passengers": [
        {
          "bid": 2739,
          "id": 3,
          "price": 2183,
          "cost": 350,
          "direct_dist": 11650,
          "direct_cost": 350,
          "direct_time": 777
        },
        {
          "bid": 3650,
          "id": 1,
          "price": 1567,
          "cost": 366,
          "direct_dist": 12169,
          "direct_cost": 366,
          "direct_time": 763
        }
      ],
      "cost": 380,
      "virtual_welfare": 5673
    },
    "profit": 3370,
    "cost_profit": 336.0,
    "welfare": 6009,
    "virtual_welfare": 5673,
    "running_time": 0
  },
  {
    "graph_name": "10_3",
    "n_pass": 2,
    "winning_ride": {
      "driver": {
        "arrive_until": 2400,
        "direct_cost": 456
      },
      "passengers": [
        {
          "bid": 1233,
          "id": 10,
          "price": 397,
          "cost": 275,
          "direct_dist": 9140,
          "direct_cost": 275,
          "direct_time": 597
        },
        {
          "bid": 2660,
          "id": 9,
          "price": 391,
          "cost": 269,
          "direct_dist": 8963,
          "direct_cost": 269,
          "direct_time": 616
        }
      ],
      "cost": 376,
      "virtual_welfare": 3349
    },
    "profit": 412,
    "cost_profit": 168.0,
    "welfare": 3517,
    "virtual_welfare": 3349,
    "running_time": 0
  },
  {
    "graph_name": "10_30",
    "n_pass": 1,
    "winning_ride": {
      "driver": {
        "arrive_until": 2400,
        "direct_cost": 422
      },
      "passengers": [
        {
          "bid": 1720,
          "id": 7,
          "price": 1520,
          "cost": 237,
          "direct_dist": 7886,
          "direct_cost": 237,
          "direct_time": 522
        }
      ],
      "cost": 221,
      "virtual_welfare": 1483
    },
    "profit": 1299,
    "cost_profit": 16.0,
    "welfare": 1499,
    "virtual_welfare": 1483,
    "running_time": 0
  },
  {
    "graph_name": "10_31",
    "n_pass": 2,
    "winning_ride": {
      "driver": {
        "arrive_until": 2400,
        "direct_cost": 391
      },
      "passengers": [
        {
          "bid": 2643,
          "id": 4,
          "price": 345,
          "cost": 345,
          "direct_dist": 11483,
          "direct_cost": 345,
          "direct_time": 741
        },
        {
          "bid": 1833,
          "id": 3,
          "price": 349,
          "cost": 349,
          "direct_dist": 11632,
          "direct_cost": 349,
          "direct_time": 797
        }
      ],
      "cost": 521,
      "virtual_welfare": 3782
    },
    "profit": 173,
    "cost_profit": 173.0,
    "welfare": 3955,
    "virtual_welfare": 3782,
    "running_time": 0
  },
  {
    "graph_name": "10_32",
    "n_pass": 1,
    "winning_ride": {
      "driver": {
        "arrive_until": 2400,
        "direct_cost": 469
      },
      "passengers": [
        {
          "bid": 5831,
          "id": 7,
          "price": 3463,
          "cost": 584,
          "direct_dist": 19439,
          "direct_cost": 584,
          "direct_time": 1214
        }
      ],
      "cost": 584,
      "virtual_welfare": 5247
    },
    "profit": 2879,
    "cost_profit": 0.0,
    "welfare": 5247,
    "virtual_welfare": 5247,
    "running_time": 0
  },
  {
    "graph_name": "10_33",
    "n_pass": 1,
    "winning_ride": {
      "driver": {
        "arrive_until": 2400,
        "direct_cost": 491
      },
      "passengers": [
        {
          "bid": 4215,
          "id": 5,
          "price": 449,
          "cost": 449,
          "direct_dist": 14944,
          "direct_cost": 449,
          "direct_time": 960
        }
      ],
      "cost": 418,
      "virtual_welfare": 3766
    },
    "profit": 31,
    "cost_profit": 31.0,
    "welfare": 3797,
    "virtual_welfare": 3766,
    "running_time": 0
  },
  {
    "graph_name": "10_34",
    "n_pass": 2,
    "winning_ride": {
      "driver": {
        "arrive_until": 2400,
        "direct_cost": 545
      },
      "passengers": [
        {
          "bid": 2024,
          "id": 10,
          "price": 432,
          "cost": 235,
          "direct_dist": 7806,
          "direct_cost": 235,
          "direct_time": 550
        },
        {
          "bid": 1969,
          "id": 8,
          "price": 1717,
          "cost": 205,
          "direct_dist": 6825,
          "direct_cost": 205,
          "direct_time": 413
        }
      ],
      "cost": 336,
      "virtual_welfare": 3553
    },
    "profit": 1813,
    "cost_profit": 104.0,
    "welfare": 3657,
    "virtual_welfare": 3553,
    "running_time": 0
  },
  {
    "graph_name": "10_35",
    "n_pass": 0,
    "winning_ride": {
      "driver": {
        "arrive_until": 0,
        "direct_cost": 0
      },
      "passengers": [],
      "cost": 0,
      "virtual_welfare": 0
    },
    "profit": 0,
    "cost_profit": 0.0,
    "welfare": 0,
    "virtual_welfare": 0,
    "running_time": 0
  },
  {
    "graph_name": "10_36",
    "n_pass": 1,
    "winning_ride": {
      "driver": {
        "arrive_until": 2400,
        "direct_cost": 555
      },
      "passengers": [
        {
          "bid": 4693,
          "id": 1,
          "price": 1170,
          "cost": 470,
          "direct_dist": 15644,
          "direct_cost": 470,
          "direct_time": 1161
        }
      ],
      "cost": 387,
      "virtual_welfare": 4223
    },
    "profit": 783,
    "cost_profit": 83.0,
    "welfare": 4306,
    "virtual_welfare": 4223,
    "running_time": 0
  },
  {
    "graph_name": "10_37",
    "n_pass": 2,
    "winning_ride": {
      "driver": {
        "arrive_until": 2400,
        "direct_cost": 406
      },
      "passengers": [
        {
          "bid": 1348,
          "id": 9,
          "price": 1068,
          "cost": 362,
          "direct_dist": 12059,
          "direct_cost": 362,
          "direct_time": 717
        },
        {
          "bid": 104,
          "id": 5,
          "price": 342,
          "cost": 342,
          "direct_dist": 11389,
          "direct_cost": 342,
          "direct_time": 728
        }
      ],
      "cost": 524,
      "virtual_welfare": 748
    },
    "profit": 886,
    "cost_profit": 180.0,
    "welfare": 928,
    "virtual_welfare": 748,
    "running_time": 0
  },
  {
    "graph_name": "10_38",
    "n_pass": 2,
    "winning_ride": {
      "driver": {
        "arrive_until": 2400,
        "direct_cost": 448
      },
      "passengers": [
        {
          "bid": 3033,
          "id": 8,
          "price": 2134,
          "cost": 304,
          "direct_dist": 10111,
          "direct_cost": 304,
          "direct_time": 693
        },
        {
          "bid": 3903,
          "id": 5,
          "price": 1475,
          "cost": 441,
          "direct_dist": 14685,
          "direct_cost": 441,
          "direct_time": 982
        }
      ],
      "cost": 363,
      "virtual_welfare": 6191
    },
    "profit": 3246,
    "cost_profit": 382.0,
    "welfare": 6573,
    "virtual_welfare": 6191,
    "running_time": 0
  },
  {
    "graph_name": "10_39",
    "n_pass": 0,
    "winning_ride": {
      "driver": {
        "arrive_until": 0,
        "direct_cost": 0
      },
      "passengers": [],
      "cost": 0,
      "virtual_welfare": 0
    },
    "profit": 0,
    "cost_profit": 0.0,
    "welfare": 0,
    "virtual_welfare": 0,
    "running_time": 0
  },
  {
    "graph_name": "10_4",
    "n_pass": 2,
    "winning_ride": {
      "driver": {
        "arrive_until": 2400,
        "direct_cost": 431
      },
      "passengers": [
        {
          "bid": 3075,
          "id": 10,
          "price": 441,
          "cost": 308,
          "direct_dist": 10253,
          "direct_cost": 308,
          "direct_time": 700
        },
        {
          "bid": 1487,
          "id": 2,
          "price": 676,
          "cost": 306,
          "direct_dist": 10189,
          "direct_cost": 306,
          "direct_time": 668
        }
      ],
      "cost": 465,
      "virtual_welfare": 3948
    },
    "profit": 652,
    "cost_profit": 149.0,
    "welfare": 4097,
    "virtual_welfare": 3948,
    "running_time": 0
  },
  {
    "graph_name": "10_40",
    "n_pass": 0,
    "winning_ride": {
      "driver": {
        "arrive_until": 0,
        "direct_cost": 0
      },
      "passengers": [],
      "cost": 0,
      "virtual_welfare": 0
    },
    "profit": 0,
    "cost_profit": 0.0,
    "welfare": 0,
    "virtual_welfare": 0,
    "running_time": 0
  },
  {
    "graph_name": "10_41",
    "n_pass": 2,
    "winning_ride": {
      "driver": {
        "arrive_until": 2400,
        "direct_cost": 504
      },
      "passengers": [
        {
          "bid": 1456,
          "id": 8,
          "price": 456,
          "cost": 280,
          "direct_dist": 9305,
          "direct_cost": 280,
          "direct_time": 628
        },
        {
          "bid": 936,
          "id": 3,
          "price": 250,
          "cost": 250,
          "direct_dist": 8312,
          "direct_cost": 250,
          "direct_time": 572
        }
      ],
      "cost": 279,
      "virtual_welfare": 1862
    },
    "profit": 427,
    "cost_profit": 251.0,
    "welfare": 2113,
    "virtual_welfare": 1862,
    "running_time": 0
  },
  {
    "graph_name": "10_42",
    "n_pass": 2,
    "winning_ride": {
      "driver": {
        "arrive_until": 2400,
        "direct_cost": 457
      },
      "passengers": [
        {
          "bid": 1739,
          "id": 2,
          "price": 174,
          "cost": 174,
          "direct_dist": 5797,
          "direct_cost": 174,
          "direct_time": 433
        },
        {
          "bid": 2877,
          "id": 1,
          "price": 481,
          "cost": 478,
          "direct_dist": 15913,
          "direct_cost": 478,
          "direct_time": 1041
        }
      ],
      "cost": 382,
      "virtual_welfare": 3964
    },
    "profit": 273,
    "cost_profit": 270.0,
    "welfare": 4234,
    "virtual_welfare": 3964,
    "running_time": 0
  },
  {
    "graph_name": "10_43",
    "n_pass": 3,
    "winning_ride": {
      "driver": {
        "arrive_until": 2400,
        "direct_cost": 439
      },
      "passengers": [
        {
          "bid": 561,
          "id": 8,
          "price": 57,
          "cost": 57,
          "direct_dist": 1872,
          "direct_cost": 57,
          "direct_time": 146
        },
        {
          "bid": 2142,
          "id": 5,
          "price": 934,
          "cost": 215,
          "direct_dist": 7140,
          "direct_cost": 215,
          "direct_time": 523
        },
        {
          "bid": 2705,
          "id": 4,
          "price": 1067,
          "cost": 348,
          "direct_dist": 11586,
          "direct_cost": 348,
          "direct_time": 841
        }
      ],
      "cost": 414,
      "virtual_welfare": 4788
    },
    "profit": 1644,
    "cost_profit": 206.0,
    "welfare": 4994,
    "virtual_welfare": 4788,
    "running_time": 0
  },
  {
    "graph_name": "10_44",
    "n_pass": 2,
    "winning_ride": {
      "driver": {
        "arrive_until": 2400,
        "direct_cost": 433
      },
      "passengers": [
        {
          "bid": 4307,
          "id": 7,
          "price": 2449,
          "cost": 431,
          "direct_dist": 14359,
          "direct_cost": 431,
          "direct_time": 924
        },
        {
          "bid": 2453,
          "id": 5,
          "price": 742,
          "cost": 246,
          "direct_dist": 8178,
          "direct_cost": 246,
          "direct_time": 557
        }
      ],
      "cost": 315,
      "virtual_welfare": 6083
    },
    "profit": 2876,
    "cost_profit": 362.0,
    "welfare": 6445,
    "virtual_welfare": 6083,
    "running_time": 0
  },
  {
    "graph_name": "10_45",
    "n_pass": 1,
    "winning_ride": {
      "driver": {
        "arrive_until": 2400,
        "direct_cost": 428
      },
      "passengers": [
        {
          "bid": 2114,
          "id": 8,
          "price": 212,
          "cost": 212,
          "direct_dist": 7047,
          "direct_cost": 212,
          "direct_time": 495
        }
      ],
      "cost": 207,
      "virtual_welfare": 1902
    },
    "profit": 5,
    "cost_profit": 5.0,
    "welfare": 1907,
    "virtual_welfare": 1902,
    "running_time": 0
  },
  {
    "graph_name": "10_46",
    "n_pass": 2,
    "winning_ride": {
      "driver": {
        "arrive_until": 2400,
        "direct_cost": 502
      },
      "passengers": [
        {
          "bid": 2161,
          "id": 9,
          "price": 272,
          "cost": 272,
          "direct_dist": 9042,
          "direct_cost": 272,
          "direct_time": 575
        },
        {
          "bid": 3606,
          "id": 5,
          "price": 1728,
          "cost": 463,
          "direct_dist": 15414,
          "direct_cost": 463,
          "direct_time": 999
        }
      ],
      "cost": 441,
      "virtual_welfare": 5032
    },
    "profit": 1559,
    "cost_profit": 294.0,
    "welfare": 5326,
    "virtual_welfare": 5032,
    "running_time": 0
  },
  {
    "graph_name": "10_47",
    "n_pass": 2,
    "winning_ride": {
      "driver": {
        "arrive_until": 2400,
        "direct_cost": 476
      },
      "passengers": [
        {
          "bid": 2169,
          "id": 9,
          "price": 330,
          "cost": 217,
          "direct_dist": 7233,
          "direct_cost": 217,
          "direct_time": 478
        },
        {
          "bid": 4058,
          "id": 3,
          "price": 406,
          "cost": 406,
          "direct_dist": 13528,
          "direct_cost": 406,
          "direct_time": 913
        }
      ],
      "cost": 518,
      "virtual_welfare": 5604
    },
    "profit": 218,
    "cost_profit": 105.0,
    "welfare": 5709,
    "virtual_welfare": 5604,
    "running_time": 0
  },
  {
    "graph_name": "10_48",
    "n_pass": 0,
    "winning_ride": {
      "driver": {
        "arrive_until": 0,
        "direct_cost": 0
      },
      "passengers": [],
      "cost": 0,
      "virtual_welfare": 0
    },
    "profit": 0,
    "cost_profit": 0.0,
    "welfare": 0,
    "virtual_welfare": 0,
    "running_time": 0
  },
  {
    "graph_name": "10_49",
    "n_pass": 2,
    "winning_ride": {
      "driver": {
        "arrive_until": 2400,
        "direct_cost": 416
      },
      "passengers": [
        {
          "bid": 352,
          "id": 7,
          "price": 294,
          "cost": 294,
          "direct_dist": 9780,
          "direct_cost": 294,
          "direct_time": 665
        },
        {
          "bid": 2385,
          "id": 1,
          "price": 1462,
          "cost": 239,
          "direct_dist": 7951,
          "direct_cost": 239,
          "direct_time": 528
        }
      ],
      "cost": 343,
      "virtual_welfare": 2204
    },
    "profit": 1413,
    "cost_profit": 190.0,
    "welfare": 2394,
    "virtual_welfare": 2204,
    "running_time": 0
  },
  {
    "graph_name": "10_5",
    "n_pass": 2,
    "winning_ride": {
      "driver": {
        "arrive_until": 2400,
        "direct_cost": 476
      },
      "passengers": [
        {
          "bid": 2292,
          "id": 10,
          "price": 1623,
          "cost": 456,
          "direct_dist": 15169,
          "direct_cost": 456,
          "direct_time": 1003
        },
        {
          "bid": 4267,
          "id": 5,
          "price": 2265,
          "cost": 427,
          "direct_dist": 14224,
          "direct_cost": 427,
          "direct_time": 962
        }
      ],
      "cost": 563,
      "virtual_welfare": 5676
    },
    "profit": 3325,
    "cost_profit": 320.0,
    "welfare": 5996,
    "virtual_welfare": 5676,
    "running_time": 0
  },
  {
    "graph_name": "10_50",
    "n_pass": 2,
    "winning_ride": {
      "driver": {
        "arrive_until": 2400,
        "direct_cost": 529
      },
      "passengers": [
        {
          "bid": 1220,
          "id": 10,
          "price": 997,
          "cost": 224,
          "direct_dist": 7443,
          "direct_cost": 224,
          "direct_time": 501
        },
        {
          "bid": 623,
          "id": 8,
          "price": 400,
          "cost": 316,
          "direct_dist": 10522,
          "direct_cost": 316,
          "direct_time": 749
        }
      ],
      "cost": 489,
      "virtual_welfare": 1303
    },
    "profit": 908,
    "cost_profit": 51.0,
    "welfare": 1354,
    "virtual_welfare": 1303,
    "running_time": 0
  },
  {
    "graph_name": "10_51",
    "n_pass": 1,
    "winning_ride": {
      "driver": {
        "arrive_until": 2400,
        "direct_cost": 473
      },
      "passengers": [
        {
          "bid": 2572,
          "id": 3,
          "price": 1526,
          "cost": 258,
          "direct_dist": 8576,
          "direct_cost": 258,
          "direct_time": 621
        }
      ],
      "cost": 156,
      "virtual_welfare": 2314
    },
    "profit": 1370,
    "cost_profit": 102.0,
    "welfare": 2416,
    "virtual_welfare": 2314,
    "running_time": 0
  },
  {
    "graph_name": "10_52",
    "n_pass": 2,
    "winning_ride": {
      "driver": {
        "arrive_until": 2400,
        "direct_cost": 466
      },
      "passengers": [
        {
          "bid": 1916,
          "id": 9,
          "price": 1448,
          "cost": 248,
          "direct_dist": 8242,
          "direct_cost": 248,
          "direct_time": 591
        },
        {
          "bid": 3761,
          "id": 4,
          "price": 2015,
          "cost": 535,
          "direct_dist": 17824,
          "direct_cost": 535,
          "direct_time": 1157
        }
      ],
      "cost": 526,
      "virtual_welfare": 4894
    },
    "profit": 2937,
    "cost_profit": 257.0,
    "welfare": 5151,
    "virtual_welfare": 4894,
    "running_time": 0
  },
  {
    "graph_name": "10_53",
    "n_pass": 2,
    "winning_ride": {
      "driver": {
        "arrive_until": 2400,
        "direct_cost": 509
      },
      "passengers": [
        {
          "bid": 617,
          "id": 6,
          "price": 417,
          "cost": 282,
          "direct_dist": 9371,
          "direct_cost": 282,
          "direct_time": 652
        },
        {
          "bid": 1770,
          "id": 4,
          "price": 1477,
          "cost": 313,
          "direct_dist": 10414,
          "direct_cost": 313,
          "direct_time": 768
        }
      ],
      "cost": 354,
      "virtual_welfare": 1792
    },
    "profit": 1540,
    "cost_profit": 241.0,
    "welfare": 2033,
    "virtual_welfare": 1792,
    "running_time": 0
  },
  {
    "graph_name": "10_54",
    "n_pass": 2,
    "winning_ride": {
      "driver": {
        "arrive_until": 2400,
        "direct_cost": 443
      },
      "passengers": [
        {
          "bid": 5083,
          "id": 8,
          "price": 509,
          "cost": 509,
          "direct_dist": 16944,
          "direct_cost": 509,
          "direct_time": 1043
        },
        {
          "bid": 4766,
          "id": 4,
          "price": 2939,
          "cost": 477,
          "direct_dist": 15889,
          "direct_cost": 477,
          "direct_time": 1097
        }
      ],
      "cost": 597,
      "virtual_welfare": 8863
    },
    "profit": 2851,
    "cost_profit": 389.0,
    "welfare": 9252,
    "virtual_welfare": 8863,
    "running_time": 0
  },
  {
    "graph_name": "10_55",
    "n_pass": 2,
    "winning_ride": {
      "driver": {
        "arrive_until": 2400,
        "direct_cost": 447
      },
      "passengers": [
        {
          "bid": 3443,
          "id": 7,
          "price": 3240,
          "cost": 345,
          "direct_dist": 11477,
          "direct_cost": 345,
          "direct_time": 757
        },
        {
          "bid": 3462,
          "id": 1,
          "price": 3242,
          "cost": 347,
          "direct_dist": 11541,
          "direct_cost": 347,
          "direct_time": 831
        }
      ],
      "cost": 371,
      "virtual_welfare": 6213
    },
    "profit": 6111,
    "cost_profit": 321.0,
    "welfare": 6534,
    "virtual_welfare": 6213,
    "running_time": 0
  },
  {
    "graph_name": "10_56",
    "n_pass": 2,
    "winning_ride": {
      "driver": {
        "arrive_until": 2400,
        "direct_cost": 432
      },
      "passengers": [
        {
          "bid": 1430,
          "id": 10,
          "price": 1190,
          "cost": 262,
          "direct_dist": 8725,
          "direct_cost": 262,
          "direct_time": 551
        },
        {
          "bid": 990,
          "id": 5,
          "price": 750,
          "cost": 341,
          "direct_dist": 11334,
          "direct_cost": 341,
          "direct_time": 742
        }
      ],
      "cost": 541,
      "virtual_welfare": 1817
    },
    "profit": 1399,
    "cost_profit": 62.0,
    "welfare": 1879,
    "virtual_welfare": 1817,
    "running_time": 0
  },
  {
    "graph_name": "10_57",
    "n_pass": 1,
    "winning_ride": {
      "driver": {
        "arrive_until": 2400,
        "direct_cost": 578
      },
      "passengers": [
        {
          "bid": 1778,
          "id": 8,
          "price": 1125,
          "cost": 178,
          "direct_dist": 5928,
          "direct_cost": 178,
          "direct_time": 420
        }
      ],
      "cost": 66,
      "virtual_welfare": 1600
    },
    "profit": 1059,
    "cost_profit": 112.0,
    "welfare": 1712,
    "virtual_welfare": 1600,
    "running_time": 0
  },
  {
    "graph_name": "10_58",
    "n_pass": 2,
    "winning_ride": {
      "driver": {
        "arrive_until": 2400,
        "direct_cost": 413
      },
      "passengers": [
        {
          "bid": 3958,
          "id": 8,
          "price": 657,
          "cost": 396,
          "direct_dist": 13196,
          "direct_cost": 396,
          "direct_time": 967
        },
        {
          "bid": 1400,
          "id": 2,
          "price": 613,
          "cost": 352,
          "direct_dist": 11731,
          "direct_cost": 352,
          "direct_time": 826
        }
      ],
      "cost": 466,
      "virtual_welfare": 4610
    },
    "profit": 804,
    "cost_profit": 282.0,
    "welfare": 4892,
    "virtual_welfare": 4610,
    "running_time": 0
  },
  {
    "graph_name": "10_59",
    "n_pass": 2,
    "winning_ride": {
      "driver": {
        "arrive_until": 2400,
        "direct_cost": 500
      },
      "passengers": [
        {
          "bid": 3571,
          "id": 9,
          "price": 1672,
          "cost": 358,
          "direct_dist": 11905,
          "direct_cost": 358,
          "direct_time": 813
        },
        {
          "bid": 5692,
          "id": 8,
          "price": 1884,
          "cost": 570,
          "direct_dist": 18976,
          "direct_cost": 570,
          "direct_time": 1256
        }
      ],
      "cost": 346,
      "virtual_welfare": 8335
    },
    "profit": 3210,
    "cost_profit": 582.0,
    "welfare": 8917,
    "virtual_welfare": 8335,
    "running_time": 0
  },
  {
    "graph_name": "10_6",
    "n_pass": 3,
    "winning_ride": {
      "driver": {
        "arrive_until": 2400,
        "direct_cost": 418
      },
      "passengers": [
        {
          "bid": 1209,
          "id": 9,
          "price": 121,
          "cost": 121,
          "direct_dist": 4032,
          "direct_cost": 121,
          "direct_time": 264
        },
        {
          "bid": 1225,
          "id": 4,
          "price": 426,
          "cost": 426,
          "direct_dist": 14191,
          "direct_cost": 426,
          "direct_time": 878
        },
        {
          "bid": 342,
          "id": 1,
          "price": 45,
          "cost": 45,
          "direct_dist": 1490,
          "direct_cost": 45,
          "direct_time": 87
        }
      ],
      "cost": 574,
      "virtual_welfare": 2184
    },
    "profit": 18,
    "cost_profit": 18.0,
    "welfare": 2202,
    "virtual_welfare": 2184,
    "running_time": 0
  },
  {
    "graph_name": "10_60",
    "n_pass": 2,
    "winning_ride": {
      "driver": {
        "arrive_until": 2400,
        "direct_cost": 583
      },
      "passengers": [
        {
          "bid": 4529,
          "id": 7,
          "price": 2969,
          "cost": 474,
          "direct_dist": 15780,
          "direct_cost": 474,
          "direct_time": 1034
        },
        {
          "bid": 1620,
          "id": 3,
          "price": 986,
          "cost": 316,
          "direct_dist": 10533,
          "direct_cost": 316,
          "direct_time": 708
        }
      ],
      "cost": 245,
      "virtual_welfare": 5359
    },
    "profit": 3710,
    "cost_profit": 545.0,
    "welfare": 5904,
    "virtual_welfare": 5359,
    "running_time": 0
  },
  {
    "graph_name": "10_61",
    "n_pass": 2,
    "winning_ride": {
      "driver": {
        "arrive_until": 2400,
        "direct_cost": 469
      },
      "passengers": [
        {
          "bid": 1445,
          "id": 2,
          "price": 514,
          "cost": 148,
          "direct_dist": 4913,
          "direct_cost": 148,
          "direct_time": 369
        },
        {
          "bid": 2045,
          "id": 1,
          "price": 306,
          "cost": 306,
          "direct_dist": 10187,
          "direct_cost": 306,
          "direct_time": 681
        }
      ],
      "cost": 401,
      "virtual_welfare": 3036
    },
    "profit": 419,
    "cost_profit": 53.0,
    "welfare": 3089,
    "virtual_welfare": 3036,
    "running_time": 0
  },
  {
    "graph_name": "10_62",
    "n_pass": 2,
    "winning_ride": {
      "driver": {
        "arrive_until": 2400,
        "direct_cost": 529
      },
      "passengers": [
        {
          "bid": 1001,
          "id": 10,
          "price": 154,
          "cost": 154,
          "direct_dist": 5113,
          "direct_cost": 154,
          "direct_time": 370
        },
        {
          "bid": 4367,
          "id": 5,
          "price": 987,
          "cost": 471,
          "direct_dist": 15697,
          "direct_cost": 471,
          "direct_time": 1068
        }
      ],
      "cost": 302,
      "virtual_welfare": 4743
    },
    "profit": 839,
    "cost_profit": 323.0,
    "welfare": 5066,
    "virtual_welfare": 4743,
    "running_time": 0
  },
  {
    "graph_name": "10_63",
    "n_pass": 1,
    "winning_ride": {
      "driver": {
        "arrive_until": 2400,
        "direct_cost": 564
      },
      "passengers": [
        {
          "bid": 1058,
          "id": 5,
          "price": 466,
          "cost": 106,
          "direct_dist": 3527,
          "direct_cost": 106,
          "direct_time": 269
        }
      ],
      "cost": 47,
      "virtual_welfare": 952
    },
    "profit": 419,
    "cost_profit": 59.0,
    "welfare": 1011,
    "virtual_welfare": 952,
    "running_time": 0
  },
  {
    "graph_name": "10_64",
    "n_pass": 2,
    "winning_ride": {
      "driver": {
        "arrive_until": 2400,
        "direct_cost": 415
      },
      "passengers": [
        {
          "bid": 2620,
          "id": 6,
          "price": 359,
          "cost": 359,
          "direct_dist": 11938,
          "direct_cost": 359,
          "direct_time": 803
        },
        {
          "bid": 3396,
          "id": 5,
          "price": 498,
          "cost": 498,
          "direct_dist": 16586,
          "direct_cost": 498,
          "direct_time": 1105
        }
      ],
      "cost": 433,
      "virtual_welfare": 5159
    },
    "profit": 424,
    "cost_profit": 424.0,
    "welfare": 5583,
    "virtual_welfare": 5159,
    "running_time": 0
  },
  {
    "graph_name": "10_65",
    "n_pass": 2,
    "winning_ride": {
      "driver": {
        "arrive_until": 2400,
        "direct_cost": 457
      },
      "passengers": [
        {
          "bid": 3404,
          "id": 8,
          "price": 1306,
          "cost": 341,
          "direct_dist": 11347,
          "direct_cost": 341,
          "direct_time": 709
        },
        {
          "bid": 368,
          "id": 7,
          "price": 147,
          "cost": 147,
          "direct_dist": 4883,
          "direct_cost": 147,
          "direct_time": 424
        }
      ],
      "cost": 424,
      "virtual_welfare": 3284
    },
    "profit": 1029,
    "cost_profit": 64.0,
    "welfare": 3348,
    "virtual_welfare": 3284,
    "running_time": 0
  },
  {
    "graph_name": "10_66",
    "n_pass": 2,
    "winning_ride": {
      "driver": {
        "arrive_until": 2400,
        "direct_cost": 453
      },
      "passengers": [
        {
          "bid": 3848,
          "id": 4,
          "price": 809,
          "cost": 385,
          "direct_dist": 12829,
          "direct_cost": 385,
          "direct_time": 808
        },
        {
          "bid": 2774,
          "id": 2,
          "price": 1825,
          "cost": 278,
          "direct_dist": 9249,
          "direct_cost": 278,
          "direct_time": 552
        }
      ],
      "cost": 502,
      "virtual_welfare": 5959
    },
    "profit": 2132,
    "cost_profit": 161.0,
    "welfare": 6120,
    "virtual_welfare": 5959,
    "running_time": 0
  },
  {
    "graph_name": "10_67",
    "n_pass": 2,
    "winning_ride": {
      "driver": {
        "arrive_until": 2400,
        "direct_cost": 434
      },
      "passengers": [
        {
          "bid": 3270,
          "id": 10,
          "price": 508,
          "cost": 328,
          "direct_dist": 10903,
          "direct_cost": 328,
          "direct_time": 781
        },
        {
          "bid": 299,
          "id": 5,
          "price": 221,
          "cost": 221,
          "direct_dist": 7346,
          "direct_cost": 221,
          "direct_time": 447
        }
      ],
      "cost": 512,
      "virtual_welfare": 3020
    },
    "profit": 217,
    "cost_profit": 37.0,
    "welfare": 3057,
    "virtual_welfare": 3020,
    "running_time": 0
  },
  {
    "graph_name": "10_68",
    "n_pass": 2,
    "winning_ride": {
      "driver": {
        "arrive_until": 2400,
        "direct_cost": 509
      },
      "passengers": [
        {
          "bid": 1815,
          "id": 6,
          "price": 236,
          "cost": 236,
          "direct_dist": 7862,
          "direct_cost": 236,
          "direct_time": 516
        },
        {
          "bid": 862,
          "id": 5,
          "price": 262,
          "cost": 262,
          "direct_dist": 8703,
          "direct_cost": 262,
          "direct_time": 576
        }
      ],
      "cost": 349,
      "virtual_welfare": 2179
    },
    "profit": 149,
    "cost_profit": 149.0,
    "welfare": 2328,
    "virtual_welfare": 2179,
    "running_time": 0
  },
  {
    "graph_name": "10_69",
    "n_pass": 1,
    "winning_ride": {
      "driver": {
        "arrive_until": 2400,
        "direct_cost": 405
      },
      "passengers": [
        {
          "bid": 421,
          "id": 10,
          "price": 400,
          "cost": 400,
          "direct_dist": 13301,
          "direct_cost": 400,
          "direct_time": 870
        }
      ],
      "cost": 305,
      "virtual_welfare": 21
    },
    "profit": 95,
    "cost_profit": 95.0,
    "welfare": 116,
    "virtual_welfare": 21,
    "running_time": 0
  },
  {
    "graph_name": "10_7",
    "n_pass": 2,
    "winning_ride": {
      "driver": {
        "arrive_until": 2400,
        "direct_cost": 453
      },
      "passengers": [
        {
          "bid": 1136,
          "id": 7,
          "price": 117,
          "cost": 117,
          "direct_dist": 3889,
          "direct_cost": 117,
          "direct_time": 235
        },
        {
          "bid": 616,
          "id": 4,
          "price": 62,
          "cost": 62,
          "direct_dist": 2055,
          "direct_cost": 62,
          "direct_time": 144
        }
      ],
      "cost": 179,
      "virtual_welfare": 1573
    },
    "profit": 0,
    "cost_profit": 0.0,
    "welfare": 1573,
    "virtual_welfare": 1573,
    "running_time": 0
  },
  {
    "graph_name": "10_70",
    "n_pass": 2,
    "winning_ride": {
      "driver": {
        "arrive_until": 2400,
        "direct_cost": 464
      },
      "passengers": [
        {
          "bid": 3057,
          "id": 8,
          "price": 1887,
          "cost": 306,
          "direct_dist": 10190,
          "direct_cost": 306,
          "direct_time": 666
        },
        {
          "bid": 1797,
          "id": 4,
          "price": 627,
          "cost": 353,
          "direct_dist": 11760,
          "direct_cost": 353,
          "direct_time": 816
        }
      ],
      "cost": 475,
      "virtual_welfare": 4195
    },
    "profit": 2039,
    "cost_profit": 184.0,
    "welfare": 4379,
    "virtual_welfare": 4195,
    "running_time": 0
  },
  {
    "graph_name": "10_71",
    "n_pass": 1,
    "winning_ride": {
      "driver": {
        "arrive_until": 2400,
        "direct_cost": 505
      },
      "passengers": [
        {
          "bid": 2024,
          "id": 7,
          "price": 1309,
          "cost": 203,
          "direct_dist": 6748,
          "direct_cost": 203,
          "direct_time": 473
        }
      ],
      "cost": 157,
      "virtual_welfare": 1821
    },
    "profit": 1152,
    "cost_profit": 46.0,
    "welfare": 1867,
    "virtual_welfare": 1821,
    "running_time": 0
  },
  {
    "graph_name": "10_72",
    "n_pass": 2,
    "winning_ride": {
      "driver": {
        "arrive_until": 2400,
        "direct_cost": 520
      },
      "passengers": [
        {
          "bid": 4276,
          "id": 7,
          "price": 1827,
          "cost": 428,
          "direct_dist": 14254,
          "direct_cost": 428,
          "direct_time": 877
        },
        {
          "bid": 2192,
          "id": 3,
          "price": 712,
          "cost": 220,
          "direct_dist": 7308,
          "direct_cost": 220,
          "direct_time": 521
        }
      ],
      "cost": 472,
      "virtual_welfare": 5820
    },
    "profit": 2067,
    "cost_profit": 176.0,
    "welfare": 5996,
    "virtual_welfare": 5820,
    "running_time": 0
  },
  {
    "graph_name": "10_73",
    "n_pass": 2,
    "winning_ride": {
      "driver": {
        "arrive_until": 2400,
        "direct_cost": 458
      },
      "passengers": [
        {
          "bid": 3719,
          "id": 10,
          "price": 2327,
          "cost": 372,
          "direct_dist": 12397,
          "direct_cost": 372,
          "direct_time": 807
        },
        {
          "bid": 3543,
          "id": 4,
          "price": 3110,
          "cost": 355,
          "direct_dist": 11811,
          "direct_cost": 355,
          "direct_time": 788
        }
      ],
      "cost": 325,
      "virtual_welfare": 6535
    },
    "profit": 5112,
    "cost_profit": 402.0,
    "welfare": 6937,
    "virtual_welfare": 6535,
    "running_time": 0
  },
  {
    "graph_name": "10_74",
    "n_pass": 2,
    "winning_ride": {
      "driver": {
        "arrive_until": 2400,
        "direct_cost": 550
      },
      "passengers": [
        {
          "bid": 1085,
          "id": 8,
          "price": 1058,
          "cost": 267,
          "direct_dist": 8871,
          "direct_cost": 267,
          "direct_time": 556
        },
        {
          "bid": 2090,
          "id": 6,
          "price": 1864,
          "cost": 505,
          "direct_dist": 16815,
          "direct_cost": 505,
          "direct_time": 1142
        }
      ],
      "cost": 389,
      "virtual_welfare": 2403
    },
    "profit": 2533,
    "cost_profit": 383.0,
    "welfare": 2786,
    "virtual_welfare": 2403,
    "running_time": 0
  },
  {
    "graph_name": "10_75",
    "n_pass": 0,
    "winning_ride": {
      "driver": {
        "arrive_until": 0,
        "direct_cost": 0
      },
      "passengers": [],
      "cost": 0,
      "virtual_welfare": 0
    },
    "profit": 0,
    "cost_profit": 0.0,
    "welfare": 0,
    "virtual_welfare": 0,
    "running_time": 0
  },
  {
    "graph_name": "10_76",
    "n_pass": 1,
    "winning_ride": {
      "driver": {
        "arrive_until": 2400,
        "direct_cost": 450
      },
      "passengers": [
        {
          "bid": 3192,
          "id": 8,
          "price": 320,
          "cost": 320,
          "direct_dist": 10643,
          "direct_cost": 320,
          "direct_time": 809
        }
      ],
      "cost": 261,
      "virtual_welfare": 2872
    },
    "profit": 59,
    "cost_profit": 59.0,
    "welfare": 2931,
    "virtual_welfare": 2872,
    "running_time": 0
  },
  {
    "graph_name": "10_77",
    "n_pass": 2,
    "winning_ride": {
      "driver": {
        "arrive_until": 2400,
        "direct_cost": 449
      },
      "passengers": [
        {
          "bid": 4934,
          "id": 10,
          "price": 1411,
          "cost": 494,
          "direct_dist": 16447,
          "direct_cost": 494,
          "direct_time": 1082
        },
        {
          "bid": 2088,
          "id": 5,
          "price": 1830,
          "cost": 209,
          "direct_dist": 6961,
          "direct_cost": 209,
          "direct_time": 456
        }
      ],
      "cost": 383,
      "virtual_welfare": 6319
    },
    "profit": 2858,
    "cost_profit": 320.0,
    "welfare": 6639,
    "virtual_welfare": 6319,
    "running_time": 0
  },
  {
    "graph_name": "10_78",
    "n_pass": 2,
    "winning_ride": {
      "driver": {
        "arrive_until": 2400,
        "direct_cost": 504
      },
      "passengers": [
        {
          "bid": 456,
          "id": 3,
          "price": 173,
          "cost": 146,
          "direct_dist": 4845,
          "direct_cost": 146,
          "direct_time": 374
        },
        {
          "bid": 1928,
          "id": 1,
          "price": 1645,
          "cost": 306,
          "direct_dist": 10181,
          "direct_cost": 306,
          "direct_time": 729
        }
      ],
      "cost": 387,
      "virtual_welfare": 1932
    },
    "profit": 1431,
    "cost_profit": 65.0,
    "welfare": 1997,
    "virtual_welfare": 1932,
    "running_time": 0
  },
  {
    "graph_name": "10_79",
    "n_pass": 3,
    "winning_ride": {
      "driver": {
        "arrive_until": 2400,
        "direct_cost": 471
      },
      "passengers": [
        {
          "bid": 2440,
          "id": 9,
          "price": 245,
          "cost": 245,
          "direct_dist": 8134,
          "direct_cost": 245,
          "direct_time": 531
        },
        {
          "bid": 1138,
          "id": 4,
          "price": 254,
          "cost": 254,
          "direct_dist": 8441,
          "direct_cost": 254,
          "direct_time": 643
        },
        {
          "bid": 1978,
          "id": 1,
          "price": 198,
          "cost": 198,
          "direct_dist": 6594,
          "direct_cost": 198,
          "direct_time": 474
        }
      ],
      "cost": 457,
      "virtual_welfare": 4859
    },
    "profit": 240,
    "cost_profit": 240.0,
    "welfare": 5099,
    "virtual_welfare": 4859,
    "running_time": 0
  },
  {
    "graph_name": "10_80",
    "n_pass": 2,
    "winning_ride": {
      "driver": {
        "arrive_until": 2400,
        "direct_cost": 521
      },
      "passengers": [
        {
          "bid": 4404,
          "id": 5,
          "price": 786,
          "cost": 441,
          "direct_dist": 14680,
          "direct_cost": 441,
          "direct_time": 1038
        },
        {
          "bid": 3828,
          "id": 2,
          "price": 841,
          "cost": 545,
          "direct_dist": 18156,
          "direct_cost": 545,
          "direct_time": 1201
        }
      ],
      "cost": 416,
      "virtual_welfare": 7246
    },
    "profit": 1211,
    "cost_profit": 570.0,
    "welfare": 7816,
    "virtual_welfare": 7246,
    "running_time": 0
  },
  {
    "graph_name": "10_81",
    "n_pass": 1,
    "winning_ride": {
      "driver": {
        "arrive_until": 2400,
        "direct_cost": 461
      },
      "passengers": [
        {
          "bid": 3426,
          "id": 1,
          "price": 343,
          "cost": 343,
          "direct_dist": 11422,
          "direct_cost": 343,
          "direct_time": 807
        }
      ],
      "cost": 339,
      "virtual_welfare": 3083
    },
    "profit": 4,
    "cost_profit": 4.0,
    "welfare": 3087,
    "virtual_welfare": 3083,
    "running_time": 0
  },
  {
    "graph_name": "10_82",
    "n_pass": 1,
    "winning_ride": {
      "driver": {
        "arrive_until": 2400,
        "direct_cost": 483
      },
      "passengers": [
        {
          "bid": 2690,
          "id": 3,
          "price": 270,
          "cost": 270,
          "direct_dist": 8968,
          "direct_cost": 270,
          "direct_time": 614
        }
      ],
      "cost": 250,
      "virtual_welfare": 2420
    },
    "profit": 20,
    "cost_profit": 20.0,
    "welfare": 2440,
    "virtual_welfare": 2420,
    "running_time": 0
  },
  {
    "graph_name": "10_83",
    "n_pass": 2,
    "winning_ride": {
      "driver": {
        "arrive_until": 2400,
        "direct_cost": 399
      },
      "passengers": [
        {
          "bid": 1694,
          "id": 5,
          "price": 1494,
          "cost": 309,
          "direct_dist": 10287,
          "direct_cost": 309,
          "direct_time": 663
        },
        {
          "bid": 2643,
          "id": 1,
          "price": 2029,
          "cost": 265,
          "direct_dist": 8810,
          "direct_cost": 265,
          "direct_time": 602
        }
      ],
      "cost": 453,
      "virtual_welfare": 3763
    },
    "profit": 3070,
    "cost_profit": 121.0,
    "welfare": 3884,
    "virtual_welfare": 3763,
    "running_time": 0
  },
  {
    "graph_name": "10_84",
    "n_pass": 2,
    "winning_ride": {
      "driver": {
        "arrive_until": 2400,
        "direct_cost": 455
      },
      "passengers": [
        {
          "bid": 3637,
          "id": 7,
          "price": 1052,
          "cost": 364,
          "direct_dist": 12124,
          "direct_cost": 364,
          "direct_time": 847
        },
        {
          "bid": 3665,
          "id": 5,
          "price": 367,
          "cost": 367,
          "direct_dist": 12218,
          "direct_cost": 367,
          "direct_time": 757
        }
      ],
      "cost": 535,
      "virtual_welfare": 6571
    },
    "profit": 884,
    "cost_profit": 196.0,
    "welfare": 6767,
    "virtual_welfare": 6571,
    "running_time": 0
  },
  {
    "graph_name": "10_85",
    "n_pass": 2,
    "winning_ride": {
      "driver": {
        "arrive_until": 2400,
        "direct_cost": 498
      },
      "passengers": [
        {
          "bid": 744,
          "id": 8,
          "price": 300,
          "cost": 143,
          "direct_dist": 4761,
          "direct_cost": 143,
          "direct_time": 391
        },
        {
          "bid": 4254,
          "id": 4,
          "price": 426,
          "cost": 426,
          "direct_dist": 14180,
          "direct_cost": 426,
          "direct_time": 978
        }
      ],
      "cost": 336,
      "virtual_welfare": 4429
    },
    "profit": 390,
    "cost_profit": 233.0,
    "welfare": 4662,
    "virtual_welfare": 4429,
    "running_time": 0
  },
  {
    "graph_name": "10_86",
    "n_pass": 2,
    "winning_ride": {
      "driver": {
        "arrive_until": 2400,
        "direct_cost": 580
      },
      "passengers": [
        {
          "bid": 3919,
          "id": 5,
          "price": 1912,
          "cost": 392,
          "direct_dist": 13065,
          "direct_cost": 392,
          "direct_time": 850
        },
        {
          "bid": 2130,
          "id": 1,
          "price": 1015,
          "cost": 213,
          "direct_dist": 7100,
          "direct_cost": 213,
          "direct_time": 442
        }
      ],
      "cost": 377,
      "virtual_welfare": 5444
    },
    "profit": 2550,
    "cost_profit": 228.0,
    "welfare": 5672,
    "virtual_welfare": 5444,
    "running_time": 0
  },
  {
    "graph_name": "10_87",
    "n_pass": 2,
    "winning_ride": {
      "driver": {
        "arrive_until": 2400,
        "direct_cost": 464
      },
      "passengers": [
        {
          "bid": 1255,
          "id": 10,
          "price": 1055,
          "cost": 286,
          "direct_dist": 9505,
          "direct_cost": 286,
          "direct_time": 592
        },
        {
          "bid": 1836,
          "id": 2,
          "price": 1384,
          "cost": 269,
          "direct_dist": 8959,
          "direct_cost": 269,
          "direct_time": 637
        }
      ],
      "cost": 356,
      "virtual_welfare": 2536
    },
    "profit": 2083,
    "cost_profit": 199.0,
    "welfare": 2735,
    "virtual_welfare": 2536,
    "running_time": 0
  },
  {
    "graph_name": "10_88",
    "n_pass": 2,
    "winning_ride": {
      "driver": {
        "arrive_until": 2400,
        "direct_cost": 447
      },
      "passengers": [
        {
          "bid": 1956,
          "id": 8,
          "price": 373,
          "cost": 373,
          "direct_dist": 12412,
          "direct_cost": 373,
          "direct_time": 796
        },
        {
          "bid": 2549,
          "id": 2,
          "price": 490,
          "cost": 255,
          "direct_dist": 8499,
          "direct_cost": 255,
          "direct_time": 607
        }
      ],
      "cost": 473,
      "virtual_welfare": 3877
    },
    "profit": 390,
    "cost_profit": 155.0,
    "welfare": 4032,
    "virtual_welfare": 3877,
    "running_time": 0
  },
  {
    "graph_name": "10_89",
    "n_pass": 2,
    "winning_ride": {
      "driver": {
        "arrive_until": 2400,
        "direct_cost": 573
      },
      "passengers": [
        {
          "bid": 2190,
          "id": 10,
          "price": 1934,
          "cost": 543,
          "direct_dist": 18091,
          "direct_cost": 543,
          "direct_time": 1095
        },
        {
          "bid": 3983,
          "id": 4,
          "price": 2955,
          "cost": 455,
          "direct_dist": 15158,
          "direct_cost": 455,
          "direct_time": 973
        }
      ],
      "cost": 364,
      "virtual_welfare": 5175
    },
    "profit": 4525,
    "cost_profit": 634.0,
    "welfare": 5809,
    "virtual_welfare": 5175,
    "running_time": 0
  },
  {
    "graph_name": "10_9",
    "n_pass": 2,
    "winning_ride": {
      "driver": {
        "arrive_until": 2400,
        "direct_cost": 461
      },
      "passengers": [
        {
          "bid": 1222,
          "id": 9,
          "price": 1073,
          "cost": 123,
          "direct_dist": 4076,
          "direct_cost": 123,
          "direct_time": 347
        },
        {
          "bid": 1261,
          "id": 4,
          "price": 296,
          "cost": 296,
          "direct_dist": 9847,
          "direct_cost": 296,
          "direct_time": 688
        }
      ],
      "cost": 304,
      "virtual_welfare": 2064
    },
    "profit": 1065,
    "cost_profit": 115.0,
    "welfare": 2179,
    "virtual_welfare": 2064,
    "running_time": 0
  },
  {
    "graph_name": "10_90",
    "n_pass": 3,
    "winning_ride": {
      "driver": {
        "arrive_until": 2400,
        "direct_cost": 400
      },
      "passengers": [
        {
          "bid": 3604,
          "id": 9,
          "price": 677,
          "cost": 361,
          "direct_dist": 12015,
          "direct_cost": 361,
          "direct_time": 792
        },
        {
          "bid": 783,
          "id": 6,
          "price": 695,
          "cost": 79,
          "direct_dist": 2611,
          "direct_cost": 79,
          "direct_time": 223
        },
        {
          "bid": 1219,
          "id": 5,
          "price": 1131,
          "cost": 344,
          "direct_dist": 11439,
          "direct_cost": 344,
          "direct_time": 790
        }
      ],
      "cost": 520,
      "virtual_welfare": 4822
    },
    "profit": 1983,
    "cost_profit": 264.0,
    "welfare": 5086,
    "virtual_welfare": 4822,
    "running_time": 0
  },
  {
    "graph_name": "10_91",
    "n_pass": 2,
    "winning_ride": {
      "driver": {
        "arrive_until": 2400,
        "direct_cost": 385
      },
      "passengers": [
        {
          "bid": 3721,
          "id": 5,
          "price": 3544,
          "cost": 373,
          "direct_dist": 12406,
          "direct_cost": 373,
          "direct_time": 877
        },
        {
          "bid": 835,
          "id": 1,
          "price": 732,
          "cost": 340,
          "direct_dist": 11328,
          "direct_cost": 340,
          "direct_time": 685
        }
      ],
      "cost": 391,
      "virtual_welfare": 3843
    },
    "profit": 3885,
    "cost_profit": 322.0,
    "welfare": 4165,
    "virtual_welfare": 3843,
    "running_time": 0
  },
  {
    "graph_name": "10_92",
    "n_pass": 2,
    "winning_ride": {
      "driver": {
        "arrive_until": 2400,
        "direct_cost": 460
      },
      "passengers": [
        {
          "bid": 2352,
          "id": 7,
          "price": 1585,
          "cost": 384,
          "direct_dist": 12786,
          "direct_cost": 384,
          "direct_time": 758
        },
        {
          "bid": 744,
          "id": 1,
          "price": 467,
          "cost": 467,
          "direct_dist": 15563,
          "direct_cost": 467,
          "direct_time": 935
        }
      ],
      "cost": 372,
      "virtual_welfare": 2245
    },
    "profit": 1680,
    "cost_profit": 479.0,
    "welfare": 2724,
    "virtual_welfare": 2245,
    "running_time": 0
  },
  {
    "graph_name": "10_93",
    "n_pass": 1,
    "winning_ride": {
      "driver": {
        "arrive_until": 2400,
        "direct_cost": 408
      },
      "passengers": [
        {
          "bid": 4538,
          "id": 6,
          "price": 3254,
          "cost": 454,
          "direct_dist": 15129,
          "direct_cost": 454,
          "direct_time": 1022
        }
      ],
      "cost": 444,
      "virtual_welfare": 4084
    },
    "profit": 2810,
    "cost_profit": 10.0,
    "welfare": 4094,
    "virtual_welfare": 4084,
    "running_time": 0
  },
  {
    "graph_name": "10_94",
    "n_pass": 2,
    "winning_ride": {
      "driver": {
        "arrive_until": 2400,
        "direct_cost": 496
      },
      "passengers": [
        {
          "bid": 2740,
          "id": 8,
          "price": 2219,
          "cost": 382,
          "direct_dist": 12729,
          "direct_cost": 382,
          "direct_time": 877
        },
        {
          "bid": 4028,
          "id": 1,
          "price": 2296,
          "cost": 459,
          "direct_dist": 15267,
          "direct_cost": 459,
          "direct_time": 966
        }
      ],
      "cost": 357,
      "virtual_welfare": 5927
    },
    "profit": 4158,
    "cost_profit": 484.0,
    "welfare": 6411,
    "virtual_welfare": 5927,
    "running_time": 0
  },
  {
    "graph_name": "10_95",
    "n_pass": 2,
    "winning_ride": {
      "driver": {
        "arrive_until": 2400,
        "direct_cost": 450
      },
      "passengers": [
        {
          "bid": 1878,
          "id": 3,
          "price": 1531,
          "cost": 188,
          "direct_dist": 6261,
          "direct_cost": 188,
          "direct_time": 476
        },
        {
          "bid": 992,
          "id": 2,
          "price": 374,
          "cost": 374,
          "direct_dist": 12461,
          "direct_cost": 374,
          "direct_time": 828
        }
      ],
      "cost": 515,
      "virtual_welfare": 2308
    },
    "profit": 1390,
    "cost_profit": 47.0,
    "welfare": 2355,
    "virtual_welfare": 2308,
    "running_time": 0
  },
  {
    "graph_name": "10_96",
    "n_pass": 2,
    "winning_ride": {
      "driver": {
        "arrive_until": 2400,
        "direct_cost": 437
      },
      "passengers": [
        {
          "bid": 1138,
          "id": 10,
          "price": 141,
          "cost": 141,
          "direct_dist": 4670,
          "direct_cost": 141,
          "direct_time": 363
        },
        {
          "bid": 2081,
          "id": 1,
          "price": 909,
          "cost": 241,
          "direct_dist": 8030,
          "direct_cost": 241,
          "direct_time": 570
        }
      ],
      "cost": 152,
      "virtual_welfare": 2837
    },
    "profit": 898,
    "cost_profit": 230.0,
    "welfare": 3067,
    "virtual_welfare": 2837,
    "running_time": 0
  },
  {
    "graph_name": "10_97",
    "n_pass": 1,
    "winning_ride": {
      "driver": {
        "arrive_until": 2400,
        "direct_cost": 548
      },
      "passengers": [
        {
          "bid": 4240,
          "id": 1,
          "price": 3346,
          "cost": 425,
          "direct_dist": 14134,
          "direct_cost": 425,
          "direct_time": 879
        }
      ],
      "cost": 329,
      "virtual_welfare": 3815
    },
    "profit": 3017,
    "cost_profit": 96.0,
    "welfare": 3911,
    "virtual_welfare": 3815,
    "running_time": 0
  },
  {
    "graph_name": "10_98",
    "n_pass": 0,
    "winning_ride": {
      "driver": {
        "arrive_until": 0,
        "direct_cost": 0
      },
      "passengers": [],
      "cost": 0,
      "virtual_welfare": 0
    },
    "profit": 0,
    "cost_profit": 0.0,
    "welfare": 0,
    "virtual_welfare": 0,
    "running_time": 0
  },
  {
    "graph_name": "10_99",
    "n_pass": 2,
    "winning_ride": {
      "driver": {
        "arrive_until": 2400,
        "direct_cost": 584
      },
      "passengers": [
        {
          "bid": 3009,
          "id": 9,
          "price": 886,
          "cost": 301,
          "direct_dist": 10031,
          "direct_cost": 301,
          "direct_time": 713
        },
        {
          "bid": 2015,
          "id": 2,
          "price": 808,
          "cost": 223,
          "direct_dist": 7417,
          "direct_cost": 223,
          "direct_time": 504
        }
      ],
      "cost": 229,
      "virtual_welfare": 4500
    },
    "profit": 1465,
    "cost_profit": 295.0,
    "welfare": 4795,
    "virtual_welfare": 4500,
    "running_time": 0
  }
]