[
  {
    "graph_name": "10_0",
    "n_pass": 1,
    "winning_ride": {
      "driver": {
        "arrive_until": 2400,
        "direct_cost": 457
      },
      "passengers": [
        {
          "bid": 2571,
          "id": 8,
          "price": 1630,
          "cost": 667,
          "direct_dist": 8571,
          "direct_cost": 258,
          "direct_time": 540
        }
      ],
      "cost": 523,
      "virtual_welfare": 1904
    },
    "profit": 1107,
    "cost_profit": 144.0,
    "welfare": 2048,
    "virtual_welfare": 1904,
    "running_time": 0
  },
  {
    "graph_name": "10_1",
    "n_pass": 2,
    "winning_ride": {
      "driver": {
        "arrive_until": 2400,
        "direct_cost": 406
      },
      "passengers": [
        {
          "bid": 2619,
          "id": 8,
          "price": 753,
          "cost": 753,
          "direct_dist": 9141,
          "direct_cost": 275,
          "direct_time": 574
        },
        {
          "bid": 5124,
          "id": 3,
          "price": 2591,
          "cost": 1007,
          "direct_dist": 17083,
          "direct_cost": 513,
          "direct_time": 1118
        }
      ],
      "cost": 561,
      "virtual_welfare": 5983
    },
    "profit": 2783,
    "cost_profit": 1199.0,
    "welfare": 7182,
    "virtual_welfare": 5983,
    "running_time": 0
  },
  {
    "graph_name": "10_10",
    "n_pass": 2,
    "winning_ride": {
      "driver": {
        "arrive_until": 2400,
        "direct_cost": 459
      },
      "passengers": [
        {
          "bid": 3655,
          "id": 6,
          "price": 3283,
          "cost": 699,
          "direct_dist": 12186,
          "direct_cost": 366,
          "direct_time": 829
        },
        {
          "bid": 2300,
          "id": 4,
          "price": 1928,
          "cost": 656,
          "direct_dist": 7669,
          "direct_cost": 231,
          "direct_time": 535
        }
      ],
      "cost": 320,
      "virtual_welfare": 4600
    },
    "profit": 4891,
    "cost_profit": 1035.0,
    "welfare": 5635,
    "virtual_welfare": 4600,
    "running_time": 0
  },
  {
    "graph_name": "10_11",
    "n_pass": 1,
    "winning_ride": {
      "driver": {
        "arrive_until": 2400,
        "direct_cost": 425
      },
      "passengers": [
        {
          "bid": 4866,
          "id": 3,
          "price": 2914,
          "cost": 1017,
          "direct_dist": 16222,
          "direct_cost": 487,
          "direct_time": 1050
        }
      ],
      "cost": 446,
      "virtual_welfare": 3849
    },
    "profit": 2468,
    "cost_profit": 571.0,
    "welfare": 4420,
    "virtual_welfare": 3849,
    "running_time": 0
  },
  {
    "graph_name": "10_12",
    "n_pass": 2,
    "winning_ride": {
      "driver": {
        "arrive_until": 2400,
        "direct_cost": 516
      },
      "passengers": [
        {
          "bid": 3961,
          "id": 2,
          "price": 1669,
          "cost": 831,
          "direct_dist": 13204,
          "direct_cost": 397,
          "direct_time": 874
        },
        {
          "bid": 3252,
          "id": 1,
          "price": 1270,
          "cost": 828,
          "direct_dist": 10841,
          "direct_cost": 326,
          "direct_time": 704
        }
      ],
      "cost": 407,
      "virtual_welfare": 5554
    },
    "profit": 2532,
    "cost_profit": 1252.0,
    "welfare": 6806,
    "virtual_welfare": 5554,
    "running_time": 0
  },
  {
    "graph_name": "10_13",
    "n_pass": 2,
    "winning_ride": {
      "driver": {
        "arrive_until": 2400,
        "direct_cost": 486
      },
      "passengers": [
        {
          "bid": 3773,
          "id": 6,
          "price": 912,
          "cost": 912,
          "direct_dist": 12579,
          "direct_cost": 378,
          "direct_time": 785
        },
        {
          "bid": 4807,
          "id": 1,
          "price": 2398,
          "cost": 992,
          "direct_dist": 16024,
          "direct_cost": 481,
          "direct_time": 1053
        }
      ],
      "cost": 494,
      "virtual_welfare": 6676
    },
    "profit": 2816,
    "cost_profit": 1410.0,
    "welfare": 8086,
    "virtual_welfare": 6676,
    "running_time": 0
  },
  {
    "graph_name": "10_14",
    "n_pass": 1,
    "winning_ride": {
      "driver": {
        "arrive_until": 2400,
        "direct_cost": 501
      },
      "passengers": [
        {
          "bid": 2235,
          "id": 5,
          "price": 2210,
          "cost": 553,
          "direct_dist": 7450,
          "direct_cost": 224,
          "direct_time": 481
        }
      ],
      "cost": 45,
      "virtual_welfare": 1682
    },
    "profit": 2165,
    "cost_profit": 508.0,
    "welfare": 2190,
    "virtual_welfare": 1682,
    "running_time": 0
  },
  {
    "graph_name": "10_15",
    "n_pass": 2,
    "winning_ride": {
      "driver": {
        "arrive_until": 2400,
        "direct_cost": 485
      },
      "passengers": [
        {
          "bid": 2429,
          "id": 6,
          "price": 1230,
          "cost": 672,
          "direct_dist": 10087,
          "direct_cost": 303,
          "direct_time": 673
        },
        {
          "bid": 3207,
          "id": 3,
          "price": 1326,
          "cost": 768,
          "direct_dist": 10690,
          "direct_cost": 321,
          "direct_time": 736
        }
      ],
      "cost": 415,
      "virtual_welfare": 4196
    },
    "profit": 2141,
    "cost_profit": 1025.0,
    "welfare": 5221,
    "virtual_welfare": 4196,
    "running_time": 0
  },
  {
    "graph_name": "10_16",
    "n_pass": 2,
    "winning_ride": {
      "driver": {
        "arrive_until": 2400,
        "direct_cost": 432
      },
      "passengers": [
        {
          "bid": 3381,
          "id": 8,
          "price": 1393,
          "cost": 761,
          "direct_dist": 11272,
          "direct_cost": 339,
          "direct_time": 719
        },
        {
          "bid": 3922,
          "id": 7,
          "price": 857,
          "cost": 857,
          "direct_dist": 13074,
          "direct_cost": 393,
          "direct_time": 884
        }
      ],
      "cost": 287,
      "virtual_welfare": 5685
    },
    "profit": 1963,
    "cost_profit": 1331.0,
    "welfare": 7016,
    "virtual_welfare": 5685,
    "running_time": 0
  },
  {
    "graph_name": "10_17",
    "n_pass": 2,
    "winning_ride": {
      "driver": {
        "arrive_until": 2400,
        "direct_cost": 461
      },
      "passengers": [
        {
          "bid": 2214,
          "id": 8,
          "price": 741,
          "cost": 741,
          "direct_dist": 7382,
          "direct_cost": 222,
          "direct_time": 439
        },
        {
          "bid": 2104,
          "id": 2,
          "price": 622,
          "cost": 622,
          "direct_dist": 8720,
          "direct_cost": 262,
          "direct_time": 612
        }
      ],
      "cost": 465,
      "virtual_welfare": 2955
    },
    "profit": 898,
    "cost_profit": 898.0,
    "welfare": 3853,
    "virtual_welfare": 2955,
    "running_time": 0
  },
  {
    "graph_name": "10_18",
    "n_pass": 2,
    "winning_ride": {
      "driver": {
        "arrive_until": 2400,
        "direct_cost": 350
      },
      "passengers": [
        {
          "bid": 1937,
          "id": 10,
          "price": 659,
          "cost": 559,
          "direct_dist": 6458,
          "direct_cost": 194,
          "direct_time": 469
        },
        {
          "bid": 1536,
          "id": 4,
          "price": 540,
          "cost": 540,
          "direct_dist": 5168,
          "direct_cost": 156,
          "direct_time": 368
        }
      ],
      "cost": 424,
      "virtual_welfare": 2374
    },
    "profit": 775,
    "cost_profit": 675.0,
    "welfare": 3049,
    "virtual_welfare": 2374,
    "running_time": 0
  },
  {
    "graph_name": "10_19",
    "n_pass": 2,
    "winning_ride": {
      "driver": {
        "arrive_until": 2400,
        "direct_cost": 418
      },
      "passengers": [
        {
          "bid": 4007,
          "id": 9,
          "price": 1252,
          "cost": 1013,
          "direct_dist": 13357,
          "direct_cost": 401,
          "direct_time": 780
        },
        {
          "bid": 4176,
          "id": 4,
          "price": 966,
          "cost": 966,
          "direct_dist": 13922,
          "direct_cost": 418,
          "direct_time": 896
        }
      ],
      "cost": 637,
      "virtual_welfare": 6204
    },
    "profit": 1581,
    "cost_profit": 1342.0,
    "welfare": 7546,
    "virtual_welfare": 6204,
    "running_time": 0
  },
  {
    "graph_name": "10_2",
    "n_pass": 2,
    "winning_ride": {
      "driver": {
        "arrive_until": 2400,
        "direct_cost": 489
      },
      "passengers": [
        {
          "bid": 4226,
          "id": 10,
          "price": 2294,
          "cost": 985,
          "direct_dist": 14828,
          "direct_cost": 445,
          "direct_time": 986
        },
        {
          "bid": 4208,
          "id": 6,
          "price": 2240,
          "cost": 931,
          "direct_dist": 14027,
          "direct_cost": 421,
          "direct_time": 951
        }
      ],
      "cost": 374,
      "virtual_welfare": 6518
    },
    "profit": 4160,
    "cost_profit": 1542.0,
    "welfare": 8060,
    "virtual_welfare": 6518,
    "running_time": 0
  },
  {
    "graph_name": "10_20",
    "n_pass": 2,
    "winning_ride": {
      "driver": {
        "arrive_until": 2400,
        "direct_cost": 575
      },
      "passengers": [
        {
          "bid": 4788,
          "id": 3,
          "price": 1076,
          "cost": 1076,
          "direct_dist": 15960,
          "direct_cost": 479,
          "direct_time": 1086
        },
        {
          "bid": 3167,
          "id": 1,
          "price": 860,
          "cost": 860,
          "direct_dist": 10559,
          "direct_cost": 317,
          "direct_time": 681
        }
      ],
      "cost": 207,
      "virtual_welfare": 6019
    },
    "profit": 1729,
    "cost_profit": 1729.0,
    "welfare": 7748,
    "virtual_welfare": 6019,
    "running_time": 0
  },
  {
    "graph_name": "10_21",
    "n_pass": 2,
    "winning_ride": {
      "driver": {
        "arrive_until": 2400,
        "direct_cost": 423
      },
      "passengers": [
        {
          "bid": 3373,
          "id": 5,
          "price": 2463,
          "cost": 806,
          "direct_dist": 11245,
          "direct_cost": 338,
          "direct_time": 768
        },
        {
          "bid": 3429,
          "id": 3,
          "price": 2519,
          "cost": 734,
          "direct_dist": 11431,
          "direct_cost": 343,
          "direct_time": 775
        }
      ],
      "cost": 561,
      "virtual_welfare": 5262
    },
    "profit": 4421,
    "cost_profit": 979.0,
    "welfare": 6241,
    "virtual_welfare": 5262,
    "running_time": 0
  },
  {
    "graph_name": "10_22",
    "n_pass": 2,
    "winning_ride": {
      "driver": {
        "arrive_until": 2400,
        "direct_cost": 538
      },
      "passengers": [
        {
          "bid": 3830,
          "id": 5,
          "price": 1558,
          "cost": 834,
          "direct_dist": 13389,
          "direct_cost": 402,
          "direct_time": 804
        },
        {
          "bid": 3415,
          "id": 4,
          "price": 2314,
          "cost": 801,
          "direct_dist": 11385,
          "direct_cost": 342,
          "direct_time": 765
        }
      ],
      "cost": 336,
      "virtual_welfare": 5610
    },
    "profit": 3536,
    "cost_profit": 1299.0,
    "welfare": 6909,
    "virtual_welfare": 5610,
    "running_time": 0
  },
  {
    "graph_name": "10_23",
    "n_pass": 2,
    "winning_ride": {
      "driver": {
        "arrive_until": 2400,
        "direct_cost": 424
      },
      "passengers": [
        {
          "bid": 2917,
          "id": 10,
          "price": 860,
          "cost": 713,
          "direct_dist": 11894,
          "direct_cost": 357,
          "direct_time": 889
        },
        {
          "bid": 3236,
          "id": 8,
          "price": 1450,
          "cost": 675,
          "direct_dist": 10789,
          "direct_cost": 324,
          "direct_time": 875
        }
      ],
      "cost": 426,
      "virtual_welfare": 4765
    },
    "profit": 1884,
    "cost_profit": 962.0,
    "welfare": 5727,
    "virtual_welfare": 4765,
    "running_time": 0
  },
  {
    "graph_name": "10_24",
    "n_pass": 2,
    "winning_ride": {
      "driver": {
        "arrive_until": 2400,
        "direct_cost": 475
      },
      "passengers": [
        {
          "bid": 3861,
          "id": 9,
          "price": 2474,
          "cost": 936,
          "direct_dist": 12872,
          "direct_cost": 387,
          "direct_time": 1029
        },
        {
          "bid": 1425,
          "id": 1,
          "price": 1235,
          "cost": 570,
          "direct_dist": 4753,
          "direct_cost": 143,
          "direct_time": 328
        }
      ],
      "cost": 462,
      "virtual_welfare": 3780
    },
    "profit": 3247,
    "cost_profit": 1044.0,
    "welfare": 4824,
    "virtual_welfare": 3780,
    "running_time": 0
  },
  {
    "graph_name": "10_25",
    "n_pass": 1,
    "winning_ride": {
      "driver": {
        "arrive_until": 2400,
        "direct_cost": 529
      },
      "passengers": [
        {
          "bid": 3899,
          "id": 5,
          "price": 3593,
          "cost": 994,
          "direct_dist": 12998,
          "direct_cost": 390,
          "direct_time": 864
        }
      ],
      "cost": 317,
      "virtual_welfare": 2905
    },
    "profit": 3276,
    "cost_profit": 677.0,
    "welfare": 3582,
    "virtual_welfare": 2905,
    "running_time": 0
  },
  {
    "graph_name": "10_26",
    "n_pass": 2,
    "winning_ride": {
      "driver": {
        "arrive_until": 2400,
        "direct_cost": 402
      },
      "passengers": [
        {
          "bid": 4044,
          "id": 5,
          "price": 3621,
          "cost": 891,
          "direct_dist": 13483,
          "direct_cost": 405,
          "direct_time": 849
        },
        {
          "bid": 2504,
          "id": 2,
          "price": 2302,
          "cost": 776,
          "direct_dist": 8347,
          "direct_cost": 251,
          "direct_time": 579
        }
      ],
      "cost": 474,
      "virtual_welfare": 4881
    },
    "profit": 5449,
    "cost_profit": 1193.0,
    "welfare": 6074,
    "virtual_welfare": 4881,
    "running_time": 0
  },
  {
    "graph_name": "10_27",
    "n_pass": 2,
    "winning_ride": {
      "driver": {
        "arrive_until": 2400,
        "direct_cost": 475
      },
      "passengers": [
        {
          "bid": 3581,
          "id": 10,
          "price": 2552,
          "cost": 885,
          "direct_dist": 11939,
          "direct_cost": 359,
          "direct_time": 745
        },
        {
          "bid": 4003,
          "id": 7,
          "price": 2540,
          "cost": 873,
          "direct_dist": 13344,
          "direct_cost": 401,
          "direct_time": 926
        }
      ],
      "cost": 345,
      "virtual_welfare": 5826
    },
    "profit": 4747,
    "cost_profit": 1413.0,
    "welfare": 7239,
    "virtual_welfare": 5826,
    "running_time": 0
  },
  {
    "graph_name": "10_28",
    "n_pass": 2,
    "winning_ride": {
      "driver": {
        "arrive_until": 2400,
        "direct_cost": 410
      },
      "passengers": [
        {
          "bid": 3655,
          "id": 5,
          "price": 2441,
          "cost": 803,
          "direct_dist": 12184,
          "direct_cost": 366,
          "direct_time": 803
        },
        {
          "bid": 800,
          "id": 4,
          "price": 263,
          "cost": 263,
          "direct_dist": 3310,
          "direct_cost": 100,
          "direct_time": 218
        }
      ],
      "cost": 514,
      "virtual_welfare": 3389
    },
    "profit": 2190,
    "cost_profit": 552.0,
    "welfare": 3941,
    "virtual_welfare": 3389,
    "running_time": 0
  },
  {
    "graph_name": "10_29",
    "n_pass": 1,
    "winning_ride": {
      "driver": {
        "arrive_until": 2400,
        "direct_cost": 495
      },
      "passengers": [
        {
          "bid": 3490,
          "id": 3,
          "price": 2405,
          "cost": 860,
          "direct_dist": 11650,
          "direct_cost": 350,
          "direct_time": 777
        }
      ],
      "cost": 226,
      "virtual_welfare": 2630
    },
    "profit": 2179,
    "cost_profit": 634.0,
    "welfare": 3264,
    "virtual_welfare": 2630,
    "running_time": 0
  },
  {
    "graph_name": "10_3",
    "n_pass": 2,
    "winning_ride": {
      "driver": {
        "arrive_until": 2400,
        "direct_cost": 456
      },
      "passengers": [
        {
          "bid": 2742,
          "id": 10,
          "price": 2486,
          "cost": 648,
          "direct_dist": 9140,
          "direct_cost": 275,
          "direct_time": 597
        },
        {
          "bid": 5647,
          "id": 8,
          "price": 2952,
          "cost": 1114,
          "direct_dist": 18824,
          "direct_cost": 565,
          "direct_time": 1292
        }
      ],
      "cost": 406,
      "virtual_welfare": 6627
    },
    "profit": 5032,
    "cost_profit": 1356.0,
    "welfare": 7983,
    "virtual_welfare": 6627,
    "running_time": 0
  },
  {
    "graph_name": "10_30",
    "n_pass": 1,
    "winning_ride": {
      "driver": {
        "arrive_until": 2400,
        "direct_cost": 422
      },
      "passengers": [
        {
          "bid": 2365,
          "id": 7,
          "price": 2359,
          "cost": 776,
          "direct_dist": 7886,
          "direct_cost": 237,
          "direct_time": 522
        }
      ],
      "cost": 221,
      "virtual_welfare": 1589
    },
    "profit": 2138,
    "cost_profit": 555.0,
    "welfare": 2144,
    "virtual_welfare": 1589,
    "running_time": 0
  },
  {
    "graph_name": "10_31",
    "n_pass": 2,
    "winning_ride": {
      "driver": {
        "arrive_until": 2400,
        "direct_cost": 391
      },
      "passengers": [
        {
          "bid": 3444,
          "id": 4,
          "price": 971,
          "cost": 971,
          "direct_dist": 11483,
          "direct_cost": 345,
          "direct_time": 741
        },
        {
          "bid": 3489,
          "id": 3,
          "price": 978,
          "cost": 978,
          "direct_dist": 11632,
          "direct_cost": 349,
          "direct_time": 797
        }
      ],
      "cost": 521,
      "virtual_welfare": 4984
    },
    "profit": 1428,
    "cost_profit": 1428.0,
    "welfare": 6412,
    "virtual_welfare": 4984,
    "running_time": 0
  },
  {
    "graph_name": "10_32",
    "n_pass": 2,
    "winning_ride": {
      "driver": {
        "arrive_until": 2400,
        "direct_cost": 469
      },
      "passengers": [
        {
          "bid": 675,
          "id": 9,
          "price": 627,
          "cost": 405,
          "direct_dist": 6762,
          "direct_cost": 203,
          "direct_time": 465
        },
        {
          "bid": 3199,
          "id": 4,
          "price": 2809,
          "cost": 783,
          "direct_dist": 10665,
          "direct_cost": 320,
          "direct_time": 679
        }
      ],
      "cost": 573,
      "virtual_welfare": 2686
    },
    "profit": 2863,
    "cost_profit": 615.0,
    "welfare": 3301,
    "virtual_welfare": 2686,
    "running_time": 0
  },
  {
    "graph_name": "10_33",
    "n_pass": 1,
    "winning_ride": {
      "driver": {
        "arrive_until": 2400,
        "direct_cost": 491
      },
      "passengers": [
        {
          "bid": 3425,
          "id": 3,
          "price": 3326,
          "cost": 814,
          "direct_dist": 11419,
          "direct_cost": 343,
          "direct_time": 708
        }
      ],
      "cost": 535,
      "virtual_welfare": 2611
    },
    "profit": 2791,
    "cost_profit": 279.0,
    "welfare": 2890,
    "virtual_welfare": 2611,
    "running_time": 0
  },
  {
    "graph_name": "10_34",
    "n_pass": 2,
    "winning_ride": {
      "driver": {
        "arrive_until": 2400,
        "direct_cost": 545
      },
      "passengers": [
        {
          "bid": 3667,
          "id": 6,
          "price": 2398,
          "cost": 808,
          "direct_dist": 12224,
          "direct_cost": 367,
          "direct_time": 772
        },
        {
          "bid": 4366,
          "id": 5,
          "price": 2452,
          "cost": 862,
          "direct_dist": 14556,
          "direct_cost": 437,
          "direct_time": 925
        }
      ],
      "cost": 328,
      "virtual_welfare": 6363
    },
    "profit": 4522,
    "cost_profit": 1342.0,
    "welfare": 7705,
    "virtual_welfare": 6363,
    "running_time": 0
  },
  {
    "graph_name": "10_35",
    "n_pass": 1,
    "winning_ride": {
      "driver": {
        "arrive_until": 2400,
        "direct_cost": 396
      },
      "passengers": [
        {
          "bid": 5738,
          "id": 3,
          "price": 4042,
          "cost": 1178,
          "direct_dist": 19128,
          "direct_cost": 574,
          "direct_time": 1239
        }
      ],
      "cost": 624,
      "virtual_welfare": 4560
    },
    "profit": 3418,
    "cost_profit": 554.0,
    "welfare": 5114,
    "virtual_welfare": 4560,
    "running_time": 0
  },
  {
    "graph_name": "10_36",
    "n_pass": 1,
    "winning_ride": {
      "driver": {
        "arrive_until": 2400,
        "direct_cost": 555
      },
      "passengers": [
        {
          "bid": 3912,
          "id": 10,
          "price": 2838,
          "cost": 925,
          "direct_dist": 13041,
          "direct_cost": 392,
          "direct_time": 903
        }
      ],
      "cost": 249,
      "virtual_welfare": 2987
    },
    "profit": 2589,
    "cost_profit": 676.0,
    "welfare": 3663,
    "virtual_welfare": 2987,
    "running_time": 0
  },
  {
    "graph_name": "10_37",
    "n_pass": 2,
    "winning_ride": {
      "driver": {
        "arrive_until": 2400,
        "direct_cost": 406
      },
      "passengers": [
        {
          "bid": 1147,
          "id": 9,
          "price": 1028,
          "cost": 1028,
          "direct_dist": 12059,
          "direct_cost": 362,
          "direct_time": 717
        },
        {
          "bid": 3416,
          "id": 5,
          "price": 3042,
          "cost": 877,
          "direct_dist": 11389,
          "direct_cost": 342,
          "direct_time": 728
        }
      ],
      "cost": 524,
      "virtual_welfare": 2658
    },
    "profit": 3546,
    "cost_profit": 1381.0,
    "welfare": 4039,
    "virtual_welfare": 2658,
    "running_time": 0
  },
  {
    "graph_name": "10_38",
    "n_pass": 2,
    "winning_ride": {
      "driver": {
        "arrive_until": 2400,
        "direct_cost": 448
      },
      "passengers": [
        {
          "bid": 4405,
          "id": 5,
          "price": 2360,
          "cost": 903,
          "direct_dist": 14685,
          "direct_cost": 441,
          "direct_time": 982
        },
        {
          "bid": 2034,
          "id": 4,
          "price": 424,
          "cost": 424,
          "direct_dist": 6780,
          "direct_cost": 204,
          "direct_time": 561
        }
      ],
      "cost": 429,
      "virtual_welfare": 5112
    },
    "profit": 2355,
    "cost_profit": 898.0,
    "welfare": 6010,
    "virtual_welfare": 5112,
    "running_time": 0
  },
  {
    "graph_name": "10_39",
    "n_pass": 1,
    "winning_ride": {
      "driver": {
        "arrive_until": 2400,
        "direct_cost": 401
      },
      "passengers": [
        {
          "bid": 2355,
          "id": 9,
          "price": 765,
          "cost": 514,
          "direct_dist": 7850,
          "direct_cost": 236,
          "direct_time": 608
        }
      ],
      "cost": 362,
      "virtual_welfare": 1841
    },
    "profit": 403,
    "cost_profit": 152.0,
    "welfare": 1993,
    "virtual_welfare": 1841,
    "running_time": 0
  },
  {
    "graph_name": "10_4",
    "n_pass": 2,
    "winning_ride": {
      "driver": {
        "arrive_until": 2400,
        "direct_cost": 431
      },
      "passengers": [
        {
          "bid": 4895,
          "id": 8,
          "price": 2017,
          "cost": 1079,
          "direct_dist": 16318,
          "direct_cost": 490,
          "direct_time": 1047
        },
        {
          "bid": 3056,
          "id": 2,
          "price": 810,
          "cost": 803,
          "direct_dist": 10189,
          "direct_cost": 306,
          "direct_time": 668
        }
      ],
      "cost": 600,
      "virtual_welfare": 6069
    },
    "profit": 2227,
    "cost_profit": 1282.0,
    "welfare": 7351,
    "virtual_welfare": 6069,
    "running_time": 0
  },
  {
    "graph_name": "10_40",
    "n_pass": 1,
    "winning_ride": {
      "driver": {
        "arrive_until": 2400,
        "direct_cost": 410
      },
      "passengers": [
        {
          "bid": 3949,
          "id": 4,
          "price": 3556,
          "cost": 1263,
          "direct_dist": 18731,
          "direct_cost": 562,
          "direct_time": 1211
        }
      ],
      "cost": 706,
      "virtual_welfare": 2686
    },
    "profit": 2850,
    "cost_profit": 557.0,
    "welfare": 3243,
    "virtual_welfare": 2686,
    "running_time": 0
  },
  {
    "graph_name": "10_41",
    "n_pass": 1,
    "winning_ride": {
      "driver": {
        "arrive_until": 2400,
        "direct_cost": 504
      },
      "passengers": [
        {
          "bid": 5446,
          "id": 7,
          "price": 3253,
          "cost": 1071,
          "direct_dist": 18155,
          "direct_cost": 545,
          "direct_time": 1220
        }
      ],
      "cost": 468,
      "virtual_welfare": 4375
    },
    "profit": 2785,
    "cost_profit": 603.0,
    "welfare": 4978,
    "virtual_welfare": 4375,
    "running_time": 0
  },
  {
    "graph_name": "10_42",
    "n_pass": 2,
    "winning_ride": {
      "driver": {
        "arrive_until": 2400,
        "direct_cost": 457
      },
      "passengers": [
        {
          "bid": 1586,
          "id": 5,
          "price": 622,
          "cost": 622,
          "direct_dist": 5288,
          "direct_cost": 159,
          "direct_time": 358
        },
        {
          "bid": 3911,
          "id": 4,
          "price": 2083,
          "cost": 913,
          "direct_dist": 13037,
          "direct_cost": 392,
          "direct_time": 876
        }
      ],
      "cost": 613,
      "virtual_welfare": 3962
    },
    "profit": 2092,
    "cost_profit": 922.0,
    "welfare": 4884,
    "virtual_welfare": 3962,
    "running_time": 0
  },
  {
    "graph_name": "10_43",
    "n_pass": 3,
    "winning_ride": {
      "driver": {
        "arrive_until": 2400,
        "direct_cost": 439
      },
      "passengers": [
        {
          "bid": 2805,
          "id": 9,
          "price": 2049,
          "cost": 596,
          "direct_dist": 9350,
          "direct_cost": 281,
          "direct_time": 673
        },
        {
          "bid": 561,
          "id": 8,
          "price": 200,
          "cost": 200,
          "direct_dist": 1872,
          "direct_cost": 57,
          "direct_time": 146
        },
        {
          "bid": 3475,
          "id": 4,
          "price": 2137,
          "cost": 684,
          "direct_dist": 11586,
          "direct_cost": 348,
          "direct_time": 841
        }
      ],
      "cost": 318,
      "virtual_welfare": 5361
    },
    "profit": 4068,
    "cost_profit": 1162.0,
    "welfare": 6523,
    "virtual_welfare": 5361,
    "running_time": 0
  },
  {
    "graph_name": "10_44",
    "n_pass": 2,
    "winning_ride": {
      "driver": {
        "arrive_until": 2400,
        "direct_cost": 433
      },
      "passengers": [
        {
          "bid": 4307,
          "id": 7,
          "price": 3097,
          "cost": 888,
          "direct_dist": 14359,
          "direct_cost": 431,
          "direct_time": 924
        },
        {
          "bid": 3654,
          "id": 4,
          "price": 3115,
          "cost": 906,
          "direct_dist": 13208,
          "direct_cost": 397,
          "direct_time": 966
        }
      ],
      "cost": 419,
      "virtual_welfare": 6167
    },
    "profit": 5793,
    "cost_profit": 1375.0,
    "welfare": 7542,
    "virtual_welfare": 6167,
    "running_time": 0
  },
  {
    "graph_name": "10_45",
    "n_pass": 2,
    "winning_ride": {
      "driver": {
        "arrive_until": 2400,
        "direct_cost": 428
      },
      "passengers": [
        {
          "bid": 2114,
          "id": 8,
          "price": 629,
          "cost": 629,
          "direct_dist": 7047,
          "direct_cost": 212,
          "direct_time": 495
        },
        {
          "bid": 3419,
          "id": 3,
          "price": 739,
          "cost": 739,
          "direct_dist": 11398,
          "direct_cost": 342,
          "direct_time": 773
        }
      ],
      "cost": 603,
      "virtual_welfare": 4165
    },
    "profit": 765,
    "cost_profit": 765.0,
    "welfare": 4930,
    "virtual_welfare": 4165,
    "running_time": 0
  },
  {
    "graph_name": "10_46",
    "n_pass": 2,
    "winning_ride": {
      "driver": {
        "arrive_until": 2400,
        "direct_cost": 502
      },
      "passengers": [
        {
          "bid": 4797,
          "id": 6,
          "price": 2875,
          "cost": 1000,
          "direct_dist": 15993,
          "direct_cost": 480,
          "direct_time": 1102
        },
        {
          "bid": 3510,
          "id": 4,
          "price": 2768,
          "cost": 893,
          "direct_dist": 11702,
          "direct_cost": 352,
          "direct_time": 752
        }
      ],
      "cost": 478,
      "virtual_welfare": 6414
    },
    "profit": 5165,
    "cost_profit": 1415.0,
    "welfare": 7829,
    "virtual_welfare": 6414,
    "running_time": 0
  },
  {
    "graph_name": "10_47",
    "n_pass": 1,
    "winning_ride": {
      "driver": {
        "arrive_until": 2400,
        "direct_cost": 476
      },
      "passengers": [
        {
          "bid": 5532,
          "id": 7,
          "price": 3574,
          "cost": 1124,
          "direct_dist": 18441,
          "direct_cost": 554,
          "direct_time": 1211
        }
      ],
      "cost": 396,
      "virtual_welfare": 4408
    },
    "profit": 3178,
    "cost_profit": 728.0,
    "welfare": 5136,
    "virtual_welfare": 4408,
    "running_time": 0
  },
  {
    "graph_name": "10_48",
    "n_pass": 2,
    "winning_ride": {
      "driver": {
        "arrive_until": 2400,
        "direct_cost": 413
      },
      "passengers": [
        {
          "bid": 2061,
          "id": 9,
          "price": 1755,
          "cost": 786,
          "direct_dist": 6873,
          "direct_cost": 207,
          "direct_time": 505
        },
        {
          "bid": 2048,
          "id": 1,
          "price": 1164,
          "cost": 665,
          "direct_dist": 6827,
          "direct_cost": 205,
          "direct_time": 444
        }
      ],
      "cost": 547,
      "virtual_welfare": 2658
    },
    "profit": 2372,
    "cost_profit": 904.0,
    "welfare": 3562,
    "virtual_welfare": 2658,
    "running_time": 0
  },
  {
    "graph_name": "10_49",
    "n_pass": 2,
    "winning_ride": {
      "driver": {
        "arrive_until": 2400,
        "direct_cost": 416
      },
      "passengers": [
        {
          "bid": 1767,
          "id": 7,
          "price": 582,
          "cost": 582,
          "direct_dist": 9780,
          "direct_cost": 294,
          "direct_time": 665
        },
        {
          "bid": 5230,
          "id": 5,
          "price": 2878,
          "cost": 1166,
          "direct_dist": 17434,
          "direct_cost": 524,
          "direct_time": 1183
        }
      ],
      "cost": 568,
      "virtual_welfare": 5249
    },
    "profit": 2892,
    "cost_profit": 1180.0,
    "welfare": 6429,
    "virtual_welfare": 5249,
    "running_time": 0
  },
  {
    "graph_name": "10_5",
    "n_pass": 2,
    "winning_ride": {
      "driver": {
        "arrive_until": 2400,
        "direct_cost": 476
      },
      "passengers": [
        {
          "bid": 4501,
          "id": 10,
          "price": 3131,
          "cost": 939,
          "direct_dist": 15169,
          "direct_cost": 456,
          "direct_time": 1003
        },
        {
          "bid": 4267,
          "id": 5,
          "price": 2301,
          "cost": 946,
          "direct_dist": 14224,
          "direct_cost": 427,
          "direct_time": 962
        }
      ],
      "cost": 563,
      "virtual_welfare": 6883
    },
    "profit": 4869,
    "cost_profit": 1322.0,
    "welfare": 8205,
    "virtual_welfare": 6883,
    "running_time": 0
  },
  {
    "graph_name": "10_50",
    "n_pass": 2,
    "winning_ride": {
      "driver": {
        "arrive_until": 2400,
        "direct_cost": 529
      },
      "passengers": [
        {
          "bid": 3156,
          "id": 8,
          "price": 1417,
          "cost": 688,
          "direct_dist": 10522,
          "direct_cost": 316,
          "direct_time": 749
        },
        {
          "bid": 1107,
          "id": 1,
          "price": 589,
          "cost": 589,
          "direct_dist": 3692,
          "direct_cost": 111,
          "direct_time": 225
        }
      ],
      "cost": 211,
      "virtual_welfare": 2986
    },
    "profit": 1795,
    "cost_profit": 1066.0,
    "welfare": 4052,
    "virtual_welfare": 2986,
    "running_time": 0
  },
  {
    "graph_name": "10_51",
    "n_pass": 1,
    "winning_ride": {
      "driver": {
        "arrive_until": 2400,
        "direct_cost": 473
      },
      "passengers": [
        {
          "bid": 2572,
          "id": 3,
          "price": 2222,
          "cost": 620,
          "direct_dist": 8576,
          "direct_cost": 258,
          "direct_time": 621
        }
      ],
      "cost": 156,
      "virtual_welfare": 1952
    },
    "profit": 2066,
    "cost_profit": 464.0,
    "welfare": 2416,
    "virtual_welfare": 1952,
    "running_time": 0
  },
  {
    "graph_name": "10_52",
    "n_pass": 2,
    "winning_ride": {
      "driver": {
        "arrive_until": 2400,
        "direct_cost": 466
      },
      "passengers": [
        {
          "bid": 2472,
          "id": 9,
          "price": 626,
          "cost": 578,
          "direct_dist": 8242,
          "direct_cost": 248,
          "direct_time": 591
        },
        {
          "bid": 5347,
          "id": 4,
          "price": 2564,
          "cost": 1065,
          "direct_dist": 17824,
          "direct_cost": 535,
          "direct_time": 1157
        }
      ],
      "cost": 526,
      "virtual_welfare": 6176
    },
    "profit": 2664,
    "cost_profit": 1117.0,
    "welfare": 7293,
    "virtual_welfare": 6176,
    "running_time": 0
  },
  {
    "graph_name": "10_53",
    "n_pass": 2,
    "winning_ride": {
      "driver": {
        "arrive_until": 2400,
        "direct_cost": 509
      },
      "passengers": [
        {
          "bid": 1621,
          "id": 8,
          "price": 1474,
          "cost": 494,
          "direct_dist": 5404,
          "direct_cost": 163,
          "direct_time": 395
        },
        {
          "bid": 1702,
          "id": 7,
          "price": 1680,
          "cost": 700,
          "direct_dist": 5958,
          "direct_cost": 179,
          "direct_time": 459
        }
      ],
      "cost": 281,
      "virtual_welfare": 2129
    },
    "profit": 2873,
    "cost_profit": 913.0,
    "welfare": 3042,
    "virtual_welfare": 2129,
    "running_time": 0
  },
  {
    "graph_name": "10_54",
    "n_pass": 1,
    "winning_ride": {
      "driver": {
        "arrive_until": 2400,
        "direct_cost": 443
      },
      "passengers": [
        {
          "bid": 3960,
          "id": 3,
          "price": 3953,
          "cost": 987,
          "direct_dist": 13201,
          "direct_cost": 397,
          "direct_time": 939
        }
      ],
      "cost": 340,
      "virtual_welfare": 2973
    },
    "profit": 3613,
    "cost_profit": 647.0,
    "welfare": 3620,
    "virtual_welfare": 2973,
    "running_time": 0
  },
  {
    "graph_name": "10_55",
    "n_pass": 2,
    "winning_ride": {
      "driver": {
        "arrive_until": 2400,
        "direct_cost": 447
      },
      "passengers": [
        {
          "bid": 3443,
          "id": 7,
          "price": 2031,
          "cost": 788,
          "direct_dist": 11477,
          "direct_cost": 345,
          "direct_time": 757
        },
        {
          "bid": 3462,
          "id": 1,
          "price": 2017,
          "cost": 774,
          "direct_dist": 11541,
          "direct_cost": 347,
          "direct_time": 831
        }
      ],
      "cost": 371,
      "virtual_welfare": 5343
    },
    "profit": 3677,
    "cost_profit": 1191.0,
    "welfare": 6534,
    "virtual_welfare": 5343,
    "running_time": 0
  },
  {
    "graph_name": "10_56",
    "n_pass": 2,
    "winning_ride": {
      "driver": {
        "arrive_until": 2400,
        "direct_cost": 432
      },
      "passengers": [
        {
          "bid": 3186,
          "id": 5,
          "price": 1199,
          "cost": 826,
          "direct_dist": 11334,
          "direct_cost": 341,
          "direct_time": 742
        },
        {
          "bid": 1959,
          "id": 1,
          "price": 812,
          "cost": 439,
          "direct_dist": 6532,
          "direct_cost": 196,
          "direct_time": 531
        }
      ],
      "cost": 416,
      "virtual_welfare": 3880
    },
    "profit": 1595,
    "cost_profit": 849.0,
    "welfare": 4729,
    "virtual_welfare": 3880,
    "running_time": 0
  },
  {
    "graph_name": "10_57",
    "n_pass": 1,
    "winning_ride": {
      "driver": {
        "arrive_until": 2400,
        "direct_cost": 578
      },
      "passengers": [
        {
          "bid": 1778,
          "id": 8,
          "price": 1554,
          "cost": 695,
          "direct_dist": 5928,
          "direct_cost": 178,
          "direct_time": 420
        }
      ],
      "cost": 66,
      "virtual_welfare": 1083
    },
    "profit": 1488,
    "cost_profit": 629.0,
    "welfare": 1712,
    "virtual_welfare": 1083,
    "running_time": 0
  },
  {
    "graph_name": "10_58",
    "n_pass": 2,
    "winning_ride": {
      "driver": {
        "arrive_until": 2400,
        "direct_cost": 413
      },
      "passengers": [
        {
          "bid": 3958,
          "id": 8,
          "price": 1253,
          "cost": 896,
          "direct_dist": 13196,
          "direct_cost": 396,
          "direct_time": 967
        },
        {
          "bid": 3519,
          "id": 2,
          "price": 1233,
          "cost": 876,
          "direct_dist": 11731,
          "direct_cost": 352,
          "direct_time": 826
        }
      ],
      "cost": 466,
      "virtual_welfare": 5705
    },
    "profit": 2020,
    "cost_profit": 1306.0,
    "welfare": 7011,
    "virtual_welfare": 5705,
    "running_time": 0
  },
  {
    "graph_name": "10_59",
    "n_pass": 2,
    "winning_ride": {
      "driver": {
        "arrive_until": 2400,
        "direct_cost": 500
      },
      "passengers": [
        {
          "bid": 5692,
          "id": 8,
          "price": 2487,
          "cost": 1176,
          "direct_dist": 18976,
          "direct_cost": 570,
          "direct_time": 1256
        },
        {
          "bid": 2647,
          "id": 7,
          "price": 2206,
          "cost": 895,
          "direct_dist": 10908,
          "direct_cost": 328,
          "direct_time": 667
        }
      ],
      "cost": 344,
      "virtual_welfare": 6268
    },
    "profit": 4349,
    "cost_profit": 1727.0,
    "welfare": 7995,
    "virtual_welfare": 6268,
    "running_time": 0
  },
  {
    "graph_name": "10_6",
    "n_pass": 2,
    "winning_ride": {
      "driver": {
        "arrive_until": 2400,
        "direct_cost": 418
      },
      "passengers": [
        {
          "bid": 717,
          "id": 9,
          "price": 472,
          "cost": 472,
          "direct_dist": 4032,
          "direct_cost": 121,
          "direct_time": 264
        },
        {
          "bid": 4257,
          "id": 4,
          "price": 2597,
          "cost": 1060,
          "direct_dist": 14191,
          "direct_cost": 426,
          "direct_time": 878
        }
      ],
      "cost": 506,
      "virtual_welfare": 3442
    },
    "profit": 2563,
    "cost_profit": 1026.0,
    "welfare": 4468,
    "virtual_welfare": 3442,
    "running_time": 0
  },
  {
    "graph_name": "10_60",
    "n_pass": 2,
    "winning_ride": {
      "driver": {
        "arrive_until": 2400,
        "direct_cost": 583
      },
      "passengers": [
        {
          "bid": 4734,
          "id": 7,
          "price": 2970,
          "cost": 967,
          "direct_dist": 15780,
          "direct_cost": 474,
          "direct_time": 1034
        },
        {
          "bid": 3159,
          "id": 3,
          "price": 1395,
          "cost": 639,
          "direct_dist": 10533,
          "direct_cost": 316,
          "direct_time": 708
        }
      ],
      "cost": 245,
      "virtual_welfare": 6287
    },
    "profit": 4120,
    "cost_profit": 1361.0,
    "welfare": 7648,
    "virtual_welfare": 6287,
    "running_time": 0
  },
  {
    "graph_name": "10_61",
    "n_pass": 2,
    "winning_ride": {
      "driver": {
        "arrive_until": 2400,
        "direct_cost": 469
      },
      "passengers": [
        {
          "bid": 1528,
          "id": 9,
          "price": 1516,
          "cost": 505,
          "direct_dist": 5095,
          "direct_cost": 153,
          "direct_time": 404
        },
        {
          "bid": 3056,
          "id": 1,
          "price": 2018,
          "cost": 816,
          "direct_dist": 10187,
          "direct_cost": 306,
          "direct_time": 681
        }
      ],
      "cost": 382,
      "virtual_welfare": 3263
    },
    "profit": 3152,
    "cost_profit": 939.0,
    "welfare": 4202,
    "virtual_welfare": 3263,
    "running_time": 0
  },
  {
    "graph_name": "10_62",
    "n_pass": 1,
    "winning_ride": {
      "driver": {
        "arrive_until": 2400,
        "direct_cost": 529
      },
      "passengers": [
        {
          "bid": 3646,
          "id": 2,
          "price": 2259,
          "cost": 899,
          "direct_dist": 12155,
          "direct_cost": 365,
          "direct_time": 775
        }
      ],
      "cost": 534,
      "virtual_welfare": 2747
    },
    "profit": 1725,
    "cost_profit": 365.0,
    "welfare": 3112,
    "virtual_welfare": 2747,
    "running_time": 0
  },
  {
    "graph_name": "10_63",
    "n_pass": 2,
    "winning_ride": {
      "driver": {
        "arrive_until": 2400,
        "direct_cost": 564
      },
      "passengers": [
        {
          "bid": 1680,
          "id": 8,
          "price": 1056,
          "cost": 731,
          "direct_dist": 5603,
          "direct_cost": 169,
          "direct_time": 304
        },
        {
          "bid": 3131,
          "id": 1,
          "price": 1095,
          "cost": 787,
          "direct_dist": 10439,
          "direct_cost": 314,
          "direct_time": 699
        }
      ],
      "cost": 327,
      "virtual_welfare": 3293
    },
    "profit": 1824,
    "cost_profit": 1191.0,
    "welfare": 4484,
    "virtual_welfare": 3293,
    "running_time": 0
  },
  {
    "graph_name": "10_64",
    "n_pass": 1,
    "winning_ride": {
      "driver": {
        "arrive_until": 2400,
        "direct_cost": 415
      },
      "passengers": [
        {
          "bid": 5038,
          "id": 9,
          "price": 4077,
          "cost": 1179,
          "direct_dist": 18271,
          "direct_cost": 549,
          "direct_time": 1171
        }
      ],
      "cost": 558,
      "virtual_welfare": 3859
    },
    "profit": 3519,
    "cost_profit": 621.0,
    "welfare": 4480,
    "virtual_welfare": 3859,
    "running_time": 0
  },
  {
    "graph_name": "10_65",
    "n_pass": 2,
    "winning_ride": {
      "driver": {
        "arrive_until": 2400,
        "direct_cost": 457
      },
      "passengers": [
        {
          "bid": 2371,
          "id": 8,
          "price": 2147,
          "cost": 770,
          "direct_dist": 11347,
          "direct_cost": 341,
          "direct_time": 709
        },
        {
          "bid": 1277,
          "id": 7,
          "price": 1053,
          "cost": 459,
          "direct_dist": 4883,
          "direct_cost": 147,
          "direct_time": 424
        }
      ],
      "cost": 424,
      "virtual_welfare": 2419
    },
    "profit": 2776,
    "cost_profit": 805.0,
    "welfare": 3224,
    "virtual_welfare": 2419,
    "running_time": 0
  },
  {
    "graph_name": "10_66",
    "n_pass": 2,
    "winning_ride": {
      "driver": {
        "arrive_until": 2400,
        "direct_cost": 453
      },
      "passengers": [
        {
          "bid": 3903,
          "id": 8,
          "price": 3867,
          "cost": 848,
          "direct_dist": 13010,
          "direct_cost": 391,
          "direct_time": 825
        },
        {
          "bid": 3800,
          "id": 6,
          "price": 3777,
          "cost": 758,
          "direct_dist": 12668,
          "direct_cost": 381,
          "direct_time": 788
        }
      ],
      "cost": 338,
      "virtual_welfare": 6097
    },
    "profit": 7306,
    "cost_profit": 1268.0,
    "welfare": 7365,
    "virtual_welfare": 6097,
    "running_time": 0
  },
  {
    "graph_name": "10_67",
    "n_pass": 1,
    "winning_ride": {
      "driver": {
        "arrive_until": 2400,
        "direct_cost": 434
      },
      "passengers": [
        {
          "bid": 2388,
          "id": 9,
          "price": 2278,
          "cost": 560,
          "direct_dist": 7960,
          "direct_cost": 239,
          "direct_time": 560
        }
      ],
      "cost": 451,
      "virtual_welfare": 1828
    },
    "profit": 1827,
    "cost_profit": 109.0,
    "welfare": 1937,
    "virtual_welfare": 1828,
    "running_time": 0
  },
  {
    "graph_name": "10_68",
    "n_pass": 1,
    "winning_ride": {
      "driver": {
        "arrive_until": 2400,
        "direct_cost": 509
      },
      "passengers": [
        {
          "bid": 3492,
          "id": 9,
          "price": 3392,
          "cost": 831,
          "direct_dist": 11641,
          "direct_cost": 350,
          "direct_time": 723
        }
      ],
      "cost": 582,
      "virtual_welfare": 2661
    },
    "profit": 2810,
    "cost_profit": 249.0,
    "welfare": 2910,
    "virtual_welfare": 2661,
    "running_time": 0
  },
  {
    "graph_name": "10_69",
    "n_pass": 2,
    "winning_ride": {
      "driver": {
        "arrive_until": 2400,
        "direct_cost": 405
      },
      "passengers": [
        {
          "bid": 3990,
          "id": 10,
          "price": 2649,
          "cost": 803,
          "direct_dist": 13301,
          "direct_cost": 400,
          "direct_time": 870
        },
        {
          "bid": 962,
          "id": 6,
          "price": 847,
          "cost": 671,
          "direct_dist": 11123,
          "direct_cost": 334,
          "direct_time": 708
        }
      ],
      "cost": 475,
      "virtual_welfare": 3478
    },
    "profit": 3021,
    "cost_profit": 999.0,
    "welfare": 4477,
    "virtual_welfare": 3478,
    "running_time": 0
  },
  {
    "graph_name": "10_7",
    "n_pass": 2,
    "winning_ride": {
      "driver": {
        "arrive_until": 2400,
        "direct_cost": 453
      },
      "passengers": [
        {
          "bid": 1200,
          "id": 6,
          "price": 1038,
          "cost": 532,
          "direct_dist": 6493,
          "direct_cost": 195,
          "direct_time": 410
        },
        {
          "bid": 2513,
          "id": 2,
          "price": 1114,
          "cost": 570,
          "direct_dist": 8379,
          "direct_cost": 252,
          "direct_time": 528
        }
      ],
      "cost": 522,
      "virtual_welfare": 2611
    },
    "profit": 1630,
    "cost_profit": 580.0,
    "welfare": 3191,
    "virtual_welfare": 2611,
    "running_time": 0
  },
  {
    "graph_name": "10_70",
    "n_pass": 2,
    "winning_ride": {
      "driver": {
        "arrive_until": 2400,
        "direct_cost": 464
      },
      "passengers": [
        {
          "bid": 1768,
          "id": 8,
          "price": 1024,
          "cost": 570,
          "direct_dist": 10190,
          "direct_cost": 306,
          "direct_time": 666
        },
        {
          "bid": 3528,
          "id": 4,
          "price": 2784,
          "cost": 743,
          "direct_dist": 11760,
          "direct_cost": 353,
          "direct_time": 816
        }
      ],
      "cost": 475,
      "virtual_welfare": 3983
    },
    "profit": 3333,
    "cost_profit": 838.0,
    "welfare": 4821,
    "virtual_welfare": 3983,
    "running_time": 0
  },
  {
    "graph_name": "10_71",
    "n_pass": 1,
    "winning_ride": {
      "driver": {
        "arrive_until": 2400,
        "direct_cost": 505
      },
      "passengers": [
        {
          "bid": 2362,
          "id": 9,
          "price": 2275,
          "cost": 759,
          "direct_dist": 9151,
          "direct_cost": 275,
          "direct_time": 627
        }
      ],
      "cost": 230,
      "virtual_welfare": 1603
    },
    "profit": 2045,
    "cost_profit": 529.0,
    "welfare": 2132,
    "virtual_welfare": 1603,
    "running_time": 0
  },
  {
    "graph_name": "10_72",
    "n_pass": 3,
    "winning_ride": {
      "driver": {
        "arrive_until": 2400,
        "direct_cost": 520
      },
      "passengers": [
        {
          "bid": 1524,
          "id": 6,
          "price": 921,
          "cost": 422,
          "direct_dist": 5082,
          "direct_cost": 153,
          "direct_time": 359
        },
        {
          "bid": 2192,
          "id": 3,
          "price": 1359,
          "cost": 601,
          "direct_dist": 7308,
          "direct_cost": 220,
          "direct_time": 521
        },
        {
          "bid": 547,
          "id": 2,
          "price": 119,
          "cost": 119,
          "direct_dist": 1826,
          "direct_cost": 55,
          "direct_time": 141
        }
      ],
      "cost": 291,
      "virtual_welfare": 3121
    },
    "profit": 2108,
    "cost_profit": 851.0,
    "welfare": 3972,
    "virtual_welfare": 3121,
    "running_time": 0
  },
  {
    "graph_name": "10_73",
    "n_pass": 2,
    "winning_ride": {
      "driver": {
        "arrive_until": 2400,
        "direct_cost": 458
      },
      "passengers": [
        {
          "bid": 1513,
          "id": 8,
          "price": 836,
          "cost": 542,
          "direct_dist": 5529,
          "direct_cost": 166,
          "direct_time": 371
        },
        {
          "bid": 3543,
          "id": 4,
          "price": 1420,
          "cost": 925,
          "direct_dist": 11811,
          "direct_cost": 355,
          "direct_time": 788
        }
      ],
      "cost": 451,
      "virtual_welfare": 3589
    },
    "profit": 1805,
    "cost_profit": 1016.0,
    "welfare": 4605,
    "virtual_welfare": 3589,
    "running_time": 0
  },
  {
    "graph_name": "10_74",
    "n_pass": 2,
    "winning_ride": {
      "driver": {
        "arrive_until": 2400,
        "direct_cost": 550
      },
      "passengers": [
        {
          "bid": 2139,
          "id": 8,
          "price": 1629,
          "cost": 692,
          "direct_dist": 8871,
          "direct_cost": 267,
          "direct_time": 556
        },
        {
          "bid": 5044,
          "id": 6,
          "price": 1993,
          "cost": 1056,
          "direct_dist": 16815,
          "direct_cost": 505,
          "direct_time": 1142
        }
      ],
      "cost": 389,
      "virtual_welfare": 5435
    },
    "profit": 3233,
    "cost_profit": 1359.0,
    "welfare": 6794,
    "virtual_welfare": 5435,
    "running_time": 0
  },
  {
    "graph_name": "10_75",
    "n_pass": 2,
    "winning_ride": {
      "driver": {
        "arrive_until": 2400,
        "direct_cost": 543
      },
      "passengers": [
        {
          "bid": 1812,
          "id": 10,
          "price": 1387,
          "cost": 597,
          "direct_dist": 6043,
          "direct_cost": 182,
          "direct_time": 440
        },
        {
          "bid": 2379,
          "id": 1,
          "price": 1954,
          "cost": 703,
          "direct_dist": 7931,
          "direct_cost": 238,
          "direct_time": 496
        }
      ],
      "cost": 530,
      "virtual_welfare": 2891
    },
    "profit": 2811,
    "cost_profit": 770.0,
    "welfare": 3661,
    "virtual_welfare": 2891,
    "running_time": 0
  },
  {
    "graph_name": "10_76",
    "n_pass": 1,
    "winning_ride": {
      "driver": {
        "arrive_until": 2400,
        "direct_cost": 450
      },
      "passengers": [
        {
          "bid": 3351,
          "id": 6,
          "price": 3321,
          "cost": 842,
          "direct_dist": 11171,
          "direct_cost": 336,
          "direct_time": 746
        }
      ],
      "cost": 426,
      "virtual_welfare": 2509
    },
    "profit": 2895,
    "cost_profit": 416.0,
    "welfare": 2925,
    "virtual_welfare": 2509,
    "running_time": 0
  },
  {
    "graph_name": "10_77",
    "n_pass": 2,
    "winning_ride": {
      "driver": {
        "arrive_until": 2400,
        "direct_cost": 449
      },
      "passengers": [
        {
          "bid": 2321,
          "id": 7,
          "price": 2260,
          "cost": 796,
          "direct_dist": 7737,
          "direct_cost": 233,
          "direct_time": 550
        },
        {
          "bid": 1213,
          "id": 5,
          "price": 1152,
          "cost": 490,
          "direct_dist": 6961,
          "direct_cost": 209,
          "direct_time": 456
        }
      ],
      "cost": 522,
      "virtual_welfare": 2248
    },
    "profit": 2890,
    "cost_profit": 764.0,
    "welfare": 3012,
    "virtual_welfare": 2248,
    "running_time": 0
  },
  {
    "graph_name": "10_78",
    "n_pass": 1,
    "winning_ride": {
      "driver": {
        "arrive_until": 2400,
        "direct_cost": 504
      },
      "passengers": [
        {
          "bid": 4823,
          "id": 8,
          "price": 4354,
          "cost": 1001,
          "direct_dist": 16638,
          "direct_cost": 500,
          "direct_time": 1072
        }
      ],
      "cost": 276,
      "virtual_welfare": 3822
    },
    "profit": 4078,
    "cost_profit": 725.0,
    "welfare": 4547,
    "virtual_welfare": 3822,
    "running_time": 0
  },
  {
    "graph_name": "10_79",
    "n_pass": 3,
    "winning_ride": {
      "driver": {
        "arrive_until": 2400,
        "direct_cost": 471
      },
      "passengers": [
        {
          "bid": 1387,
          "id": 9,
          "price": 816,
          "cost": 816,
          "direct_dist": 8134,
          "direct_cost": 245,
          "direct_time": 531
        },
        {
          "bid": 2532,
          "id": 4,
          "price": 997,
          "cost": 837,
          "direct_dist": 8441,
          "direct_cost": 254,
          "direct_time": 643
        },
        {
          "bid": 1978,
          "id": 1,
          "price": 394,
          "cost": 394,
          "direct_dist": 6594,
          "direct_cost": 198,
          "direct_time": 474
        }
      ],
      "cost": 457,
      "virtual_welfare": 3850
    },
    "profit": 1750,
    "cost_profit": 1590.0,
    "welfare": 5440,
    "virtual_welfare": 3850,
    "running_time": 0
  },
  {
    "graph_name": "10_8",
    "n_pass": 2,
    "winning_ride": {
      "driver": {
        "arrive_until": 2400,
        "direct_cost": 457
      },
      "passengers": [
        {
          "bid": 102,
          "id": 9,
          "price": 98,
          "cost": 98,
          "direct_dist": 472,
          "direct_cost": 15,
          "direct_time": 55
        },
        {
          "bid": 3087,
          "id": 2,
          "price": 2511,
          "cost": 807,
          "direct_dist": 10293,
          "direct_cost": 309,
          "direct_time": 712
        }
      ],
      "cost": 349,
      "virtual_welfare": 2284
    },
    "profit": 2260,
    "cost_profit": 556.0,
    "welfare": 2840,
    "virtual_welfare": 2284,
    "running_time": 0
  },
  {
    "graph_name": "10_80",
    "n_pass": 2,
    "winning_ride": {
      "driver": {
        "arrive_until": 2400,
        "direct_cost": 521
      },
      "passengers": [
        {
          "bid": 4404,
          "id": 5,
          "price": 1626,
          "cost": 1031,
          "direct_dist": 14680,
          "direct_cost": 441,
          "direct_time": 1038
        },
        {
          "bid": 5446,
          "id": 2,
          "price": 1688,
          "cost": 1093,
          "direct_dist": 18156,
          "direct_cost": 545,
          "direct_time": 1201
        }
      ],
      "cost": 416,
      "virtual_welfare": 7726
    },
    "profit": 2898,
    "cost_profit": 1708.0,
    "welfare": 9434,
    "virtual_welfare": 7726,
    "running_time": 0
  },
  {
    "graph_name": "10_81",
    "n_pass": 1,
    "winning_ride": {
      "driver": {
        "arrive_until": 2400,
        "direct_cost": 461
      },
      "passengers": [
        {
          "bid": 4270,
          "id": 4,
          "price": 3800,
          "cost": 972,
          "direct_dist": 14235,
          "direct_cost": 428,
          "direct_time": 979
        }
      ],
      "cost": 483,
      "virtual_welfare": 3298
    },
    "profit": 3317,
    "cost_profit": 489.0,
    "welfare": 3787,
    "virtual_welfare": 3298,
    "running_time": 0
  },
  {
    "graph_name": "10_82",
    "n_pass": 2,
    "winning_ride": {
      "driver": {
        "arrive_until": 2400,
        "direct_cost": 483
      },
      "passengers": [
        {
          "bid": 2690,
          "id": 3,
          "price": 2467,
          "cost": 572,
          "direct_dist": 8968,
          "direct_cost": 270,
          "direct_time": 614
        },
        {
          "bid": 1056,
          "id": 1,
          "price": 677,
          "cost": 520,
          "direct_dist": 3520,
          "direct_cost": 106,
          "direct_time": 262
        }
      ],
      "cost": 432,
      "virtual_welfare": 2654
    },
    "profit": 2712,
    "cost_profit": 660.0,
    "welfare": 3314,
    "virtual_welfare": 2654,
    "running_time": 0
  },
  {
    "graph_name": "10_83",
    "n_pass": 2,
    "winning_ride": {
      "driver": {
        "arrive_until": 2400,
        "direct_cost": 399
      },
      "passengers": [
        {
          "bid": 3086,
          "id": 5,
          "price": 2486,
          "cost": 691,
          "direct_dist": 10287,
          "direct_cost": 309,
          "direct_time": 663
        },
        {
          "bid": 3688,
          "id": 3,
          "price": 2614,
          "cost": 819,
          "direct_dist": 12294,
          "direct_cost": 369,
          "direct_time": 867
        }
      ],
      "cost": 415,
      "virtual_welfare": 5264
    },
    "profit": 4685,
    "cost_profit": 1095.0,
    "welfare": 6359,
    "virtual_welfare": 5264,
    "running_time": 0
  },
  {
    "graph_name": "10_84",
    "n_pass": 2,
    "winning_ride": {
      "driver": {
        "arrive_until": 2400,
        "direct_cost": 455
      },
      "passengers": [
        {
          "bid": 3665,
          "id": 5,
          "price": 2751,
          "cost": 824,
          "direct_dist": 12218,
          "direct_cost": 367,
          "direct_time": 757
        },
        {
          "bid": 1929,
          "id": 2,
          "price": 1734,
          "cost": 544,
          "direct_dist": 6431,
          "direct_cost": 193,
          "direct_time": 378
        }
      ],
      "cost": 405,
      "virtual_welfare": 4226
    },
    "profit": 4080,
    "cost_profit": 963.0,
    "welfare": 5189,
    "virtual_welfare": 4226,
    "running_time": 0
  },
  {
    "graph_name": "10_85",
    "n_pass": 2,
    "winning_ride": {
      "driver": {
        "arrive_until": 2400,
        "direct_cost": 498
      },
      "passengers": [
        {
          "bid": 1489,
          "id": 7,
          "price": 1258,
          "cost": 537,
          "direct_dist": 4964,
          "direct_cost": 149,
          "direct_time": 357
        },
        {
          "bid": 4254,
          "id": 4,
          "price": 1625,
          "cost": 904,
          "direct_dist": 14180,
          "direct_cost": 426,
          "direct_time": 978
        }
      ],
      "cost": 290,
      "virtual_welfare": 4302
    },
    "profit": 2593,
    "cost_profit": 1151.0,
    "welfare": 5453,
    "virtual_welfare": 4302,
    "running_time": 0
  },
  {
    "graph_name": "10_86",
    "n_pass": 2,
    "winning_ride": {
      "driver": {
        "arrive_until": 2400,
        "direct_cost": 580
      },
      "passengers": [
        {
          "bid": 4687,
          "id": 10,
          "price": 3935,
          "cost": 1005,
          "direct_dist": 15625,
          "direct_cost": 469,
          "direct_time": 972
        },
        {
          "bid": 5055,
          "id": 3,
          "price": 3909,
          "cost": 979,
          "direct_dist": 16850,
          "direct_cost": 506,
          "direct_time": 1226
        }
      ],
      "cost": 219,
      "virtual_welfare": 7758
    },
    "profit": 7625,
    "cost_profit": 1765.0,
    "welfare": 9523,
    "virtual_welfare": 7758,
    "running_time": 0
  },
  {
    "graph_name": "10_87",
    "n_pass": 2,
    "winning_ride": {
      "driver": {
        "arrive_until": 2400,
        "direct_cost": 464
      },
      "passengers": [
        {
          "bid": 2340,
          "id": 7,
          "price": 888,
          "cost": 781,
          "direct_dist": 7801,
          "direct_cost": 235,
          "direct_time": 640
        },
        {
          "bid": 4673,
          "id": 5,
          "price": 1780,
          "cost": 985,
          "direct_dist": 15578,
          "direct_cost": 468,
          "direct_time": 1035
        }
      ],
      "cost": 302,
      "virtual_welfare": 5247
    },
    "profit": 2366,
    "cost_profit": 1464.0,
    "welfare": 6711,
    "virtual_welfare": 5247,
    "running_time": 0
  },
  {
    "graph_name": "10_88",
    "n_pass": 2,
    "winning_ride": {
      "driver": {
        "arrive_until": 2400,
        "direct_cost": 447
      },
      "passengers": [
        {
          "bid": 3723,
          "id": 8,
          "price": 845,
          "cost": 783,
          "direct_dist": 12412,
          "direct_cost": 373,
          "direct_time": 796
        },
        {
          "bid": 2549,
          "id": 2,
          "price": 623,
          "cost": 561,
          "direct_dist": 8499,
          "direct_cost": 255,
          "direct_time": 607
        }
      ],
      "cost": 473,
      "virtual_welfare": 4928
    },
    "profit": 995,
    "cost_profit": 871.0,
    "welfare": 5799,
    "virtual_welfare": 4928,
    "running_time": 0
  },
  {
    "graph_name": "10_89",
    "n_pass": 2,
    "winning_ride": {
      "driver": {
        "arrive_until": 2400,
        "direct_cost": 573
      },
      "passengers": [
        {
          "bid": 5427,
          "id": 10,
          "price": 4573,
          "cost": 1209,
          "direct_dist": 18091,
          "direct_cost": 543,
          "direct_time": 1095
        },
        {
          "bid": 4803,
          "id": 2,
          "price": 4522,
          "cost": 1158,
          "direct_dist": 16010,
          "direct_cost": 481,
          "direct_time": 1069
        }
      ],
      "cost": 298,
      "virtual_welfare": 7863
    },
    "profit": 8797,
    "cost_profit": 2069.0,
    "welfare": 9932,
    "virtual_welfare": 7863,
    "running_time": 0
  },
  {
    "graph_name": "10_9",
    "n_pass": 2,
    "winning_ride": {
      "driver": {
        "arrive_until": 2400,
        "direct_cost": 461
      },
      "passengers": [
        {
          "bid": 2401,
          "id": 4,
          "price": 1723,
          "cost": 645,
          "direct_dist": 9847,
          "direct_cost": 296,
          "direct_time": 688
        },
        {
          "bid": 1563,
          "id": 3,
          "price": 1378,
          "cost": 610,
          "direct_dist": 5210,
          "direct_cost": 157,
          "direct_time": 364
        }
      ],
      "cost": 196,
      "virtual_welfare": 2709
    },
    "profit": 2905,
    "cost_profit": 1059.0,
    "welfare": 3768,
    "virtual_welfare": 2709,
    "running_time": 0
  },
  {
    "graph_name": "10_90",
    "n_pass": 2,
    "winning_ride": {
      "driver": {
        "arrive_until": 2400,
        "direct_cost": 400
      },
      "passengers": [
        {
          "bid": 2459,
          "id": 10,
          "price": 1115,
          "cost": 551,
          "direct_dist": 8199,
          "direct_cost": 246,
          "direct_time": 600
        },
        {
          "bid": 4104,
          "id": 4,
          "price": 2404,
          "cost": 915,
          "direct_dist": 13680,
          "direct_cost": 411,
          "direct_time": 889
        }
      ],
      "cost": 439,
      "virtual_welfare": 5097
    },
    "profit": 3080,
    "cost_profit": 1027.0,
    "welfare": 6124,
    "virtual_welfare": 5097,
    "running_time": 0
  },
  {
    "graph_name": "10_91",
    "n_pass": 2,
    "winning_ride": {
      "driver": {
        "arrive_until": 2400,
        "direct_cost": 385
      },
      "passengers": [
        {
          "bid": 3158,
          "id": 6,
          "price": 2099,
          "cost": 743,
          "direct_dist": 10528,
          "direct_cost": 316,
          "direct_time": 760
        },
        {
          "bid": 3721,
          "id": 5,
          "price": 3264,
          "cost": 894,
          "direct_dist": 12406,
          "direct_cost": 373,
          "direct_time": 877
        }
      ],
      "cost": 480,
      "virtual_welfare": 5242
    },
    "profit": 4883,
    "cost_profit": 1157.0,
    "welfare": 6399,
    "virtual_welfare": 5242,
    "running_time": 0
  },
  {
    "graph_name": "10_92",
    "n_pass": 2,
    "winning_ride": {
      "driver": {
        "arrive_until": 2400,
        "direct_cost": 460
      },
      "passengers": [
        {
          "bid": 3835,
          "id": 7,
          "price": 1310,
          "cost": 890,
          "direct_dist": 12786,
          "direct_cost": 384,
          "direct_time": 758
        },
        {
          "bid": 4253,
          "id": 1,
          "price": 987,
          "cost": 987,
          "direct_dist": 15563,
          "direct_cost": 467,
          "direct_time": 935
        }
      ],
      "cost": 372,
      "virtual_welfare": 6211
    },
    "profit": 1925,
    "cost_profit": 1505.0,
    "welfare": 7716,
    "virtual_welfare": 6211,
    "running_time": 0
  },
  {
    "graph_name": "10_93",
    "n_pass": 1,
    "winning_ride": {
      "driver": {
        "arrive_until": 2400,
        "direct_cost": 408
      },
      "passengers": [
        {
          "bid": 4538,
          "id": 6,
          "price": 3921,
          "cost": 1050,
          "direct_dist": 15129,
          "direct_cost": 454,
          "direct_time": 1022
        }
      ],
      "cost": 444,
      "virtual_welfare": 3488
    },
    "profit": 3477,
    "cost_profit": 606.0,
    "welfare": 4094,
    "virtual_welfare": 3488,
    "running_time": 0
  },
  {
    "graph_name": "10_94",
    "n_pass": 3,
    "winning_ride": {
      "driver": {
        "arrive_until": 2400,
        "direct_cost": 496
      },
      "passengers": [
        {
          "bid": 1758,
          "id": 3,
          "price": 364,
          "cost": 364,
          "direct_dist": 5862,
          "direct_cost": 176,
          "direct_time": 360
        },
        {
          "bid": 1946,
          "id": 2,
          "price": 588,
          "cost": 588,
          "direct_dist": 6489,
          "direct_cost": 195,
          "direct_time": 394
        },
        {
          "bid": 4580,
          "id": 1,
          "price": 996,
          "cost": 996,
          "direct_dist": 15267,
          "direct_cost": 459,
          "direct_time": 966
        }
      ],
      "cost": 487,
      "virtual_welfare": 6336
    },
    "profit": 1461,
    "cost_profit": 1461.0,
    "welfare": 7797,
    "virtual_welfare": 6336,
    "running_time": 0
  },
  {
    "graph_name": "10_95",
    "n_pass": 2,
    "winning_ride": {
      "driver": {
        "arrive_until": 2400,
        "direct_cost": 450
      },
      "passengers": [
        {
          "bid": 4139,
          "id": 8,
          "price": 2534,
          "cost": 1094,
          "direct_dist": 15916,
          "direct_cost": 478,
          "direct_time": 1048
        },
        {
          "bid": 3576,
          "id": 2,
          "price": 884,
          "cost": 884,
          "direct_dist": 12461,
          "direct_cost": 374,
          "direct_time": 828
        }
      ],
      "cost": 402,
      "virtual_welfare": 5737
    },
    "profit": 3016,
    "cost_profit": 1576.0,
    "welfare": 7313,
    "virtual_welfare": 5737,
    "running_time": 0
  },
  {
    "graph_name": "10_96",
    "n_pass": 1,
    "winning_ride": {
      "driver": {
        "arrive_until": 2400,
        "direct_cost": 437
      },
      "passengers": [
        {
          "bid": 4803,
          "id": 5,
          "price": 3898,
          "cost": 899,
          "direct_dist": 16011,
          "direct_cost": 481,
          "direct_time": 1034
        }
      ],
      "cost": 454,
      "virtual_welfare": 3904
    },
    "profit": 3444,
    "cost_profit": 445.0,
    "welfare": 4349,
    "virtual_welfare": 3904,
    "running_time": 0
  },
  {
    "graph_name": "10_97",
    "n_pass": 1,
    "winning_ride": {
      "driver": {
        "arrive_until": 2400,
        "direct_cost": 548
      },
      "passengers": [
        {
          "bid": 5295,
          "id": 4,
          "price": 4320,
          "cost": 1140,
          "direct_dist": 17652,
          "direct_cost": 530,
          "direct_time": 1162
        }
      ],
      "cost": 393,
      "virtual_welfare": 4155
    },
    "profit": 3927,
    "cost_profit": 747.0,
    "welfare": 4902,
    "virtual_welfare": 4155,
    "running_time": 0
  },
  {
    "graph_name": "10_98",
    "n_pass": 1,
    "winning_ride": {
      "driver": {
        "arrive_until": 2400,
        "direct_cost": 387
      },
      "passengers": [
        {
          "bid": 3113,
          "id": 4,
          "price": 2966,
          "cost": 613,
          "direct_dist": 10379,
          "direct_cost": 312,
          "direct_time": 673
        }
      ],
      "cost": 499,
      "virtual_welfare": 2500
    },
    "profit": 2467,
    "cost_profit": 114.0,
    "welfare": 2614,
    "virtual_welfare": 2500,
    "running_time": 0
  },
  {
    "graph_name": "10_99",
    "n_pass": 2,
    "winning_ride": {
      "driver": {
        "arrive_until": 2400,
        "direct_cost": 584
      },
      "passengers": [
        {
          "bid": 2412,
          "id": 9,
          "price": 1205,
          "cost": 608,
          "direct_dist": 10031,
          "direct_cost": 301,
          "direct_time": 713
        },
        {
          "bid": 1782,
          "id": 2,
          "price": 1358,
          "cost": 761,
          "direct_dist": 7417,
          "direct_cost": 223,
          "direct_time": 504
        }
      ],
      "cost": 229,
      "virtual_welfare": 2825
    },
    "profit": 2334,
    "cost_profit": 1140.0,
    "welfare": 3965,
    "virtual_welfare": 2825,
    "running_time": 0
  }
]