[
  {
    "graph_name": "10_0",
    "n_pass": 2,
    "winning_ride": {
      "driver": {
        "arrive_until": 2400,
        "direct_cost": 457
      },
      "passengers": [
        {
          "bid": 269,
          "id": 5,
          "price": 182,
          "cost": 182,
          "direct_dist": 6066,
          "direct_cost": 182,
          "direct_time": 434
        },
        {
          "bid": 131,
          "id": 3,
          "price": 60,
          "cost": 60,
          "direct_dist": 1988,
          "direct_cost": 60,
          "direct_time": 165
        }
      ],
      "cost": 117,
      "virtual_welfare": 158
    },
    "profit": 125,
    "cost_profit": 125.0,
    "welfare": 283,
    "virtual_welfare": 158,
    "running_time": 0
  },
  {
    "graph_name": "10_1",
    "n_pass": 2,
    "winning_ride": {
      "driver": {
        "arrive_until": 2400,
        "direct_cost": 406
      },
      "passengers": [
        {
          "bid": 2619,
          "id": 8,
          "price": 275,
          "cost": 275,
          "direct_dist": 9141,
          "direct_cost": 275,
          "direct_time": 574
        },
        {
          "bid": 5124,
          "id": 3,
          "price": 513,
          "cost": 513,
          "direct_dist": 17083,
          "direct_cost": 513,
          "direct_time": 1118
        }
      ],
      "cost": 561,
      "virtual_welfare": 6955
    },
    "profit": 227,
    "cost_profit": 227.0,
    "welfare": 7182,
    "virtual_welfare": 6955,
    "running_time": 0
  },
  {
    "graph_name": "10_10",
    "n_pass": 2,
    "winning_ride": {
      "driver": {
        "arrive_until": 2400,
        "direct_cost": 459
      },
      "passengers": [
        {
          "bid": 3655,
          "id": 6,
          "price": 3127,
          "cost": 366,
          "direct_dist": 12186,
          "direct_cost": 366,
          "direct_time": 829
        },
        {
          "bid": 2300,
          "id": 4,
          "price": 1772,
          "cost": 231,
          "direct_dist": 7669,
          "direct_cost": 231,
          "direct_time": 535
        }
      ],
      "cost": 320,
      "virtual_welfare": 5358
    },
    "profit": 4579,
    "cost_profit": 277.0,
    "welfare": 5635,
    "virtual_welfare": 5358,
    "running_time": 0
  },
  {
    "graph_name": "10_11",
    "n_pass": 1,
    "winning_ride": {
      "driver": {
        "arrive_until": 2400,
        "direct_cost": 425
      },
      "passengers": [
        {
          "bid": 4866,
          "id": 3,
          "price": 2013,
          "cost": 487,
          "direct_dist": 16222,
          "direct_cost": 487,
          "direct_time": 1050
        }
      ],
      "cost": 446,
      "virtual_welfare": 4379
    },
    "profit": 1567,
    "cost_profit": 41.0,
    "welfare": 4420,
    "virtual_welfare": 4379,
    "running_time": 0
  },
  {
    "graph_name": "10_12",
    "n_pass": 2,
    "winning_ride": {
      "driver": {
        "arrive_until": 2400,
        "direct_cost": 516
      },
      "passengers": [
        {
          "bid": 3961,
          "id": 2,
          "price": 1221,
          "cost": 397,
          "direct_dist": 13204,
          "direct_cost": 397,
          "direct_time": 874
        },
        {
          "bid": 3252,
          "id": 1,
          "price": 1145,
          "cost": 326,
          "direct_dist": 10841,
          "direct_cost": 326,
          "direct_time": 704
        }
      ],
      "cost": 407,
      "virtual_welfare": 6490
    },
    "profit": 1959,
    "cost_profit": 316.0,
    "welfare": 6806,
    "virtual_welfare": 6490,
    "running_time": 0
  },
  {
    "graph_name": "10_13",
    "n_pass": 2,
    "winning_ride": {
      "driver": {
        "arrive_until": 2400,
        "direct_cost": 486
      },
      "passengers": [
        {
          "bid": 3773,
          "id": 6,
          "price": 378,
          "cost": 378,
          "direct_dist": 12579,
          "direct_cost": 378,
          "direct_time": 785
        },
        {
          "bid": 4807,
          "id": 1,
          "price": 2421,
          "cost": 481,
          "direct_dist": 16024,
          "direct_cost": 481,
          "direct_time": 1053
        }
      ],
      "cost": 494,
      "virtual_welfare": 7721
    },
    "profit": 2305,
    "cost_profit": 365.0,
    "welfare": 8086,
    "virtual_welfare": 7721,
    "running_time": 0
  },
  {
    "graph_name": "10_14",
    "n_pass": 2,
    "winning_ride": {
      "driver": {
        "arrive_until": 2400,
        "direct_cost": 501
      },
      "passengers": [
        {
          "bid": 601,
          "id": 10,
          "price": 255,
          "cost": 255,
          "direct_dist": 8491,
          "direct_cost": 255,
          "direct_time": 547
        },
        {
          "bid": 2437,
          "id": 8,
          "price": 1909,
          "cost": 244,
          "direct_dist": 8126,
          "direct_cost": 244,
          "direct_time": 561
        }
      ],
      "cost": 483,
      "virtual_welfare": 2539
    },
    "profit": 1681,
    "cost_profit": 16.0,
    "welfare": 2555,
    "virtual_welfare": 2539,
    "running_time": 0
  },
  {
    "graph_name": "10_15",
    "n_pass": 2,
    "winning_ride": {
      "driver": {
        "arrive_until": 2400,
        "direct_cost": 485
      },
      "passengers": [
        {
          "bid": 2429,
          "id": 6,
          "price": 1104,
          "cost": 303,
          "direct_dist": 10087,
          "direct_cost": 303,
          "direct_time": 673
        },
        {
          "bid": 3207,
          "id": 3,
          "price": 1122,
          "cost": 321,
          "direct_dist": 10690,
          "direct_cost": 321,
          "direct_time": 736
        }
      ],
      "cost": 415,
      "virtual_welfare": 5012
    },
    "profit": 1811,
    "cost_profit": 209.0,
    "welfare": 5221,
    "virtual_welfare": 5012,
    "running_time": 0
  },
  {
    "graph_name": "10_16",
    "n_pass": 2,
    "winning_ride": {
      "driver": {
        "arrive_until": 2400,
        "direct_cost": 432
      },
      "passengers": [
        {
          "bid": 3381,
          "id": 8,
          "price": 1388,
          "cost": 339,
          "direct_dist": 11272,
          "direct_cost": 339,
          "direct_time": 719
        },
        {
          "bid": 3922,
          "id": 7,
          "price": 393,
          "cost": 393,
          "direct_dist": 13074,
          "direct_cost": 393,
          "direct_time": 884
        }
      ],
      "cost": 287,
      "virtual_welfare": 6571
    },
    "profit": 1494,
    "cost_profit": 445.0,
    "welfare": 7016,
    "virtual_welfare": 6571,
    "running_time": 0
  },
  {
    "graph_name": "10_17",
    "n_pass": 2,
    "winning_ride": {
      "driver": {
        "arrive_until": 2400,
        "direct_cost": 461
      },
      "passengers": [
        {
          "bid": 2214,
          "id": 8,
          "price": 222,
          "cost": 222,
          "direct_dist": 7382,
          "direct_cost": 222,
          "direct_time": 439
        },
        {
          "bid": 2104,
          "id": 2,
          "price": 262,
          "cost": 262,
          "direct_dist": 8720,
          "direct_cost": 262,
          "direct_time": 612
        }
      ],
      "cost": 465,
      "virtual_welfare": 3834
    },
    "profit": 19,
    "cost_profit": 19.0,
    "welfare": 3853,
    "virtual_welfare": 3834,
    "running_time": 0
  },
  {
    "graph_name": "10_18",
    "n_pass": 0,
    "winning_ride": {
      "driver": {
        "arrive_until": 0,
        "direct_cost": 0
      },
      "passengers": [],
      "cost": 0,
      "virtual_welfare": 0
    },
    "profit": 0,
    "cost_profit": 0.0,
    "welfare": 0,
    "virtual_welfare": 0,
    "running_time": 0
  },
  {
    "graph_name": "10_19",
    "n_pass": 2,
    "winning_ride": {
      "driver": {
        "arrive_until": 2400,
        "direct_cost": 418
      },
      "passengers": [
        {
          "bid": 4007,
          "id": 9,
          "price": 588,
          "cost": 401,
          "direct_dist": 13357,
          "direct_cost": 401,
          "direct_time": 780
        },
        {
          "bid": 4176,
          "id": 4,
          "price": 418,
          "cost": 418,
          "direct_dist": 13922,
          "direct_cost": 418,
          "direct_time": 896
        }
      ],
      "cost": 637,
      "virtual_welfare": 7364
    },
    "profit": 369,
    "cost_profit": 182.0,
    "welfare": 7546,
    "virtual_welfare": 7364,
    "running_time": 0
  },
  {
    "graph_name": "10_2",
    "n_pass": 2,
    "winning_ride": {
      "driver": {
        "arrive_until": 2400,
        "direct_cost": 489
      },
      "passengers": [
        {
          "bid": 4226,
          "id": 10,
          "price": 2188,
          "cost": 445,
          "direct_dist": 14828,
          "direct_cost": 445,
          "direct_time": 986
        },
        {
          "bid": 4208,
          "id": 6,
          "price": 2164,
          "cost": 421,
          "direct_dist": 14027,
          "direct_cost": 421,
          "direct_time": 951
        }
      ],
      "cost": 374,
      "virtual_welfare": 7568
    },
    "profit": 3978,
    "cost_profit": 492.0,
    "welfare": 8060,
    "virtual_welfare": 7568,
    "running_time": 0
  },
  {
    "graph_name": "10_20",
    "n_pass": 2,
    "winning_ride": {
      "driver": {
        "arrive_until": 2400,
        "direct_cost": 575
      },
      "passengers": [
        {
          "bid": 4788,
          "id": 3,
          "price": 479,
          "cost": 479,
          "direct_dist": 15960,
          "direct_cost": 479,
          "direct_time": 1086
        },
        {
          "bid": 3167,
          "id": 1,
          "price": 317,
          "cost": 317,
          "direct_dist": 10559,
          "direct_cost": 317,
          "direct_time": 681
        }
      ],
      "cost": 207,
      "virtual_welfare": 7159
    },
    "profit": 589,
    "cost_profit": 589.0,
    "welfare": 7748,
    "virtual_welfare": 7159,
    "running_time": 0
  },
  {
    "graph_name": "10_21",
    "n_pass": 2,
    "winning_ride": {
      "driver": {
        "arrive_until": 2400,
        "direct_cost": 423
      },
      "passengers": [
        {
          "bid": 3373,
          "id": 5,
          "price": 2590,
          "cost": 338,
          "direct_dist": 11245,
          "direct_cost": 338,
          "direct_time": 768
        },
        {
          "bid": 3429,
          "id": 3,
          "price": 2646,
          "cost": 343,
          "direct_dist": 11431,
          "direct_cost": 343,
          "direct_time": 775
        }
      ],
      "cost": 561,
      "virtual_welfare": 6121
    },
    "profit": 4675,
    "cost_profit": 120.0,
    "welfare": 6241,
    "virtual_welfare": 6121,
    "running_time": 0
  },
  {
    "graph_name": "10_22",
    "n_pass": 2,
    "winning_ride": {
      "driver": {
        "arrive_until": 2400,
        "direct_cost": 538
      },
      "passengers": [
        {
          "bid": 3830,
          "id": 5,
          "price": 1557,
          "cost": 402,
          "direct_dist": 13389,
          "direct_cost": 402,
          "direct_time": 804
        },
        {
          "bid": 3415,
          "id": 4,
          "price": 2151,
          "cost": 342,
          "direct_dist": 11385,
          "direct_cost": 342,
          "direct_time": 765
        }
      ],
      "cost": 336,
      "virtual_welfare": 6501
    },
    "profit": 3372,
    "cost_profit": 408.0,
    "welfare": 6909,
    "virtual_welfare": 6501,
    "running_time": 0
  },
  {
    "graph_name": "10_23",
    "n_pass": 2,
    "winning_ride": {
      "driver": {
        "arrive_until": 2400,
        "direct_cost": 424
      },
      "passengers": [
        {
          "bid": 2917,
          "id": 10,
          "price": 896,
          "cost": 357,
          "direct_dist": 11894,
          "direct_cost": 357,
          "direct_time": 889
        },
        {
          "bid": 3236,
          "id": 8,
          "price": 1233,
          "cost": 324,
          "direct_dist": 10789,
          "direct_cost": 324,
          "direct_time": 875
        }
      ],
      "cost": 426,
      "virtual_welfare": 5472
    },
    "profit": 1703,
    "cost_profit": 255.0,
    "welfare": 5727,
    "virtual_welfare": 5472,
    "running_time": 0
  },
  {
    "graph_name": "10_24",
    "n_pass": 2,
    "winning_ride": {
      "driver": {
        "arrive_until": 2400,
        "direct_cost": 475
      },
      "passengers": [
        {
          "bid": 3861,
          "id": 9,
          "price": 2143,
          "cost": 387,
          "direct_dist": 12872,
          "direct_cost": 387,
          "direct_time": 1029
        },
        {
          "bid": 1425,
          "id": 1,
          "price": 1039,
          "cost": 143,
          "direct_dist": 4753,
          "direct_cost": 143,
          "direct_time": 328
        }
      ],
      "cost": 462,
      "virtual_welfare": 4756
    },
    "profit": 2720,
    "cost_profit": 68.0,
    "welfare": 4824,
    "virtual_welfare": 4756,
    "running_time": 0
  },
  {
    "graph_name": "10_25",
    "n_pass": 2,
    "winning_ride": {
      "driver": {
        "arrive_until": 2400,
        "direct_cost": 529
      },
      "passengers": [
        {
          "bid": 3899,
          "id": 5,
          "price": 3539,
          "cost": 390,
          "direct_dist": 12998,
          "direct_cost": 390,
          "direct_time": 864
        },
        {
          "bid": 449,
          "id": 4,
          "price": 89,
          "cost": 74,
          "direct_dist": 2464,
          "direct_cost": 74,
          "direct_time": 252
        }
      ],
      "cost": 366,
      "virtual_welfare": 3884
    },
    "profit": 3262,
    "cost_profit": 98.0,
    "welfare": 3982,
    "virtual_welfare": 3884,
    "running_time": 0
  },
  {
    "graph_name": "10_26",
    "n_pass": 2,
    "winning_ride": {
      "driver": {
        "arrive_until": 2400,
        "direct_cost": 402
      },
      "passengers": [
        {
          "bid": 4044,
          "id": 5,
          "price": 3382,
          "cost": 405,
          "direct_dist": 13483,
          "direct_cost": 405,
          "direct_time": 849
        },
        {
          "bid": 2504,
          "id": 2,
          "price": 1842,
          "cost": 251,
          "direct_dist": 8347,
          "direct_cost": 251,
          "direct_time": 579
        }
      ],
      "cost": 474,
      "virtual_welfare": 5892
    },
    "profit": 4750,
    "cost_profit": 182.0,
    "welfare": 6074,
    "virtual_welfare": 5892,
    "running_time": 0
  },
  {
    "graph_name": "10_27",
    "n_pass": 2,
    "winning_ride": {
      "driver": {
        "arrive_until": 2400,
        "direct_cost": 475
      },
      "passengers": [
        {
          "bid": 3581,
          "id": 10,
          "price": 2420,
          "cost": 359,
          "direct_dist": 11939,
          "direct_cost": 359,
          "direct_time": 745
        },
        {
          "bid": 4003,
          "id": 7,
          "price": 2506,
          "cost": 401,
          "direct_dist": 13344,
          "direct_cost": 401,
          "direct_time": 926
        }
      ],
      "cost": 345,
      "virtual_welfare": 6824
    },
    "profit": 4581,
    "cost_profit": 415.0,
    "welfare": 7239,
    "virtual_welfare": 6824,
    "running_time": 0
  },
  {
    "graph_name": "10_28",
    "n_pass": 2,
    "winning_ride": {
      "driver": {
        "arrive_until": 2400,
        "direct_cost": 410
      },
      "passengers": [
        {
          "bid": 800,
          "id": 4,
          "price": 100,
          "cost": 100,
          "direct_dist": 3310,
          "direct_cost": 100,
          "direct_time": 218
        },
        {
          "bid": 1702,
          "id": 3,
          "price": 251,
          "cost": 251,
          "direct_dist": 8334,
          "direct_cost": 251,
          "direct_time": 558
        }
      ],
      "cost": 338,
      "virtual_welfare": 2151
    },
    "profit": 13,
    "cost_profit": 13.0,
    "welfare": 2164,
    "virtual_welfare": 2151,
    "running_time": 0
  },
  {
    "graph_name": "10_29",
    "n_pass": 2,
    "winning_ride": {
      "driver": {
        "arrive_until": 2400,
        "direct_cost": 495
      },
      "passengers": [
        {
          "bid": 3490,
          "id": 3,
          "price": 350,
          "cost": 350,
          "direct_dist": 11650,
          "direct_cost": 350,
          "direct_time": 777
        },
        {
          "bid": 241,
          "id": 2,
          "price": 134,
          "cost": 134,
          "direct_dist": 4453,
          "direct_cost": 134,
          "direct_time": 277
        }
      ],
      "cost": 402,
      "virtual_welfare": 3247
    },
    "profit": 82,
    "cost_profit": 82.0,
    "welfare": 3329,
    "virtual_welfare": 3247,
    "running_time": 0
  },
  {
    "graph_name": "10_3",
    "n_pass": 2,
    "winning_ride": {
      "driver": {
        "arrive_until": 2400,
        "direct_cost": 456
      },
      "passengers": [
        {
          "bid": 2742,
          "id": 10,
          "price": 2694,
          "cost": 275,
          "direct_dist": 9140,
          "direct_cost": 275,
          "direct_time": 597
        },
        {
          "bid": 5647,
          "id": 8,
          "price": 2984,
          "cost": 565,
          "direct_dist": 18824,
          "direct_cost": 565,
          "direct_time": 1292
        }
      ],
      "cost": 406,
      "virtual_welfare": 7549
    },
    "profit": 5272,
    "cost_profit": 434.0,
    "welfare": 7983,
    "virtual_welfare": 7549,
    "running_time": 0
  },
  {
    "graph_name": "10_30",
    "n_pass": 1,
    "winning_ride": {
      "driver": {
        "arrive_until": 2400,
        "direct_cost": 422
      },
      "passengers": [
        {
          "bid": 2365,
          "id": 7,
          "price": 1412,
          "cost": 237,
          "direct_dist": 7886,
          "direct_cost": 237,
          "direct_time": 522
        }
      ],
      "cost": 221,
      "virtual_welfare": 2128
    },
    "profit": 1191,
    "cost_profit": 16.0,
    "welfare": 2144,
    "virtual_welfare": 2128,
    "running_time": 0
  },
  {
    "graph_name": "10_31",
    "n_pass": 2,
    "winning_ride": {
      "driver": {
        "arrive_until": 2400,
        "direct_cost": 391
      },
      "passengers": [
        {
          "bid": 3444,
          "id": 4,
          "price": 345,
          "cost": 345,
          "direct_dist": 11483,
          "direct_cost": 345,
          "direct_time": 741
        },
        {
          "bid": 3489,
          "id": 3,
          "price": 349,
          "cost": 349,
          "direct_dist": 11632,
          "direct_cost": 349,
          "direct_time": 797
        }
      ],
      "cost": 521,
      "virtual_welfare": 6239
    },
    "profit": 173,
    "cost_profit": 173.0,
    "welfare": 6412,
    "virtual_welfare": 6239,
    "running_time": 0
  },
  {
    "graph_name": "10_32",
    "n_pass": 1,
    "winning_ride": {
      "driver": {
        "arrive_until": 2400,
        "direct_cost": 469
      },
      "passengers": [
        {
          "bid": 3199,
          "id": 4,
          "price": 2172,
          "cost": 320,
          "direct_dist": 10665,
          "direct_cost": 320,
          "direct_time": 679
        }
      ],
      "cost": 188,
      "virtual_welfare": 2879
    },
    "profit": 1984,
    "cost_profit": 132.0,
    "welfare": 3011,
    "virtual_welfare": 2879,
    "running_time": 0
  },
  {
    "graph_name": "10_33",
    "n_pass": 1,
    "winning_ride": {
      "driver": {
        "arrive_until": 2400,
        "direct_cost": 491
      },
      "passengers": [
        {
          "bid": 3524,
          "id": 5,
          "price": 449,
          "cost": 449,
          "direct_dist": 14944,
          "direct_cost": 449,
          "direct_time": 960
        }
      ],
      "cost": 418,
      "virtual_welfare": 3075
    },
    "profit": 31,
    "cost_profit": 31.0,
    "welfare": 3106,
    "virtual_welfare": 3075,
    "running_time": 0
  },
  {
    "graph_name": "10_34",
    "n_pass": 2,
    "winning_ride": {
      "driver": {
        "arrive_until": 2400,
        "direct_cost": 545
      },
      "passengers": [
        {
          "bid": 3667,
          "id": 6,
          "price": 2473,
          "cost": 367,
          "direct_dist": 12224,
          "direct_cost": 367,
          "direct_time": 772
        },
        {
          "bid": 4366,
          "id": 5,
          "price": 2543,
          "cost": 437,
          "direct_dist": 14556,
          "direct_cost": 437,
          "direct_time": 925
        }
      ],
      "cost": 328,
      "virtual_welfare": 7229
    },
    "profit": 4688,
    "cost_profit": 476.0,
    "welfare": 7705,
    "virtual_welfare": 7229,
    "running_time": 0
  },
  {
    "graph_name": "10_35",
    "n_pass": 0,
    "winning_ride": {
      "driver": {
        "arrive_until": 0,
        "direct_cost": 0
      },
      "passengers": [],
      "cost": 0,
      "virtual_welfare": 0
    },
    "profit": 0,
    "cost_profit": 0.0,
    "welfare": 0,
    "virtual_welfare": 0,
    "running_time": 0
  },
  {
    "graph_name": "10_36",
    "n_pass": 1,
    "winning_ride": {
      "driver": {
        "arrive_until": 2400,
        "direct_cost": 555
      },
      "passengers": [
        {
          "bid": 3912,
          "id": 10,
          "price": 1888,
          "cost": 392,
          "direct_dist": 13041,
          "direct_cost": 392,
          "direct_time": 903
        }
      ],
      "cost": 249,
      "virtual_welfare": 3520
    },
    "profit": 1639,
    "cost_profit": 143.0,
    "welfare": 3663,
    "virtual_welfare": 3520,
    "running_time": 0
  },
  {
    "graph_name": "10_37",
    "n_pass": 2,
    "winning_ride": {
      "driver": {
        "arrive_until": 2400,
        "direct_cost": 406
      },
      "passengers": [
        {
          "bid": 1147,
          "id": 9,
          "price": 362,
          "cost": 362,
          "direct_dist": 12059,
          "direct_cost": 362,
          "direct_time": 717
        },
        {
          "bid": 3416,
          "id": 5,
          "price": 1074,
          "cost": 342,
          "direct_dist": 11389,
          "direct_cost": 342,
          "direct_time": 728
        }
      ],
      "cost": 524,
      "virtual_welfare": 3859
    },
    "profit": 912,
    "cost_profit": 180.0,
    "welfare": 4039,
    "virtual_welfare": 3859,
    "running_time": 0
  },
  {
    "graph_name": "10_38",
    "n_pass": 2,
    "winning_ride": {
      "driver": {
        "arrive_until": 2400,
        "direct_cost": 448
      },
      "passengers": [
        {
          "bid": 4405,
          "id": 5,
          "price": 2374,
          "cost": 441,
          "direct_dist": 14685,
          "direct_cost": 441,
          "direct_time": 982
        },
        {
          "bid": 2034,
          "id": 4,
          "price": 204,
          "cost": 204,
          "direct_dist": 6780,
          "direct_cost": 204,
          "direct_time": 561
        }
      ],
      "cost": 429,
      "virtual_welfare": 5794
    },
    "profit": 2149,
    "cost_profit": 216.0,
    "welfare": 6010,
    "virtual_welfare": 5794,
    "running_time": 0
  },
  {
    "graph_name": "10_39",
    "n_pass": 0,
    "winning_ride": {
      "driver": {
        "arrive_until": 0,
        "direct_cost": 0
      },
      "passengers": [],
      "cost": 0,
      "virtual_welfare": 0
    },
    "profit": 0,
    "cost_profit": 0.0,
    "welfare": 0,
    "virtual_welfare": 0,
    "running_time": 0
  },
  {
    "graph_name": "10_4",
    "n_pass": 2,
    "winning_ride": {
      "driver": {
        "arrive_until": 2400,
        "direct_cost": 431
      },
      "passengers": [
        {
          "bid": 4895,
          "id": 8,
          "price": 1802,
          "cost": 490,
          "direct_dist": 16318,
          "direct_cost": 490,
          "direct_time": 1047
        },
        {
          "bid": 3056,
          "id": 2,
          "price": 306,
          "cost": 306,
          "direct_dist": 10189,
          "direct_cost": 306,
          "direct_time": 668
        }
      ],
      "cost": 600,
      "virtual_welfare": 7155
    },
    "profit": 1508,
    "cost_profit": 196.0,
    "welfare": 7351,
    "virtual_welfare": 7155,
    "running_time": 0
  },
  {
    "graph_name": "10_40",
    "n_pass": 0,
    "winning_ride": {
      "driver": {
        "arrive_until": 0,
        "direct_cost": 0
      },
      "passengers": [],
      "cost": 0,
      "virtual_welfare": 0
    },
    "profit": 0,
    "cost_profit": 0.0,
    "welfare": 0,
    "virtual_welfare": 0,
    "running_time": 0
  },
  {
    "graph_name": "10_41",
    "n_pass": 2,
    "winning_ride": {
      "driver": {
        "arrive_until": 2400,
        "direct_cost": 504
      },
      "passengers": [
        {
          "bid": 5446,
          "id": 7,
          "price": 3364,
          "cost": 545,
          "direct_dist": 18155,
          "direct_cost": 545,
          "direct_time": 1220
        },
        {
          "bid": 331,
          "id": 1,
          "price": 82,
          "cost": 82,
          "direct_dist": 2711,
          "direct_cost": 82,
          "direct_time": 285
        }
      ],
      "cost": 476,
      "virtual_welfare": 5150
    },
    "profit": 2970,
    "cost_profit": 151.0,
    "welfare": 5301,
    "virtual_welfare": 5150,
    "running_time": 0
  },
  {
    "graph_name": "10_42",
    "n_pass": 2,
    "winning_ride": {
      "driver": {
        "arrive_until": 2400,
        "direct_cost": 457
      },
      "passengers": [
        {
          "bid": 1739,
          "id": 2,
          "price": 1515,
          "cost": 174,
          "direct_dist": 5797,
          "direct_cost": 174,
          "direct_time": 433
        },
        {
          "bid": 1020,
          "id": 1,
          "price": 796,
          "cost": 478,
          "direct_dist": 15913,
          "direct_cost": 478,
          "direct_time": 1041
        }
      ],
      "cost": 382,
      "virtual_welfare": 2107
    },
    "profit": 1929,
    "cost_profit": 270.0,
    "welfare": 2377,
    "virtual_welfare": 2107,
    "running_time": 0
  },
  {
    "graph_name": "10_43",
    "n_pass": 3,
    "winning_ride": {
      "driver": {
        "arrive_until": 2400,
        "direct_cost": 439
      },
      "passengers": [
        {
          "bid": 2805,
          "id": 9,
          "price": 2145,
          "cost": 281,
          "direct_dist": 9350,
          "direct_cost": 281,
          "direct_time": 673
        },
        {
          "bid": 561,
          "id": 8,
          "price": 57,
          "cost": 57,
          "direct_dist": 1872,
          "direct_cost": 57,
          "direct_time": 146
        },
        {
          "bid": 3475,
          "id": 4,
          "price": 2212,
          "cost": 348,
          "direct_dist": 11586,
          "direct_cost": 348,
          "direct_time": 841
        }
      ],
      "cost": 318,
      "virtual_welfare": 6155
    },
    "profit": 4096,
    "cost_profit": 368.0,
    "welfare": 6523,
    "virtual_welfare": 6155,
    "running_time": 0
  },
  {
    "graph_name": "10_44",
    "n_pass": 2,
    "winning_ride": {
      "driver": {
        "arrive_until": 2400,
        "direct_cost": 433
      },
      "passengers": [
        {
          "bid": 4307,
          "id": 7,
          "price": 3064,
          "cost": 431,
          "direct_dist": 14359,
          "direct_cost": 431,
          "direct_time": 924
        },
        {
          "bid": 3654,
          "id": 4,
          "price": 3030,
          "cost": 397,
          "direct_dist": 13208,
          "direct_cost": 397,
          "direct_time": 966
        }
      ],
      "cost": 419,
      "virtual_welfare": 7133
    },
    "profit": 5675,
    "cost_profit": 409.0,
    "welfare": 7542,
    "virtual_welfare": 7133,
    "running_time": 0
  },
  {
    "graph_name": "10_45",
    "n_pass": 1,
    "winning_ride": {
      "driver": {
        "arrive_until": 2400,
        "direct_cost": 428
      },
      "passengers": [
        {
          "bid": 2114,
          "id": 8,
          "price": 212,
          "cost": 212,
          "direct_dist": 7047,
          "direct_cost": 212,
          "direct_time": 495
        }
      ],
      "cost": 207,
      "virtual_welfare": 1902
    },
    "profit": 5,
    "cost_profit": 5.0,
    "welfare": 1907,
    "virtual_welfare": 1902,
    "running_time": 0
  },
  {
    "graph_name": "10_46",
    "n_pass": 2,
    "winning_ride": {
      "driver": {
        "arrive_until": 2400,
        "direct_cost": 502
      },
      "passengers": [
        {
          "bid": 4797,
          "id": 6,
          "price": 2920,
          "cost": 480,
          "direct_dist": 15993,
          "direct_cost": 480,
          "direct_time": 1102
        },
        {
          "bid": 3510,
          "id": 4,
          "price": 2792,
          "cost": 352,
          "direct_dist": 11702,
          "direct_cost": 352,
          "direct_time": 752
        }
      ],
      "cost": 478,
      "virtual_welfare": 7475
    },
    "profit": 5234,
    "cost_profit": 354.0,
    "welfare": 7829,
    "virtual_welfare": 7475,
    "running_time": 0
  },
  {
    "graph_name": "10_47",
    "n_pass": 1,
    "winning_ride": {
      "driver": {
        "arrive_until": 2400,
        "direct_cost": 476
      },
      "passengers": [
        {
          "bid": 5532,
          "id": 7,
          "price": 2614,
          "cost": 554,
          "direct_dist": 18441,
          "direct_cost": 554,
          "direct_time": 1211
        }
      ],
      "cost": 396,
      "virtual_welfare": 4978
    },
    "profit": 2218,
    "cost_profit": 158.0,
    "welfare": 5136,
    "virtual_welfare": 4978,
    "running_time": 0
  },
  {
    "graph_name": "10_48",
    "n_pass": 0,
    "winning_ride": {
      "driver": {
        "arrive_until": 0,
        "direct_cost": 0
      },
      "passengers": [],
      "cost": 0,
      "virtual_welfare": 0
    },
    "profit": 0,
    "cost_profit": 0.0,
    "welfare": 0,
    "virtual_welfare": 0,
    "running_time": 0
  },
  {
    "graph_name": "10_49",
    "n_pass": 2,
    "winning_ride": {
      "driver": {
        "arrive_until": 2400,
        "direct_cost": 416
      },
      "passengers": [
        {
          "bid": 1767,
          "id": 7,
          "price": 294,
          "cost": 294,
          "direct_dist": 9780,
          "direct_cost": 294,
          "direct_time": 665
        },
        {
          "bid": 5230,
          "id": 5,
          "price": 2670,
          "cost": 524,
          "direct_dist": 17434,
          "direct_cost": 524,
          "direct_time": 1183
        }
      ],
      "cost": 568,
      "virtual_welfare": 6179
    },
    "profit": 2396,
    "cost_profit": 250.0,
    "welfare": 6429,
    "virtual_welfare": 6179,
    "running_time": 0
  },
  {
    "graph_name": "10_5",
    "n_pass": 2,
    "winning_ride": {
      "driver": {
        "arrive_until": 2400,
        "direct_cost": 476
      },
      "passengers": [
        {
          "bid": 4501,
          "id": 10,
          "price": 3122,
          "cost": 456,
          "direct_dist": 15169,
          "direct_cost": 456,
          "direct_time": 1003
        },
        {
          "bid": 4267,
          "id": 5,
          "price": 2121,
          "cost": 427,
          "direct_dist": 14224,
          "direct_cost": 427,
          "direct_time": 962
        }
      ],
      "cost": 563,
      "virtual_welfare": 7885
    },
    "profit": 4680,
    "cost_profit": 320.0,
    "welfare": 8205,
    "virtual_welfare": 7885,
    "running_time": 0
  },
  {
    "graph_name": "10_50",
    "n_pass": 2,
    "winning_ride": {
      "driver": {
        "arrive_until": 2400,
        "direct_cost": 529
      },
      "passengers": [
        {
          "bid": 3156,
          "id": 8,
          "price": 1207,
          "cost": 316,
          "direct_dist": 10522,
          "direct_cost": 316,
          "direct_time": 749
        },
        {
          "bid": 1107,
          "id": 1,
          "price": 111,
          "cost": 111,
          "direct_dist": 3692,
          "direct_cost": 111,
          "direct_time": 225
        }
      ],
      "cost": 211,
      "virtual_welfare": 3836
    },
    "profit": 1107,
    "cost_profit": 216.0,
    "welfare": 4052,
    "virtual_welfare": 3836,
    "running_time": 0
  },
  {
    "graph_name": "10_51",
    "n_pass": 2,
    "winning_ride": {
      "driver": {
        "arrive_until": 2400,
        "direct_cost": 473
      },
      "passengers": [
        {
          "bid": 549,
          "id": 5,
          "price": 120,
          "cost": 120,
          "direct_dist": 3984,
          "direct_cost": 120,
          "direct_time": 270
        },
        {
          "bid": 2572,
          "id": 3,
          "price": 604,
          "cost": 258,
          "direct_dist": 8576,
          "direct_cost": 258,
          "direct_time": 621
        }
      ],
      "cost": 257,
      "virtual_welfare": 2743
    },
    "profit": 467,
    "cost_profit": 121.0,
    "welfare": 2864,
    "virtual_welfare": 2743,
    "running_time": 0
  },
  {
    "graph_name": "10_52",
    "n_pass": 2,
    "winning_ride": {
      "driver": {
        "arrive_until": 2400,
        "direct_cost": 466
      },
      "passengers": [
        {
          "bid": 2472,
          "id": 9,
          "price": 463,
          "cost": 248,
          "direct_dist": 8242,
          "direct_cost": 248,
          "direct_time": 591
        },
        {
          "bid": 5347,
          "id": 4,
          "price": 959,
          "cost": 535,
          "direct_dist": 17824,
          "direct_cost": 535,
          "direct_time": 1157
        }
      ],
      "cost": 526,
      "virtual_welfare": 7036
    },
    "profit": 896,
    "cost_profit": 257.0,
    "welfare": 7293,
    "virtual_welfare": 7036,
    "running_time": 0
  },
  {
    "graph_name": "10_53",
    "n_pass": 2,
    "winning_ride": {
      "driver": {
        "arrive_until": 2400,
        "direct_cost": 509
      },
      "passengers": [
        {
          "bid": 1702,
          "id": 7,
          "price": 1637,
          "cost": 179,
          "direct_dist": 5958,
          "direct_cost": 179,
          "direct_time": 459
        },
        {
          "bid": 1762,
          "id": 6,
          "price": 1740,
          "cost": 282,
          "direct_dist": 9371,
          "direct_cost": 282,
          "direct_time": 652
        }
      ],
      "cost": 344,
      "virtual_welfare": 3003
    },
    "profit": 3033,
    "cost_profit": 117.0,
    "welfare": 3120,
    "virtual_welfare": 3003,
    "running_time": 0
  },
  {
    "graph_name": "10_54",
    "n_pass": 1,
    "winning_ride": {
      "driver": {
        "arrive_until": 2400,
        "direct_cost": 443
      },
      "passengers": [
        {
          "bid": 3960,
          "id": 3,
          "price": 1104,
          "cost": 397,
          "direct_dist": 13201,
          "direct_cost": 397,
          "direct_time": 939
        }
      ],
      "cost": 340,
      "virtual_welfare": 3563
    },
    "profit": 764,
    "cost_profit": 57.0,
    "welfare": 3620,
    "virtual_welfare": 3563,
    "running_time": 0
  },
  {
    "graph_name": "10_55",
    "n_pass": 2,
    "winning_ride": {
      "driver": {
        "arrive_until": 2400,
        "direct_cost": 447
      },
      "passengers": [
        {
          "bid": 3443,
          "id": 7,
          "price": 1856,
          "cost": 345,
          "direct_dist": 11477,
          "direct_cost": 345,
          "direct_time": 757
        },
        {
          "bid": 3462,
          "id": 1,
          "price": 1858,
          "cost": 347,
          "direct_dist": 11541,
          "direct_cost": 347,
          "direct_time": 831
        }
      ],
      "cost": 371,
      "virtual_welfare": 6213
    },
    "profit": 3343,
    "cost_profit": 321.0,
    "welfare": 6534,
    "virtual_welfare": 6213,
    "running_time": 0
  },
  {
    "graph_name": "10_56",
    "n_pass": 2,
    "winning_ride": {
      "driver": {
        "arrive_until": 2400,
        "direct_cost": 432
      },
      "passengers": [
        {
          "bid": 3186,
          "id": 5,
          "price": 341,
          "cost": 341,
          "direct_dist": 11334,
          "direct_cost": 341,
          "direct_time": 742
        },
        {
          "bid": 1959,
          "id": 1,
          "price": 894,
          "cost": 196,
          "direct_dist": 6532,
          "direct_cost": 196,
          "direct_time": 531
        }
      ],
      "cost": 416,
      "virtual_welfare": 4608
    },
    "profit": 819,
    "cost_profit": 121.0,
    "welfare": 4729,
    "virtual_welfare": 4608,
    "running_time": 0
  },
  {
    "graph_name": "10_57",
    "n_pass": 1,
    "winning_ride": {
      "driver": {
        "arrive_until": 2400,
        "direct_cost": 578
      },
      "passengers": [
        {
          "bid": 1778,
          "id": 8,
          "price": 1392,
          "cost": 178,
          "direct_dist": 5928,
          "direct_cost": 178,
          "direct_time": 420
        }
      ],
      "cost": 66,
      "virtual_welfare": 1600
    },
    "profit": 1326,
    "cost_profit": 112.0,
    "welfare": 1712,
    "virtual_welfare": 1600,
    "running_time": 0
  },
  {
    "graph_name": "10_58",
    "n_pass": 2,
    "winning_ride": {
      "driver": {
        "arrive_until": 2400,
        "direct_cost": 413
      },
      "passengers": [
        {
          "bid": 3958,
          "id": 8,
          "price": 1148,
          "cost": 396,
          "direct_dist": 13196,
          "direct_cost": 396,
          "direct_time": 967
        },
        {
          "bid": 3519,
          "id": 2,
          "price": 1104,
          "cost": 352,
          "direct_dist": 11731,
          "direct_cost": 352,
          "direct_time": 826
        }
      ],
      "cost": 466,
      "virtual_welfare": 6729
    },
    "profit": 1786,
    "cost_profit": 282.0,
    "welfare": 7011,
    "virtual_welfare": 6729,
    "running_time": 0
  },
  {
    "graph_name": "10_59",
    "n_pass": 2,
    "winning_ride": {
      "driver": {
        "arrive_until": 2400,
        "direct_cost": 500
      },
      "passengers": [
        {
          "bid": 5692,
          "id": 8,
          "price": 2469,
          "cost": 570,
          "direct_dist": 18976,
          "direct_cost": 570,
          "direct_time": 1256
        },
        {
          "bid": 2647,
          "id": 7,
          "price": 2227,
          "cost": 328,
          "direct_dist": 10908,
          "direct_cost": 328,
          "direct_time": 667
        }
      ],
      "cost": 344,
      "virtual_welfare": 7441
    },
    "profit": 4352,
    "cost_profit": 554.0,
    "welfare": 7995,
    "virtual_welfare": 7441,
    "running_time": 0
  },
  {
    "graph_name": "10_6",
    "n_pass": 3,
    "winning_ride": {
      "driver": {
        "arrive_until": 2400,
        "direct_cost": 418
      },
      "passengers": [
        {
          "bid": 717,
          "id": 9,
          "price": 121,
          "cost": 121,
          "direct_dist": 4032,
          "direct_cost": 121,
          "direct_time": 264
        },
        {
          "bid": 4257,
          "id": 4,
          "price": 1281,
          "cost": 426,
          "direct_dist": 14191,
          "direct_cost": 426,
          "direct_time": 878
        },
        {
          "bid": 263,
          "id": 1,
          "price": 45,
          "cost": 45,
          "direct_dist": 1490,
          "direct_cost": 45,
          "direct_time": 87
        }
      ],
      "cost": 574,
      "virtual_welfare": 4645
    },
    "profit": 873,
    "cost_profit": 18.0,
    "welfare": 4663,
    "virtual_welfare": 4645,
    "running_time": 0
  },
  {
    "graph_name": "10_60",
    "n_pass": 2,
    "winning_ride": {
      "driver": {
        "arrive_until": 2400,
        "direct_cost": 583
      },
      "passengers": [
        {
          "bid": 4734,
          "id": 7,
          "price": 2969,
          "cost": 474,
          "direct_dist": 15780,
          "direct_cost": 474,
          "direct_time": 1034
        },
        {
          "bid": 3159,
          "id": 3,
          "price": 1683,
          "cost": 316,
          "direct_dist": 10533,
          "direct_cost": 316,
          "direct_time": 708
        }
      ],
      "cost": 245,
      "virtual_welfare": 7103
    },
    "profit": 4407,
    "cost_profit": 545.0,
    "welfare": 7648,
    "virtual_welfare": 7103,
    "running_time": 0
  },
  {
    "graph_name": "10_61",
    "n_pass": 2,
    "winning_ride": {
      "driver": {
        "arrive_until": 2400,
        "direct_cost": 469
      },
      "passengers": [
        {
          "bid": 1528,
          "id": 9,
          "price": 1478,
          "cost": 153,
          "direct_dist": 5095,
          "direct_cost": 153,
          "direct_time": 404
        },
        {
          "bid": 3056,
          "id": 1,
          "price": 306,
          "cost": 306,
          "direct_dist": 10187,
          "direct_cost": 306,
          "direct_time": 681
        }
      ],
      "cost": 382,
      "virtual_welfare": 4125
    },
    "profit": 1402,
    "cost_profit": 77.0,
    "welfare": 4202,
    "virtual_welfare": 4125,
    "running_time": 0
  },
  {
    "graph_name": "10_62",
    "n_pass": 2,
    "winning_ride": {
      "driver": {
        "arrive_until": 2400,
        "direct_cost": 529
      },
      "passengers": [
        {
          "bid": 1533,
          "id": 10,
          "price": 988,
          "cost": 154,
          "direct_dist": 5113,
          "direct_cost": 154,
          "direct_time": 370
        },
        {
          "bid": 1309,
          "id": 5,
          "price": 764,
          "cost": 471,
          "direct_dist": 15697,
          "direct_cost": 471,
          "direct_time": 1068
        }
      ],
      "cost": 302,
      "virtual_welfare": 2217
    },
    "profit": 1450,
    "cost_profit": 323.0,
    "welfare": 2540,
    "virtual_welfare": 2217,
    "running_time": 0
  },
  {
    "graph_name": "10_63",
    "n_pass": 2,
    "winning_ride": {
      "driver": {
        "arrive_until": 2400,
        "direct_cost": 564
      },
      "passengers": [
        {
          "bid": 1680,
          "id": 8,
          "price": 884,
          "cost": 169,
          "direct_dist": 5603,
          "direct_cost": 169,
          "direct_time": 304
        },
        {
          "bid": 3131,
          "id": 1,
          "price": 314,
          "cost": 314,
          "direct_dist": 10439,
          "direct_cost": 314,
          "direct_time": 699
        }
      ],
      "cost": 327,
      "virtual_welfare": 4328
    },
    "profit": 871,
    "cost_profit": 156.0,
    "welfare": 4484,
    "virtual_welfare": 4328,
    "running_time": 0
  },
  {
    "graph_name": "10_64",
    "n_pass": 2,
    "winning_ride": {
      "driver": {
        "arrive_until": 2400,
        "direct_cost": 415
      },
      "passengers": [
        {
          "bid": 3581,
          "id": 6,
          "price": 1383,
          "cost": 359,
          "direct_dist": 11938,
          "direct_cost": 359,
          "direct_time": 803
        },
        {
          "bid": 1161,
          "id": 5,
          "price": 498,
          "cost": 498,
          "direct_dist": 16586,
          "direct_cost": 498,
          "direct_time": 1105
        }
      ],
      "cost": 433,
      "virtual_welfare": 3885
    },
    "profit": 1448,
    "cost_profit": 424.0,
    "welfare": 4309,
    "virtual_welfare": 3885,
    "running_time": 0
  },
  {
    "graph_name": "10_65",
    "n_pass": 2,
    "winning_ride": {
      "driver": {
        "arrive_until": 2400,
        "direct_cost": 457
      },
      "passengers": [
        {
          "bid": 2371,
          "id": 8,
          "price": 341,
          "cost": 341,
          "direct_dist": 11347,
          "direct_cost": 341,
          "direct_time": 709
        },
        {
          "bid": 1277,
          "id": 7,
          "price": 147,
          "cost": 147,
          "direct_dist": 4883,
          "direct_cost": 147,
          "direct_time": 424
        }
      ],
      "cost": 424,
      "virtual_welfare": 3160
    },
    "profit": 64,
    "cost_profit": 64.0,
    "welfare": 3224,
    "virtual_welfare": 3160,
    "running_time": 0
  },
  {
    "graph_name": "10_66",
    "n_pass": 2,
    "winning_ride": {
      "driver": {
        "arrive_until": 2400,
        "direct_cost": 453
      },
      "passengers": [
        {
          "bid": 3903,
          "id": 8,
          "price": 3810,
          "cost": 391,
          "direct_dist": 13010,
          "direct_cost": 391,
          "direct_time": 825
        },
        {
          "bid": 3848,
          "id": 4,
          "price": 3804,
          "cost": 385,
          "direct_dist": 12829,
          "direct_cost": 385,
          "direct_time": 808
        }
      ],
      "cost": 385,
      "virtual_welfare": 6975
    },
    "profit": 7229,
    "cost_profit": 391.0,
    "welfare": 7366,
    "virtual_welfare": 6975,
    "running_time": 0
  },
  {
    "graph_name": "10_67",
    "n_pass": 2,
    "winning_ride": {
      "driver": {
        "arrive_until": 2400,
        "direct_cost": 434
      },
      "passengers": [
        {
          "bid": 2388,
          "id": 9,
          "price": 265,
          "cost": 239,
          "direct_dist": 7960,
          "direct_cost": 239,
          "direct_time": 560
        },
        {
          "bid": 285,
          "id": 5,
          "price": 221,
          "cost": 221,
          "direct_dist": 7346,
          "direct_cost": 221,
          "direct_time": 447
        }
      ],
      "cost": 421,
      "virtual_welfare": 2213
    },
    "profit": 65,
    "cost_profit": 39.0,
    "welfare": 2252,
    "virtual_welfare": 2213,
    "running_time": 0
  },
  {
    "graph_name": "10_68",
    "n_pass": 2,
    "winning_ride": {
      "driver": {
        "arrive_until": 2400,
        "direct_cost": 509
      },
      "passengers": [
        {
          "bid": 2090,
          "id": 6,
          "price": 2018,
          "cost": 236,
          "direct_dist": 7862,
          "direct_cost": 236,
          "direct_time": 516
        },
        {
          "bid": 1563,
          "id": 5,
          "price": 1491,
          "cost": 262,
          "direct_dist": 8703,
          "direct_cost": 262,
          "direct_time": 576
        }
      ],
      "cost": 349,
      "virtual_welfare": 3155
    },
    "profit": 3160,
    "cost_profit": 149.0,
    "welfare": 3304,
    "virtual_welfare": 3155,
    "running_time": 0
  },
  {
    "graph_name": "10_69",
    "n_pass": 2,
    "winning_ride": {
      "driver": {
        "arrive_until": 2400,
        "direct_cost": 405
      },
      "passengers": [
        {
          "bid": 3990,
          "id": 10,
          "price": 400,
          "cost": 400,
          "direct_dist": 13301,
          "direct_cost": 400,
          "direct_time": 870
        },
        {
          "bid": 962,
          "id": 6,
          "price": 334,
          "cost": 334,
          "direct_dist": 11123,
          "direct_cost": 334,
          "direct_time": 708
        }
      ],
      "cost": 475,
      "virtual_welfare": 4218
    },
    "profit": 259,
    "cost_profit": 259.0,
    "welfare": 4477,
    "virtual_welfare": 4218,
    "running_time": 0
  },
  {
    "graph_name": "10_7",
    "n_pass": 2,
    "winning_ride": {
      "driver": {
        "arrive_until": 2400,
        "direct_cost": 453
      },
      "passengers": [
        {
          "bid": 660,
          "id": 7,
          "price": 117,
          "cost": 117,
          "direct_dist": 3889,
          "direct_cost": 117,
          "direct_time": 235
        },
        {
          "bid": 2513,
          "id": 2,
          "price": 806,
          "cost": 252,
          "direct_dist": 8379,
          "direct_cost": 252,
          "direct_time": 528
        }
      ],
      "cost": 276,
      "virtual_welfare": 2804
    },
    "profit": 647,
    "cost_profit": 93.0,
    "welfare": 2897,
    "virtual_welfare": 2804,
    "running_time": 0
  },
  {
    "graph_name": "10_70",
    "n_pass": 2,
    "winning_ride": {
      "driver": {
        "arrive_until": 2400,
        "direct_cost": 464
      },
      "passengers": [
        {
          "bid": 1768,
          "id": 8,
          "price": 1381,
          "cost": 306,
          "direct_dist": 10190,
          "direct_cost": 306,
          "direct_time": 666
        },
        {
          "bid": 3528,
          "id": 4,
          "price": 3141,
          "cost": 353,
          "direct_dist": 11760,
          "direct_cost": 353,
          "direct_time": 816
        }
      ],
      "cost": 475,
      "virtual_welfare": 4637
    },
    "profit": 4047,
    "cost_profit": 184.0,
    "welfare": 4821,
    "virtual_welfare": 4637,
    "running_time": 0
  },
  {
    "graph_name": "10_71",
    "n_pass": 1,
    "winning_ride": {
      "driver": {
        "arrive_until": 2400,
        "direct_cost": 505
      },
      "passengers": [
        {
          "bid": 2362,
          "id": 9,
          "price": 2171,
          "cost": 275,
          "direct_dist": 9151,
          "direct_cost": 275,
          "direct_time": 627
        }
      ],
      "cost": 230,
      "virtual_welfare": 2087
    },
    "profit": 1941,
    "cost_profit": 45.0,
    "welfare": 2132,
    "virtual_welfare": 2087,
    "running_time": 0
  },
  {
    "graph_name": "10_72",
    "n_pass": 3,
    "winning_ride": {
      "driver": {
        "arrive_until": 2400,
        "direct_cost": 520
      },
      "passengers": [
        {
          "bid": 1524,
          "id": 6,
          "price": 1231,
          "cost": 153,
          "direct_dist": 5082,
          "direct_cost": 153,
          "direct_time": 359
        },
        {
          "bid": 2192,
          "id": 3,
          "price": 419,
          "cost": 220,
          "direct_dist": 7308,
          "direct_cost": 220,
          "direct_time": 521
        },
        {
          "bid": 547,
          "id": 2,
          "price": 254,
          "cost": 55,
          "direct_dist": 1826,
          "direct_cost": 55,
          "direct_time": 141
        }
      ],
      "cost": 291,
      "virtual_welfare": 3835
    },
    "profit": 1613,
    "cost_profit": 137.0,
    "welfare": 3972,
    "virtual_welfare": 3835,
    "running_time": 0
  },
  {
    "graph_name": "10_73",
    "n_pass": 2,
    "winning_ride": {
      "driver": {
        "arrive_until": 2400,
        "direct_cost": 458
      },
      "passengers": [
        {
          "bid": 1513,
          "id": 8,
          "price": 974,
          "cost": 166,
          "direct_dist": 5529,
          "direct_cost": 166,
          "direct_time": 371
        },
        {
          "bid": 3543,
          "id": 4,
          "price": 1172,
          "cost": 355,
          "direct_dist": 11811,
          "direct_cost": 355,
          "direct_time": 788
        }
      ],
      "cost": 451,
      "virtual_welfare": 4535
    },
    "profit": 1695,
    "cost_profit": 70.0,
    "welfare": 4605,
    "virtual_welfare": 4535,
    "running_time": 0
  },
  {
    "graph_name": "10_74",
    "n_pass": 2,
    "winning_ride": {
      "driver": {
        "arrive_until": 2400,
        "direct_cost": 550
      },
      "passengers": [
        {
          "bid": 2139,
          "id": 8,
          "price": 1400,
          "cost": 267,
          "direct_dist": 8871,
          "direct_cost": 267,
          "direct_time": 556
        },
        {
          "bid": 5044,
          "id": 6,
          "price": 1252,
          "cost": 505,
          "direct_dist": 16815,
          "direct_cost": 505,
          "direct_time": 1142
        }
      ],
      "cost": 389,
      "virtual_welfare": 6411
    },
    "profit": 2263,
    "cost_profit": 383.0,
    "welfare": 6794,
    "virtual_welfare": 6411,
    "running_time": 0
  },
  {
    "graph_name": "10_75",
    "n_pass": 0,
    "winning_ride": {
      "driver": {
        "arrive_until": 0,
        "direct_cost": 0
      },
      "passengers": [],
      "cost": 0,
      "virtual_welfare": 0
    },
    "profit": 0,
    "cost_profit": 0.0,
    "welfare": 0,
    "virtual_welfare": 0,
    "running_time": 0
  },
  {
    "graph_name": "10_76",
    "n_pass": 1,
    "winning_ride": {
      "driver": {
        "arrive_until": 2400,
        "direct_cost": 450
      },
      "passengers": [
        {
          "bid": 3192,
          "id": 8,
          "price": 320,
          "cost": 320,
          "direct_dist": 10643,
          "direct_cost": 320,
          "direct_time": 809
        }
      ],
      "cost": 261,
      "virtual_welfare": 2872
    },
    "profit": 59,
    "cost_profit": 59.0,
    "welfare": 2931,
    "virtual_welfare": 2872,
    "running_time": 0
  },
  {
    "graph_name": "10_77",
    "n_pass": 2,
    "winning_ride": {
      "driver": {
        "arrive_until": 2400,
        "direct_cost": 449
      },
      "passengers": [
        {
          "bid": 2039,
          "id": 10,
          "price": 494,
          "cost": 494,
          "direct_dist": 16447,
          "direct_cost": 494,
          "direct_time": 1082
        },
        {
          "bid": 1802,
          "id": 3,
          "price": 1185,
          "cost": 181,
          "direct_dist": 6009,
          "direct_cost": 181,
          "direct_time": 343
        }
      ],
      "cost": 500,
      "virtual_welfare": 3166
    },
    "profit": 1179,
    "cost_profit": 175.0,
    "welfare": 3341,
    "virtual_welfare": 3166,
    "running_time": 0
  },
  {
    "graph_name": "10_78",
    "n_pass": 1,
    "winning_ride": {
      "driver": {
        "arrive_until": 2400,
        "direct_cost": 504
      },
      "passengers": [
        {
          "bid": 4823,
          "id": 8,
          "price": 4555,
          "cost": 500,
          "direct_dist": 16638,
          "direct_cost": 500,
          "direct_time": 1072
        }
      ],
      "cost": 276,
      "virtual_welfare": 4323
    },
    "profit": 4279,
    "cost_profit": 224.0,
    "welfare": 4547,
    "virtual_welfare": 4323,
    "running_time": 0
  },
  {
    "graph_name": "10_79",
    "n_pass": 3,
    "winning_ride": {
      "driver": {
        "arrive_until": 2400,
        "direct_cost": 471
      },
      "passengers": [
        {
          "bid": 1387,
          "id": 9,
          "price": 245,
          "cost": 245,
          "direct_dist": 8134,
          "direct_cost": 245,
          "direct_time": 531
        },
        {
          "bid": 2532,
          "id": 4,
          "price": 565,
          "cost": 254,
          "direct_dist": 8441,
          "direct_cost": 254,
          "direct_time": 643
        },
        {
          "bid": 1978,
          "id": 1,
          "price": 198,
          "cost": 198,
          "direct_dist": 6594,
          "direct_cost": 198,
          "direct_time": 474
        }
      ],
      "cost": 457,
      "virtual_welfare": 5200
    },
    "profit": 551,
    "cost_profit": 240.0,
    "welfare": 5440,
    "virtual_welfare": 5200,
    "running_time": 0
  },
  {
    "graph_name": "10_8",
    "n_pass": 1,
    "winning_ride": {
      "driver": {
        "arrive_until": 2400,
        "direct_cost": 457
      },
      "passengers": [
        {
          "bid": 3087,
          "id": 2,
          "price": 309,
          "cost": 309,
          "direct_dist": 10293,
          "direct_cost": 309,
          "direct_time": 712
        }
      ],
      "cost": 256,
      "virtual_welfare": 2778
    },
    "profit": 53,
    "cost_profit": 53.0,
    "welfare": 2831,
    "virtual_welfare": 2778,
    "running_time": 0
  },
  {
    "graph_name": "10_80",
    "n_pass": 2,
    "winning_ride": {
      "driver": {
        "arrive_until": 2400,
        "direct_cost": 521
      },
      "passengers": [
        {
          "bid": 4404,
          "id": 5,
          "price": 1384,
          "cost": 441,
          "direct_dist": 14680,
          "direct_cost": 441,
          "direct_time": 1038
        },
        {
          "bid": 5446,
          "id": 2,
          "price": 1488,
          "cost": 545,
          "direct_dist": 18156,
          "direct_cost": 545,
          "direct_time": 1201
        }
      ],
      "cost": 416,
      "virtual_welfare": 8864
    },
    "profit": 2456,
    "cost_profit": 570.0,
    "welfare": 9434,
    "virtual_welfare": 8864,
    "running_time": 0
  },
  {
    "graph_name": "10_81",
    "n_pass": 1,
    "winning_ride": {
      "driver": {
        "arrive_until": 2400,
        "direct_cost": 461
      },
      "passengers": [
        {
          "bid": 3341,
          "id": 1,
          "price": 991,
          "cost": 343,
          "direct_dist": 11422,
          "direct_cost": 343,
          "direct_time": 807
        }
      ],
      "cost": 339,
      "virtual_welfare": 2998
    },
    "profit": 652,
    "cost_profit": 4.0,
    "welfare": 3002,
    "virtual_welfare": 2998,
    "running_time": 0
  },
  {
    "graph_name": "10_82",
    "n_pass": 1,
    "winning_ride": {
      "driver": {
        "arrive_until": 2400,
        "direct_cost": 483
      },
      "passengers": [
        {
          "bid": 2690,
          "id": 3,
          "price": 270,
          "cost": 270,
          "direct_dist": 8968,
          "direct_cost": 270,
          "direct_time": 614
        }
      ],
      "cost": 250,
      "virtual_welfare": 2420
    },
    "profit": 20,
    "cost_profit": 20.0,
    "welfare": 2440,
    "virtual_welfare": 2420,
    "running_time": 0
  },
  {
    "graph_name": "10_83",
    "n_pass": 2,
    "winning_ride": {
      "driver": {
        "arrive_until": 2400,
        "direct_cost": 399
      },
      "passengers": [
        {
          "bid": 3086,
          "id": 5,
          "price": 2606,
          "cost": 309,
          "direct_dist": 10287,
          "direct_cost": 309,
          "direct_time": 663
        },
        {
          "bid": 3688,
          "id": 3,
          "price": 2666,
          "cost": 369,
          "direct_dist": 12294,
          "direct_cost": 369,
          "direct_time": 867
        }
      ],
      "cost": 415,
      "virtual_welfare": 6096
    },
    "profit": 4857,
    "cost_profit": 263.0,
    "welfare": 6359,
    "virtual_welfare": 6096,
    "running_time": 0
  },
  {
    "graph_name": "10_84",
    "n_pass": 2,
    "winning_ride": {
      "driver": {
        "arrive_until": 2400,
        "direct_cost": 455
      },
      "passengers": [
        {
          "bid": 2121,
          "id": 7,
          "price": 2100,
          "cost": 364,
          "direct_dist": 12124,
          "direct_cost": 364,
          "direct_time": 847
        },
        {
          "bid": 3665,
          "id": 5,
          "price": 367,
          "cost": 367,
          "direct_dist": 12218,
          "direct_cost": 367,
          "direct_time": 757
        }
      ],
      "cost": 535,
      "virtual_welfare": 5055
    },
    "profit": 1932,
    "cost_profit": 196.0,
    "welfare": 5251,
    "virtual_welfare": 5055,
    "running_time": 0
  },
  {
    "graph_name": "10_85",
    "n_pass": 2,
    "winning_ride": {
      "driver": {
        "arrive_until": 2400,
        "direct_cost": 498
      },
      "passengers": [
        {
          "bid": 1489,
          "id": 7,
          "price": 1434,
          "cost": 149,
          "direct_dist": 4964,
          "direct_cost": 149,
          "direct_time": 357
        },
        {
          "bid": 4254,
          "id": 4,
          "price": 426,
          "cost": 426,
          "direct_dist": 14180,
          "direct_cost": 426,
          "direct_time": 978
        }
      ],
      "cost": 290,
      "virtual_welfare": 5168
    },
    "profit": 1570,
    "cost_profit": 285.0,
    "welfare": 5453,
    "virtual_welfare": 5168,
    "running_time": 0
  },
  {
    "graph_name": "10_86",
    "n_pass": 2,
    "winning_ride": {
      "driver": {
        "arrive_until": 2400,
        "direct_cost": 580
      },
      "passengers": [
        {
          "bid": 4687,
          "id": 10,
          "price": 3996,
          "cost": 469,
          "direct_dist": 15625,
          "direct_cost": 469,
          "direct_time": 972
        },
        {
          "bid": 5055,
          "id": 3,
          "price": 4033,
          "cost": 506,
          "direct_dist": 16850,
          "direct_cost": 506,
          "direct_time": 1226
        }
      ],
      "cost": 219,
      "virtual_welfare": 8767
    },
    "profit": 7810,
    "cost_profit": 756.0,
    "welfare": 9523,
    "virtual_welfare": 8767,
    "running_time": 0
  },
  {
    "graph_name": "10_87",
    "n_pass": 2,
    "winning_ride": {
      "driver": {
        "arrive_until": 2400,
        "direct_cost": 464
      },
      "passengers": [
        {
          "bid": 2340,
          "id": 7,
          "price": 894,
          "cost": 235,
          "direct_dist": 7801,
          "direct_cost": 235,
          "direct_time": 640
        },
        {
          "bid": 4673,
          "id": 5,
          "price": 1587,
          "cost": 468,
          "direct_dist": 15578,
          "direct_cost": 468,
          "direct_time": 1035
        }
      ],
      "cost": 302,
      "virtual_welfare": 6310
    },
    "profit": 2179,
    "cost_profit": 401.0,
    "welfare": 6711,
    "virtual_welfare": 6310,
    "running_time": 0
  },
  {
    "graph_name": "10_88",
    "n_pass": 2,
    "winning_ride": {
      "driver": {
        "arrive_until": 2400,
        "direct_cost": 447
      },
      "passengers": [
        {
          "bid": 3723,
          "id": 8,
          "price": 373,
          "cost": 373,
          "direct_dist": 12412,
          "direct_cost": 373,
          "direct_time": 796
        },
        {
          "bid": 2549,
          "id": 2,
          "price": 469,
          "cost": 255,
          "direct_dist": 8499,
          "direct_cost": 255,
          "direct_time": 607
        }
      ],
      "cost": 473,
      "virtual_welfare": 5644
    },
    "profit": 369,
    "cost_profit": 155.0,
    "welfare": 5799,
    "virtual_welfare": 5644,
    "running_time": 0
  },
  {
    "graph_name": "10_89",
    "n_pass": 2,
    "winning_ride": {
      "driver": {
        "arrive_until": 2400,
        "direct_cost": 573
      },
      "passengers": [
        {
          "bid": 5427,
          "id": 10,
          "price": 4487,
          "cost": 543,
          "direct_dist": 18091,
          "direct_cost": 543,
          "direct_time": 1095
        },
        {
          "bid": 4803,
          "id": 2,
          "price": 4425,
          "cost": 481,
          "direct_dist": 16010,
          "direct_cost": 481,
          "direct_time": 1069
        }
      ],
      "cost": 298,
      "virtual_welfare": 9206
    },
    "profit": 8614,
    "cost_profit": 726.0,
    "welfare": 9932,
    "virtual_welfare": 9206,
    "running_time": 0
  },
  {
    "graph_name": "10_9",
    "n_pass": 2,
    "winning_ride": {
      "driver": {
        "arrive_until": 2400,
        "direct_cost": 461
      },
      "passengers": [
        {
          "bid": 2401,
          "id": 4,
          "price": 1225,
          "cost": 296,
          "direct_dist": 9847,
          "direct_cost": 296,
          "direct_time": 688
        },
        {
          "bid": 1563,
          "id": 3,
          "price": 1256,
          "cost": 157,
          "direct_dist": 5210,
          "direct_cost": 157,
          "direct_time": 364
        }
      ],
      "cost": 196,
      "virtual_welfare": 3511
    },
    "profit": 2285,
    "cost_profit": 257.0,
    "welfare": 3768,
    "virtual_welfare": 3511,
    "running_time": 0
  },
  {
    "graph_name": "10_90",
    "n_pass": 2,
    "winning_ride": {
      "driver": {
        "arrive_until": 2400,
        "direct_cost": 400
      },
      "passengers": [
        {
          "bid": 2459,
          "id": 10,
          "price": 768,
          "cost": 246,
          "direct_dist": 8199,
          "direct_cost": 246,
          "direct_time": 600
        },
        {
          "bid": 4104,
          "id": 4,
          "price": 2413,
          "cost": 411,
          "direct_dist": 13680,
          "direct_cost": 411,
          "direct_time": 889
        }
      ],
      "cost": 439,
      "virtual_welfare": 5906
    },
    "profit": 2742,
    "cost_profit": 218.0,
    "welfare": 6124,
    "virtual_welfare": 5906,
    "running_time": 0
  },
  {
    "graph_name": "10_91",
    "n_pass": 2,
    "winning_ride": {
      "driver": {
        "arrive_until": 2400,
        "direct_cost": 385
      },
      "passengers": [
        {
          "bid": 3158,
          "id": 6,
          "price": 2094,
          "cost": 316,
          "direct_dist": 10528,
          "direct_cost": 316,
          "direct_time": 760
        },
        {
          "bid": 3721,
          "id": 5,
          "price": 3228,
          "cost": 373,
          "direct_dist": 12406,
          "direct_cost": 373,
          "direct_time": 877
        }
      ],
      "cost": 480,
      "virtual_welfare": 6190
    },
    "profit": 4842,
    "cost_profit": 209.0,
    "welfare": 6399,
    "virtual_welfare": 6190,
    "running_time": 0
  },
  {
    "graph_name": "10_92",
    "n_pass": 2,
    "winning_ride": {
      "driver": {
        "arrive_until": 2400,
        "direct_cost": 460
      },
      "passengers": [
        {
          "bid": 3835,
          "id": 7,
          "price": 1110,
          "cost": 384,
          "direct_dist": 12786,
          "direct_cost": 384,
          "direct_time": 758
        },
        {
          "bid": 4253,
          "id": 1,
          "price": 467,
          "cost": 467,
          "direct_dist": 15563,
          "direct_cost": 467,
          "direct_time": 935
        }
      ],
      "cost": 372,
      "virtual_welfare": 7237
    },
    "profit": 1205,
    "cost_profit": 479.0,
    "welfare": 7716,
    "virtual_welfare": 7237,
    "running_time": 0
  },
  {
    "graph_name": "10_93",
    "n_pass": 1,
    "winning_ride": {
      "driver": {
        "arrive_until": 2400,
        "direct_cost": 408
      },
      "passengers": [
        {
          "bid": 4538,
          "id": 6,
          "price": 3801,
          "cost": 454,
          "direct_dist": 15129,
          "direct_cost": 454,
          "direct_time": 1022
        }
      ],
      "cost": 444,
      "virtual_welfare": 4084
    },
    "profit": 3357,
    "cost_profit": 10.0,
    "welfare": 4094,
    "virtual_welfare": 4084,
    "running_time": 0
  },
  {
    "graph_name": "10_94",
    "n_pass": 3,
    "winning_ride": {
      "driver": {
        "arrive_until": 2400,
        "direct_cost": 496
      },
      "passengers": [
        {
          "bid": 1758,
          "id": 3,
          "price": 176,
          "cost": 176,
          "direct_dist": 5862,
          "direct_cost": 176,
          "direct_time": 360
        },
        {
          "bid": 1946,
          "id": 2,
          "price": 195,
          "cost": 195,
          "direct_dist": 6489,
          "direct_cost": 195,
          "direct_time": 394
        },
        {
          "bid": 4580,
          "id": 1,
          "price": 695,
          "cost": 459,
          "direct_dist": 15267,
          "direct_cost": 459,
          "direct_time": 966
        }
      ],
      "cost": 487,
      "virtual_welfare": 7454
    },
    "profit": 579,
    "cost_profit": 343.0,
    "welfare": 7797,
    "virtual_welfare": 7454,
    "running_time": 0
  },
  {
    "graph_name": "10_95",
    "n_pass": 2,
    "winning_ride": {
      "driver": {
        "arrive_until": 2400,
        "direct_cost": 450
      },
      "passengers": [
        {
          "bid": 4139,
          "id": 8,
          "price": 2168,
          "cost": 478,
          "direct_dist": 15916,
          "direct_cost": 478,
          "direct_time": 1048
        },
        {
          "bid": 3576,
          "id": 2,
          "price": 374,
          "cost": 374,
          "direct_dist": 12461,
          "direct_cost": 374,
          "direct_time": 828
        }
      ],
      "cost": 402,
      "virtual_welfare": 6863
    },
    "profit": 2140,
    "cost_profit": 450.0,
    "welfare": 7313,
    "virtual_welfare": 6863,
    "running_time": 0
  },
  {
    "graph_name": "10_96",
    "n_pass": 1,
    "winning_ride": {
      "driver": {
        "arrive_until": 2400,
        "direct_cost": 437
      },
      "passengers": [
        {
          "bid": 4803,
          "id": 5,
          "price": 2896,
          "cost": 481,
          "direct_dist": 16011,
          "direct_cost": 481,
          "direct_time": 1034
        }
      ],
      "cost": 454,
      "virtual_welfare": 4322
    },
    "profit": 2442,
    "cost_profit": 27.0,
    "welfare": 4349,
    "virtual_welfare": 4322,
    "running_time": 0
  },
  {
    "graph_name": "10_97",
    "n_pass": 1,
    "winning_ride": {
      "driver": {
        "arrive_until": 2400,
        "direct_cost": 548
      },
      "passengers": [
        {
          "bid": 5295,
          "id": 4,
          "price": 4508,
          "cost": 530,
          "direct_dist": 17652,
          "direct_cost": 530,
          "direct_time": 1162
        }
      ],
      "cost": 393,
      "virtual_welfare": 4765
    },
    "profit": 4115,
    "cost_profit": 137.0,
    "welfare": 4902,
    "virtual_welfare": 4765,
    "running_time": 0
  },
  {
    "graph_name": "10_98",
    "n_pass": 0,
    "winning_ride": {
      "driver": {
        "arrive_until": 0,
        "direct_cost": 0
      },
      "passengers": [],
      "cost": 0,
      "virtual_welfare": 0
    },
    "profit": 0,
    "cost_profit": 0.0,
    "welfare": 0,
    "virtual_welfare": 0,
    "running_time": 0
  },
  {
    "graph_name": "10_99",
    "n_pass": 2,
    "winning_ride": {
      "driver": {
        "arrive_until": 2400,
        "direct_cost": 584
      },
      "passengers": [
        {
          "bid": 2412,
          "id": 9,
          "price": 1239,
          "cost": 301,
          "direct_dist": 10031,
          "direct_cost": 301,
          "direct_time": 713
        },
        {
          "bid": 1782,
          "id": 2,
          "price": 1161,
          "cost": 223,
          "direct_dist": 7417,
          "direct_cost": 223,
          "direct_time": 504
        }
      ],
      "cost": 229,
      "virtual_welfare": 3670
    },
    "profit": 2171,
    "cost_profit": 295.0,
    "welfare": 3965,
    "virtual_welfare": 3670,
    "running_time": 0
  }
]