[
  {
    "graph_name": "10_0",
    "n_pass": 1,
    "winning_ride": {
      "driver": {
        "arrive_until": 2400,
        "direct_cost": 457
      },
      "passengers": [
        {
          "bid": 2571,
          "id": 8,
          "price": 1781,
          "cost": 667,
          "direct_dist": 8571,
          "direct_cost": 258,
          "direct_time": 540
        }
      ],
      "cost": 523,
      "virtual_welfare": 2048
    },
    "profit": 1258,
    "cost_profit": 144.0,
    "welfare": 2048,
    "virtual_welfare": 2048,
    "running_time": 0
  },
  {
    "graph_name": "10_1",
    "n_pass": 2,
    "winning_ride": {
      "driver": {
        "arrive_until": 2400,
        "direct_cost": 406
      },
      "passengers": [
        {
          "bid": 2619,
          "id": 8,
          "price": 753,
          "cost": 753,
          "direct_dist": 9141,
          "direct_cost": 275,
          "direct_time": 574
        },
        {
          "bid": 5124,
          "id": 3,
          "price": 2197,
          "cost": 1007,
          "direct_dist": 17083,
          "direct_cost": 513,
          "direct_time": 1118
        }
      ],
      "cost": 561,
      "virtual_welfare": 7182
    },
    "profit": 2389,
    "cost_profit": 1199.0,
    "welfare": 7182,
    "virtual_welfare": 7182,
    "running_time": 0
  },
  {
    "graph_name": "10_10",
    "n_pass": 2,
    "winning_ride": {
      "driver": {
        "arrive_until": 2400,
        "direct_cost": 459
      },
      "passengers": [
        {
          "bid": 3655,
          "id": 6,
          "price": 3001,
          "cost": 699,
          "direct_dist": 12186,
          "direct_cost": 366,
          "direct_time": 829
        },
        {
          "bid": 2300,
          "id": 4,
          "price": 1646,
          "cost": 656,
          "direct_dist": 7669,
          "direct_cost": 231,
          "direct_time": 535
        }
      ],
      "cost": 320,
      "virtual_welfare": 5635
    },
    "profit": 4327,
    "cost_profit": 1035.0,
    "welfare": 5635,
    "virtual_welfare": 5635,
    "running_time": 0
  },
  {
    "graph_name": "10_11",
    "n_pass": 1,
    "winning_ride": {
      "driver": {
        "arrive_until": 2400,
        "direct_cost": 425
      },
      "passengers": [
        {
          "bid": 4866,
          "id": 3,
          "price": 2552,
          "cost": 1017,
          "direct_dist": 16222,
          "direct_cost": 487,
          "direct_time": 1050
        }
      ],
      "cost": 446,
      "virtual_welfare": 4420
    },
    "profit": 2106,
    "cost_profit": 571.0,
    "welfare": 4420,
    "virtual_welfare": 4420,
    "running_time": 0
  },
  {
    "graph_name": "10_12",
    "n_pass": 2,
    "winning_ride": {
      "driver": {
        "arrive_until": 2400,
        "direct_cost": 516
      },
      "passengers": [
        {
          "bid": 3961,
          "id": 2,
          "price": 964,
          "cost": 831,
          "direct_dist": 13204,
          "direct_cost": 397,
          "direct_time": 874
        },
        {
          "bid": 3252,
          "id": 1,
          "price": 1102,
          "cost": 828,
          "direct_dist": 10841,
          "direct_cost": 326,
          "direct_time": 704
        }
      ],
      "cost": 407,
      "virtual_welfare": 6806
    },
    "profit": 1659,
    "cost_profit": 1252.0,
    "welfare": 6806,
    "virtual_welfare": 6806,
    "running_time": 0
  },
  {
    "graph_name": "10_13",
    "n_pass": 2,
    "winning_ride": {
      "driver": {
        "arrive_until": 2400,
        "direct_cost": 486
      },
      "passengers": [
        {
          "bid": 3773,
          "id": 6,
          "price": 912,
          "cost": 912,
          "direct_dist": 12579,
          "direct_cost": 378,
          "direct_time": 785
        },
        {
          "bid": 4807,
          "id": 1,
          "price": 2323,
          "cost": 992,
          "direct_dist": 16024,
          "direct_cost": 481,
          "direct_time": 1053
        }
      ],
      "cost": 494,
      "virtual_welfare": 8086
    },
    "profit": 2741,
    "cost_profit": 1410.0,
    "welfare": 8086,
    "virtual_welfare": 8086,
    "running_time": 0
  },
  {
    "graph_name": "10_14",
    "n_pass": 2,
    "winning_ride": {
      "driver": {
        "arrive_until": 2400,
        "direct_cost": 501
      },
      "passengers": [
        {
          "bid": 601,
          "id": 10,
          "price": 669,
          "cost": 669,
          "direct_dist": 8491,
          "direct_cost": 255,
          "direct_time": 547
        },
        {
          "bid": 2437,
          "id": 8,
          "price": 2072,
          "cost": 780,
          "direct_dist": 8126,
          "direct_cost": 244,
          "direct_time": 561
        }
      ],
      "cost": 483,
      "virtual_welfare": 2555
    },
    "profit": 2258,
    "cost_profit": 966.0,
    "welfare": 2555,
    "virtual_welfare": 2555,
    "running_time": 0
  },
  {
    "graph_name": "10_15",
    "n_pass": 2,
    "winning_ride": {
      "driver": {
        "arrive_until": 2400,
        "direct_cost": 485
      },
      "passengers": [
        {
          "bid": 2429,
          "id": 6,
          "price": 1042,
          "cost": 672,
          "direct_dist": 10087,
          "direct_cost": 303,
          "direct_time": 673
        },
        {
          "bid": 3207,
          "id": 3,
          "price": 1055,
          "cost": 768,
          "direct_dist": 10690,
          "direct_cost": 321,
          "direct_time": 736
        }
      ],
      "cost": 415,
      "virtual_welfare": 5221
    },
    "profit": 1682,
    "cost_profit": 1025.0,
    "welfare": 5221,
    "virtual_welfare": 5221,
    "running_time": 0
  },
  {
    "graph_name": "10_16",
    "n_pass": 2,
    "winning_ride": {
      "driver": {
        "arrive_until": 2400,
        "direct_cost": 432
      },
      "passengers": [
        {
          "bid": 3381,
          "id": 8,
          "price": 1172,
          "cost": 761,
          "direct_dist": 11272,
          "direct_cost": 339,
          "direct_time": 719
        },
        {
          "bid": 3922,
          "id": 7,
          "price": 857,
          "cost": 857,
          "direct_dist": 13074,
          "direct_cost": 393,
          "direct_time": 884
        }
      ],
      "cost": 287,
      "virtual_welfare": 7016
    },
    "profit": 1742,
    "cost_profit": 1331.0,
    "welfare": 7016,
    "virtual_welfare": 7016,
    "running_time": 0
  },
  {
    "graph_name": "10_17",
    "n_pass": 2,
    "winning_ride": {
      "driver": {
        "arrive_until": 2400,
        "direct_cost": 461
      },
      "passengers": [
        {
          "bid": 2214,
          "id": 8,
          "price": 741,
          "cost": 741,
          "direct_dist": 7382,
          "direct_cost": 222,
          "direct_time": 439
        },
        {
          "bid": 2104,
          "id": 2,
          "price": 622,
          "cost": 622,
          "direct_dist": 8720,
          "direct_cost": 262,
          "direct_time": 612
        }
      ],
      "cost": 465,
      "virtual_welfare": 3853
    },
    "profit": 898,
    "cost_profit": 898.0,
    "welfare": 3853,
    "virtual_welfare": 3853,
    "running_time": 0
  },
  {
    "graph_name": "10_18",
    "n_pass": 2,
    "winning_ride": {
      "driver": {
        "arrive_until": 2400,
        "direct_cost": 350
      },
      "passengers": [
        {
          "bid": 1937,
          "id": 10,
          "price": 559,
          "cost": 559,
          "direct_dist": 6458,
          "direct_cost": 194,
          "direct_time": 469
        },
        {
          "bid": 1536,
          "id": 4,
          "price": 540,
          "cost": 540,
          "direct_dist": 5168,
          "direct_cost": 156,
          "direct_time": 368
        }
      ],
      "cost": 424,
      "virtual_welfare": 3049
    },
    "profit": 675,
    "cost_profit": 675.0,
    "welfare": 3049,
    "virtual_welfare": 3049,
    "running_time": 0
  },
  {
    "graph_name": "10_19",
    "n_pass": 2,
    "winning_ride": {
      "driver": {
        "arrive_until": 2400,
        "direct_cost": 418
      },
      "passengers": [
        {
          "bid": 4007,
          "id": 9,
          "price": 1013,
          "cost": 1013,
          "direct_dist": 13357,
          "direct_cost": 401,
          "direct_time": 780
        },
        {
          "bid": 4176,
          "id": 4,
          "price": 966,
          "cost": 966,
          "direct_dist": 13922,
          "direct_cost": 418,
          "direct_time": 896
        }
      ],
      "cost": 637,
      "virtual_welfare": 7546
    },
    "profit": 1342,
    "cost_profit": 1342.0,
    "welfare": 7546,
    "virtual_welfare": 7546,
    "running_time": 0
  },
  {
    "graph_name": "10_2",
    "n_pass": 2,
    "winning_ride": {
      "driver": {
        "arrive_until": 2400,
        "direct_cost": 489
      },
      "passengers": [
        {
          "bid": 4226,
          "id": 10,
          "price": 1927,
          "cost": 985,
          "direct_dist": 14828,
          "direct_cost": 445,
          "direct_time": 986
        },
        {
          "bid": 4208,
          "id": 6,
          "price": 1964,
          "cost": 931,
          "direct_dist": 14027,
          "direct_cost": 421,
          "direct_time": 951
        }
      ],
      "cost": 374,
      "virtual_welfare": 8060
    },
    "profit": 3517,
    "cost_profit": 1542.0,
    "welfare": 8060,
    "virtual_welfare": 8060,
    "running_time": 0
  },
  {
    "graph_name": "10_20",
    "n_pass": 2,
    "winning_ride": {
      "driver": {
        "arrive_until": 2400,
        "direct_cost": 575
      },
      "passengers": [
        {
          "bid": 4788,
          "id": 3,
          "price": 1076,
          "cost": 1076,
          "direct_dist": 15960,
          "direct_cost": 479,
          "direct_time": 1086
        },
        {
          "bid": 3167,
          "id": 1,
          "price": 860,
          "cost": 860,
          "direct_dist": 10559,
          "direct_cost": 317,
          "direct_time": 681
        }
      ],
      "cost": 207,
      "virtual_welfare": 7748
    },
    "profit": 1729,
    "cost_profit": 1729.0,
    "welfare": 7748,
    "virtual_welfare": 7748,
    "running_time": 0
  },
  {
    "graph_name": "10_21",
    "n_pass": 2,
    "winning_ride": {
      "driver": {
        "arrive_until": 2400,
        "direct_cost": 423
      },
      "passengers": [
        {
          "bid": 3373,
          "id": 5,
          "price": 2584,
          "cost": 806,
          "direct_dist": 11245,
          "direct_cost": 338,
          "direct_time": 768
        },
        {
          "bid": 3429,
          "id": 3,
          "price": 2640,
          "cost": 734,
          "direct_dist": 11431,
          "direct_cost": 343,
          "direct_time": 775
        }
      ],
      "cost": 561,
      "virtual_welfare": 6241
    },
    "profit": 4663,
    "cost_profit": 979.0,
    "welfare": 6241,
    "virtual_welfare": 6241,
    "running_time": 0
  },
  {
    "graph_name": "10_22",
    "n_pass": 2,
    "winning_ride": {
      "driver": {
        "arrive_until": 2400,
        "direct_cost": 538
      },
      "passengers": [
        {
          "bid": 3830,
          "id": 5,
          "price": 1446,
          "cost": 834,
          "direct_dist": 13389,
          "direct_cost": 402,
          "direct_time": 804
        },
        {
          "bid": 3415,
          "id": 4,
          "price": 2157,
          "cost": 801,
          "direct_dist": 11385,
          "direct_cost": 342,
          "direct_time": 765
        }
      ],
      "cost": 336,
      "virtual_welfare": 6909
    },
    "profit": 3267,
    "cost_profit": 1299.0,
    "welfare": 6909,
    "virtual_welfare": 6909,
    "running_time": 0
  },
  {
    "graph_name": "10_23",
    "n_pass": 2,
    "winning_ride": {
      "driver": {
        "arrive_until": 2400,
        "direct_cost": 424
      },
      "passengers": [
        {
          "bid": 2917,
          "id": 10,
          "price": 803,
          "cost": 713,
          "direct_dist": 11894,
          "direct_cost": 357,
          "direct_time": 889
        },
        {
          "bid": 3236,
          "id": 8,
          "price": 1102,
          "cost": 675,
          "direct_dist": 10789,
          "direct_cost": 324,
          "direct_time": 875
        }
      ],
      "cost": 426,
      "virtual_welfare": 5727
    },
    "profit": 1479,
    "cost_profit": 962.0,
    "welfare": 5727,
    "virtual_welfare": 5727,
    "running_time": 0
  },
  {
    "graph_name": "10_24",
    "n_pass": 2,
    "winning_ride": {
      "driver": {
        "arrive_until": 2400,
        "direct_cost": 475
      },
      "passengers": [
        {
          "bid": 3861,
          "id": 9,
          "price": 2257,
          "cost": 936,
          "direct_dist": 12872,
          "direct_cost": 387,
          "direct_time": 1029
        },
        {
          "bid": 1425,
          "id": 1,
          "price": 1138,
          "cost": 570,
          "direct_dist": 4753,
          "direct_cost": 143,
          "direct_time": 328
        }
      ],
      "cost": 462,
      "virtual_welfare": 4824
    },
    "profit": 2933,
    "cost_profit": 1044.0,
    "welfare": 4824,
    "virtual_welfare": 4824,
    "running_time": 0
  },
  {
    "graph_name": "10_25",
    "n_pass": 2,
    "winning_ride": {
      "driver": {
        "arrive_until": 2400,
        "direct_cost": 529
      },
      "passengers": [
        {
          "bid": 3899,
          "id": 5,
          "price": 3569,
          "cost": 994,
          "direct_dist": 12998,
          "direct_cost": 390,
          "direct_time": 864
        },
        {
          "bid": 449,
          "id": 4,
          "price": 480,
          "cost": 480,
          "direct_dist": 2464,
          "direct_cost": 74,
          "direct_time": 252
        }
      ],
      "cost": 366,
      "virtual_welfare": 3982
    },
    "profit": 3683,
    "cost_profit": 1108.0,
    "welfare": 3982,
    "virtual_welfare": 3982,
    "running_time": 0
  },
  {
    "graph_name": "10_26",
    "n_pass": 2,
    "winning_ride": {
      "driver": {
        "arrive_until": 2400,
        "direct_cost": 402
      },
      "passengers": [
        {
          "bid": 4044,
          "id": 5,
          "price": 3234,
          "cost": 891,
          "direct_dist": 13483,
          "direct_cost": 405,
          "direct_time": 849
        },
        {
          "bid": 2504,
          "id": 2,
          "price": 1856,
          "cost": 776,
          "direct_dist": 8347,
          "direct_cost": 251,
          "direct_time": 579
        }
      ],
      "cost": 474,
      "virtual_welfare": 6074
    },
    "profit": 4616,
    "cost_profit": 1193.0,
    "welfare": 6074,
    "virtual_welfare": 6074,
    "running_time": 0
  },
  {
    "graph_name": "10_27",
    "n_pass": 2,
    "winning_ride": {
      "driver": {
        "arrive_until": 2400,
        "direct_cost": 475
      },
      "passengers": [
        {
          "bid": 3581,
          "id": 10,
          "price": 2494,
          "cost": 885,
          "direct_dist": 11939,
          "direct_cost": 359,
          "direct_time": 745
        },
        {
          "bid": 4003,
          "id": 7,
          "price": 2380,
          "cost": 873,
          "direct_dist": 13344,
          "direct_cost": 401,
          "direct_time": 926
        }
      ],
      "cost": 345,
      "virtual_welfare": 7239
    },
    "profit": 4529,
    "cost_profit": 1413.0,
    "welfare": 7239,
    "virtual_welfare": 7239,
    "running_time": 0
  },
  {
    "graph_name": "10_28",
    "n_pass": 2,
    "winning_ride": {
      "driver": {
        "arrive_until": 2400,
        "direct_cost": 410
      },
      "passengers": [
        {
          "bid": 3655,
          "id": 5,
          "price": 2542,
          "cost": 803,
          "direct_dist": 12184,
          "direct_cost": 366,
          "direct_time": 803
        },
        {
          "bid": 800,
          "id": 4,
          "price": 276,
          "cost": 263,
          "direct_dist": 3310,
          "direct_cost": 100,
          "direct_time": 218
        }
      ],
      "cost": 514,
      "virtual_welfare": 3941
    },
    "profit": 2304,
    "cost_profit": 552.0,
    "welfare": 3941,
    "virtual_welfare": 3941,
    "running_time": 0
  },
  {
    "graph_name": "10_29",
    "n_pass": 2,
    "winning_ride": {
      "driver": {
        "arrive_until": 2400,
        "direct_cost": 495
      },
      "passengers": [
        {
          "bid": 3490,
          "id": 3,
          "price": 1797,
          "cost": 860,
          "direct_dist": 11650,
          "direct_cost": 350,
          "direct_time": 777
        },
        {
          "bid": 241,
          "id": 2,
          "price": 604,
          "cost": 604,
          "direct_dist": 4453,
          "direct_cost": 134,
          "direct_time": 277
        }
      ],
      "cost": 402,
      "virtual_welfare": 3329
    },
    "profit": 1999,
    "cost_profit": 1062.0,
    "welfare": 3329,
    "virtual_welfare": 3329,
    "running_time": 0
  },
  {
    "graph_name": "10_3",
    "n_pass": 2,
    "winning_ride": {
      "driver": {
        "arrive_until": 2400,
        "direct_cost": 456
      },
      "passengers": [
        {
          "bid": 2742,
          "id": 10,
          "price": 2574,
          "cost": 648,
          "direct_dist": 9140,
          "direct_cost": 275,
          "direct_time": 597
        },
        {
          "bid": 5647,
          "id": 8,
          "price": 2718,
          "cost": 1114,
          "direct_dist": 18824,
          "direct_cost": 565,
          "direct_time": 1292
        }
      ],
      "cost": 406,
      "virtual_welfare": 7983
    },
    "profit": 4886,
    "cost_profit": 1356.0,
    "welfare": 7983,
    "virtual_welfare": 7983,
    "running_time": 0
  },
  {
    "graph_name": "10_30",
    "n_pass": 1,
    "winning_ride": {
      "driver": {
        "arrive_until": 2400,
        "direct_cost": 422
      },
      "passengers": [
        {
          "bid": 2365,
          "id": 7,
          "price": 1919,
          "cost": 776,
          "direct_dist": 7886,
          "direct_cost": 237,
          "direct_time": 522
        }
      ],
      "cost": 221,
      "virtual_welfare": 2144
    },
    "profit": 1698,
    "cost_profit": 555.0,
    "welfare": 2144,
    "virtual_welfare": 2144,
    "running_time": 0
  },
  {
    "graph_name": "10_31",
    "n_pass": 2,
    "winning_ride": {
      "driver": {
        "arrive_until": 2400,
        "direct_cost": 391
      },
      "passengers": [
        {
          "bid": 3444,
          "id": 4,
          "price": 971,
          "cost": 971,
          "direct_dist": 11483,
          "direct_cost": 345,
          "direct_time": 741
        },
        {
          "bid": 3489,
          "id": 3,
          "price": 978,
          "cost": 978,
          "direct_dist": 11632,
          "direct_cost": 349,
          "direct_time": 797
        }
      ],
      "cost": 521,
      "virtual_welfare": 6412
    },
    "profit": 1428,
    "cost_profit": 1428.0,
    "welfare": 6412,
    "virtual_welfare": 6412,
    "running_time": 0
  },
  {
    "graph_name": "10_32",
    "n_pass": 2,
    "winning_ride": {
      "driver": {
        "arrive_until": 2400,
        "direct_cost": 469
      },
      "passengers": [
        {
          "bid": 721,
          "id": 8,
          "price": 607,
          "cost": 499,
          "direct_dist": 3891,
          "direct_cost": 117,
          "direct_time": 255
        },
        {
          "bid": 3199,
          "id": 4,
          "price": 2274,
          "cost": 783,
          "direct_dist": 10665,
          "direct_cost": 320,
          "direct_time": 679
        }
      ],
      "cost": 505,
      "virtual_welfare": 3415
    },
    "profit": 2376,
    "cost_profit": 777.0,
    "welfare": 3415,
    "virtual_welfare": 3415,
    "running_time": 0
  },
  {
    "graph_name": "10_33",
    "n_pass": 1,
    "winning_ride": {
      "driver": {
        "arrive_until": 2400,
        "direct_cost": 491
      },
      "passengers": [
        {
          "bid": 3524,
          "id": 5,
          "price": 3308,
          "cost": 1012,
          "direct_dist": 14944,
          "direct_cost": 449,
          "direct_time": 960
        }
      ],
      "cost": 418,
      "virtual_welfare": 3106
    },
    "profit": 2890,
    "cost_profit": 594.0,
    "welfare": 3106,
    "virtual_welfare": 3106,
    "running_time": 0
  },
  {
    "graph_name": "10_34",
    "n_pass": 2,
    "winning_ride": {
      "driver": {
        "arrive_until": 2400,
        "direct_cost": 545
      },
      "passengers": [
        {
          "bid": 3667,
          "id": 6,
          "price": 2360,
          "cost": 808,
          "direct_dist": 12224,
          "direct_cost": 367,
          "direct_time": 772
        },
        {
          "bid": 4366,
          "id": 5,
          "price": 2374,
          "cost": 862,
          "direct_dist": 14556,
          "direct_cost": 437,
          "direct_time": 925
        }
      ],
      "cost": 328,
      "virtual_welfare": 7705
    },
    "profit": 4406,
    "cost_profit": 1342.0,
    "welfare": 7705,
    "virtual_welfare": 7705,
    "running_time": 0
  },
  {
    "graph_name": "10_35",
    "n_pass": 1,
    "winning_ride": {
      "driver": {
        "arrive_until": 2400,
        "direct_cost": 396
      },
      "passengers": [
        {
          "bid": 5738,
          "id": 3,
          "price": 3628,
          "cost": 1178,
          "direct_dist": 19128,
          "direct_cost": 574,
          "direct_time": 1239
        }
      ],
      "cost": 624,
      "virtual_welfare": 5114
    },
    "profit": 3004,
    "cost_profit": 554.0,
    "welfare": 5114,
    "virtual_welfare": 5114,
    "running_time": 0
  },
  {
    "graph_name": "10_36",
    "n_pass": 1,
    "winning_ride": {
      "driver": {
        "arrive_until": 2400,
        "direct_cost": 555
      },
      "passengers": [
        {
          "bid": 3912,
          "id": 10,
          "price": 2315,
          "cost": 925,
          "direct_dist": 13041,
          "direct_cost": 392,
          "direct_time": 903
        }
      ],
      "cost": 249,
      "virtual_welfare": 3663
    },
    "profit": 2066,
    "cost_profit": 676.0,
    "welfare": 3663,
    "virtual_welfare": 3663,
    "running_time": 0
  },
  {
    "graph_name": "10_37",
    "n_pass": 2,
    "winning_ride": {
      "driver": {
        "arrive_until": 2400,
        "direct_cost": 406
      },
      "passengers": [
        {
          "bid": 1147,
          "id": 9,
          "price": 1028,
          "cost": 1028,
          "direct_dist": 12059,
          "direct_cost": 362,
          "direct_time": 717
        },
        {
          "bid": 3416,
          "id": 5,
          "price": 2192,
          "cost": 877,
          "direct_dist": 11389,
          "direct_cost": 342,
          "direct_time": 728
        }
      ],
      "cost": 524,
      "virtual_welfare": 4039
    },
    "profit": 2696,
    "cost_profit": 1381.0,
    "welfare": 4039,
    "virtual_welfare": 4039,
    "running_time": 0
  },
  {
    "graph_name": "10_38",
    "n_pass": 2,
    "winning_ride": {
      "driver": {
        "arrive_until": 2400,
        "direct_cost": 448
      },
      "passengers": [
        {
          "bid": 4405,
          "id": 5,
          "price": 2298,
          "cost": 903,
          "direct_dist": 14685,
          "direct_cost": 441,
          "direct_time": 982
        },
        {
          "bid": 2034,
          "id": 4,
          "price": 424,
          "cost": 424,
          "direct_dist": 6780,
          "direct_cost": 204,
          "direct_time": 561
        }
      ],
      "cost": 429,
      "virtual_welfare": 6010
    },
    "profit": 2293,
    "cost_profit": 898.0,
    "welfare": 6010,
    "virtual_welfare": 6010,
    "running_time": 0
  },
  {
    "graph_name": "10_39",
    "n_pass": 1,
    "winning_ride": {
      "driver": {
        "arrive_until": 2400,
        "direct_cost": 401
      },
      "passengers": [
        {
          "bid": 2355,
          "id": 9,
          "price": 772,
          "cost": 514,
          "direct_dist": 7850,
          "direct_cost": 236,
          "direct_time": 608
        }
      ],
      "cost": 362,
      "virtual_welfare": 1993
    },
    "profit": 410,
    "cost_profit": 152.0,
    "welfare": 1993,
    "virtual_welfare": 1993,
    "running_time": 0
  },
  {
    "graph_name": "10_4",
    "n_pass": 2,
    "winning_ride": {
      "driver": {
        "arrive_until": 2400,
        "direct_cost": 431
      },
      "passengers": [
        {
          "bid": 4895,
          "id": 8,
          "price": 1755,
          "cost": 1079,
          "direct_dist": 16318,
          "direct_cost": 490,
          "direct_time": 1047
        },
        {
          "bid": 3056,
          "id": 2,
          "price": 803,
          "cost": 803,
          "direct_dist": 10189,
          "direct_cost": 306,
          "direct_time": 668
        }
      ],
      "cost": 600,
      "virtual_welfare": 7351
    },
    "profit": 1958,
    "cost_profit": 1282.0,
    "welfare": 7351,
    "virtual_welfare": 7351,
    "running_time": 0
  },
  {
    "graph_name": "10_40",
    "n_pass": 1,
    "winning_ride": {
      "driver": {
        "arrive_until": 2400,
        "direct_cost": 410
      },
      "passengers": [
        {
          "bid": 3949,
          "id": 4,
          "price": 3003,
          "cost": 1263,
          "direct_dist": 18731,
          "direct_cost": 562,
          "direct_time": 1211
        }
      ],
      "cost": 706,
      "virtual_welfare": 3243
    },
    "profit": 2297,
    "cost_profit": 557.0,
    "welfare": 3243,
    "virtual_welfare": 3243,
    "running_time": 0
  },
  {
    "graph_name": "10_41",
    "n_pass": 2,
    "winning_ride": {
      "driver": {
        "arrive_until": 2400,
        "direct_cost": 504
      },
      "passengers": [
        {
          "bid": 5446,
          "id": 7,
          "price": 3464,
          "cost": 1071,
          "direct_dist": 18155,
          "direct_cost": 545,
          "direct_time": 1220
        },
        {
          "bid": 331,
          "id": 1,
          "price": 563,
          "cost": 563,
          "direct_dist": 2711,
          "direct_cost": 82,
          "direct_time": 285
        }
      ],
      "cost": 476,
      "virtual_welfare": 5301
    },
    "profit": 3551,
    "cost_profit": 1158.0,
    "welfare": 5301,
    "virtual_welfare": 5301,
    "running_time": 0
  },
  {
    "graph_name": "10_42",
    "n_pass": 2,
    "winning_ride": {
      "driver": {
        "arrive_until": 2400,
        "direct_cost": 457
      },
      "passengers": [
        {
          "bid": 1586,
          "id": 5,
          "price": 622,
          "cost": 622,
          "direct_dist": 5288,
          "direct_cost": 159,
          "direct_time": 358
        },
        {
          "bid": 3911,
          "id": 4,
          "price": 1476,
          "cost": 913,
          "direct_dist": 13037,
          "direct_cost": 392,
          "direct_time": 876
        }
      ],
      "cost": 613,
      "virtual_welfare": 4884
    },
    "profit": 1485,
    "cost_profit": 922.0,
    "welfare": 4884,
    "virtual_welfare": 4884,
    "running_time": 0
  },
  {
    "graph_name": "10_43",
    "n_pass": 3,
    "winning_ride": {
      "driver": {
        "arrive_until": 2400,
        "direct_cost": 439
      },
      "passengers": [
        {
          "bid": 2805,
          "id": 9,
          "price": 1983,
          "cost": 596,
          "direct_dist": 9350,
          "direct_cost": 281,
          "direct_time": 673
        },
        {
          "bid": 561,
          "id": 8,
          "price": 200,
          "cost": 200,
          "direct_dist": 1872,
          "direct_cost": 57,
          "direct_time": 146
        },
        {
          "bid": 3475,
          "id": 4,
          "price": 1983,
          "cost": 684,
          "direct_dist": 11586,
          "direct_cost": 348,
          "direct_time": 841
        }
      ],
      "cost": 318,
      "virtual_welfare": 6523
    },
    "profit": 3848,
    "cost_profit": 1162.0,
    "welfare": 6523,
    "virtual_welfare": 6523,
    "running_time": 0
  },
  {
    "graph_name": "10_44",
    "n_pass": 2,
    "winning_ride": {
      "driver": {
        "arrive_until": 2400,
        "direct_cost": 433
      },
      "passengers": [
        {
          "bid": 4307,
          "id": 7,
          "price": 2946,
          "cost": 888,
          "direct_dist": 14359,
          "direct_cost": 431,
          "direct_time": 924
        },
        {
          "bid": 3654,
          "id": 4,
          "price": 3117,
          "cost": 906,
          "direct_dist": 13208,
          "direct_cost": 397,
          "direct_time": 966
        }
      ],
      "cost": 419,
      "virtual_welfare": 7542
    },
    "profit": 5644,
    "cost_profit": 1375.0,
    "welfare": 7542,
    "virtual_welfare": 7542,
    "running_time": 0
  },
  {
    "graph_name": "10_45",
    "n_pass": 2,
    "winning_ride": {
      "driver": {
        "arrive_until": 2400,
        "direct_cost": 428
      },
      "passengers": [
        {
          "bid": 2114,
          "id": 8,
          "price": 629,
          "cost": 629,
          "direct_dist": 7047,
          "direct_cost": 212,
          "direct_time": 495
        },
        {
          "bid": 3419,
          "id": 3,
          "price": 739,
          "cost": 739,
          "direct_dist": 11398,
          "direct_cost": 342,
          "direct_time": 773
        }
      ],
      "cost": 603,
      "virtual_welfare": 4930
    },
    "profit": 765,
    "cost_profit": 765.0,
    "welfare": 4930,
    "virtual_welfare": 4930,
    "running_time": 0
  },
  {
    "graph_name": "10_46",
    "n_pass": 2,
    "winning_ride": {
      "driver": {
        "arrive_until": 2400,
        "direct_cost": 502
      },
      "passengers": [
        {
          "bid": 4797,
          "id": 6,
          "price": 2705,
          "cost": 1000,
          "direct_dist": 15993,
          "direct_cost": 480,
          "direct_time": 1102
        },
        {
          "bid": 3510,
          "id": 4,
          "price": 2724,
          "cost": 893,
          "direct_dist": 11702,
          "direct_cost": 352,
          "direct_time": 752
        }
      ],
      "cost": 478,
      "virtual_welfare": 7829
    },
    "profit": 4951,
    "cost_profit": 1415.0,
    "welfare": 7829,
    "virtual_welfare": 7829,
    "running_time": 0
  },
  {
    "graph_name": "10_47",
    "n_pass": 1,
    "winning_ride": {
      "driver": {
        "arrive_until": 2400,
        "direct_cost": 476
      },
      "passengers": [
        {
          "bid": 5532,
          "id": 7,
          "price": 3275,
          "cost": 1124,
          "direct_dist": 18441,
          "direct_cost": 554,
          "direct_time": 1211
        }
      ],
      "cost": 396,
      "virtual_welfare": 5136
    },
    "profit": 2879,
    "cost_profit": 728.0,
    "welfare": 5136,
    "virtual_welfare": 5136,
    "running_time": 0
  },
  {
    "graph_name": "10_48",
    "n_pass": 2,
    "winning_ride": {
      "driver": {
        "arrive_until": 2400,
        "direct_cost": 413
      },
      "passengers": [
        {
          "bid": 2061,
          "id": 9,
          "price": 1485,
          "cost": 786,
          "direct_dist": 6873,
          "direct_cost": 207,
          "direct_time": 505
        },
        {
          "bid": 2048,
          "id": 1,
          "price": 665,
          "cost": 665,
          "direct_dist": 6827,
          "direct_cost": 205,
          "direct_time": 444
        }
      ],
      "cost": 547,
      "virtual_welfare": 3562
    },
    "profit": 1603,
    "cost_profit": 904.0,
    "welfare": 3562,
    "virtual_welfare": 3562,
    "running_time": 0
  },
  {
    "graph_name": "10_49",
    "n_pass": 2,
    "winning_ride": {
      "driver": {
        "arrive_until": 2400,
        "direct_cost": 416
      },
      "passengers": [
        {
          "bid": 1767,
          "id": 7,
          "price": 582,
          "cost": 582,
          "direct_dist": 9780,
          "direct_cost": 294,
          "direct_time": 665
        },
        {
          "bid": 5230,
          "id": 5,
          "price": 2610,
          "cost": 1166,
          "direct_dist": 17434,
          "direct_cost": 524,
          "direct_time": 1183
        }
      ],
      "cost": 568,
      "virtual_welfare": 6429
    },
    "profit": 2624,
    "cost_profit": 1180.0,
    "welfare": 6429,
    "virtual_welfare": 6429,
    "running_time": 0
  },
  {
    "graph_name": "10_5",
    "n_pass": 2,
    "winning_ride": {
      "driver": {
        "arrive_until": 2400,
        "direct_cost": 476
      },
      "passengers": [
        {
          "bid": 4501,
          "id": 10,
          "price": 3024,
          "cost": 939,
          "direct_dist": 15169,
          "direct_cost": 456,
          "direct_time": 1003
        },
        {
          "bid": 4267,
          "id": 5,
          "price": 2029,
          "cost": 946,
          "direct_dist": 14224,
          "direct_cost": 427,
          "direct_time": 962
        }
      ],
      "cost": 563,
      "virtual_welfare": 8205
    },
    "profit": 4490,
    "cost_profit": 1322.0,
    "welfare": 8205,
    "virtual_welfare": 8205,
    "running_time": 0
  },
  {
    "graph_name": "10_50",
    "n_pass": 2,
    "winning_ride": {
      "driver": {
        "arrive_until": 2400,
        "direct_cost": 529
      },
      "passengers": [
        {
          "bid": 3156,
          "id": 8,
          "price": 1216,
          "cost": 688,
          "direct_dist": 10522,
          "direct_cost": 316,
          "direct_time": 749
        },
        {
          "bid": 1107,
          "id": 1,
          "price": 589,
          "cost": 589,
          "direct_dist": 3692,
          "direct_cost": 111,
          "direct_time": 225
        }
      ],
      "cost": 211,
      "virtual_welfare": 4052
    },
    "profit": 1594,
    "cost_profit": 1066.0,
    "welfare": 4052,
    "virtual_welfare": 4052,
    "running_time": 0
  },
  {
    "graph_name": "10_51",
    "n_pass": 2,
    "winning_ride": {
      "driver": {
        "arrive_until": 2400,
        "direct_cost": 473
      },
      "passengers": [
        {
          "bid": 549,
          "id": 5,
          "price": 587,
          "cost": 587,
          "direct_dist": 3984,
          "direct_cost": 120,
          "direct_time": 270
        },
        {
          "bid": 2572,
          "id": 3,
          "price": 1862,
          "cost": 620,
          "direct_dist": 8576,
          "direct_cost": 258,
          "direct_time": 621
        }
      ],
      "cost": 257,
      "virtual_welfare": 2864
    },
    "profit": 2192,
    "cost_profit": 950.0,
    "welfare": 2864,
    "virtual_welfare": 2864,
    "running_time": 0
  },
  {
    "graph_name": "10_52",
    "n_pass": 2,
    "winning_ride": {
      "driver": {
        "arrive_until": 2400,
        "direct_cost": 466
      },
      "passengers": [
        {
          "bid": 2472,
          "id": 9,
          "price": 578,
          "cost": 578,
          "direct_dist": 8242,
          "direct_cost": 248,
          "direct_time": 591
        },
        {
          "bid": 5347,
          "id": 4,
          "price": 2153,
          "cost": 1065,
          "direct_dist": 17824,
          "direct_cost": 535,
          "direct_time": 1157
        }
      ],
      "cost": 526,
      "virtual_welfare": 7293
    },
    "profit": 2205,
    "cost_profit": 1117.0,
    "welfare": 7293,
    "virtual_welfare": 7293,
    "running_time": 0
  },
  {
    "graph_name": "10_53",
    "n_pass": 2,
    "winning_ride": {
      "driver": {
        "arrive_until": 2400,
        "direct_cost": 509
      },
      "passengers": [
        {
          "bid": 1702,
          "id": 7,
          "price": 1679,
          "cost": 700,
          "direct_dist": 5958,
          "direct_cost": 179,
          "direct_time": 459
        },
        {
          "bid": 1762,
          "id": 6,
          "price": 1684,
          "cost": 782,
          "direct_dist": 9371,
          "direct_cost": 282,
          "direct_time": 652
        }
      ],
      "cost": 344,
      "virtual_welfare": 3120
    },
    "profit": 3019,
    "cost_profit": 1138.0,
    "welfare": 3120,
    "virtual_welfare": 3120,
    "running_time": 0
  },
  {
    "graph_name": "10_54",
    "n_pass": 2,
    "winning_ride": {
      "driver": {
        "arrive_until": 2400,
        "direct_cost": 443
      },
      "passengers": [
        {
          "bid": 343,
          "id": 8,
          "price": 1060,
          "cost": 1060,
          "direct_dist": 16944,
          "direct_cost": 509,
          "direct_time": 1043
        },
        {
          "bid": 4095,
          "id": 4,
          "price": 4094,
          "cost": 1129,
          "direct_dist": 15889,
          "direct_cost": 477,
          "direct_time": 1097
        }
      ],
      "cost": 597,
      "virtual_welfare": 3841
    },
    "profit": 4557,
    "cost_profit": 1592.0,
    "welfare": 3841,
    "virtual_welfare": 3841,
    "running_time": 0
  },
  {
    "graph_name": "10_55",
    "n_pass": 2,
    "winning_ride": {
      "driver": {
        "arrive_until": 2400,
        "direct_cost": 447
      },
      "passengers": [
        {
          "bid": 3443,
          "id": 7,
          "price": 1775,
          "cost": 788,
          "direct_dist": 11477,
          "direct_cost": 345,
          "direct_time": 757
        },
        {
          "bid": 3462,
          "id": 1,
          "price": 1815,
          "cost": 774,
          "direct_dist": 11541,
          "direct_cost": 347,
          "direct_time": 831
        }
      ],
      "cost": 371,
      "virtual_welfare": 6534
    },
    "profit": 3219,
    "cost_profit": 1191.0,
    "welfare": 6534,
    "virtual_welfare": 6534,
    "running_time": 0
  },
  {
    "graph_name": "10_56",
    "n_pass": 2,
    "winning_ride": {
      "driver": {
        "arrive_until": 2400,
        "direct_cost": 432
      },
      "passengers": [
        {
          "bid": 3186,
          "id": 5,
          "price": 893,
          "cost": 826,
          "direct_dist": 11334,
          "direct_cost": 341,
          "direct_time": 742
        },
        {
          "bid": 1959,
          "id": 1,
          "price": 835,
          "cost": 439,
          "direct_dist": 6532,
          "direct_cost": 196,
          "direct_time": 531
        }
      ],
      "cost": 416,
      "virtual_welfare": 4729
    },
    "profit": 1312,
    "cost_profit": 849.0,
    "welfare": 4729,
    "virtual_welfare": 4729,
    "running_time": 0
  },
  {
    "graph_name": "10_57",
    "n_pass": 2,
    "winning_ride": {
      "driver": {
        "arrive_until": 2400,
        "direct_cost": 578
      },
      "passengers": [
        {
          "bid": 745,
          "id": 9,
          "price": 634,
          "cost": 539,
          "direct_dist": 2486,
          "direct_cost": 75,
          "direct_time": 269
        },
        {
          "bid": 1349,
          "id": 5,
          "price": 1238,
          "cost": 696,
          "direct_dist": 4499,
          "direct_cost": 135,
          "direct_time": 389
        }
      ],
      "cost": 271,
      "virtual_welfare": 1823
    },
    "profit": 1601,
    "cost_profit": 964.0,
    "welfare": 1823,
    "virtual_welfare": 1823,
    "running_time": 0
  },
  {
    "graph_name": "10_58",
    "n_pass": 2,
    "winning_ride": {
      "driver": {
        "arrive_until": 2400,
        "direct_cost": 413
      },
      "passengers": [
        {
          "bid": 3958,
          "id": 8,
          "price": 1015,
          "cost": 896,
          "direct_dist": 13196,
          "direct_cost": 396,
          "direct_time": 967
        },
        {
          "bid": 3519,
          "id": 2,
          "price": 1097,
          "cost": 876,
          "direct_dist": 11731,
          "direct_cost": 352,
          "direct_time": 826
        }
      ],
      "cost": 466,
      "virtual_welfare": 7011
    },
    "profit": 1646,
    "cost_profit": 1306.0,
    "welfare": 7011,
    "virtual_welfare": 7011,
    "running_time": 0
  },
  {
    "graph_name": "10_59",
    "n_pass": 2,
    "winning_ride": {
      "driver": {
        "arrive_until": 2400,
        "direct_cost": 500
      },
      "passengers": [
        {
          "bid": 5692,
          "id": 8,
          "price": 2285,
          "cost": 1176,
          "direct_dist": 18976,
          "direct_cost": 570,
          "direct_time": 1256
        },
        {
          "bid": 2647,
          "id": 7,
          "price": 2255,
          "cost": 895,
          "direct_dist": 10908,
          "direct_cost": 328,
          "direct_time": 667
        }
      ],
      "cost": 344,
      "virtual_welfare": 7995
    },
    "profit": 4196,
    "cost_profit": 1727.0,
    "welfare": 7995,
    "virtual_welfare": 7995,
    "running_time": 0
  },
  {
    "graph_name": "10_6",
    "n_pass": 3,
    "winning_ride": {
      "driver": {
        "arrive_until": 2400,
        "direct_cost": 418
      },
      "passengers": [
        {
          "bid": 717,
          "id": 9,
          "price": 472,
          "cost": 472,
          "direct_dist": 4032,
          "direct_cost": 121,
          "direct_time": 264
        },
        {
          "bid": 4257,
          "id": 4,
          "price": 1754,
          "cost": 1060,
          "direct_dist": 14191,
          "direct_cost": 426,
          "direct_time": 878
        },
        {
          "bid": 263,
          "id": 1,
          "price": 364,
          "cost": 364,
          "direct_dist": 1490,
          "direct_cost": 45,
          "direct_time": 87
        }
      ],
      "cost": 574,
      "virtual_welfare": 4663
    },
    "profit": 2016,
    "cost_profit": 1322.0,
    "welfare": 4663,
    "virtual_welfare": 4663,
    "running_time": 0
  },
  {
    "graph_name": "10_60",
    "n_pass": 2,
    "winning_ride": {
      "driver": {
        "arrive_until": 2400,
        "direct_cost": 583
      },
      "passengers": [
        {
          "bid": 4734,
          "id": 7,
          "price": 2605,
          "cost": 967,
          "direct_dist": 15780,
          "direct_cost": 474,
          "direct_time": 1034
        },
        {
          "bid": 3159,
          "id": 3,
          "price": 1446,
          "cost": 639,
          "direct_dist": 10533,
          "direct_cost": 316,
          "direct_time": 708
        }
      ],
      "cost": 245,
      "virtual_welfare": 7648
    },
    "profit": 3806,
    "cost_profit": 1361.0,
    "welfare": 7648,
    "virtual_welfare": 7648,
    "running_time": 0
  },
  {
    "graph_name": "10_61",
    "n_pass": 2,
    "winning_ride": {
      "driver": {
        "arrive_until": 2400,
        "direct_cost": 469
      },
      "passengers": [
        {
          "bid": 1528,
          "id": 9,
          "price": 1454,
          "cost": 505,
          "direct_dist": 5095,
          "direct_cost": 153,
          "direct_time": 404
        },
        {
          "bid": 3056,
          "id": 1,
          "price": 2113,
          "cost": 816,
          "direct_dist": 10187,
          "direct_cost": 306,
          "direct_time": 681
        }
      ],
      "cost": 382,
      "virtual_welfare": 4202
    },
    "profit": 3185,
    "cost_profit": 939.0,
    "welfare": 4202,
    "virtual_welfare": 4202,
    "running_time": 0
  },
  {
    "graph_name": "10_62",
    "n_pass": 1,
    "winning_ride": {
      "driver": {
        "arrive_until": 2400,
        "direct_cost": 529
      },
      "passengers": [
        {
          "bid": 3646,
          "id": 2,
          "price": 3074,
          "cost": 899,
          "direct_dist": 12155,
          "direct_cost": 365,
          "direct_time": 775
        }
      ],
      "cost": 534,
      "virtual_welfare": 3112
    },
    "profit": 2540,
    "cost_profit": 365.0,
    "welfare": 3112,
    "virtual_welfare": 3112,
    "running_time": 0
  },
  {
    "graph_name": "10_63",
    "n_pass": 2,
    "winning_ride": {
      "driver": {
        "arrive_until": 2400,
        "direct_cost": 564
      },
      "passengers": [
        {
          "bid": 1680,
          "id": 8,
          "price": 897,
          "cost": 731,
          "direct_dist": 5603,
          "direct_cost": 169,
          "direct_time": 304
        },
        {
          "bid": 3131,
          "id": 1,
          "price": 787,
          "cost": 787,
          "direct_dist": 10439,
          "direct_cost": 314,
          "direct_time": 699
        }
      ],
      "cost": 327,
      "virtual_welfare": 4484
    },
    "profit": 1357,
    "cost_profit": 1191.0,
    "welfare": 4484,
    "virtual_welfare": 4484,
    "running_time": 0
  },
  {
    "graph_name": "10_64",
    "n_pass": 1,
    "winning_ride": {
      "driver": {
        "arrive_until": 2400,
        "direct_cost": 415
      },
      "passengers": [
        {
          "bid": 5038,
          "id": 9,
          "price": 4867,
          "cost": 1179,
          "direct_dist": 18271,
          "direct_cost": 549,
          "direct_time": 1171
        }
      ],
      "cost": 558,
      "virtual_welfare": 4480
    },
    "profit": 4309,
    "cost_profit": 621.0,
    "welfare": 4480,
    "virtual_welfare": 4480,
    "running_time": 0
  },
  {
    "graph_name": "10_65",
    "n_pass": 2,
    "winning_ride": {
      "driver": {
        "arrive_until": 2400,
        "direct_cost": 457
      },
      "passengers": [
        {
          "bid": 2371,
          "id": 8,
          "price": 1942,
          "cost": 770,
          "direct_dist": 11347,
          "direct_cost": 341,
          "direct_time": 709
        },
        {
          "bid": 1277,
          "id": 7,
          "price": 848,
          "cost": 459,
          "direct_dist": 4883,
          "direct_cost": 147,
          "direct_time": 424
        }
      ],
      "cost": 424,
      "virtual_welfare": 3224
    },
    "profit": 2366,
    "cost_profit": 805.0,
    "welfare": 3224,
    "virtual_welfare": 3224,
    "running_time": 0
  },
  {
    "graph_name": "10_66",
    "n_pass": 2,
    "winning_ride": {
      "driver": {
        "arrive_until": 2400,
        "direct_cost": 453
      },
      "passengers": [
        {
          "bid": 3903,
          "id": 8,
          "price": 3852,
          "cost": 848,
          "direct_dist": 13010,
          "direct_cost": 391,
          "direct_time": 825
        },
        {
          "bid": 3848,
          "id": 4,
          "price": 3847,
          "cost": 829,
          "direct_dist": 12829,
          "direct_cost": 385,
          "direct_time": 808
        }
      ],
      "cost": 385,
      "virtual_welfare": 7366
    },
    "profit": 7314,
    "cost_profit": 1292.0,
    "welfare": 7366,
    "virtual_welfare": 7366,
    "running_time": 0
  },
  {
    "graph_name": "10_67",
    "n_pass": 2,
    "winning_ride": {
      "driver": {
        "arrive_until": 2400,
        "direct_cost": 434
      },
      "passengers": [
        {
          "bid": 2388,
          "id": 9,
          "price": 2294,
          "cost": 560,
          "direct_dist": 7960,
          "direct_cost": 239,
          "direct_time": 560
        },
        {
          "bid": 285,
          "id": 5,
          "price": 540,
          "cost": 540,
          "direct_dist": 7346,
          "direct_cost": 221,
          "direct_time": 447
        }
      ],
      "cost": 421,
      "virtual_welfare": 2252
    },
    "profit": 2413,
    "cost_profit": 679.0,
    "welfare": 2252,
    "virtual_welfare": 2252,
    "running_time": 0
  },
  {
    "graph_name": "10_68",
    "n_pass": 2,
    "winning_ride": {
      "driver": {
        "arrive_until": 2400,
        "direct_cost": 509
      },
      "passengers": [
        {
          "bid": 2090,
          "id": 6,
          "price": 1985,
          "cost": 878,
          "direct_dist": 7862,
          "direct_cost": 236,
          "direct_time": 516
        },
        {
          "bid": 1563,
          "id": 5,
          "price": 1458,
          "cost": 814,
          "direct_dist": 8703,
          "direct_cost": 262,
          "direct_time": 576
        }
      ],
      "cost": 349,
      "virtual_welfare": 3304
    },
    "profit": 3094,
    "cost_profit": 1343.0,
    "welfare": 3304,
    "virtual_welfare": 3304,
    "running_time": 0
  },
  {
    "graph_name": "10_69",
    "n_pass": 2,
    "winning_ride": {
      "driver": {
        "arrive_until": 2400,
        "direct_cost": 405
      },
      "passengers": [
        {
          "bid": 3990,
          "id": 10,
          "price": 2192,
          "cost": 803,
          "direct_dist": 13301,
          "direct_cost": 400,
          "direct_time": 870
        },
        {
          "bid": 962,
          "id": 6,
          "price": 671,
          "cost": 671,
          "direct_dist": 11123,
          "direct_cost": 334,
          "direct_time": 708
        }
      ],
      "cost": 475,
      "virtual_welfare": 4477
    },
    "profit": 2388,
    "cost_profit": 999.0,
    "welfare": 4477,
    "virtual_welfare": 4477,
    "running_time": 0
  },
  {
    "graph_name": "10_7",
    "n_pass": 2,
    "winning_ride": {
      "driver": {
        "arrive_until": 2400,
        "direct_cost": 453
      },
      "passengers": [
        {
          "bid": 1200,
          "id": 6,
          "price": 1002,
          "cost": 532,
          "direct_dist": 6493,
          "direct_cost": 195,
          "direct_time": 410
        },
        {
          "bid": 2513,
          "id": 2,
          "price": 936,
          "cost": 570,
          "direct_dist": 8379,
          "direct_cost": 252,
          "direct_time": 528
        }
      ],
      "cost": 522,
      "virtual_welfare": 3191
    },
    "profit": 1416,
    "cost_profit": 580.0,
    "welfare": 3191,
    "virtual_welfare": 3191,
    "running_time": 0
  },
  {
    "graph_name": "10_70",
    "n_pass": 2,
    "winning_ride": {
      "driver": {
        "arrive_until": 2400,
        "direct_cost": 464
      },
      "passengers": [
        {
          "bid": 1768,
          "id": 8,
          "price": 1197,
          "cost": 570,
          "direct_dist": 10190,
          "direct_cost": 306,
          "direct_time": 666
        },
        {
          "bid": 3528,
          "id": 4,
          "price": 2957,
          "cost": 743,
          "direct_dist": 11760,
          "direct_cost": 353,
          "direct_time": 816
        }
      ],
      "cost": 475,
      "virtual_welfare": 4821
    },
    "profit": 3679,
    "cost_profit": 838.0,
    "welfare": 4821,
    "virtual_welfare": 4821,
    "running_time": 0
  },
  {
    "graph_name": "10_71",
    "n_pass": 1,
    "winning_ride": {
      "driver": {
        "arrive_until": 2400,
        "direct_cost": 505
      },
      "passengers": [
        {
          "bid": 2362,
          "id": 9,
          "price": 2180,
          "cost": 759,
          "direct_dist": 9151,
          "direct_cost": 275,
          "direct_time": 627
        }
      ],
      "cost": 230,
      "virtual_welfare": 2132
    },
    "profit": 1950,
    "cost_profit": 529.0,
    "welfare": 2132,
    "virtual_welfare": 2132,
    "running_time": 0
  },
  {
    "graph_name": "10_72",
    "n_pass": 3,
    "winning_ride": {
      "driver": {
        "arrive_until": 2400,
        "direct_cost": 520
      },
      "passengers": [
        {
          "bid": 1524,
          "id": 6,
          "price": 1270,
          "cost": 422,
          "direct_dist": 5082,
          "direct_cost": 153,
          "direct_time": 359
        },
        {
          "bid": 2192,
          "id": 3,
          "price": 1079,
          "cost": 601,
          "direct_dist": 7308,
          "direct_cost": 220,
          "direct_time": 521
        },
        {
          "bid": 547,
          "id": 2,
          "price": 293,
          "cost": 119,
          "direct_dist": 1826,
          "direct_cost": 55,
          "direct_time": 141
        }
      ],
      "cost": 291,
      "virtual_welfare": 3972
    },
    "profit": 2351,
    "cost_profit": 851.0,
    "welfare": 3972,
    "virtual_welfare": 3972,
    "running_time": 0
  },
  {
    "graph_name": "10_73",
    "n_pass": 2,
    "winning_ride": {
      "driver": {
        "arrive_until": 2400,
        "direct_cost": 458
      },
      "passengers": [
        {
          "bid": 1513,
          "id": 8,
          "price": 1306,
          "cost": 542,
          "direct_dist": 5529,
          "direct_cost": 166,
          "direct_time": 371
        },
        {
          "bid": 3543,
          "id": 4,
          "price": 1424,
          "cost": 925,
          "direct_dist": 11811,
          "direct_cost": 355,
          "direct_time": 788
        }
      ],
      "cost": 451,
      "virtual_welfare": 4605
    },
    "profit": 2279,
    "cost_profit": 1016.0,
    "welfare": 4605,
    "virtual_welfare": 4605,
    "running_time": 0
  },
  {
    "graph_name": "10_74",
    "n_pass": 2,
    "winning_ride": {
      "driver": {
        "arrive_until": 2400,
        "direct_cost": 550
      },
      "passengers": [
        {
          "bid": 2139,
          "id": 8,
          "price": 1283,
          "cost": 692,
          "direct_dist": 8871,
          "direct_cost": 267,
          "direct_time": 556
        },
        {
          "bid": 5044,
          "id": 6,
          "price": 1196,
          "cost": 1056,
          "direct_dist": 16815,
          "direct_cost": 505,
          "direct_time": 1142
        }
      ],
      "cost": 389,
      "virtual_welfare": 6794
    },
    "profit": 2090,
    "cost_profit": 1359.0,
    "welfare": 6794,
    "virtual_welfare": 6794,
    "running_time": 0
  },
  {
    "graph_name": "10_75",
    "n_pass": 2,
    "winning_ride": {
      "driver": {
        "arrive_until": 2400,
        "direct_cost": 543
      },
      "passengers": [
        {
          "bid": 1812,
          "id": 10,
          "price": 844,
          "cost": 597,
          "direct_dist": 6043,
          "direct_cost": 182,
          "direct_time": 440
        },
        {
          "bid": 2379,
          "id": 1,
          "price": 1411,
          "cost": 703,
          "direct_dist": 7931,
          "direct_cost": 238,
          "direct_time": 496
        }
      ],
      "cost": 530,
      "virtual_welfare": 3661
    },
    "profit": 1725,
    "cost_profit": 770.0,
    "welfare": 3661,
    "virtual_welfare": 3661,
    "running_time": 0
  },
  {
    "graph_name": "10_76",
    "n_pass": 1,
    "winning_ride": {
      "driver": {
        "arrive_until": 2400,
        "direct_cost": 450
      },
      "passengers": [
        {
          "bid": 3192,
          "id": 8,
          "price": 3186,
          "cost": 713,
          "direct_dist": 10643,
          "direct_cost": 320,
          "direct_time": 809
        }
      ],
      "cost": 261,
      "virtual_welfare": 2931
    },
    "profit": 2925,
    "cost_profit": 452.0,
    "welfare": 2931,
    "virtual_welfare": 2931,
    "running_time": 0
  },
  {
    "graph_name": "10_77",
    "n_pass": 2,
    "winning_ride": {
      "driver": {
        "arrive_until": 2400,
        "direct_cost": 449
      },
      "passengers": [
        {
          "bid": 2039,
          "id": 10,
          "price": 1710,
          "cost": 1042,
          "direct_dist": 16447,
          "direct_cost": 494,
          "direct_time": 1082
        },
        {
          "bid": 1802,
          "id": 3,
          "price": 1473,
          "cost": 612,
          "direct_dist": 6009,
          "direct_cost": 181,
          "direct_time": 343
        }
      ],
      "cost": 500,
      "virtual_welfare": 3341
    },
    "profit": 2683,
    "cost_profit": 1154.0,
    "welfare": 3341,
    "virtual_welfare": 3341,
    "running_time": 0
  },
  {
    "graph_name": "10_78",
    "n_pass": 1,
    "winning_ride": {
      "driver": {
        "arrive_until": 2400,
        "direct_cost": 504
      },
      "passengers": [
        {
          "bid": 4823,
          "id": 8,
          "price": 4396,
          "cost": 1001,
          "direct_dist": 16638,
          "direct_cost": 500,
          "direct_time": 1072
        }
      ],
      "cost": 276,
      "virtual_welfare": 4547
    },
    "profit": 4120,
    "cost_profit": 725.0,
    "welfare": 4547,
    "virtual_welfare": 4547,
    "running_time": 0
  },
  {
    "graph_name": "10_79",
    "n_pass": 3,
    "winning_ride": {
      "driver": {
        "arrive_until": 2400,
        "direct_cost": 471
      },
      "passengers": [
        {
          "bid": 1387,
          "id": 9,
          "price": 816,
          "cost": 816,
          "direct_dist": 8134,
          "direct_cost": 245,
          "direct_time": 531
        },
        {
          "bid": 2532,
          "id": 4,
          "price": 837,
          "cost": 837,
          "direct_dist": 8441,
          "direct_cost": 254,
          "direct_time": 643
        },
        {
          "bid": 1978,
          "id": 1,
          "price": 394,
          "cost": 394,
          "direct_dist": 6594,
          "direct_cost": 198,
          "direct_time": 474
        }
      ],
      "cost": 457,
      "virtual_welfare": 5440
    },
    "profit": 1590,
    "cost_profit": 1590.0,
    "welfare": 5440,
    "virtual_welfare": 5440,
    "running_time": 0
  },
  {
    "graph_name": "10_8",
    "n_pass": 2,
    "winning_ride": {
      "driver": {
        "arrive_until": 2400,
        "direct_cost": 457
      },
      "passengers": [
        {
          "bid": 102,
          "id": 9,
          "price": 98,
          "cost": 98,
          "direct_dist": 472,
          "direct_cost": 15,
          "direct_time": 55
        },
        {
          "bid": 3087,
          "id": 2,
          "price": 2032,
          "cost": 807,
          "direct_dist": 10293,
          "direct_cost": 309,
          "direct_time": 712
        }
      ],
      "cost": 349,
      "virtual_welfare": 2840
    },
    "profit": 1781,
    "cost_profit": 556.0,
    "welfare": 2840,
    "virtual_welfare": 2840,
    "running_time": 0
  },
  {
    "graph_name": "10_80",
    "n_pass": 2,
    "winning_ride": {
      "driver": {
        "arrive_until": 2400,
        "direct_cost": 521
      },
      "passengers": [
        {
          "bid": 4404,
          "id": 5,
          "price": 1070,
          "cost": 1031,
          "direct_dist": 14680,
          "direct_cost": 441,
          "direct_time": 1038
        },
        {
          "bid": 5446,
          "id": 2,
          "price": 1093,
          "cost": 1093,
          "direct_dist": 18156,
          "direct_cost": 545,
          "direct_time": 1201
        }
      ],
      "cost": 416,
      "virtual_welfare": 9434
    },
    "profit": 1747,
    "cost_profit": 1708.0,
    "welfare": 9434,
    "virtual_welfare": 9434,
    "running_time": 0
  },
  {
    "graph_name": "10_81",
    "n_pass": 1,
    "winning_ride": {
      "driver": {
        "arrive_until": 2400,
        "direct_cost": 461
      },
      "passengers": [
        {
          "bid": 4270,
          "id": 4,
          "price": 3527,
          "cost": 972,
          "direct_dist": 14235,
          "direct_cost": 428,
          "direct_time": 979
        }
      ],
      "cost": 483,
      "virtual_welfare": 3787
    },
    "profit": 3044,
    "cost_profit": 489.0,
    "welfare": 3787,
    "virtual_welfare": 3787,
    "running_time": 0
  },
  {
    "graph_name": "10_82",
    "n_pass": 2,
    "winning_ride": {
      "driver": {
        "arrive_until": 2400,
        "direct_cost": 483
      },
      "passengers": [
        {
          "bid": 2690,
          "id": 3,
          "price": 2355,
          "cost": 572,
          "direct_dist": 8968,
          "direct_cost": 270,
          "direct_time": 614
        },
        {
          "bid": 1056,
          "id": 1,
          "price": 520,
          "cost": 520,
          "direct_dist": 3520,
          "direct_cost": 106,
          "direct_time": 262
        }
      ],
      "cost": 432,
      "virtual_welfare": 3314
    },
    "profit": 2443,
    "cost_profit": 660.0,
    "welfare": 3314,
    "virtual_welfare": 3314,
    "running_time": 0
  },
  {
    "graph_name": "10_83",
    "n_pass": 2,
    "winning_ride": {
      "driver": {
        "arrive_until": 2400,
        "direct_cost": 399
      },
      "passengers": [
        {
          "bid": 3086,
          "id": 5,
          "price": 2683,
          "cost": 691,
          "direct_dist": 10287,
          "direct_cost": 309,
          "direct_time": 663
        },
        {
          "bid": 3688,
          "id": 3,
          "price": 2524,
          "cost": 819,
          "direct_dist": 12294,
          "direct_cost": 369,
          "direct_time": 867
        }
      ],
      "cost": 415,
      "virtual_welfare": 6359
    },
    "profit": 4792,
    "cost_profit": 1095.0,
    "welfare": 6359,
    "virtual_welfare": 6359,
    "running_time": 0
  },
  {
    "graph_name": "10_84",
    "n_pass": 2,
    "winning_ride": {
      "driver": {
        "arrive_until": 2400,
        "direct_cost": 455
      },
      "passengers": [
        {
          "bid": 2121,
          "id": 7,
          "price": 2059,
          "cost": 931,
          "direct_dist": 12124,
          "direct_cost": 364,
          "direct_time": 847
        },
        {
          "bid": 3665,
          "id": 5,
          "price": 2178,
          "cost": 824,
          "direct_dist": 12218,
          "direct_cost": 367,
          "direct_time": 757
        }
      ],
      "cost": 535,
      "virtual_welfare": 5251
    },
    "profit": 3702,
    "cost_profit": 1220.0,
    "welfare": 5251,
    "virtual_welfare": 5251,
    "running_time": 0
  },
  {
    "graph_name": "10_85",
    "n_pass": 2,
    "winning_ride": {
      "driver": {
        "arrive_until": 2400,
        "direct_cost": 498
      },
      "passengers": [
        {
          "bid": 1489,
          "id": 7,
          "price": 1382,
          "cost": 537,
          "direct_dist": 4964,
          "direct_cost": 149,
          "direct_time": 357
        },
        {
          "bid": 4254,
          "id": 4,
          "price": 1345,
          "cost": 904,
          "direct_dist": 14180,
          "direct_cost": 426,
          "direct_time": 978
        }
      ],
      "cost": 290,
      "virtual_welfare": 5453
    },
    "profit": 2437,
    "cost_profit": 1151.0,
    "welfare": 5453,
    "virtual_welfare": 5453,
    "running_time": 0
  },
  {
    "graph_name": "10_86",
    "n_pass": 2,
    "winning_ride": {
      "driver": {
        "arrive_until": 2400,
        "direct_cost": 580
      },
      "passengers": [
        {
          "bid": 4687,
          "id": 10,
          "price": 3732,
          "cost": 1005,
          "direct_dist": 15625,
          "direct_cost": 469,
          "direct_time": 972
        },
        {
          "bid": 5055,
          "id": 3,
          "price": 3785,
          "cost": 979,
          "direct_dist": 16850,
          "direct_cost": 506,
          "direct_time": 1226
        }
      ],
      "cost": 219,
      "virtual_welfare": 9523
    },
    "profit": 7298,
    "cost_profit": 1765.0,
    "welfare": 9523,
    "virtual_welfare": 9523,
    "running_time": 0
  },
  {
    "graph_name": "10_87",
    "n_pass": 2,
    "winning_ride": {
      "driver": {
        "arrive_until": 2400,
        "direct_cost": 464
      },
      "passengers": [
        {
          "bid": 2340,
          "id": 7,
          "price": 833,
          "cost": 781,
          "direct_dist": 7801,
          "direct_cost": 235,
          "direct_time": 640
        },
        {
          "bid": 4673,
          "id": 5,
          "price": 1385,
          "cost": 985,
          "direct_dist": 15578,
          "direct_cost": 468,
          "direct_time": 1035
        }
      ],
      "cost": 302,
      "virtual_welfare": 6711
    },
    "profit": 1916,
    "cost_profit": 1464.0,
    "welfare": 6711,
    "virtual_welfare": 6711,
    "running_time": 0
  },
  {
    "graph_name": "10_88",
    "n_pass": 2,
    "winning_ride": {
      "driver": {
        "arrive_until": 2400,
        "direct_cost": 447
      },
      "passengers": [
        {
          "bid": 3723,
          "id": 8,
          "price": 783,
          "cost": 783,
          "direct_dist": 12412,
          "direct_cost": 373,
          "direct_time": 796
        },
        {
          "bid": 2549,
          "id": 2,
          "price": 561,
          "cost": 561,
          "direct_dist": 8499,
          "direct_cost": 255,
          "direct_time": 607
        }
      ],
      "cost": 473,
      "virtual_welfare": 5799
    },
    "profit": 871,
    "cost_profit": 871.0,
    "welfare": 5799,
    "virtual_welfare": 5799,
    "running_time": 0
  },
  {
    "graph_name": "10_89",
    "n_pass": 2,
    "winning_ride": {
      "driver": {
        "arrive_until": 2400,
        "direct_cost": 573
      },
      "passengers": [
        {
          "bid": 5427,
          "id": 10,
          "price": 4310,
          "cost": 1209,
          "direct_dist": 18091,
          "direct_cost": 543,
          "direct_time": 1095
        },
        {
          "bid": 4803,
          "id": 2,
          "price": 4359,
          "cost": 1158,
          "direct_dist": 16010,
          "direct_cost": 481,
          "direct_time": 1069
        }
      ],
      "cost": 298,
      "virtual_welfare": 9932
    },
    "profit": 8371,
    "cost_profit": 2069.0,
    "welfare": 9932,
    "virtual_welfare": 9932,
    "running_time": 0
  },
  {
    "graph_name": "10_9",
    "n_pass": 2,
    "winning_ride": {
      "driver": {
        "arrive_until": 2400,
        "direct_cost": 461
      },
      "passengers": [
        {
          "bid": 2401,
          "id": 4,
          "price": 1028,
          "cost": 645,
          "direct_dist": 9847,
          "direct_cost": 296,
          "direct_time": 688
        },
        {
          "bid": 1563,
          "id": 3,
          "price": 1114,
          "cost": 610,
          "direct_dist": 5210,
          "direct_cost": 157,
          "direct_time": 364
        }
      ],
      "cost": 196,
      "virtual_welfare": 3768
    },
    "profit": 1946,
    "cost_profit": 1059.0,
    "welfare": 3768,
    "virtual_welfare": 3768,
    "running_time": 0
  },
  {
    "graph_name": "10_90",
    "n_pass": 2,
    "winning_ride": {
      "driver": {
        "arrive_until": 2400,
        "direct_cost": 400
      },
      "passengers": [
        {
          "bid": 2459,
          "id": 10,
          "price": 814,
          "cost": 551,
          "direct_dist": 8199,
          "direct_cost": 246,
          "direct_time": 600
        },
        {
          "bid": 4104,
          "id": 4,
          "price": 2459,
          "cost": 915,
          "direct_dist": 13680,
          "direct_cost": 411,
          "direct_time": 889
        }
      ],
      "cost": 439,
      "virtual_welfare": 6124
    },
    "profit": 2834,
    "cost_profit": 1027.0,
    "welfare": 6124,
    "virtual_welfare": 6124,
    "running_time": 0
  },
  {
    "graph_name": "10_91",
    "n_pass": 2,
    "winning_ride": {
      "driver": {
        "arrive_until": 2400,
        "direct_cost": 385
      },
      "passengers": [
        {
          "bid": 3158,
          "id": 6,
          "price": 2207,
          "cost": 743,
          "direct_dist": 10528,
          "direct_cost": 316,
          "direct_time": 760
        },
        {
          "bid": 3721,
          "id": 5,
          "price": 3048,
          "cost": 894,
          "direct_dist": 12406,
          "direct_cost": 373,
          "direct_time": 877
        }
      ],
      "cost": 480,
      "virtual_welfare": 6399
    },
    "profit": 4775,
    "cost_profit": 1157.0,
    "welfare": 6399,
    "virtual_welfare": 6399,
    "running_time": 0
  },
  {
    "graph_name": "10_92",
    "n_pass": 2,
    "winning_ride": {
      "driver": {
        "arrive_until": 2400,
        "direct_cost": 460
      },
      "passengers": [
        {
          "bid": 3835,
          "id": 7,
          "price": 890,
          "cost": 890,
          "direct_dist": 12786,
          "direct_cost": 384,
          "direct_time": 758
        },
        {
          "bid": 4253,
          "id": 1,
          "price": 987,
          "cost": 987,
          "direct_dist": 15563,
          "direct_cost": 467,
          "direct_time": 935
        }
      ],
      "cost": 372,
      "virtual_welfare": 7716
    },
    "profit": 1505,
    "cost_profit": 1505.0,
    "welfare": 7716,
    "virtual_welfare": 7716,
    "running_time": 0
  },
  {
    "graph_name": "10_93",
    "n_pass": 1,
    "winning_ride": {
      "driver": {
        "arrive_until": 2400,
        "direct_cost": 408
      },
      "passengers": [
        {
          "bid": 4538,
          "id": 6,
          "price": 3840,
          "cost": 1050,
          "direct_dist": 15129,
          "direct_cost": 454,
          "direct_time": 1022
        }
      ],
      "cost": 444,
      "virtual_welfare": 4094
    },
    "profit": 3396,
    "cost_profit": 606.0,
    "welfare": 4094,
    "virtual_welfare": 4094,
    "running_time": 0
  },
  {
    "graph_name": "10_94",
    "n_pass": 3,
    "winning_ride": {
      "driver": {
        "arrive_until": 2400,
        "direct_cost": 496
      },
      "passengers": [
        {
          "bid": 1758,
          "id": 3,
          "price": 364,
          "cost": 364,
          "direct_dist": 5862,
          "direct_cost": 176,
          "direct_time": 360
        },
        {
          "bid": 1946,
          "id": 2,
          "price": 588,
          "cost": 588,
          "direct_dist": 6489,
          "direct_cost": 195,
          "direct_time": 394
        },
        {
          "bid": 4580,
          "id": 1,
          "price": 996,
          "cost": 996,
          "direct_dist": 15267,
          "direct_cost": 459,
          "direct_time": 966
        }
      ],
      "cost": 487,
      "virtual_welfare": 7797
    },
    "profit": 1461,
    "cost_profit": 1461.0,
    "welfare": 7797,
    "virtual_welfare": 7797,
    "running_time": 0
  },
  {
    "graph_name": "10_95",
    "n_pass": 2,
    "winning_ride": {
      "driver": {
        "arrive_until": 2400,
        "direct_cost": 450
      },
      "passengers": [
        {
          "bid": 4139,
          "id": 8,
          "price": 1765,
          "cost": 1094,
          "direct_dist": 15916,
          "direct_cost": 478,
          "direct_time": 1048
        },
        {
          "bid": 3576,
          "id": 2,
          "price": 884,
          "cost": 884,
          "direct_dist": 12461,
          "direct_cost": 374,
          "direct_time": 828
        }
      ],
      "cost": 402,
      "virtual_welfare": 7313
    },
    "profit": 2247,
    "cost_profit": 1576.0,
    "welfare": 7313,
    "virtual_welfare": 7313,
    "running_time": 0
  },
  {
    "graph_name": "10_96",
    "n_pass": 1,
    "winning_ride": {
      "driver": {
        "arrive_until": 2400,
        "direct_cost": 437
      },
      "passengers": [
        {
          "bid": 4803,
          "id": 5,
          "price": 3937,
          "cost": 899,
          "direct_dist": 16011,
          "direct_cost": 481,
          "direct_time": 1034
        }
      ],
      "cost": 454,
      "virtual_welfare": 4349
    },
    "profit": 3483,
    "cost_profit": 445.0,
    "welfare": 4349,
    "virtual_welfare": 4349,
    "running_time": 0
  },
  {
    "graph_name": "10_97",
    "n_pass": 1,
    "winning_ride": {
      "driver": {
        "arrive_until": 2400,
        "direct_cost": 548
      },
      "passengers": [
        {
          "bid": 5295,
          "id": 4,
          "price": 4634,
          "cost": 1140,
          "direct_dist": 17652,
          "direct_cost": 530,
          "direct_time": 1162
        }
      ],
      "cost": 393,
      "virtual_welfare": 4902
    },
    "profit": 4241,
    "cost_profit": 747.0,
    "welfare": 4902,
    "virtual_welfare": 4902,
    "running_time": 0
  },
  {
    "graph_name": "10_98",
    "n_pass": 1,
    "winning_ride": {
      "driver": {
        "arrive_until": 2400,
        "direct_cost": 387
      },
      "passengers": [
        {
          "bid": 3258,
          "id": 5,
          "price": 3020,
          "cost": 905,
          "direct_dist": 10863,
          "direct_cost": 326,
          "direct_time": 706
        }
      ],
      "cost": 406,
      "virtual_welfare": 2852
    },
    "profit": 2614,
    "cost_profit": 499.0,
    "welfare": 2852,
    "virtual_welfare": 2852,
    "running_time": 0
  },
  {
    "graph_name": "10_99",
    "n_pass": 2,
    "winning_ride": {
      "driver": {
        "arrive_until": 2400,
        "direct_cost": 584
      },
      "passengers": [
        {
          "bid": 2412,
          "id": 9,
          "price": 1109,
          "cost": 608,
          "direct_dist": 10031,
          "direct_cost": 301,
          "direct_time": 713
        },
        {
          "bid": 1782,
          "id": 2,
          "price": 1159,
          "cost": 761,
          "direct_dist": 7417,
          "direct_cost": 223,
          "direct_time": 504
        }
      ],
      "cost": 229,
      "virtual_welfare": 3965
    },
    "profit": 2039,
    "cost_profit": 1140.0,
    "welfare": 3965,
    "virtual_welfare": 3965,
    "running_time": 0
  }
]