[
  {
    "graph_name": "10_0",
    "n_pass": 1,
    "winning_ride": {
      "driver": {
        "arrive_until": 2400,
        "direct_cost": 457
      },
      "passengers": [
        {
          "bid": 2571,
          "id": 8,
          "price": 1630,
          "cost": 667,
          "direct_dist": 8571,
          "direct_cost": 258,
          "direct_time": 540
        }
      ],
      "cost": 523,
      "virtual_welfare": 1904
    },
    "profit": 1107,
    "cost_profit": 144.0,
    "welfare": 2048,
    "virtual_welfare": 1904,
    "running_time": 0
  },
  {
    "graph_name": "10_1",
    "n_pass": 1,
    "winning_ride": {
      "driver": {
        "arrive_until": 2400,
        "direct_cost": 406
      },
      "passengers": [
        {
          "bid": 5124,
          "id": 3,
          "price": 2650,
          "cost": 1007,
          "direct_dist": 17083,
          "direct_cost": 513,
          "direct_time": 1118
        }
      ],
      "cost": 337,
      "virtual_welfare": 4117
    },
    "profit": 2313,
    "cost_profit": 670.0,
    "welfare": 4787,
    "virtual_welfare": 4117,
    "running_time": 0
  },
  {
    "graph_name": "10_10",
    "n_pass": 1,
    "winning_ride": {
      "driver": {
        "arrive_until": 2400,
        "direct_cost": 459
      },
      "passengers": [
        {
          "bid": 5367,
          "id": 7,
          "price": 4427,
          "cost": 1139,
          "direct_dist": 17891,
          "direct_cost": 537,
          "direct_time": 1179
        }
      ],
      "cost": 386,
      "virtual_welfare": 4228
    },
    "profit": 4041,
    "cost_profit": 753.0,
    "welfare": 4981,
    "virtual_welfare": 4228,
    "running_time": 0
  },
  {
    "graph_name": "10_11",
    "n_pass": 1,
    "winning_ride": {
      "driver": {
        "arrive_until": 2400,
        "direct_cost": 425
      },
      "passengers": [
        {
          "bid": 4866,
          "id": 3,
          "price": 2914,
          "cost": 1017,
          "direct_dist": 16222,
          "direct_cost": 487,
          "direct_time": 1050
        }
      ],
      "cost": 446,
      "virtual_welfare": 3849
    },
    "profit": 2468,
    "cost_profit": 571.0,
    "welfare": 4420,
    "virtual_welfare": 3849,
    "running_time": 0
  },
  {
    "graph_name": "10_12",
    "n_pass": 2,
    "winning_ride": {
      "driver": {
        "arrive_until": 2400,
        "direct_cost": 516
      },
      "passengers": [
        {
          "bid": 3961,
          "id": 2,
          "price": 2462,
          "cost": 831,
          "direct_dist": 13204,
          "direct_cost": 397,
          "direct_time": 874
        },
        {
          "bid": 3252,
          "id": 1,
          "price": 2459,
          "cost": 828,
          "direct_dist": 10841,
          "direct_cost": 326,
          "direct_time": 704
        }
      ],
      "cost": 407,
      "virtual_welfare": 5554
    },
    "profit": 4514,
    "cost_profit": 1252.0,
    "welfare": 6806,
    "virtual_welfare": 5554,
    "running_time": 0
  },
  {
    "graph_name": "10_13",
    "n_pass": 2,
    "winning_ride": {
      "driver": {
        "arrive_until": 2400,
        "direct_cost": 486
      },
      "passengers": [
        {
          "bid": 3773,
          "id": 6,
          "price": 2819,
          "cost": 912,
          "direct_dist": 12579,
          "direct_cost": 378,
          "direct_time": 785
        },
        {
          "bid": 4807,
          "id": 1,
          "price": 2422,
          "cost": 992,
          "direct_dist": 16024,
          "direct_cost": 481,
          "direct_time": 1053
        }
      ],
      "cost": 494,
      "virtual_welfare": 6676
    },
    "profit": 4747,
    "cost_profit": 1410.0,
    "welfare": 8086,
    "virtual_welfare": 6676,
    "running_time": 0
  },
  {
    "graph_name": "10_14",
    "n_pass": 1,
    "winning_ride": {
      "driver": {
        "arrive_until": 2400,
        "direct_cost": 501
      },
      "passengers": [
        {
          "bid": 2235,
          "id": 5,
          "price": 2210,
          "cost": 553,
          "direct_dist": 7450,
          "direct_cost": 224,
          "direct_time": 481
        }
      ],
      "cost": 45,
      "virtual_welfare": 1682
    },
    "profit": 2165,
    "cost_profit": 508.0,
    "welfare": 2190,
    "virtual_welfare": 1682,
    "running_time": 0
  },
  {
    "graph_name": "10_15",
    "n_pass": 2,
    "winning_ride": {
      "driver": {
        "arrive_until": 2400,
        "direct_cost": 485
      },
      "passengers": [
        {
          "bid": 2429,
          "id": 6,
          "price": 1891,
          "cost": 672,
          "direct_dist": 10087,
          "direct_cost": 303,
          "direct_time": 673
        },
        {
          "bid": 3207,
          "id": 3,
          "price": 1646,
          "cost": 768,
          "direct_dist": 10690,
          "direct_cost": 321,
          "direct_time": 736
        }
      ],
      "cost": 415,
      "virtual_welfare": 4196
    },
    "profit": 3122,
    "cost_profit": 1025.0,
    "welfare": 5221,
    "virtual_welfare": 4196,
    "running_time": 0
  },
  {
    "graph_name": "10_16",
    "n_pass": 2,
    "winning_ride": {
      "driver": {
        "arrive_until": 2400,
        "direct_cost": 432
      },
      "passengers": [
        {
          "bid": 3381,
          "id": 8,
          "price": 2293,
          "cost": 761,
          "direct_dist": 11272,
          "direct_cost": 339,
          "direct_time": 719
        },
        {
          "bid": 3922,
          "id": 7,
          "price": 2167,
          "cost": 857,
          "direct_dist": 13074,
          "direct_cost": 393,
          "direct_time": 884
        }
      ],
      "cost": 287,
      "virtual_welfare": 5685
    },
    "profit": 4173,
    "cost_profit": 1331.0,
    "welfare": 7016,
    "virtual_welfare": 5685,
    "running_time": 0
  },
  {
    "graph_name": "10_17",
    "n_pass": 2,
    "winning_ride": {
      "driver": {
        "arrive_until": 2400,
        "direct_cost": 461
      },
      "passengers": [
        {
          "bid": 2214,
          "id": 8,
          "price": 1482,
          "cost": 741,
          "direct_dist": 7382,
          "direct_cost": 222,
          "direct_time": 439
        },
        {
          "bid": 2104,
          "id": 2,
          "price": 1358,
          "cost": 622,
          "direct_dist": 8720,
          "direct_cost": 262,
          "direct_time": 612
        }
      ],
      "cost": 465,
      "virtual_welfare": 2955
    },
    "profit": 2375,
    "cost_profit": 898.0,
    "welfare": 3853,
    "virtual_welfare": 2955,
    "running_time": 0
  },
  {
    "graph_name": "10_18",
    "n_pass": 2,
    "winning_ride": {
      "driver": {
        "arrive_until": 2400,
        "direct_cost": 350
      },
      "passengers": [
        {
          "bid": 1937,
          "id": 10,
          "price": 1107,
          "cost": 559,
          "direct_dist": 6458,
          "direct_cost": 194,
          "direct_time": 469
        },
        {
          "bid": 1536,
          "id": 4,
          "price": 1229,
          "cost": 540,
          "direct_dist": 5168,
          "direct_cost": 156,
          "direct_time": 368
        }
      ],
      "cost": 424,
      "virtual_welfare": 2374
    },
    "profit": 1912,
    "cost_profit": 675.0,
    "welfare": 3049,
    "virtual_welfare": 2374,
    "running_time": 0
  },
  {
    "graph_name": "10_19",
    "n_pass": 2,
    "winning_ride": {
      "driver": {
        "arrive_until": 2400,
        "direct_cost": 418
      },
      "passengers": [
        {
          "bid": 4007,
          "id": 9,
          "price": 2618,
          "cost": 1013,
          "direct_dist": 13357,
          "direct_cost": 401,
          "direct_time": 780
        },
        {
          "bid": 4176,
          "id": 4,
          "price": 2463,
          "cost": 966,
          "direct_dist": 13922,
          "direct_cost": 418,
          "direct_time": 896
        }
      ],
      "cost": 637,
      "virtual_welfare": 6204
    },
    "profit": 4444,
    "cost_profit": 1342.0,
    "welfare": 7546,
    "virtual_welfare": 6204,
    "running_time": 0
  },
  {
    "graph_name": "10_2",
    "n_pass": 2,
    "winning_ride": {
      "driver": {
        "arrive_until": 2400,
        "direct_cost": 489
      },
      "passengers": [
        {
          "bid": 4226,
          "id": 10,
          "price": 2623,
          "cost": 985,
          "direct_dist": 14828,
          "direct_cost": 445,
          "direct_time": 986
        },
        {
          "bid": 4208,
          "id": 6,
          "price": 2551,
          "cost": 931,
          "direct_dist": 14027,
          "direct_cost": 421,
          "direct_time": 951
        }
      ],
      "cost": 374,
      "virtual_welfare": 6518
    },
    "profit": 4800,
    "cost_profit": 1542.0,
    "welfare": 8060,
    "virtual_welfare": 6518,
    "running_time": 0
  },
  {
    "graph_name": "10_20",
    "n_pass": 2,
    "winning_ride": {
      "driver": {
        "arrive_until": 2400,
        "direct_cost": 575
      },
      "passengers": [
        {
          "bid": 4788,
          "id": 3,
          "price": 2229,
          "cost": 1076,
          "direct_dist": 15960,
          "direct_cost": 479,
          "direct_time": 1086
        },
        {
          "bid": 3167,
          "id": 1,
          "price": 2716,
          "cost": 860,
          "direct_dist": 10559,
          "direct_cost": 317,
          "direct_time": 681
        }
      ],
      "cost": 207,
      "virtual_welfare": 6019
    },
    "profit": 4738,
    "cost_profit": 1729.0,
    "welfare": 7748,
    "virtual_welfare": 6019,
    "running_time": 0
  },
  {
    "graph_name": "10_21",
    "n_pass": 2,
    "winning_ride": {
      "driver": {
        "arrive_until": 2400,
        "direct_cost": 423
      },
      "passengers": [
        {
          "bid": 3373,
          "id": 5,
          "price": 2526,
          "cost": 806,
          "direct_dist": 11245,
          "direct_cost": 338,
          "direct_time": 768
        },
        {
          "bid": 3429,
          "id": 3,
          "price": 2454,
          "cost": 734,
          "direct_dist": 11431,
          "direct_cost": 343,
          "direct_time": 775
        }
      ],
      "cost": 561,
      "virtual_welfare": 5262
    },
    "profit": 4419,
    "cost_profit": 979.0,
    "welfare": 6241,
    "virtual_welfare": 5262,
    "running_time": 0
  },
  {
    "graph_name": "10_22",
    "n_pass": 2,
    "winning_ride": {
      "driver": {
        "arrive_until": 2400,
        "direct_cost": 538
      },
      "passengers": [
        {
          "bid": 3830,
          "id": 5,
          "price": 2141,
          "cost": 834,
          "direct_dist": 13389,
          "direct_cost": 402,
          "direct_time": 804
        },
        {
          "bid": 3415,
          "id": 4,
          "price": 2314,
          "cost": 801,
          "direct_dist": 11385,
          "direct_cost": 342,
          "direct_time": 765
        }
      ],
      "cost": 336,
      "virtual_welfare": 5610
    },
    "profit": 4119,
    "cost_profit": 1299.0,
    "welfare": 6909,
    "virtual_welfare": 5610,
    "running_time": 0
  },
  {
    "graph_name": "10_23",
    "n_pass": 2,
    "winning_ride": {
      "driver": {
        "arrive_until": 2400,
        "direct_cost": 424
      },
      "passengers": [
        {
          "bid": 2917,
          "id": 10,
          "price": 1993,
          "cost": 713,
          "direct_dist": 11894,
          "direct_cost": 357,
          "direct_time": 889
        },
        {
          "bid": 3236,
          "id": 8,
          "price": 1777,
          "cost": 675,
          "direct_dist": 10789,
          "direct_cost": 324,
          "direct_time": 875
        }
      ],
      "cost": 426,
      "virtual_welfare": 4765
    },
    "profit": 3344,
    "cost_profit": 962.0,
    "welfare": 5727,
    "virtual_welfare": 4765,
    "running_time": 0
  },
  {
    "graph_name": "10_24",
    "n_pass": 1,
    "winning_ride": {
      "driver": {
        "arrive_until": 2400,
        "direct_cost": 475
      },
      "passengers": [
        {
          "bid": 3861,
          "id": 9,
          "price": 3101,
          "cost": 936,
          "direct_dist": 12872,
          "direct_cost": 387,
          "direct_time": 1029
        }
      ],
      "cost": 208,
      "virtual_welfare": 2925
    },
    "profit": 2893,
    "cost_profit": 728.0,
    "welfare": 3653,
    "virtual_welfare": 2925,
    "running_time": 0
  },
  {
    "graph_name": "10_25",
    "n_pass": 1,
    "winning_ride": {
      "driver": {
        "arrive_until": 2400,
        "direct_cost": 529
      },
      "passengers": [
        {
          "bid": 3899,
          "id": 5,
          "price": 2792,
          "cost": 994,
          "direct_dist": 12998,
          "direct_cost": 390,
          "direct_time": 864
        }
      ],
      "cost": 317,
      "virtual_welfare": 2905
    },
    "profit": 2475,
    "cost_profit": 677.0,
    "welfare": 3582,
    "virtual_welfare": 2905,
    "running_time": 0
  },
  {
    "graph_name": "10_26",
    "n_pass": 2,
    "winning_ride": {
      "driver": {
        "arrive_until": 2400,
        "direct_cost": 402
      },
      "passengers": [
        {
          "bid": 4044,
          "id": 5,
          "price": 2417,
          "cost": 891,
          "direct_dist": 13483,
          "direct_cost": 405,
          "direct_time": 849
        },
        {
          "bid": 2504,
          "id": 2,
          "price": 2352,
          "cost": 776,
          "direct_dist": 8347,
          "direct_cost": 251,
          "direct_time": 579
        }
      ],
      "cost": 474,
      "virtual_welfare": 4881
    },
    "profit": 4295,
    "cost_profit": 1193.0,
    "welfare": 6074,
    "virtual_welfare": 4881,
    "running_time": 0
  },
  {
    "graph_name": "10_27",
    "n_pass": 2,
    "winning_ride": {
      "driver": {
        "arrive_until": 2400,
        "direct_cost": 475
      },
      "passengers": [
        {
          "bid": 3581,
          "id": 10,
          "price": 2552,
          "cost": 885,
          "direct_dist": 11939,
          "direct_cost": 359,
          "direct_time": 745
        },
        {
          "bid": 4003,
          "id": 7,
          "price": 2540,
          "cost": 873,
          "direct_dist": 13344,
          "direct_cost": 401,
          "direct_time": 926
        }
      ],
      "cost": 345,
      "virtual_welfare": 5826
    },
    "profit": 4747,
    "cost_profit": 1413.0,
    "welfare": 7239,
    "virtual_welfare": 5826,
    "running_time": 0
  },
  {
    "graph_name": "10_28",
    "n_pass": 1,
    "winning_ride": {
      "driver": {
        "arrive_until": 2400,
        "direct_cost": 410
      },
      "passengers": [
        {
          "bid": 3655,
          "id": 5,
          "price": 2843,
          "cost": 803,
          "direct_dist": 12184,
          "direct_cost": 366,
          "direct_time": 803
        }
      ],
      "cost": 442,
      "virtual_welfare": 2852
    },
    "profit": 2401,
    "cost_profit": 361.0,
    "welfare": 3213,
    "virtual_welfare": 2852,
    "running_time": 0
  },
  {
    "graph_name": "10_29",
    "n_pass": 1,
    "winning_ride": {
      "driver": {
        "arrive_until": 2400,
        "direct_cost": 495
      },
      "passengers": [
        {
          "bid": 3490,
          "id": 3,
          "price": 2405,
          "cost": 860,
          "direct_dist": 11650,
          "direct_cost": 350,
          "direct_time": 777
        }
      ],
      "cost": 226,
      "virtual_welfare": 2630
    },
    "profit": 2179,
    "cost_profit": 634.0,
    "welfare": 3264,
    "virtual_welfare": 2630,
    "running_time": 0
  },
  {
    "graph_name": "10_3",
    "n_pass": 1,
    "winning_ride": {
      "driver": {
        "arrive_until": 2400,
        "direct_cost": 456
      },
      "passengers": [
        {
          "bid": 5647,
          "id": 8,
          "price": 2952,
          "cost": 1114,
          "direct_dist": 18824,
          "direct_cost": 565,
          "direct_time": 1292
        }
      ],
      "cost": 315,
      "virtual_welfare": 4533
    },
    "profit": 2637,
    "cost_profit": 799.0,
    "welfare": 5332,
    "virtual_welfare": 4533,
    "running_time": 0
  },
  {
    "graph_name": "10_30",
    "n_pass": 1,
    "winning_ride": {
      "driver": {
        "arrive_until": 2400,
        "direct_cost": 422
      },
      "passengers": [
        {
          "bid": 2365,
          "id": 7,
          "price": 2359,
          "cost": 776,
          "direct_dist": 7886,
          "direct_cost": 237,
          "direct_time": 522
        }
      ],
      "cost": 221,
      "virtual_welfare": 1589
    },
    "profit": 2138,
    "cost_profit": 555.0,
    "welfare": 2144,
    "virtual_welfare": 1589,
    "running_time": 0
  },
  {
    "graph_name": "10_31",
    "n_pass": 2,
    "winning_ride": {
      "driver": {
        "arrive_until": 2400,
        "direct_cost": 391
      },
      "passengers": [
        {
          "bid": 3444,
          "id": 4,
          "price": 2226,
          "cost": 971,
          "direct_dist": 11483,
          "direct_cost": 345,
          "direct_time": 741
        },
        {
          "bid": 3489,
          "id": 3,
          "price": 2214,
          "cost": 978,
          "direct_dist": 11632,
          "direct_cost": 349,
          "direct_time": 797
        }
      ],
      "cost": 521,
      "virtual_welfare": 4984
    },
    "profit": 3919,
    "cost_profit": 1428.0,
    "welfare": 6412,
    "virtual_welfare": 4984,
    "running_time": 0
  },
  {
    "graph_name": "10_32",
    "n_pass": 1,
    "winning_ride": {
      "driver": {
        "arrive_until": 2400,
        "direct_cost": 469
      },
      "passengers": [
        {
          "bid": 3199,
          "id": 4,
          "price": 3079,
          "cost": 783,
          "direct_dist": 10665,
          "direct_cost": 320,
          "direct_time": 679
        }
      ],
      "cost": 188,
      "virtual_welfare": 2416
    },
    "profit": 2891,
    "cost_profit": 595.0,
    "welfare": 3011,
    "virtual_welfare": 2416,
    "running_time": 0
  },
  {
    "graph_name": "10_33",
    "n_pass": 1,
    "winning_ride": {
      "driver": {
        "arrive_until": 2400,
        "direct_cost": 491
      },
      "passengers": [
        {
          "bid": 3425,
          "id": 3,
          "price": 3326,
          "cost": 814,
          "direct_dist": 11419,
          "direct_cost": 343,
          "direct_time": 708
        }
      ],
      "cost": 535,
      "virtual_welfare": 2611
    },
    "profit": 2791,
    "cost_profit": 279.0,
    "welfare": 2890,
    "virtual_welfare": 2611,
    "running_time": 0
  },
  {
    "graph_name": "10_34",
    "n_pass": 2,
    "winning_ride": {
      "driver": {
        "arrive_until": 2400,
        "direct_cost": 545
      },
      "passengers": [
        {
          "bid": 3667,
          "id": 6,
          "price": 2806,
          "cost": 808,
          "direct_dist": 12224,
          "direct_cost": 367,
          "direct_time": 772
        },
        {
          "bid": 4366,
          "id": 5,
          "price": 2860,
          "cost": 862,
          "direct_dist": 14556,
          "direct_cost": 437,
          "direct_time": 925
        }
      ],
      "cost": 328,
      "virtual_welfare": 6363
    },
    "profit": 5338,
    "cost_profit": 1342.0,
    "welfare": 7705,
    "virtual_welfare": 6363,
    "running_time": 0
  },
  {
    "graph_name": "10_35",
    "n_pass": 1,
    "winning_ride": {
      "driver": {
        "arrive_until": 2400,
        "direct_cost": 396
      },
      "passengers": [
        {
          "bid": 5738,
          "id": 3,
          "price": 4042,
          "cost": 1178,
          "direct_dist": 19128,
          "direct_cost": 574,
          "direct_time": 1239
        }
      ],
      "cost": 624,
      "virtual_welfare": 4560
    },
    "profit": 3418,
    "cost_profit": 554.0,
    "welfare": 5114,
    "virtual_welfare": 4560,
    "running_time": 0
  },
  {
    "graph_name": "10_36",
    "n_pass": 1,
    "winning_ride": {
      "driver": {
        "arrive_until": 2400,
        "direct_cost": 555
      },
      "passengers": [
        {
          "bid": 3912,
          "id": 10,
          "price": 2838,
          "cost": 925,
          "direct_dist": 13041,
          "direct_cost": 392,
          "direct_time": 903
        }
      ],
      "cost": 249,
      "virtual_welfare": 2987
    },
    "profit": 2589,
    "cost_profit": 676.0,
    "welfare": 3663,
    "virtual_welfare": 2987,
    "running_time": 0
  },
  {
    "graph_name": "10_37",
    "n_pass": 1,
    "winning_ride": {
      "driver": {
        "arrive_until": 2400,
        "direct_cost": 406
      },
      "passengers": [
        {
          "bid": 3416,
          "id": 5,
          "price": 2953,
          "cost": 877,
          "direct_dist": 11389,
          "direct_cost": 342,
          "direct_time": 728
        }
      ],
      "cost": 350,
      "virtual_welfare": 2539
    },
    "profit": 2603,
    "cost_profit": 527.0,
    "welfare": 3066,
    "virtual_welfare": 2539,
    "running_time": 0
  },
  {
    "graph_name": "10_38",
    "n_pass": 1,
    "winning_ride": {
      "driver": {
        "arrive_until": 2400,
        "direct_cost": 448
      },
      "passengers": [
        {
          "bid": 4405,
          "id": 5,
          "price": 2360,
          "cost": 903,
          "direct_dist": 14685,
          "direct_cost": 441,
          "direct_time": 982
        }
      ],
      "cost": 195,
      "virtual_welfare": 3502
    },
    "profit": 2165,
    "cost_profit": 708.0,
    "welfare": 4210,
    "virtual_welfare": 3502,
    "running_time": 0
  },
  {
    "graph_name": "10_39",
    "n_pass": 1,
    "winning_ride": {
      "driver": {
        "arrive_until": 2400,
        "direct_cost": 401
      },
      "passengers": [
        {
          "bid": 2355,
          "id": 9,
          "price": 765,
          "cost": 514,
          "direct_dist": 7850,
          "direct_cost": 236,
          "direct_time": 608
        }
      ],
      "cost": 362,
      "virtual_welfare": 1841
    },
    "profit": 403,
    "cost_profit": 152.0,
    "welfare": 1993,
    "virtual_welfare": 1841,
    "running_time": 0
  },
  {
    "graph_name": "10_4",
    "n_pass": 2,
    "winning_ride": {
      "driver": {
        "arrive_until": 2400,
        "direct_cost": 431
      },
      "passengers": [
        {
          "bid": 4895,
          "id": 8,
          "price": 2205,
          "cost": 1079,
          "direct_dist": 16318,
          "direct_cost": 490,
          "direct_time": 1047
        },
        {
          "bid": 3056,
          "id": 2,
          "price": 2711,
          "cost": 803,
          "direct_dist": 10189,
          "direct_cost": 306,
          "direct_time": 668
        }
      ],
      "cost": 600,
      "virtual_welfare": 6069
    },
    "profit": 4316,
    "cost_profit": 1282.0,
    "welfare": 7351,
    "virtual_welfare": 6069,
    "running_time": 0
  },
  {
    "graph_name": "10_40",
    "n_pass": 1,
    "winning_ride": {
      "driver": {
        "arrive_until": 2400,
        "direct_cost": 410
      },
      "passengers": [
        {
          "bid": 3949,
          "id": 4,
          "price": 3556,
          "cost": 1263,
          "direct_dist": 18731,
          "direct_cost": 562,
          "direct_time": 1211
        }
      ],
      "cost": 706,
      "virtual_welfare": 2686
    },
    "profit": 2850,
    "cost_profit": 557.0,
    "welfare": 3243,
    "virtual_welfare": 2686,
    "running_time": 0
  },
  {
    "graph_name": "10_41",
    "n_pass": 1,
    "winning_ride": {
      "driver": {
        "arrive_until": 2400,
        "direct_cost": 504
      },
      "passengers": [
        {
          "bid": 5446,
          "id": 7,
          "price": 3253,
          "cost": 1071,
          "direct_dist": 18155,
          "direct_cost": 545,
          "direct_time": 1220
        }
      ],
      "cost": 468,
      "virtual_welfare": 4375
    },
    "profit": 2785,
    "cost_profit": 603.0,
    "welfare": 4978,
    "virtual_welfare": 4375,
    "running_time": 0
  },
  {
    "graph_name": "10_42",
    "n_pass": 1,
    "winning_ride": {
      "driver": {
        "arrive_until": 2400,
        "direct_cost": 457
      },
      "passengers": [
        {
          "bid": 3911,
          "id": 4,
          "price": 3047,
          "cost": 913,
          "direct_dist": 13037,
          "direct_cost": 392,
          "direct_time": 876
        }
      ],
      "cost": 597,
      "virtual_welfare": 2998
    },
    "profit": 2450,
    "cost_profit": 316.0,
    "welfare": 3314,
    "virtual_welfare": 2998,
    "running_time": 0
  },
  {
    "graph_name": "10_43",
    "n_pass": 2,
    "winning_ride": {
      "driver": {
        "arrive_until": 2400,
        "direct_cost": 439
      },
      "passengers": [
        {
          "bid": 2805,
          "id": 9,
          "price": 2049,
          "cost": 596,
          "direct_dist": 9350,
          "direct_cost": 281,
          "direct_time": 673
        },
        {
          "bid": 3475,
          "id": 4,
          "price": 2137,
          "cost": 684,
          "direct_dist": 11586,
          "direct_cost": 348,
          "direct_time": 841
        }
      ],
      "cost": 145,
      "virtual_welfare": 5000
    },
    "profit": 4041,
    "cost_profit": 1135.0,
    "welfare": 6135,
    "virtual_welfare": 5000,
    "running_time": 0
  },
  {
    "graph_name": "10_44",
    "n_pass": 2,
    "winning_ride": {
      "driver": {
        "arrive_until": 2400,
        "direct_cost": 433
      },
      "passengers": [
        {
          "bid": 4307,
          "id": 7,
          "price": 3097,
          "cost": 888,
          "direct_dist": 14359,
          "direct_cost": 431,
          "direct_time": 924
        },
        {
          "bid": 3654,
          "id": 4,
          "price": 3115,
          "cost": 906,
          "direct_dist": 13208,
          "direct_cost": 397,
          "direct_time": 966
        }
      ],
      "cost": 419,
      "virtual_welfare": 6167
    },
    "profit": 5793,
    "cost_profit": 1375.0,
    "welfare": 7542,
    "virtual_welfare": 6167,
    "running_time": 0
  },
  {
    "graph_name": "10_45",
    "n_pass": 2,
    "winning_ride": {
      "driver": {
        "arrive_until": 2400,
        "direct_cost": 428
      },
      "passengers": [
        {
          "bid": 2114,
          "id": 8,
          "price": 1969,
          "cost": 629,
          "direct_dist": 7047,
          "direct_cost": 212,
          "direct_time": 495
        },
        {
          "bid": 3419,
          "id": 3,
          "price": 1481,
          "cost": 739,
          "direct_dist": 11398,
          "direct_cost": 342,
          "direct_time": 773
        }
      ],
      "cost": 603,
      "virtual_welfare": 4165
    },
    "profit": 2847,
    "cost_profit": 765.0,
    "welfare": 4930,
    "virtual_welfare": 4165,
    "running_time": 0
  },
  {
    "graph_name": "10_46",
    "n_pass": 2,
    "winning_ride": {
      "driver": {
        "arrive_until": 2400,
        "direct_cost": 502
      },
      "passengers": [
        {
          "bid": 4797,
          "id": 6,
          "price": 2875,
          "cost": 1000,
          "direct_dist": 15993,
          "direct_cost": 480,
          "direct_time": 1102
        },
        {
          "bid": 3510,
          "id": 4,
          "price": 2791,
          "cost": 893,
          "direct_dist": 11702,
          "direct_cost": 352,
          "direct_time": 752
        }
      ],
      "cost": 478,
      "virtual_welfare": 6414
    },
    "profit": 5188,
    "cost_profit": 1415.0,
    "welfare": 7829,
    "virtual_welfare": 6414,
    "running_time": 0
  },
  {
    "graph_name": "10_47",
    "n_pass": 1,
    "winning_ride": {
      "driver": {
        "arrive_until": 2400,
        "direct_cost": 476
      },
      "passengers": [
        {
          "bid": 5532,
          "id": 7,
          "price": 3374,
          "cost": 1124,
          "direct_dist": 18441,
          "direct_cost": 554,
          "direct_time": 1211
        }
      ],
      "cost": 396,
      "virtual_welfare": 4408
    },
    "profit": 2978,
    "cost_profit": 728.0,
    "welfare": 5136,
    "virtual_welfare": 4408,
    "running_time": 0
  },
  {
    "graph_name": "10_48",
    "n_pass": 2,
    "winning_ride": {
      "driver": {
        "arrive_until": 2400,
        "direct_cost": 413
      },
      "passengers": [
        {
          "bid": 2061,
          "id": 9,
          "price": 1755,
          "cost": 786,
          "direct_dist": 6873,
          "direct_cost": 207,
          "direct_time": 505
        },
        {
          "bid": 2048,
          "id": 1,
          "price": 1552,
          "cost": 665,
          "direct_dist": 6827,
          "direct_cost": 205,
          "direct_time": 444
        }
      ],
      "cost": 547,
      "virtual_welfare": 2658
    },
    "profit": 2760,
    "cost_profit": 904.0,
    "welfare": 3562,
    "virtual_welfare": 2658,
    "running_time": 0
  },
  {
    "graph_name": "10_49",
    "n_pass": 1,
    "winning_ride": {
      "driver": {
        "arrive_until": 2400,
        "direct_cost": 416
      },
      "passengers": [
        {
          "bid": 5230,
          "id": 5,
          "price": 3536,
          "cost": 1166,
          "direct_dist": 17434,
          "direct_cost": 524,
          "direct_time": 1183
        }
      ],
      "cost": 460,
      "virtual_welfare": 4064
    },
    "profit": 3076,
    "cost_profit": 706.0,
    "welfare": 4770,
    "virtual_welfare": 4064,
    "running_time": 0
  },
  {
    "graph_name": "10_5",
    "n_pass": 2,
    "winning_ride": {
      "driver": {
        "arrive_until": 2400,
        "direct_cost": 476
      },
      "passengers": [
        {
          "bid": 4501,
          "id": 10,
          "price": 3131,
          "cost": 939,
          "direct_dist": 15169,
          "direct_cost": 456,
          "direct_time": 1003
        },
        {
          "bid": 4267,
          "id": 5,
          "price": 2727,
          "cost": 946,
          "direct_dist": 14224,
          "direct_cost": 427,
          "direct_time": 962
        }
      ],
      "cost": 563,
      "virtual_welfare": 6883
    },
    "profit": 5295,
    "cost_profit": 1322.0,
    "welfare": 8205,
    "virtual_welfare": 6883,
    "running_time": 0
  },
  {
    "graph_name": "10_50",
    "n_pass": 1,
    "winning_ride": {
      "driver": {
        "arrive_until": 2400,
        "direct_cost": 529
      },
      "passengers": [
        {
          "bid": 3156,
          "id": 8,
          "price": 1935,
          "cost": 688,
          "direct_dist": 10522,
          "direct_cost": 316,
          "direct_time": 749
        }
      ],
      "cost": 82,
      "virtual_welfare": 2468
    },
    "profit": 1853,
    "cost_profit": 606.0,
    "welfare": 3074,
    "virtual_welfare": 2468,
    "running_time": 0
  },
  {
    "graph_name": "10_51",
    "n_pass": 1,
    "winning_ride": {
      "driver": {
        "arrive_until": 2400,
        "direct_cost": 473
      },
      "passengers": [
        {
          "bid": 2572,
          "id": 3,
          "price": 2222,
          "cost": 620,
          "direct_dist": 8576,
          "direct_cost": 258,
          "direct_time": 621
        }
      ],
      "cost": 156,
      "virtual_welfare": 1952
    },
    "profit": 2066,
    "cost_profit": 464.0,
    "welfare": 2416,
    "virtual_welfare": 1952,
    "running_time": 0
  },
  {
    "graph_name": "10_52",
    "n_pass": 1,
    "winning_ride": {
      "driver": {
        "arrive_until": 2400,
        "direct_cost": 466
      },
      "passengers": [
        {
          "bid": 5347,
          "id": 4,
          "price": 2758,
          "cost": 1065,
          "direct_dist": 17824,
          "direct_cost": 535,
          "direct_time": 1157
        }
      ],
      "cost": 327,
      "virtual_welfare": 4282
    },
    "profit": 2431,
    "cost_profit": 738.0,
    "welfare": 5020,
    "virtual_welfare": 4282,
    "running_time": 0
  },
  {
    "graph_name": "10_53",
    "n_pass": 2,
    "winning_ride": {
      "driver": {
        "arrive_until": 2400,
        "direct_cost": 509
      },
      "passengers": [
        {
          "bid": 1621,
          "id": 8,
          "price": 1474,
          "cost": 494,
          "direct_dist": 5404,
          "direct_cost": 163,
          "direct_time": 395
        },
        {
          "bid": 1702,
          "id": 7,
          "price": 1680,
          "cost": 700,
          "direct_dist": 5958,
          "direct_cost": 179,
          "direct_time": 459
        }
      ],
      "cost": 281,
      "virtual_welfare": 2129
    },
    "profit": 2873,
    "cost_profit": 913.0,
    "welfare": 3042,
    "virtual_welfare": 2129,
    "running_time": 0
  },
  {
    "graph_name": "10_54",
    "n_pass": 1,
    "winning_ride": {
      "driver": {
        "arrive_until": 2400,
        "direct_cost": 443
      },
      "passengers": [
        {
          "bid": 3960,
          "id": 3,
          "price": 3953,
          "cost": 987,
          "direct_dist": 13201,
          "direct_cost": 397,
          "direct_time": 939
        }
      ],
      "cost": 340,
      "virtual_welfare": 2973
    },
    "profit": 3613,
    "cost_profit": 647.0,
    "welfare": 3620,
    "virtual_welfare": 2973,
    "running_time": 0
  },
  {
    "graph_name": "10_55",
    "n_pass": 2,
    "winning_ride": {
      "driver": {
        "arrive_until": 2400,
        "direct_cost": 447
      },
      "passengers": [
        {
          "bid": 3443,
          "id": 7,
          "price": 2132,
          "cost": 788,
          "direct_dist": 11477,
          "direct_cost": 345,
          "direct_time": 757
        },
        {
          "bid": 3462,
          "id": 1,
          "price": 2101,
          "cost": 774,
          "direct_dist": 11541,
          "direct_cost": 347,
          "direct_time": 831
        }
      ],
      "cost": 371,
      "virtual_welfare": 5343
    },
    "profit": 3862,
    "cost_profit": 1191.0,
    "welfare": 6534,
    "virtual_welfare": 5343,
    "running_time": 0
  },
  {
    "graph_name": "10_56",
    "n_pass": 2,
    "winning_ride": {
      "driver": {
        "arrive_until": 2400,
        "direct_cost": 432
      },
      "passengers": [
        {
          "bid": 3186,
          "id": 5,
          "price": 1678,
          "cost": 826,
          "direct_dist": 11334,
          "direct_cost": 341,
          "direct_time": 742
        },
        {
          "bid": 1959,
          "id": 1,
          "price": 1619,
          "cost": 439,
          "direct_dist": 6532,
          "direct_cost": 196,
          "direct_time": 531
        }
      ],
      "cost": 416,
      "virtual_welfare": 3880
    },
    "profit": 2881,
    "cost_profit": 849.0,
    "welfare": 4729,
    "virtual_welfare": 3880,
    "running_time": 0
  },
  {
    "graph_name": "10_57",
    "n_pass": 1,
    "winning_ride": {
      "driver": {
        "arrive_until": 2400,
        "direct_cost": 578
      },
      "passengers": [
        {
          "bid": 1778,
          "id": 8,
          "price": 1348,
          "cost": 695,
          "direct_dist": 5928,
          "direct_cost": 178,
          "direct_time": 420
        }
      ],
      "cost": 66,
      "virtual_welfare": 1083
    },
    "profit": 1282,
    "cost_profit": 629.0,
    "welfare": 1712,
    "virtual_welfare": 1083,
    "running_time": 0
  },
  {
    "graph_name": "10_58",
    "n_pass": 2,
    "winning_ride": {
      "driver": {
        "arrive_until": 2400,
        "direct_cost": 413
      },
      "passengers": [
        {
          "bid": 3958,
          "id": 8,
          "price": 2217,
          "cost": 896,
          "direct_dist": 13196,
          "direct_cost": 396,
          "direct_time": 967
        },
        {
          "bid": 3519,
          "id": 2,
          "price": 2407,
          "cost": 876,
          "direct_dist": 11731,
          "direct_cost": 352,
          "direct_time": 826
        }
      ],
      "cost": 466,
      "virtual_welfare": 5705
    },
    "profit": 4158,
    "cost_profit": 1306.0,
    "welfare": 7011,
    "virtual_welfare": 5705,
    "running_time": 0
  },
  {
    "graph_name": "10_59",
    "n_pass": 1,
    "winning_ride": {
      "driver": {
        "arrive_until": 2400,
        "direct_cost": 500
      },
      "passengers": [
        {
          "bid": 5692,
          "id": 8,
          "price": 2487,
          "cost": 1176,
          "direct_dist": 18976,
          "direct_cost": 570,
          "direct_time": 1256
        }
      ],
      "cost": 222,
      "virtual_welfare": 4516
    },
    "profit": 2265,
    "cost_profit": 954.0,
    "welfare": 5470,
    "virtual_welfare": 4516,
    "running_time": 0
  },
  {
    "graph_name": "10_6",
    "n_pass": 1,
    "winning_ride": {
      "driver": {
        "arrive_until": 2400,
        "direct_cost": 418
      },
      "passengers": [
        {
          "bid": 4257,
          "id": 4,
          "price": 2842,
          "cost": 1060,
          "direct_dist": 14191,
          "direct_cost": 426,
          "direct_time": 878
        }
      ],
      "cost": 423,
      "virtual_welfare": 3197
    },
    "profit": 2419,
    "cost_profit": 637.0,
    "welfare": 3834,
    "virtual_welfare": 3197,
    "running_time": 0
  },
  {
    "graph_name": "10_60",
    "n_pass": 2,
    "winning_ride": {
      "driver": {
        "arrive_until": 2400,
        "direct_cost": 583
      },
      "passengers": [
        {
          "bid": 4734,
          "id": 7,
          "price": 2970,
          "cost": 967,
          "direct_dist": 15780,
          "direct_cost": 474,
          "direct_time": 1034
        },
        {
          "bid": 3159,
          "id": 3,
          "price": 2522,
          "cost": 639,
          "direct_dist": 10533,
          "direct_cost": 316,
          "direct_time": 708
        }
      ],
      "cost": 245,
      "virtual_welfare": 6287
    },
    "profit": 5247,
    "cost_profit": 1361.0,
    "welfare": 7648,
    "virtual_welfare": 6287,
    "running_time": 0
  },
  {
    "graph_name": "10_61",
    "n_pass": 1,
    "winning_ride": {
      "driver": {
        "arrive_until": 2400,
        "direct_cost": 469
      },
      "passengers": [
        {
          "bid": 3056,
          "id": 1,
          "price": 1827,
          "cost": 816,
          "direct_dist": 10187,
          "direct_cost": 306,
          "direct_time": 681
        }
      ],
      "cost": 132,
      "virtual_welfare": 2240
    },
    "profit": 1695,
    "cost_profit": 684.0,
    "welfare": 2924,
    "virtual_welfare": 2240,
    "running_time": 0
  },
  {
    "graph_name": "10_62",
    "n_pass": 1,
    "winning_ride": {
      "driver": {
        "arrive_until": 2400,
        "direct_cost": 529
      },
      "passengers": [
        {
          "bid": 3646,
          "id": 2,
          "price": 2259,
          "cost": 899,
          "direct_dist": 12155,
          "direct_cost": 365,
          "direct_time": 775
        }
      ],
      "cost": 534,
      "virtual_welfare": 2747
    },
    "profit": 1725,
    "cost_profit": 365.0,
    "welfare": 3112,
    "virtual_welfare": 2747,
    "running_time": 0
  },
  {
    "graph_name": "10_63",
    "n_pass": 1,
    "winning_ride": {
      "driver": {
        "arrive_until": 2400,
        "direct_cost": 564
      },
      "passengers": [
        {
          "bid": 3131,
          "id": 1,
          "price": 1415,
          "cost": 787,
          "direct_dist": 10439,
          "direct_cost": 314,
          "direct_time": 699
        }
      ],
      "cost": 159,
      "virtual_welfare": 2344
    },
    "profit": 1256,
    "cost_profit": 628.0,
    "welfare": 2972,
    "virtual_welfare": 2344,
    "running_time": 0
  },
  {
    "graph_name": "10_64",
    "n_pass": 1,
    "winning_ride": {
      "driver": {
        "arrive_until": 2400,
        "direct_cost": 415
      },
      "passengers": [
        {
          "bid": 5038,
          "id": 9,
          "price": 3974,
          "cost": 1179,
          "direct_dist": 18271,
          "direct_cost": 549,
          "direct_time": 1171
        }
      ],
      "cost": 558,
      "virtual_welfare": 3859
    },
    "profit": 3416,
    "cost_profit": 621.0,
    "welfare": 4480,
    "virtual_welfare": 3859,
    "running_time": 0
  },
  {
    "graph_name": "10_65",
    "n_pass": 1,
    "winning_ride": {
      "driver": {
        "arrive_until": 2400,
        "direct_cost": 457
      },
      "passengers": [
        {
          "bid": 2772,
          "id": 5,
          "price": 2213,
          "cost": 577,
          "direct_dist": 9240,
          "direct_cost": 278,
          "direct_time": 600
        }
      ],
      "cost": 525,
      "virtual_welfare": 2195
    },
    "profit": 1688,
    "cost_profit": 52.0,
    "welfare": 2247,
    "virtual_welfare": 2195,
    "running_time": 0
  },
  {
    "graph_name": "10_66",
    "n_pass": 2,
    "winning_ride": {
      "driver": {
        "arrive_until": 2400,
        "direct_cost": 453
      },
      "passengers": [
        {
          "bid": 3903,
          "id": 8,
          "price": 3867,
          "cost": 848,
          "direct_dist": 13010,
          "direct_cost": 391,
          "direct_time": 825
        },
        {
          "bid": 3800,
          "id": 6,
          "price": 3777,
          "cost": 758,
          "direct_dist": 12668,
          "direct_cost": 381,
          "direct_time": 788
        }
      ],
      "cost": 338,
      "virtual_welfare": 6097
    },
    "profit": 7306,
    "cost_profit": 1268.0,
    "welfare": 7365,
    "virtual_welfare": 6097,
    "running_time": 0
  },
  {
    "graph_name": "10_67",
    "n_pass": 1,
    "winning_ride": {
      "driver": {
        "arrive_until": 2400,
        "direct_cost": 434
      },
      "passengers": [
        {
          "bid": 2388,
          "id": 9,
          "price": 2278,
          "cost": 560,
          "direct_dist": 7960,
          "direct_cost": 239,
          "direct_time": 560
        }
      ],
      "cost": 451,
      "virtual_welfare": 1828
    },
    "profit": 1827,
    "cost_profit": 109.0,
    "welfare": 1937,
    "virtual_welfare": 1828,
    "running_time": 0
  },
  {
    "graph_name": "10_68",
    "n_pass": 1,
    "winning_ride": {
      "driver": {
        "arrive_until": 2400,
        "direct_cost": 509
      },
      "passengers": [
        {
          "bid": 3492,
          "id": 9,
          "price": 3392,
          "cost": 831,
          "direct_dist": 11641,
          "direct_cost": 350,
          "direct_time": 723
        }
      ],
      "cost": 582,
      "virtual_welfare": 2661
    },
    "profit": 2810,
    "cost_profit": 249.0,
    "welfare": 2910,
    "virtual_welfare": 2661,
    "running_time": 0
  },
  {
    "graph_name": "10_69",
    "n_pass": 1,
    "winning_ride": {
      "driver": {
        "arrive_until": 2400,
        "direct_cost": 405
      },
      "passengers": [
        {
          "bid": 3990,
          "id": 10,
          "price": 2795,
          "cost": 803,
          "direct_dist": 13301,
          "direct_cost": 400,
          "direct_time": 870
        }
      ],
      "cost": 305,
      "virtual_welfare": 3187
    },
    "profit": 2490,
    "cost_profit": 498.0,
    "welfare": 3685,
    "virtual_welfare": 3187,
    "running_time": 0
  },
  {
    "graph_name": "10_7",
    "n_pass": 1,
    "winning_ride": {
      "driver": {
        "arrive_until": 2400,
        "direct_cost": 453
      },
      "passengers": [
        {
          "bid": 2513,
          "id": 2,
          "price": 1176,
          "cost": 570,
          "direct_dist": 8379,
          "direct_cost": 252,
          "direct_time": 528
        }
      ],
      "cost": 142,
      "virtual_welfare": 1943
    },
    "profit": 1034,
    "cost_profit": 428.0,
    "welfare": 2371,
    "virtual_welfare": 1943,
    "running_time": 0
  },
  {
    "graph_name": "10_70",
    "n_pass": 2,
    "winning_ride": {
      "driver": {
        "arrive_until": 2400,
        "direct_cost": 464
      },
      "passengers": [
        {
          "bid": 2318,
          "id": 10,
          "price": 2145,
          "cost": 753,
          "direct_dist": 7728,
          "direct_cost": 232,
          "direct_time": 600
        },
        {
          "bid": 2405,
          "id": 3,
          "price": 2123,
          "cost": 731,
          "direct_dist": 8019,
          "direct_cost": 241,
          "direct_time": 547
        }
      ],
      "cost": 473,
      "virtual_welfare": 3239
    },
    "profit": 3795,
    "cost_profit": 1011.0,
    "welfare": 4250,
    "virtual_welfare": 3239,
    "running_time": 0
  },
  {
    "graph_name": "10_71",
    "n_pass": 1,
    "winning_ride": {
      "driver": {
        "arrive_until": 2400,
        "direct_cost": 505
      },
      "passengers": [
        {
          "bid": 2362,
          "id": 9,
          "price": 2275,
          "cost": 759,
          "direct_dist": 9151,
          "direct_cost": 275,
          "direct_time": 627
        }
      ],
      "cost": 230,
      "virtual_welfare": 1603
    },
    "profit": 2045,
    "cost_profit": 529.0,
    "welfare": 2132,
    "virtual_welfare": 1603,
    "running_time": 0
  },
  {
    "graph_name": "10_72",
    "n_pass": 2,
    "winning_ride": {
      "driver": {
        "arrive_until": 2400,
        "direct_cost": 520
      },
      "passengers": [
        {
          "bid": 1524,
          "id": 6,
          "price": 1479,
          "cost": 422,
          "direct_dist": 5082,
          "direct_cost": 153,
          "direct_time": 359
        },
        {
          "bid": 2192,
          "id": 3,
          "price": 1658,
          "cost": 601,
          "direct_dist": 7308,
          "direct_cost": 220,
          "direct_time": 521
        }
      ],
      "cost": 254,
      "virtual_welfare": 2693
    },
    "profit": 2883,
    "cost_profit": 769.0,
    "welfare": 3462,
    "virtual_welfare": 2693,
    "running_time": 0
  },
  {
    "graph_name": "10_73",
    "n_pass": 1,
    "winning_ride": {
      "driver": {
        "arrive_until": 2400,
        "direct_cost": 458
      },
      "passengers": [
        {
          "bid": 3543,
          "id": 4,
          "price": 1658,
          "cost": 925,
          "direct_dist": 11811,
          "direct_cost": 355,
          "direct_time": 788
        }
      ],
      "cost": 196,
      "virtual_welfare": 2618
    },
    "profit": 1462,
    "cost_profit": 729.0,
    "welfare": 3347,
    "virtual_welfare": 2618,
    "running_time": 0
  },
  {
    "graph_name": "10_74",
    "n_pass": 1,
    "winning_ride": {
      "driver": {
        "arrive_until": 2400,
        "direct_cost": 550
      },
      "passengers": [
        {
          "bid": 5044,
          "id": 6,
          "price": 2135,
          "cost": 1056,
          "direct_dist": 16815,
          "direct_cost": 505,
          "direct_time": 1142
        }
      ],
      "cost": 159,
      "virtual_welfare": 3988
    },
    "profit": 1976,
    "cost_profit": 897.0,
    "welfare": 4885,
    "virtual_welfare": 3988,
    "running_time": 0
  },
  {
    "graph_name": "10_75",
    "n_pass": 1,
    "winning_ride": {
      "driver": {
        "arrive_until": 2400,
        "direct_cost": 543
      },
      "passengers": [
        {
          "bid": 3290,
          "id": 2,
          "price": 3254,
          "cost": 824,
          "direct_dist": 10968,
          "direct_cost": 330,
          "direct_time": 655
        }
      ],
      "cost": 597,
      "virtual_welfare": 2466
    },
    "profit": 2657,
    "cost_profit": 227.0,
    "welfare": 2693,
    "virtual_welfare": 2466,
    "running_time": 0
  },
  {
    "graph_name": "10_76",
    "n_pass": 1,
    "winning_ride": {
      "driver": {
        "arrive_until": 2400,
        "direct_cost": 450
      },
      "passengers": [
        {
          "bid": 3351,
          "id": 6,
          "price": 3321,
          "cost": 842,
          "direct_dist": 11171,
          "direct_cost": 336,
          "direct_time": 746
        }
      ],
      "cost": 426,
      "virtual_welfare": 2509
    },
    "profit": 2895,
    "cost_profit": 416.0,
    "welfare": 2925,
    "virtual_welfare": 2509,
    "running_time": 0
  },
  {
    "graph_name": "10_77",
    "n_pass": 2,
    "winning_ride": {
      "driver": {
        "arrive_until": 2400,
        "direct_cost": 449
      },
      "passengers": [
        {
          "bid": 2039,
          "id": 10,
          "price": 1804,
          "cost": 1042,
          "direct_dist": 16447,
          "direct_cost": 494,
          "direct_time": 1082
        },
        {
          "bid": 1802,
          "id": 3,
          "price": 1374,
          "cost": 612,
          "direct_dist": 6009,
          "direct_cost": 181,
          "direct_time": 343
        }
      ],
      "cost": 500,
      "virtual_welfare": 2187
    },
    "profit": 2678,
    "cost_profit": 1154.0,
    "welfare": 3341,
    "virtual_welfare": 2187,
    "running_time": 0
  },
  {
    "graph_name": "10_78",
    "n_pass": 1,
    "winning_ride": {
      "driver": {
        "arrive_until": 2400,
        "direct_cost": 504
      },
      "passengers": [
        {
          "bid": 4823,
          "id": 8,
          "price": 3328,
          "cost": 1001,
          "direct_dist": 16638,
          "direct_cost": 500,
          "direct_time": 1072
        }
      ],
      "cost": 276,
      "virtual_welfare": 3822
    },
    "profit": 3052,
    "cost_profit": 725.0,
    "welfare": 4547,
    "virtual_welfare": 3822,
    "running_time": 1
  },
  {
    "graph_name": "10_79",
    "n_pass": 2,
    "winning_ride": {
      "driver": {
        "arrive_until": 2400,
        "direct_cost": 471
      },
      "passengers": [
        {
          "bid": 2532,
          "id": 4,
          "price": 1365,
          "cost": 837,
          "direct_dist": 8441,
          "direct_cost": 254,
          "direct_time": 643
        },
        {
          "bid": 1978,
          "id": 1,
          "price": 959,
          "cost": 394,
          "direct_dist": 6594,
          "direct_cost": 198,
          "direct_time": 474
        }
      ],
      "cost": 449,
      "virtual_welfare": 3279
    },
    "profit": 1875,
    "cost_profit": 782.0,
    "welfare": 4061,
    "virtual_welfare": 3279,
    "running_time": 0
  },
  {
    "graph_name": "10_8",
    "n_pass": 1,
    "winning_ride": {
      "driver": {
        "arrive_until": 2400,
        "direct_cost": 457
      },
      "passengers": [
        {
          "bid": 3087,
          "id": 2,
          "price": 2511,
          "cost": 807,
          "direct_dist": 10293,
          "direct_cost": 309,
          "direct_time": 712
        }
      ],
      "cost": 256,
      "virtual_welfare": 2280
    },
    "profit": 2255,
    "cost_profit": 551.0,
    "welfare": 2831,
    "virtual_welfare": 2280,
    "running_time": 1
  },
  {
    "graph_name": "10_80",
    "n_pass": 2,
    "winning_ride": {
      "driver": {
        "arrive_until": 2400,
        "direct_cost": 521
      },
      "passengers": [
        {
          "bid": 4404,
          "id": 5,
          "price": 3207,
          "cost": 1031,
          "direct_dist": 14680,
          "direct_cost": 441,
          "direct_time": 1038
        },
        {
          "bid": 5446,
          "id": 2,
          "price": 2779,
          "cost": 1093,
          "direct_dist": 18156,
          "direct_cost": 545,
          "direct_time": 1201
        }
      ],
      "cost": 416,
      "virtual_welfare": 7726
    },
    "profit": 5570,
    "cost_profit": 1708.0,
    "welfare": 9434,
    "virtual_welfare": 7726,
    "running_time": 0
  },
  {
    "graph_name": "10_81",
    "n_pass": 1,
    "winning_ride": {
      "driver": {
        "arrive_until": 2400,
        "direct_cost": 461
      },
      "passengers": [
        {
          "bid": 4270,
          "id": 4,
          "price": 3800,
          "cost": 972,
          "direct_dist": 14235,
          "direct_cost": 428,
          "direct_time": 979
        }
      ],
      "cost": 483,
      "virtual_welfare": 3298
    },
    "profit": 3317,
    "cost_profit": 489.0,
    "welfare": 3787,
    "virtual_welfare": 3298,
    "running_time": 0
  },
  {
    "graph_name": "10_82",
    "n_pass": 1,
    "winning_ride": {
      "driver": {
        "arrive_until": 2400,
        "direct_cost": 483
      },
      "passengers": [
        {
          "bid": 3104,
          "id": 6,
          "price": 2947,
          "cost": 829,
          "direct_dist": 10347,
          "direct_cost": 311,
          "direct_time": 722
        }
      ],
      "cost": 344,
      "virtual_welfare": 2275
    },
    "profit": 2603,
    "cost_profit": 485.0,
    "welfare": 2760,
    "virtual_welfare": 2275,
    "running_time": 0
  },
  {
    "graph_name": "10_83",
    "n_pass": 2,
    "winning_ride": {
      "driver": {
        "arrive_until": 2400,
        "direct_cost": 399
      },
      "passengers": [
        {
          "bid": 3086,
          "id": 5,
          "price": 2486,
          "cost": 691,
          "direct_dist": 10287,
          "direct_cost": 309,
          "direct_time": 663
        },
        {
          "bid": 3688,
          "id": 3,
          "price": 2614,
          "cost": 819,
          "direct_dist": 12294,
          "direct_cost": 369,
          "direct_time": 867
        }
      ],
      "cost": 415,
      "virtual_welfare": 5264
    },
    "profit": 4685,
    "cost_profit": 1095.0,
    "welfare": 6359,
    "virtual_welfare": 5264,
    "running_time": 0
  },
  {
    "graph_name": "10_84",
    "n_pass": 1,
    "winning_ride": {
      "driver": {
        "arrive_until": 2400,
        "direct_cost": 455
      },
      "passengers": [
        {
          "bid": 3665,
          "id": 5,
          "price": 2209,
          "cost": 824,
          "direct_dist": 12218,
          "direct_cost": 367,
          "direct_time": 757
        }
      ],
      "cost": 388,
      "virtual_welfare": 2841
    },
    "profit": 1821,
    "cost_profit": 436.0,
    "welfare": 3277,
    "virtual_welfare": 2841,
    "running_time": 0
  },
  {
    "graph_name": "10_85",
    "n_pass": 1,
    "winning_ride": {
      "driver": {
        "arrive_until": 2400,
        "direct_cost": 498
      },
      "passengers": [
        {
          "bid": 4254,
          "id": 4,
          "price": 1625,
          "cost": 904,
          "direct_dist": 14180,
          "direct_cost": 426,
          "direct_time": 978
        }
      ],
      "cost": 173,
      "virtual_welfare": 3350
    },
    "profit": 1452,
    "cost_profit": 731.0,
    "welfare": 4081,
    "virtual_welfare": 3350,
    "running_time": 0
  },
  {
    "graph_name": "10_86",
    "n_pass": 2,
    "winning_ride": {
      "driver": {
        "arrive_until": 2400,
        "direct_cost": 580
      },
      "passengers": [
        {
          "bid": 4687,
          "id": 10,
          "price": 3935,
          "cost": 1005,
          "direct_dist": 15625,
          "direct_cost": 469,
          "direct_time": 972
        },
        {
          "bid": 5055,
          "id": 3,
          "price": 3909,
          "cost": 979,
          "direct_dist": 16850,
          "direct_cost": 506,
          "direct_time": 1226
        }
      ],
      "cost": 219,
      "virtual_welfare": 7758
    },
    "profit": 7625,
    "cost_profit": 1765.0,
    "welfare": 9523,
    "virtual_welfare": 7758,
    "running_time": 0
  },
  {
    "graph_name": "10_87",
    "n_pass": 1,
    "winning_ride": {
      "driver": {
        "arrive_until": 2400,
        "direct_cost": 464
      },
      "passengers": [
        {
          "bid": 4673,
          "id": 5,
          "price": 2162,
          "cost": 985,
          "direct_dist": 15578,
          "direct_cost": 468,
          "direct_time": 1035
        }
      ],
      "cost": 144,
      "virtual_welfare": 3688
    },
    "profit": 2018,
    "cost_profit": 841.0,
    "welfare": 4529,
    "virtual_welfare": 3688,
    "running_time": 0
  },
  {
    "graph_name": "10_88",
    "n_pass": 2,
    "winning_ride": {
      "driver": {
        "arrive_until": 2400,
        "direct_cost": 447
      },
      "passengers": [
        {
          "bid": 3723,
          "id": 8,
          "price": 1777,
          "cost": 783,
          "direct_dist": 12412,
          "direct_cost": 373,
          "direct_time": 796
        },
        {
          "bid": 2549,
          "id": 2,
          "price": 2031,
          "cost": 561,
          "direct_dist": 8499,
          "direct_cost": 255,
          "direct_time": 607
        }
      ],
      "cost": 473,
      "virtual_welfare": 4928
    },
    "profit": 3335,
    "cost_profit": 871.0,
    "welfare": 5799,
    "virtual_welfare": 4928,
    "running_time": 0
  },
  {
    "graph_name": "10_89",
    "n_pass": 2,
    "winning_ride": {
      "driver": {
        "arrive_until": 2400,
        "direct_cost": 573
      },
      "passengers": [
        {
          "bid": 5427,
          "id": 10,
          "price": 4573,
          "cost": 1209,
          "direct_dist": 18091,
          "direct_cost": 543,
          "direct_time": 1095
        },
        {
          "bid": 4803,
          "id": 2,
          "price": 4522,
          "cost": 1158,
          "direct_dist": 16010,
          "direct_cost": 481,
          "direct_time": 1069
        }
      ],
      "cost": 298,
      "virtual_welfare": 7863
    },
    "profit": 8797,
    "cost_profit": 2069.0,
    "welfare": 9932,
    "virtual_welfare": 7863,
    "running_time": 0
  },
  {
    "graph_name": "10_9",
    "n_pass": 1,
    "winning_ride": {
      "driver": {
        "arrive_until": 2400,
        "direct_cost": 461
      },
      "passengers": [
        {
          "bid": 2886,
          "id": 5,
          "price": 2761,
          "cost": 855,
          "direct_dist": 9623,
          "direct_cost": 289,
          "direct_time": 618
        }
      ],
      "cost": 491,
      "virtual_welfare": 2031
    },
    "profit": 2270,
    "cost_profit": 364.0,
    "welfare": 2395,
    "virtual_welfare": 2031,
    "running_time": 0
  },
  {
    "graph_name": "10_90",
    "n_pass": 2,
    "winning_ride": {
      "driver": {
        "arrive_until": 2400,
        "direct_cost": 400
      },
      "passengers": [
        {
          "bid": 2459,
          "id": 10,
          "price": 2145,
          "cost": 551,
          "direct_dist": 8199,
          "direct_cost": 246,
          "direct_time": 600
        },
        {
          "bid": 4104,
          "id": 4,
          "price": 2331,
          "cost": 915,
          "direct_dist": 13680,
          "direct_cost": 411,
          "direct_time": 889
        }
      ],
      "cost": 439,
      "virtual_welfare": 5097
    },
    "profit": 4037,
    "cost_profit": 1027.0,
    "welfare": 6124,
    "virtual_welfare": 5097,
    "running_time": 0
  },
  {
    "graph_name": "10_91",
    "n_pass": 2,
    "winning_ride": {
      "driver": {
        "arrive_until": 2400,
        "direct_cost": 385
      },
      "passengers": [
        {
          "bid": 3158,
          "id": 6,
          "price": 2156,
          "cost": 743,
          "direct_dist": 10528,
          "direct_cost": 316,
          "direct_time": 760
        },
        {
          "bid": 3721,
          "id": 5,
          "price": 3264,
          "cost": 894,
          "direct_dist": 12406,
          "direct_cost": 373,
          "direct_time": 877
        }
      ],
      "cost": 480,
      "virtual_welfare": 5242
    },
    "profit": 4940,
    "cost_profit": 1157.0,
    "welfare": 6399,
    "virtual_welfare": 5242,
    "running_time": 0
  },
  {
    "graph_name": "10_92",
    "n_pass": 2,
    "winning_ride": {
      "driver": {
        "arrive_until": 2400,
        "direct_cost": 460
      },
      "passengers": [
        {
          "bid": 3835,
          "id": 7,
          "price": 2523,
          "cost": 890,
          "direct_dist": 12786,
          "direct_cost": 384,
          "direct_time": 758
        },
        {
          "bid": 4253,
          "id": 1,
          "price": 2459,
          "cost": 987,
          "direct_dist": 15563,
          "direct_cost": 467,
          "direct_time": 935
        }
      ],
      "cost": 372,
      "virtual_welfare": 6211
    },
    "profit": 4610,
    "cost_profit": 1505.0,
    "welfare": 7716,
    "virtual_welfare": 6211,
    "running_time": 0
  },
  {
    "graph_name": "10_93",
    "n_pass": 1,
    "winning_ride": {
      "driver": {
        "arrive_until": 2400,
        "direct_cost": 408
      },
      "passengers": [
        {
          "bid": 4538,
          "id": 6,
          "price": 3921,
          "cost": 1050,
          "direct_dist": 15129,
          "direct_cost": 454,
          "direct_time": 1022
        }
      ],
      "cost": 444,
      "virtual_welfare": 3488
    },
    "profit": 3477,
    "cost_profit": 606.0,
    "welfare": 4094,
    "virtual_welfare": 3488,
    "running_time": 0
  },
  {
    "graph_name": "10_94",
    "n_pass": 3,
    "winning_ride": {
      "driver": {
        "arrive_until": 2400,
        "direct_cost": 496
      },
      "passengers": [
        {
          "bid": 1758,
          "id": 3,
          "price": 1558,
          "cost": 364,
          "direct_dist": 5862,
          "direct_cost": 176,
          "direct_time": 360
        },
        {
          "bid": 1946,
          "id": 2,
          "price": 1782,
          "cost": 588,
          "direct_dist": 6489,
          "direct_cost": 195,
          "direct_time": 394
        },
        {
          "bid": 4580,
          "id": 1,
          "price": 1901,
          "cost": 996,
          "direct_dist": 15267,
          "direct_cost": 459,
          "direct_time": 966
        }
      ],
      "cost": 487,
      "virtual_welfare": 6336
    },
    "profit": 4754,
    "cost_profit": 1461.0,
    "welfare": 7797,
    "virtual_welfare": 6336,
    "running_time": 0
  },
  {
    "graph_name": "10_95",
    "n_pass": 2,
    "winning_ride": {
      "driver": {
        "arrive_until": 2400,
        "direct_cost": 450
      },
      "passengers": [
        {
          "bid": 4139,
          "id": 8,
          "price": 2534,
          "cost": 1094,
          "direct_dist": 15916,
          "direct_cost": 478,
          "direct_time": 1048
        },
        {
          "bid": 3576,
          "id": 2,
          "price": 2406,
          "cost": 884,
          "direct_dist": 12461,
          "direct_cost": 374,
          "direct_time": 828
        }
      ],
      "cost": 402,
      "virtual_welfare": 5737
    },
    "profit": 4538,
    "cost_profit": 1576.0,
    "welfare": 7313,
    "virtual_welfare": 5737,
    "running_time": 0
  },
  {
    "graph_name": "10_96",
    "n_pass": 1,
    "winning_ride": {
      "driver": {
        "arrive_until": 2400,
        "direct_cost": 437
      },
      "passengers": [
        {
          "bid": 4803,
          "id": 5,
          "price": 3898,
          "cost": 899,
          "direct_dist": 16011,
          "direct_cost": 481,
          "direct_time": 1034
        }
      ],
      "cost": 454,
      "virtual_welfare": 3904
    },
    "profit": 3444,
    "cost_profit": 445.0,
    "welfare": 4349,
    "virtual_welfare": 3904,
    "running_time": 0
  },
  {
    "graph_name": "10_97",
    "n_pass": 1,
    "winning_ride": {
      "driver": {
        "arrive_until": 2400,
        "direct_cost": 548
      },
      "passengers": [
        {
          "bid": 5295,
          "id": 4,
          "price": 4246,
          "cost": 1140,
          "direct_dist": 17652,
          "direct_cost": 530,
          "direct_time": 1162
        }
      ],
      "cost": 393,
      "virtual_welfare": 4155
    },
    "profit": 3853,
    "cost_profit": 747.0,
    "welfare": 4902,
    "virtual_welfare": 4155,
    "running_time": 0
  },
  {
    "graph_name": "10_98",
    "n_pass": 1,
    "winning_ride": {
      "driver": {
        "arrive_until": 2400,
        "direct_cost": 387
      },
      "passengers": [
        {
          "bid": 3113,
          "id": 4,
          "price": 2966,
          "cost": 613,
          "direct_dist": 10379,
          "direct_cost": 312,
          "direct_time": 673
        }
      ],
      "cost": 499,
      "virtual_welfare": 2500
    },
    "profit": 2467,
    "cost_profit": 114.0,
    "welfare": 2614,
    "virtual_welfare": 2500,
    "running_time": 0
  },
  {
    "graph_name": "10_99",
    "n_pass": 2,
    "winning_ride": {
      "driver": {
        "arrive_until": 2400,
        "direct_cost": 584
      },
      "passengers": [
        {
          "bid": 2412,
          "id": 9,
          "price": 1318,
          "cost": 608,
          "direct_dist": 10031,
          "direct_cost": 301,
          "direct_time": 713
        },
        {
          "bid": 1782,
          "id": 2,
          "price": 1663,
          "cost": 761,
          "direct_dist": 7417,
          "direct_cost": 223,
          "direct_time": 504
        }
      ],
      "cost": 229,
      "virtual_welfare": 2825
    },
    "profit": 2752,
    "cost_profit": 1140.0,
    "welfare": 3965,
    "virtual_welfare": 2825,
    "running_time": 0
  }
]