{
  "nodes": [
    {
      "Delivery": {
        "bid": 2407,
        "id": 24,
        "price": null,
        "cost": null,
        "direct_dist": 8025,
        "direct_cost": 241,
        "direct_time": 542
      }
    },
    {
      "Pickup": {
        "bid": 2407,
        "id": 24,
        "price": null,
        "cost": null,
        "direct_dist": 8025,
        "direct_cost": 241,
        "direct_time": 542
      }
    },
    {
      "Delivery": {
        "bid": 4629,
        "id": 20,
        "price": null,
        "cost": null,
        "direct_dist": 16094,
        "direct_cost": 483,
        "direct_time": 1106
      }
    },
    {
      "Pickup": {
        "bid": 4629,
        "id": 20,
        "price": null,
        "cost": null,
        "direct_dist": 16094,
        "direct_cost": 483,
        "direct_time": 1106
      }
    },
    {
      "Delivery": {
        "bid": 1457,
        "id": 19,
        "price": null,
        "cost": null,
        "direct_dist": 6425,
        "direct_cost": 193,
        "direct_time": 603
      }
    },
    {
      "Pickup": {
        "bid": 1457,
        "id": 19,
        "price": null,
        "cost": null,
        "direct_dist": 6425,
        "direct_cost": 193,
        "direct_time": 603
      }
    },
    {
      "Delivery": {
        "bid": 2115,
        "id": 18,
        "price": null,
        "cost": null,
        "direct_dist": 9604,
        "direct_cost": 289,
        "direct_time": 682
      }
    },
    {
      "Pickup": {
        "bid": 2115,
        "id": 18,
        "price": null,
        "cost": null,
        "direct_dist": 9604,
        "direct_cost": 289,
        "direct_time": 682
      }
    },
    {
      "Delivery": {
        "bid": 54,
        "id": 17,
        "price": null,
        "cost": null,
        "direct_dist": 8077,
        "direct_cost": 243,
        "direct_time": 562
      }
    },
    {
      "Pickup": {
        "bid": 54,
        "id": 17,
        "price": null,
        "cost": null,
        "direct_dist": 8077,
        "direct_cost": 243,
        "direct_time": 562
      }
    },
    {
      "Delivery": {
        "bid": 5293,
        "id": 15,
        "price": null,
        "cost": null,
        "direct_dist": 17821,
        "direct_cost": 535,
        "direct_time": 1124
      }
    },
    {
      "Pickup": {
        "bid": 5293,
        "id": 15,
        "price": null,
        "cost": null,
        "direct_dist": 17821,
        "direct_cost": 535,
        "direct_time": 1124
      }
    },
    {
      "Delivery": {
        "bid": 361,
        "id": 12,
        "price": null,
        "cost": null,
        "direct_dist": 5298,
        "direct_cost": 159,
        "direct_time": 362
      }
    },
    {
      "Pickup": {
        "bid": 361,
        "id": 12,
        "price": null,
        "cost": null,
        "direct_dist": 5298,
        "direct_cost": 159,
        "direct_time": 362
      }
    },
    {
      "Delivery": {
        "bid": 20,
        "id": 10,
        "price": null,
        "cost": null,
        "direct_dist": 2345,
        "direct_cost": 71,
        "direct_time": 263
      }
    },
    {
      "Pickup": {
        "bid": 20,
        "id": 10,
        "price": null,
        "cost": null,
        "direct_dist": 2345,
        "direct_cost": 71,
        "direct_time": 263
      }
    },
    {
      "Delivery": {
        "bid": 1696,
        "id": 7,
        "price": null,
        "cost": null,
        "direct_dist": 13754,
        "direct_cost": 413,
        "direct_time": 956
      }
    },
    {
      "Pickup": {
        "bid": 1696,
        "id": 7,
        "price": null,
        "cost": null,
        "direct_dist": 13754,
        "direct_cost": 413,
        "direct_time": 956
      }
    },
    {
      "Delivery": {
        "bid": 1506,
        "id": 5,
        "price": null,
        "cost": null,
        "direct_dist": 5021,
        "direct_cost": 151,
        "direct_time": 334
      }
    },
    {
      "Pickup": {
        "bid": 1506,
        "id": 5,
        "price": null,
        "cost": null,
        "direct_dist": 5021,
        "direct_cost": 151,
        "direct_time": 334
      }
    },
    {
      "Delivery": {
        "bid": 537,
        "id": 4,
        "price": null,
        "cost": null,
        "direct_dist": 5257,
        "direct_cost": 158,
        "direct_time": 417
      }
    },
    {
      "Pickup": {
        "bid": 537,
        "id": 4,
        "price": null,
        "cost": null,
        "direct_dist": 5257,
        "direct_cost": 158,
        "direct_time": 417
      }
    },
    {
      "Delivery": {
        "bid": 145,
        "id": 2,
        "price": null,
        "cost": null,
        "direct_dist": 5784,
        "direct_cost": 174,
        "direct_time": 553
      }
    },
    {
      "Pickup": {
        "bid": 145,
        "id": 2,
        "price": null,
        "cost": null,
        "direct_dist": 5784,
        "direct_cost": 174,
        "direct_time": 553
      }
    },
    {
      "Delivery": {
        "bid": 1105,
        "id": 1,
        "price": null,
        "cost": null,
        "direct_dist": 5601,
        "direct_cost": 169,
        "direct_time": 418
      }
    },
    {
      "Pickup": {
        "bid": 1105,
        "id": 1,
        "price": null,
        "cost": null,
        "direct_dist": 5601,
        "direct_cost": 169,
        "direct_time": 418
      }
    },
    {
      "DriverStart": {
        "arrive_until": 2400,
        "direct_cost": 628
      }
    },
    {
      "DriverEnd": {
        "arrive_until": 2400,
        "direct_cost": 628
      }
    }
  ],
  "node_holes": [],
  "edge_property": "directed",
  "edges": [
    [
      0,
      10,
      {
        "cost": 297.93,
        "seconds": 610
      }
    ],
    [
      0,
      20,
      {
        "cost": 94.77,
        "seconds": 281
      }
    ],
    [
      0,
      8,
      {
        "cost": 278.94,
        "seconds": 619
      }
    ],
    [
      0,
      18,
      {
        "cost": 244.41,
        "seconds": 528
      }
    ],
    [
      0,
      24,
      {
        "cost": 182.16,
        "seconds": 424
      }
    ],
    [
      0,
      14,
      {
        "cost": 193.41,
        "seconds": 516
      }
    ],
    [
      0,
      9,
      {
        "cost": 77.36999999999999,
        "seconds": 197
      }
    ],
    [
      0,
      4,
      {
        "cost": 107.25,
        "seconds": 330
      }
    ],
    [
      0,
      2,
      {
        "cost": 315.87,
        "seconds": 710
      }
    ],
    [
      0,
      5,
      {
        "cost": 87.06,
        "seconds": 278
      }
    ],
    [
      0,
      22,
      {
        "cost": 39.18,
        "seconds": 122
      }
    ],
    [
      0,
      6,
      {
        "cost": 214.41,
        "seconds": 479
      }
    ],
    [
      0,
      12,
      {
        "cost": 279.27,
        "seconds": 645
      }
    ],
    [
      0,
      16,
      {
        "cost": 316.17,
        "seconds": 688
      }
    ],
    [
      1,
      20,
      {
        "cost": 337.08,
        "seconds": 749
      }
    ],
    [
      1,
      11,
      {
        "cost": 187.14,
        "seconds": 347
      }
    ],
    [
      1,
      18,
      {
        "cost": 448.05,
        "seconds": 946
      }
    ],
    [
      1,
      14,
      {
        "cost": 365.19,
        "seconds": 863
      }
    ],
    [
      1,
      21,
      {
        "cost": 352.05,
        "seconds": 826
      }
    ],
    [
      1,
      24,
      {
        "cost": 172.95,
        "seconds": 413
      }
    ],
    [
      1,
      9,
      {
        "cost": 264.9,
        "seconds": 562
      }
    ],
    [
      1,
      4,
      {
        "cost": 355.77,
        "seconds": 798
      }
    ],
    [
      1,
      22,
      {
        "cost": 287.46,
        "seconds": 618
      }
    ],
    [
      1,
      25,
      {
        "cost": 14.16,
        "seconds": 38
      }
    ],
    [
      1,
      15,
      {
        "cost": 317.67,
        "seconds": 703
      }
    ],
    [
      1,
      19,
      {
        "cost": 330.0,
        "seconds": 702
      }
    ],
    [
      1,
      6,
      {
        "cost": 89.64,
        "seconds": 185
      }
    ],
    [
      1,
      3,
      {
        "cost": 116.46,
        "seconds": 238
      }
    ],
    [
      1,
      5,
      {
        "cost": 267.75,
        "seconds": 602
      }
    ],
    [
      1,
      23,
      {
        "cost": 270.15,
        "seconds": 631
      }
    ],
    [
      1,
      12,
      {
        "cost": 91.44,
        "seconds": 235
      }
    ],
    [
      1,
      7,
      {
        "cost": 301.56,
        "seconds": 700
      }
    ],
    [
      1,
      17,
      {
        "cost": 70.23,
        "seconds": 196
      }
    ],
    [
      1,
      13,
      {
        "cost": 91.14,
        "seconds": 180
      }
    ],
    [
      1,
      0,
      {
        "cost": 240.75,
        "seconds": 542
      }
    ],
    [
      2,
      16,
      {
        "cost": 23.7,
        "seconds": 62
      }
    ],
    [
      2,
      10,
      {
        "cost": 49.92,
        "seconds": 165
      }
    ],
    [
      3,
      1,
      {
        "cost": 157.76999999999999,
        "seconds": 385
      }
    ],
    [
      3,
      0,
      {
        "cost": 205.82999999999999,
        "seconds": 514
      }
    ],
    [
      3,
      22,
      {
        "cost": 250.76999999999999,
        "seconds": 597
      }
    ],
    [
      3,
      20,
      {
        "cost": 300.39,
        "seconds": 728
      }
    ],
    [
      3,
      24,
      {
        "cost": 93.53999999999999,
        "seconds": 221
      }
    ],
    [
      3,
      8,
      {
        "cost": 435.27,
        "seconds": 983
      }
    ],
    [
      3,
      21,
      {
        "cost": 265.62,
        "seconds": 648
      }
    ],
    [
      3,
      23,
      {
        "cost": 173.88,
        "seconds": 416
      }
    ],
    [
      3,
      25,
      {
        "cost": 154.68,
        "seconds": 370
      }
    ],
    [
      3,
      6,
      {
        "cost": 177.32999999999999,
        "seconds": 371
      }
    ],
    [
      3,
      18,
      {
        "cost": 411.35999999999998,
        "seconds": 925
      }
    ],
    [
      3,
      16,
      {
        "cost": 483.09,
        "seconds": 1084
      }
    ],
    [
      3,
      9,
      {
        "cost": 228.20999999999999,
        "seconds": 541
      }
    ],
    [
      3,
      10,
      {
        "cost": 464.88,
        "seconds": 1006
      }
    ],
    [
      3,
      4,
      {
        "cost": 319.05,
        "seconds": 777
      }
    ],
    [
      3,
      7,
      {
        "cost": 215.13,
        "seconds": 522
      }
    ],
    [
      3,
      14,
      {
        "cost": 278.76,
        "seconds": 685
      }
    ],
    [
      3,
      12,
      {
        "cost": 179.13,
        "seconds": 421
      }
    ],
    [
      3,
      17,
      {
        "cost": 129.48,
        "seconds": 276
      }
    ],
    [
      3,
      19,
      {
        "cost": 293.31,
        "seconds": 681
      }
    ],
    [
      3,
      5,
      {
        "cost": 166.82999999999999,
        "seconds": 442
      }
    ],
    [
      3,
      11,
      {
        "cost": 89.64,
        "seconds": 185
      }
    ],
    [
      3,
      15,
      {
        "cost": 207.98999999999999,
        "seconds": 502
      }
    ],
    [
      3,
      13,
      {
        "cost": 56.28,
        "seconds": 150
      }
    ],
    [
      3,
      2,
      {
        "cost": 482.82,
        "seconds": 1106
      }
    ],
    [
      4,
      0,
      {
        "cost": 115.35,
        "seconds": 316
      }
    ],
    [
      4,
      2,
      {
        "cost": 216.84,
        "seconds": 501
      }
    ],
    [
      4,
      24,
      {
        "cost": 277.97999999999998,
        "seconds": 582
      }
    ],
    [
      4,
      22,
      {
        "cost": 76.28999999999999,
        "seconds": 204
      }
    ],
    [
      4,
      20,
      {
        "cost": 19.439999999999999,
        "seconds": 79
      }
    ],
    [
      4,
      18,
      {
        "cost": 145.38,
        "seconds": 319
      }
    ],
    [
      4,
      10,
      {
        "cost": 198.87,
        "seconds": 401
      }
    ],
    [
      4,
      16,
      {
        "cost": 217.10999999999999,
        "seconds": 479
      }
    ],
    [
      4,
      6,
      {
        "cost": 306.15,
        "seconds": 669
      }
    ],
    [
      4,
      8,
      {
        "cost": 179.88,
        "seconds": 410
      }
    ],
    [
      4,
      19,
      {
        "cost": 49.68,
        "seconds": 140
      }
    ],
    [
      5,
      1,
      {
        "cost": 233.94,
        "seconds": 513
      }
    ],
    [
      5,
      0,
      {
        "cost": 99.75,
        "seconds": 349
      }
    ],
    [
      5,
      3,
      {
        "cost": 161.13,
        "seconds": 442
      }
    ],
    [
      5,
      22,
      {
        "cost": 134.76,
        "seconds": 418
      }
    ],
    [
      5,
      24,
      {
        "cost": 74.85,
        "seconds": 201
      }
    ],
    [
      5,
      25,
      {
        "cost": 209.16,
        "seconds": 527
      }
    ],
    [
      5,
      23,
      {
        "cost": 93.06,
        "seconds": 280
      }
    ],
    [
      5,
      20,
      {
        "cost": 174.69,
        "seconds": 539
      }
    ],
    [
      5,
      6,
      {
        "cost": 260.49,
        "seconds": 582
      }
    ],
    [
      5,
      21,
      {
        "cost": 134.85,
        "seconds": 345
      }
    ],
    [
      5,
      13,
      {
        "cost": 167.46,
        "seconds": 491
      }
    ],
    [
      5,
      18,
      {
        "cost": 300.33,
        "seconds": 794
      }
    ],
    [
      5,
      16,
      {
        "cost": 372.06,
        "seconds": 954
      }
    ],
    [
      5,
      8,
      {
        "cost": 377.49,
        "seconds": 855
      }
    ],
    [
      5,
      14,
      {
        "cost": 147.98999999999999,
        "seconds": 383
      }
    ],
    [
      5,
      11,
      {
        "cost": 198.09,
        "seconds": 469
      }
    ],
    [
      5,
      19,
      {
        "cost": 202.79999999999999,
        "seconds": 558
      }
    ],
    [
      5,
      17,
      {
        "cost": 169.56,
        "seconds": 401
      }
    ],
    [
      5,
      7,
      {
        "cost": 84.36,
        "seconds": 220
      }
    ],
    [
      5,
      9,
      {
        "cost": 137.7,
        "seconds": 418
      }
    ],
    [
      5,
      15,
      {
        "cost": 142.92,
        "seconds": 395
      }
    ],
    [
      5,
      4,
      {
        "cost": 192.75,
        "seconds": 603
      }
    ],
    [
      6,
      0,
      {
        "cost": 253.41,
        "seconds": 588
      }
    ],
    [
      6,
      2,
      {
        "cost": 466.38,
        "seconds": 1043
      }
    ],
    [
      6,
      4,
      {
        "cost": 317.61,
        "seconds": 688
      }
    ],
    [
      6,
      16,
      {
        "cost": 466.68,
        "seconds": 1021
      }
    ],
    [
      6,
      10,
      {
        "cost": 448.44,
        "seconds": 943
      }
    ],
    [
      6,
      12,
      {
        "cost": 135.45,
        "seconds": 320
      }
    ],
    [
      6,
      22,
      {
        "cost": 287.34,
        "seconds": 622
      }
    ],
    [
      6,
      24,
      {
        "cost": 201.12,
        "seconds": 444
      }
    ],
    [
      7,
      1,
      {
        "cost": 261.57,
        "seconds": 613
      }
    ],
    [
      7,
      0,
      {
        "cost": 113.49,
        "seconds": 434
      }
    ],
    [
      7,
      3,
      {
        "cost": 192.81,
        "seconds": 509
      }
    ],
    [
      7,
      5,
      {
        "cost": 68.25,
        "seconds": 261
      }
    ],
    [
      7,
      4,
      {
        "cost": 187.70999999999999,
        "seconds": 570
      }
    ],
    [
      7,
      14,
      {
        "cost": 90.3,
        "seconds": 248
      }
    ],
    [
      7,
      17,
      {
        "cost": 199.23,
        "seconds": 485
      }
    ],
    [
      7,
      15,
      {
        "cost": 95.61,
        "seconds": 301
      }
    ],
    [
      7,
      12,
      {
        "cost": 354.27,
        "seconds": 830
      }
    ],
    [
      7,
      11,
      {
        "cost": 204.15,
        "seconds": 499
      }
    ],
    [
      7,
      13,
      {
        "cost": 199.10999999999999,
        "seconds": 558
      }
    ],
    [
      7,
      22,
      {
        "cost": 129.75,
        "seconds": 385
      }
    ],
    [
      7,
      20,
      {
        "cost": 169.65,
        "seconds": 506
      }
    ],
    [
      7,
      24,
      {
        "cost": 106.53,
        "seconds": 268
      }
    ],
    [
      7,
      9,
      {
        "cost": 186.84,
        "seconds": 498
      }
    ],
    [
      7,
      25,
      {
        "cost": 255.92999999999999,
        "seconds": 624
      }
    ],
    [
      7,
      19,
      {
        "cost": 194.13,
        "seconds": 559
      }
    ],
    [
      7,
      23,
      {
        "cost": 74.25,
        "seconds": 249
      }
    ],
    [
      7,
      21,
      {
        "cost": 77.16,
        "seconds": 211
      }
    ],
    [
      7,
      6,
      {
        "cost": 288.12,
        "seconds": 682
      }
    ],
    [
      8,
      0,
      {
        "cost": 272.73,
        "seconds": 621
      }
    ],
    [
      8,
      2,
      {
        "cost": 114.08999999999999,
        "seconds": 380
      }
    ],
    [
      8,
      4,
      {
        "cost": 199.07999999999999,
        "seconds": 452
      }
    ],
    [
      8,
      6,
      {
        "cost": 379.68,
        "seconds": 817
      }
    ],
    [
      8,
      22,
      {
        "cost": 244.62,
        "seconds": 544
      }
    ],
    [
      8,
      16,
      {
        "cost": 114.36,
        "seconds": 358
      }
    ],
    [
      8,
      20,
      {
        "cost": 187.73999999999999,
        "seconds": 420
      }
    ],
    [
      8,
      10,
      {
        "cost": 92.36999999999999,
        "seconds": 270
      }
    ],
    [
      8,
      18,
      {
        "cost": 97.83,
        "seconds": 281
      }
    ],
    [
      9,
      1,
      {
        "cost": 193.2,
        "seconds": 430
      }
    ],
    [
      9,
      0,
      {
        "cost": 58.71,
        "seconds": 193
      }
    ],
    [
      9,
      3,
      {
        "cost": 234.89999999999999,
        "seconds": 569
      }
    ],
    [
      9,
      5,
      {
        "cost": 129.87,
        "seconds": 374
      }
    ],
    [
      9,
      4,
      {
        "cost": 108.69,
        "seconds": 296
      }
    ],
    [
      9,
      24,
      {
        "cost": 187.5,
        "seconds": 445
      }
    ],
    [
      9,
      22,
      {
        "cost": 72.57,
        "seconds": 227
      }
    ],
    [
      9,
      16,
      {
        "cost": 279.51,
        "seconds": 631
      }
    ],
    [
      9,
      25,
      {
        "cost": 207.35999999999999,
        "seconds": 468
      }
    ],
    [
      9,
      20,
      {
        "cost": 90.03,
        "seconds": 247
      }
    ],
    [
      9,
      23,
      {
        "cost": 205.67999999999999,
        "seconds": 524
      }
    ],
    [
      9,
      17,
      {
        "cost": 156.42,
        "seconds": 371
      }
    ],
    [
      9,
      21,
      {
        "cost": 203.57999999999999,
        "seconds": 555
      }
    ],
    [
      9,
      10,
      {
        "cost": 261.3,
        "seconds": 553
      }
    ],
    [
      9,
      18,
      {
        "cost": 207.78,
        "seconds": 471
      }
    ],
    [
      9,
      11,
      {
        "cost": 318.99,
        "seconds": 680
      }
    ],
    [
      9,
      19,
      {
        "cost": 88.86,
        "seconds": 244
      }
    ],
    [
      9,
      15,
      {
        "cost": 269.78999999999999,
        "seconds": 643
      }
    ],
    [
      9,
      8,
      {
        "cost": 242.31,
        "seconds": 562
      }
    ],
    [
      10,
      2,
      {
        "cost": 49.98,
        "seconds": 153
      }
    ],
    [
      10,
      8,
      {
        "cost": 114.3,
        "seconds": 308
      }
    ],
    [
      10,
      16,
      {
        "cost": 57.9,
        "seconds": 163
      }
    ],
    [
      11,
      1,
      {
        "cost": 221.13,
        "seconds": 461
      }
    ],
    [
      11,
      0,
      {
        "cost": 275.58,
        "seconds": 632
      }
    ],
    [
      11,
      3,
      {
        "cost": 82.38,
        "seconds": 191
      }
    ],
    [
      11,
      2,
      {
        "cost": 552.5699999999999,
        "seconds": 1224
      }
    ],
    [
      11,
      5,
      {
        "cost": 181.65,
        "seconds": 483
      }
    ],
    [
      11,
      4,
      {
        "cost": 388.83,
        "seconds": 895
      }
    ],
    [
      11,
      7,
      {
        "cost": 160.53,
        "seconds": 433
      }
    ],
    [
      11,
      6,
      {
        "cost": 240.72,
        "seconds": 448
      }
    ],
    [
      11,
      9,
      {
        "cost": 297.96,
        "seconds": 659
      }
    ],
    [
      11,
      8,
      {
        "cost": 505.04999999999998,
        "seconds": 1101
      }
    ],
    [
      11,
      18,
      {
        "cost": 481.14,
        "seconds": 1043
      }
    ],
    [
      11,
      16,
      {
        "cost": 552.87,
        "seconds": 1202
      }
    ],
    [
      11,
      22,
      {
        "cost": 320.52,
        "seconds": 715
      }
    ],
    [
      11,
      24,
      {
        "cost": 126.72,
        "seconds": 271
      }
    ],
    [
      11,
      20,
      {
        "cost": 370.14,
        "seconds": 846
      }
    ],
    [
      11,
      19,
      {
        "cost": 363.06,
        "seconds": 798
      }
    ],
    [
      11,
      17,
      {
        "cost": 199.26,
        "seconds": 394
      }
    ],
    [
      11,
      12,
      {
        "cost": 242.48999999999999,
        "seconds": 498
      }
    ],
    [
      11,
      25,
      {
        "cost": 218.04,
        "seconds": 447
      }
    ],
    [
      11,
      23,
      {
        "cost": 102.11999999999999,
        "seconds": 298
      }
    ],
    [
      11,
      14,
      {
        "cost": 224.16,
        "seconds": 596
      }
    ],
    [
      11,
      21,
      {
        "cost": 211.01999999999999,
        "seconds": 559
      }
    ],
    [
      11,
      13,
      {
        "cost": 119.67,
        "seconds": 227
      }
    ],
    [
      11,
      15,
      {
        "cost": 135.54,
        "seconds": 383
      }
    ],
    [
      11,
      10,
      {
        "cost": 534.63,
        "seconds": 1124
      }
    ],
    [
      12,
      0,
      {
        "cost": 307.65,
        "seconds": 721
      }
    ],
    [
      12,
      1,
      {
        "cost": 117.36,
        "seconds": 309
      }
    ],
    [
      12,
      2,
      {
        "cost": 549.6899999999999,
        "seconds": 1242
      }
    ],
    [
      12,
      3,
      {
        "cost": 182.97,
        "seconds": 411
      }
    ],
    [
      12,
      4,
      {
        "cost": 400.89,
        "seconds": 887
      }
    ],
    [
      12,
      6,
      {
        "cost": 83.28,
        "seconds": 200
      }
    ],
    [
      12,
      10,
      {
        "cost": 531.72,
        "seconds": 1143
      }
    ],
    [
      12,
      20,
      {
        "cost": 382.22999999999998,
        "seconds": 839
      }
    ],
    [
      12,
      16,
      {
        "cost": 549.96,
        "seconds": 1221
      }
    ],
    [
      12,
      22,
      {
        "cost": 354.36,
        "seconds": 797
      }
    ],
    [
      12,
      17,
      {
        "cost": 170.34,
        "seconds": 453
      }
    ],
    [
      12,
      24,
      {
        "cost": 256.28999999999999,
        "seconds": 610
      }
    ],
    [
      12,
      25,
      {
        "cost": 114.3,
        "seconds": 294
      }
    ],
    [
      13,
      1,
      {
        "cost": 99.21,
        "seconds": 272
      }
    ],
    [
      13,
      0,
      {
        "cost": 223.04999999999999,
        "seconds": 518
      }
    ],
    [
      13,
      3,
      {
        "cost": 45.93,
        "seconds": 121
      }
    ],
    [
      13,
      7,
      {
        "cost": 223.23,
        "seconds": 565
      }
    ],
    [
      13,
      6,
      {
        "cost": 157.14,
        "seconds": 312
      }
    ],
    [
      13,
      11,
      {
        "cost": 116.61,
        "seconds": 230
      }
    ],
    [
      13,
      21,
      {
        "cost": 273.69,
        "seconds": 691
      }
    ],
    [
      13,
      17,
      {
        "cost": 118.92,
        "seconds": 278
      }
    ],
    [
      13,
      22,
      {
        "cost": 269.76,
        "seconds": 594
      }
    ],
    [
      13,
      24,
      {
        "cost": 101.61,
        "seconds": 264
      }
    ],
    [
      13,
      15,
      {
        "cost": 216.06,
        "seconds": 545
      }
    ],
    [
      13,
      25,
      {
        "cost": 96.81,
        "seconds": 254
      }
    ],
    [
      13,
      23,
      {
        "cost": 181.95,
        "seconds": 459
      }
    ],
    [
      13,
      12,
      {
        "cost": 158.94,
        "seconds": 362
      }
    ],
    [
      14,
      0,
      {
        "cost": 188.60999999999999,
        "seconds": 469
      }
    ],
    [
      14,
      2,
      {
        "cost": 407.15999999999999,
        "seconds": 952
      }
    ],
    [
      14,
      5,
      {
        "cost": 157.01999999999999,
        "seconds": 391
      }
    ],
    [
      14,
      4,
      {
        "cost": 228.12,
        "seconds": 579
      }
    ],
    [
      14,
      6,
      {
        "cost": 342.87,
        "seconds": 798
      }
    ],
    [
      14,
      7,
      {
        "cost": 83.34,
        "seconds": 212
      }
    ],
    [
      14,
      8,
      {
        "cost": 370.2,
        "seconds": 862
      }
    ],
    [
      14,
      9,
      {
        "cost": 227.22,
        "seconds": 507
      }
    ],
    [
      14,
      11,
      {
        "cost": 198.32999999999999,
        "seconds": 597
      }
    ],
    [
      14,
      10,
      {
        "cost": 389.19,
        "seconds": 852
      }
    ],
    [
      14,
      12,
      {
        "cost": 409.02,
        "seconds": 946
      }
    ],
    [
      14,
      18,
      {
        "cost": 335.7,
        "seconds": 771
      }
    ],
    [
      14,
      24,
      {
        "cost": 161.28,
        "seconds": 384
      }
    ],
    [
      14,
      16,
      {
        "cost": 407.43,
        "seconds": 931
      }
    ],
    [
      14,
      22,
      {
        "cost": 170.13,
        "seconds": 394
      }
    ],
    [
      14,
      20,
      {
        "cost": 210.06,
        "seconds": 515
      }
    ],
    [
      14,
      19,
      {
        "cost": 234.54,
        "seconds": 569
      }
    ],
    [
      14,
      21,
      {
        "cost": 46.14,
        "seconds": 142
      }
    ],
    [
      14,
      23,
      {
        "cost": 103.77,
        "seconds": 349
      }
    ],
    [
      15,
      1,
      {
        "cost": 331.14,
        "seconds": 697
      }
    ],
    [
      15,
      0,
      {
        "cost": 228.63,
        "seconds": 625
      }
    ],
    [
      15,
      3,
      {
        "cost": 212.73,
        "seconds": 529
      }
    ],
    [
      15,
      5,
      {
        "cost": 134.54999999999999,
        "seconds": 392
      }
    ],
    [
      15,
      7,
      {
        "cost": 84.33,
        "seconds": 286
      }
    ],
    [
      15,
      11,
      {
        "cost": 139.10999999999999,
        "seconds": 372
      }
    ],
    [
      15,
      24,
      {
        "cost": 148.32,
        "seconds": 377
      }
    ],
    [
      15,
      22,
      {
        "cost": 210.15,
        "seconds": 550
      }
    ],
    [
      15,
      17,
      {
        "cost": 268.8,
        "seconds": 569
      }
    ],
    [
      15,
      25,
      {
        "cost": 317.94,
        "seconds": 723
      }
    ],
    [
      15,
      19,
      {
        "cost": 274.53,
        "seconds": 725
      }
    ],
    [
      15,
      21,
      {
        "cost": 86.16,
        "seconds": 298
      }
    ],
    [
      15,
      23,
      {
        "cost": 44.46,
        "seconds": 176
      }
    ],
    [
      15,
      14,
      {
        "cost": 70.35,
        "seconds": 263
      }
    ],
    [
      16,
      2,
      {
        "cost": 23.7,
        "seconds": 62
      }
    ],
    [
      16,
      4,
      {
        "cost": 194.82,
        "seconds": 513
      }
    ],
    [
      16,
      8,
      {
        "cost": 149.25,
        "seconds": 388
      }
    ],
    [
      16,
      10,
      {
        "cost": 57.9,
        "seconds": 163
      }
    ],
    [
      16,
      18,
      {
        "cost": 78.24,
        "seconds": 229
      }
    ],
    [
      17,
      1,
      {
        "cost": 61.949999999999999,
        "seconds": 173
      }
    ],
    [
      17,
      0,
      {
        "cost": 190.59,
        "seconds": 513
      }
    ],
    [
      17,
      3,
      {
        "cost": 142.35,
        "seconds": 373
      }
    ],
    [
      17,
      2,
      {
        "cost": 412.34999999999999,
        "seconds": 978
      }
    ],
    [
      17,
      5,
      {
        "cost": 205.04999999999999,
        "seconds": 506
      }
    ],
    [
      17,
      4,
      {
        "cost": 262.38,
        "seconds": 639
      }
    ],
    [
      17,
      7,
      {
        "cost": 253.35,
        "seconds": 586
      }
    ],
    [
      17,
      6,
      {
        "cost": 91.08,
        "seconds": 243
      }
    ],
    [
      17,
      9,
      {
        "cost": 200.13,
        "seconds": 505
      }
    ],
    [
      17,
      8,
      {
        "cost": 345.15,
        "seconds": 842
      }
    ],
    [
      17,
      11,
      {
        "cost": 205.92,
        "seconds": 497
      }
    ],
    [
      17,
      10,
      {
        "cost": 394.38,
        "seconds": 878
      }
    ],
    [
      17,
      13,
      {
        "cost": 106.08,
        "seconds": 287
      }
    ],
    [
      17,
      12,
      {
        "cost": 153.35999999999999,
        "seconds": 409
      }
    ],
    [
      17,
      15,
      {
        "cost": 285.69,
        "seconds": 632
      }
    ],
    [
      17,
      14,
      {
        "cost": 317.01,
        "seconds": 749
      }
    ],
    [
      17,
      22,
      {
        "cost": 232.14,
        "seconds": 573
      }
    ],
    [
      17,
      18,
      {
        "cost": 340.89,
        "seconds": 797
      }
    ],
    [
      17,
      20,
      {
        "cost": 243.72,
        "seconds": 590
      }
    ],
    [
      17,
      24,
      {
        "cost": 131.76,
        "seconds": 285
      }
    ],
    [
      17,
      19,
      {
        "cost": 222.84,
        "seconds": 552
      }
    ],
    [
      17,
      23,
      {
        "cost": 251.57999999999999,
        "seconds": 546
      }
    ],
    [
      17,
      21,
      {
        "cost": 303.84,
        "seconds": 712
      }
    ],
    [
      17,
      25,
      {
        "cost": 61.739999999999998,
        "seconds": 195
      }
    ],
    [
      17,
      16,
      {
        "cost": 412.62,
        "seconds": 956
      }
    ],
    [
      18,
      0,
      {
        "cost": 229.35,
        "seconds": 549
      }
    ],
    [
      18,
      2,
      {
        "cost": 97.8,
        "seconds": 268
      }
    ],
    [
      18,
      4,
      {
        "cost": 144.78,
        "seconds": 345
      }
    ],
    [
      18,
      6,
      {
        "cost": 392.61,
        "seconds": 862
      }
    ],
    [
      18,
      9,
      {
        "cost": 200.88,
        "seconds": 464
      }
    ],
    [
      18,
      8,
      {
        "cost": 86.58,
        "seconds": 287
      }
    ],
    [
      18,
      10,
      {
        "cost": 92.61,
        "seconds": 254
      }
    ],
    [
      18,
      14,
      {
        "cost": 313.65,
        "seconds": 793
      }
    ],
    [
      18,
      16,
      {
        "cost": 78.24,
        "seconds": 229
      }
    ],
    [
      18,
      24,
      {
        "cost": 388.59,
        "seconds": 784
      }
    ],
    [
      18,
      20,
      {
        "cost": 133.41,
        "seconds": 312
      }
    ],
    [
      18,
      22,
      {
        "cost": 190.29,
        "seconds": 437
      }
    ],
    [
      19,
      1,
      {
        "cost": 239.76,
        "seconds": 528
      }
    ],
    [
      19,
      0,
      {
        "cost": 105.3,
        "seconds": 291
      }
    ],
    [
      19,
      3,
      {
        "cost": 292.5,
        "seconds": 657
      }
    ],
    [
      19,
      5,
      {
        "cost": 173.91,
        "seconds": 431
      }
    ],
    [
      19,
      4,
      {
        "cost": 70.64999999999999,
        "seconds": 220
      }
    ],
    [
      19,
      9,
      {
        "cost": 80.1,
        "seconds": 218
      }
    ],
    [
      19,
      8,
      {
        "cost": 185.13,
        "seconds": 424
      }
    ],
    [
      19,
      11,
      {
        "cost": 376.59,
        "seconds": 768
      }
    ],
    [
      19,
      15,
      {
        "cost": 316.38,
        "seconds": 741
      }
    ],
    [
      19,
      17,
      {
        "cost": 202.98,
        "seconds": 469
      }
    ],
    [
      19,
      16,
      {
        "cost": 222.35999999999999,
        "seconds": 493
      }
    ],
    [
      19,
      22,
      {
        "cost": 126.57,
        "seconds": 256
      }
    ],
    [
      19,
      20,
      {
        "cost": 44.16,
        "seconds": 166
      }
    ],
    [
      19,
      21,
      {
        "cost": 233.54999999999999,
        "seconds": 582
      }
    ],
    [
      19,
      23,
      {
        "cost": 252.26999999999999,
        "seconds": 622
      }
    ],
    [
      19,
      18,
      {
        "cost": 150.63,
        "seconds": 334
      }
    ],
    [
      20,
      0,
      {
        "cost": 97.2,
        "seconds": 298
      }
    ],
    [
      20,
      2,
      {
        "cost": 213.78,
        "seconds": 488
      }
    ],
    [
      20,
      4,
      {
        "cost": 39.39,
        "seconds": 153
      }
    ],
    [
      20,
      5,
      {
        "cost": 178.01999999999999,
        "seconds": 451
      }
    ],
    [
      20,
      6,
      {
        "cost": 283.95,
        "seconds": 627
      }
    ],
    [
      20,
      8,
      {
        "cost": 176.85,
        "seconds": 397
      }
    ],
    [
      20,
      9,
      {
        "cost": 78.89999999999999,
        "seconds": 219
      }
    ],
    [
      20,
      10,
      {
        "cost": 195.84,
        "seconds": 388
      }
    ],
    [
      20,
      12,
      {
        "cost": 348.81,
        "seconds": 793
      }
    ],
    [
      20,
      14,
      {
        "cost": 225.57,
        "seconds": 613
      }
    ],
    [
      20,
      16,
      {
        "cost": 214.07999999999999,
        "seconds": 466
      }
    ],
    [
      20,
      18,
      {
        "cost": 142.35,
        "seconds": 306
      }
    ],
    [
      20,
      19,
      {
        "cost": 29.939999999999999,
        "seconds": 89
      }
    ],
    [
      20,
      22,
      {
        "cost": 80.22,
        "seconds": 240
      }
    ],
    [
      20,
      24,
      {
        "cost": 269.73,
        "seconds": 560
      }
    ],
    [
      21,
      1,
      {
        "cost": 314.67,
        "seconds": 716
      }
    ],
    [
      21,
      0,
      {
        "cost": 136.26,
        "seconds": 371
      }
    ],
    [
      21,
      3,
      {
        "cost": 265.5,
        "seconds": 699
      }
    ],
    [
      21,
      5,
      {
        "cost": 129.26999999999999,
        "seconds": 419
      }
    ],
    [
      21,
      4,
      {
        "cost": 175.76999999999999,
        "seconds": 481
      }
    ],
    [
      21,
      7,
      {
        "cost": 101.28,
        "seconds": 286
      }
    ],
    [
      21,
      9,
      {
        "cost": 174.87,
        "seconds": 409
      }
    ],
    [
      21,
      8,
      {
        "cost": 317.88,
        "seconds": 763
      }
    ],
    [
      21,
      11,
      {
        "cost": 212.4,
        "seconds": 660
      }
    ],
    [
      21,
      13,
      {
        "cost": 271.83,
        "seconds": 748
      }
    ],
    [
      21,
      15,
      {
        "cost": 95.64,
        "seconds": 339
      }
    ],
    [
      21,
      14,
      {
        "cost": 44.699999999999999,
        "seconds": 159
      }
    ],
    [
      21,
      17,
      {
        "cost": 277.89,
        "seconds": 656
      }
    ],
    [
      21,
      19,
      {
        "cost": 182.19,
        "seconds": 470
      }
    ],
    [
      21,
      18,
      {
        "cost": 283.34999999999999,
        "seconds": 673
      }
    ],
    [
      21,
      22,
      {
        "cost": 117.81,
        "seconds": 296
      }
    ],
    [
      21,
      24,
      {
        "cost": 179.22,
        "seconds": 457
      }
    ],
    [
      21,
      25,
      {
        "cost": 328.86,
        "seconds": 753
      }
    ],
    [
      21,
      23,
      {
        "cost": 116.22,
        "seconds": 410
      }
    ],
    [
      21,
      20,
      {
        "cost": 157.71,
        "seconds": 417
      }
    ],
    [
      22,
      0,
      {
        "cost": 41.519999999999999,
        "seconds": 142
      }
    ],
    [
      22,
      2,
      {
        "cost": 263.31,
        "seconds": 618
      }
    ],
    [
      22,
      4,
      {
        "cost": 78.69,
        "seconds": 231
      }
    ],
    [
      22,
      6,
      {
        "cost": 273.48,
        "seconds": 544
      }
    ],
    [
      22,
      9,
      {
        "cost": 58.68,
        "seconds": 120
      }
    ],
    [
      22,
      8,
      {
        "cost": 226.38,
        "seconds": 528
      }
    ],
    [
      22,
      10,
      {
        "cost": 245.37,
        "seconds": 518
      }
    ],
    [
      22,
      12,
      {
        "cost": 338.34,
        "seconds": 710
      }
    ],
    [
      22,
      14,
      {
        "cost": 178.29,
        "seconds": 462
      }
    ],
    [
      22,
      16,
      {
        "cost": 263.61,
        "seconds": 597
      }
    ],
    [
      22,
      18,
      {
        "cost": 191.85,
        "seconds": 437
      }
    ],
    [
      22,
      19,
      {
        "cost": 85.11,
        "seconds": 221
      }
    ],
    [
      22,
      20,
      {
        "cost": 66.21,
        "seconds": 182
      }
    ],
    [
      22,
      24,
      {
        "cost": 245.28,
        "seconds": 457
      }
    ],
    [
      23,
      1,
      {
        "cost": 248.60999999999999,
        "seconds": 595
      }
    ],
    [
      23,
      0,
      {
        "cost": 162.87,
        "seconds": 511
      }
    ],
    [
      23,
      3,
      {
        "cost": 179.85,
        "seconds": 492
      }
    ],
    [
      23,
      5,
      {
        "cost": 90.57,
        "seconds": 261
      }
    ],
    [
      23,
      4,
      {
        "cost": 231.48,
        "seconds": 738
      }
    ],
    [
      23,
      7,
      {
        "cost": 48.239999999999998,
        "seconds": 185
      }
    ],
    [
      23,
      6,
      {
        "cost": 275.19,
        "seconds": 664
      }
    ],
    [
      23,
      9,
      {
        "cost": 226.07999999999999,
        "seconds": 542
      }
    ],
    [
      23,
      8,
      {
        "cost": 416.84999999999999,
        "seconds": 953
      }
    ],
    [
      23,
      11,
      {
        "cost": 130.29,
        "seconds": 339
      }
    ],
    [
      23,
      13,
      {
        "cost": 241.2,
        "seconds": 533
      }
    ],
    [
      23,
      15,
      {
        "cost": 56.519999999999999,
        "seconds": 184
      }
    ],
    [
      23,
      14,
      {
        "cost": 107.49,
        "seconds": 346
      }
    ],
    [
      23,
      17,
      {
        "cost": 186.29999999999999,
        "seconds": 467
      }
    ],
    [
      23,
      19,
      {
        "cost": 294.51,
        "seconds": 663
      }
    ],
    [
      23,
      18,
      {
        "cost": 411.0,
        "seconds": 907
      }
    ],
    [
      23,
      21,
      {
        "cost": 94.35,
        "seconds": 309
      }
    ],
    [
      23,
      20,
      {
        "cost": 213.42,
        "seconds": 674
      }
    ],
    [
      23,
      24,
      {
        "cost": 93.57,
        "seconds": 250
      }
    ],
    [
      23,
      25,
      {
        "cost": 242.97,
        "seconds": 607
      }
    ],
    [
      23,
      22,
      {
        "cost": 173.51999999999999,
        "seconds": 553
      }
    ],
    [
      24,
      0,
      {
        "cost": 183.0,
        "seconds": 492
      }
    ],
    [
      24,
      1,
      {
        "cost": 200.28,
        "seconds": 444
      }
    ],
    [
      24,
      2,
      {
        "cost": 471.57,
        "seconds": 1078
      }
    ],
    [
      24,
      3,
      {
        "cost": 88.67999999999999,
        "seconds": 308
      }
    ],
    [
      24,
      4,
      {
        "cost": 321.63,
        "seconds": 737
      }
    ],
    [
      24,
      5,
      {
        "cost": 95.28,
        "seconds": 297
      }
    ],
    [
      24,
      6,
      {
        "cost": 226.85999999999999,
        "seconds": 514
      }
    ],
    [
      24,
      7,
      {
        "cost": 143.57999999999999,
        "seconds": 376
      }
    ],
    [
      24,
      8,
      {
        "cost": 404.37,
        "seconds": 942
      }
    ],
    [
      24,
      10,
      {
        "cost": 453.59999999999999,
        "seconds": 978
      }
    ],
    [
      24,
      11,
      {
        "cost": 122.55,
        "seconds": 325
      }
    ],
    [
      24,
      12,
      {
        "cost": 241.73999999999999,
        "seconds": 655
      }
    ],
    [
      24,
      13,
      {
        "cost": 108.6,
        "seconds": 378
      }
    ],
    [
      24,
      14,
      {
        "cost": 207.20999999999999,
        "seconds": 539
      }
    ],
    [
      24,
      15,
      {
        "cost": 146.57999999999999,
        "seconds": 420
      }
    ],
    [
      24,
      16,
      {
        "cost": 471.84,
        "seconds": 1056
      }
    ],
    [
      24,
      17,
      {
        "cost": 137.97,
        "seconds": 317
      }
    ],
    [
      24,
      20,
      {
        "cost": 302.96999999999999,
        "seconds": 688
      }
    ],
    [
      24,
      22,
      {
        "cost": 227.97,
        "seconds": 575
      }
    ],
    [
      24,
      23,
      {
        "cost": 105.47999999999999,
        "seconds": 297
      }
    ],
    [
      25,
      1,
      {
        "cost": 27.39,
        "seconds": 88
      }
    ],
    [
      25,
      0,
      {
        "cost": 225.9,
        "seconds": 521
      }
    ],
    [
      25,
      3,
      {
        "cost": 101.31,
        "seconds": 225
      }
    ],
    [
      25,
      5,
      {
        "cost": 252.89999999999999,
        "seconds": 581
      }
    ],
    [
      25,
      7,
      {
        "cost": 286.71,
        "seconds": 678
      }
    ],
    [
      25,
      6,
      {
        "cost": 94.22999999999999,
        "seconds": 211
      }
    ],
    [
      25,
      9,
      {
        "cost": 250.01999999999999,
        "seconds": 541
      }
    ],
    [
      25,
      11,
      {
        "cost": 171.95999999999999,
        "seconds": 335
      }
    ],
    [
      25,
      13,
      {
        "cost": 75.96,
        "seconds": 167
      }
    ],
    [
      25,
      12,
      {
        "cost": 96.0,
        "seconds": 261
      }
    ],
    [
      25,
      15,
      {
        "cost": 302.49,
        "seconds": 690
      }
    ],
    [
      25,
      14,
      {
        "cost": 350.34,
        "seconds": 841
      }
    ],
    [
      25,
      17,
      {
        "cost": 73.83,
        "seconds": 225
      }
    ],
    [
      25,
      19,
      {
        "cost": 315.15,
        "seconds": 680
      }
    ],
    [
      25,
      21,
      {
        "cost": 337.17,
        "seconds": 804
      }
    ],
    [
      25,
      20,
      {
        "cost": 322.22999999999998,
        "seconds": 728
      }
    ],
    [
      25,
      23,
      {
        "cost": 248.37,
        "seconds": 612
      }
    ],
    [
      25,
      22,
      {
        "cost": 272.61,
        "seconds": 597
      }
    ],
    [
      25,
      24,
      {
        "cost": 168.03,
        "seconds": 418
      }
    ],
    [
      24,
      27,
      {
        "cost": 511.59,
        "seconds": 1201
      }
    ],
    [
      26,
      25,
      {
        "cost": 264.36,
        "seconds": 612
      }
    ],
    [
      24,
      26,
      {
        "cost": 136.85999999999999,
        "seconds": 394
      }
    ],
    [
      27,
      25,
      {
        "cost": 493.26,
        "seconds": 1132
      }
    ],
    [
      22,
      27,
      {
        "cost": 294.51,
        "seconds": 746
      }
    ],
    [
      26,
      23,
      {
        "cost": 133.92,
        "seconds": 379
      }
    ],
    [
      22,
      26,
      {
        "cost": 346.65,
        "seconds": 756
      }
    ],
    [
      27,
      23,
      {
        "cost": 450.27,
        "seconds": 1174
      }
    ],
    [
      20,
      27,
      {
        "cost": 258.3,
        "seconds": 616
      }
    ],
    [
      26,
      21,
      {
        "cost": 242.82,
        "seconds": 640
      }
    ],
    [
      20,
      26,
      {
        "cost": 377.84999999999999,
        "seconds": 858
      }
    ],
    [
      27,
      21,
      {
        "cost": 354.93,
        "seconds": 871
      }
    ],
    [
      18,
      27,
      {
        "cost": 191.76,
        "seconds": 568
      }
    ],
    [
      26,
      19,
      {
        "cost": 398.34,
        "seconds": 888
      }
    ],
    [
      18,
      26,
      {
        "cost": 489.93,
        "seconds": 1084
      }
    ],
    [
      27,
      19,
      {
        "cost": 241.59,
        "seconds": 601
      }
    ],
    [
      16,
      27,
      {
        "cost": 162.96,
        "seconds": 465
      }
    ],
    [
      26,
      17,
      {
        "cost": 234.54,
        "seconds": 484
      }
    ],
    [
      16,
      26,
      {
        "cost": 566.0699999999999,
        "seconds": 1255
      }
    ],
    [
      27,
      17,
      {
        "cost": 442.28999999999999,
        "seconds": 1035
      }
    ],
    [
      14,
      27,
      {
        "cost": 418.10999999999998,
        "seconds": 1030
      }
    ],
    [
      26,
      15,
      {
        "cost": 143.31,
        "seconds": 422
      }
    ],
    [
      14,
      26,
      {
        "cost": 201.23999999999999,
        "seconds": 615
      }
    ],
    [
      27,
      15,
      {
        "cost": 429.69,
        "seconds": 1103
      }
    ],
    [
      12,
      27,
      {
        "cost": 589.7099999999999,
        "seconds": 1366
      }
    ],
    [
      26,
      13,
      {
        "cost": 165.96,
        "seconds": 392
      }
    ],
    [
      12,
      26,
      {
        "cost": 317.43,
        "seconds": 725
      }
    ],
    [
      27,
      13,
      {
        "cost": 533.1899999999999,
        "seconds": 1192
      }
    ],
    [
      10,
      27,
      {
        "cost": 216.39,
        "seconds": 610
      }
    ],
    [
      26,
      11,
      {
        "cost": 68.67,
        "seconds": 214
      }
    ],
    [
      10,
      26,
      {
        "cost": 547.8299999999999,
        "seconds": 1177
      }
    ],
    [
      27,
      11,
      {
        "cost": 612.5699999999999,
        "seconds": 1314
      }
    ],
    [
      8,
      27,
      {
        "cost": 292.92,
        "seconds": 790
      }
    ],
    [
      26,
      9,
      {
        "cost": 333.24,
        "seconds": 749
      }
    ],
    [
      8,
      26,
      {
        "cost": 522.99,
        "seconds": 1141
      }
    ],
    [
      27,
      9,
      {
        "cost": 306.78,
        "seconds": 746
      }
    ],
    [
      6,
      27,
      {
        "cost": 506.43,
        "seconds": 1166
      }
    ],
    [
      26,
      7,
      {
        "cost": 192.32999999999999,
        "seconds": 514
      }
    ],
    [
      6,
      26,
      {
        "cost": 323.4,
        "seconds": 721
      }
    ],
    [
      27,
      7,
      {
        "cost": 393.78,
        "seconds": 980
      }
    ],
    [
      4,
      27,
      {
        "cost": 244.44,
        "seconds": 586
      }
    ],
    [
      26,
      5,
      {
        "cost": 213.45,
        "seconds": 564
      }
    ],
    [
      4,
      26,
      {
        "cost": 379.32,
        "seconds": 882
      }
    ],
    [
      27,
      5,
      {
        "cost": 409.89,
        "seconds": 977
      }
    ],
    [
      2,
      27,
      {
        "cost": 182.19,
        "seconds": 509
      }
    ],
    [
      26,
      3,
      {
        "cost": 128.67,
        "seconds": 356
      }
    ],
    [
      2,
      26,
      {
        "cost": 567.15,
        "seconds": 1283
      }
    ],
    [
      27,
      3,
      {
        "cost": 528.48,
        "seconds": 1203
      }
    ],
    [
      0,
      27,
      {
        "cost": 360.39,
        "seconds": 837
      }
    ],
    [
      26,
      1,
      {
        "cost": 296.84999999999999,
        "seconds": 611
      }
    ],
    [
      0,
      26,
      {
        "cost": 308.28,
        "seconds": 710
      }
    ],
    [
      27,
      1,
      {
        "cost": 479.07,
        "seconds": 1094
      }
    ]
  ]
}