{
  "nodes": [
    {
      "Delivery": {
        "bid": 694,
        "id": 25,
        "price": null,
        "cost": null,
        "direct_dist": 2315,
        "direct_cost": 70,
        "direct_time": 192
      }
    },
    {
      "Pickup": {
        "bid": 694,
        "id": 25,
        "price": null,
        "cost": null,
        "direct_dist": 2315,
        "direct_cost": 70,
        "direct_time": 192
      }
    },
    {
      "Delivery": {
        "bid": 605,
        "id": 24,
        "price": null,
        "cost": null,
        "direct_dist": 13458,
        "direct_cost": 404,
        "direct_time": 838
      }
    },
    {
      "Pickup": {
        "bid": 605,
        "id": 24,
        "price": null,
        "cost": null,
        "direct_dist": 13458,
        "direct_cost": 404,
        "direct_time": 838
      }
    },
    {
      "Delivery": {
        "bid": 945,
        "id": 23,
        "price": null,
        "cost": null,
        "direct_dist": 8935,
        "direct_cost": 269,
        "direct_time": 582
      }
    },
    {
      "Pickup": {
        "bid": 945,
        "id": 23,
        "price": null,
        "cost": null,
        "direct_dist": 8935,
        "direct_cost": 269,
        "direct_time": 582
      }
    },
    {
      "Delivery": {
        "bid": 2666,
        "id": 16,
        "price": null,
        "cost": null,
        "direct_dist": 8887,
        "direct_cost": 267,
        "direct_time": 590
      }
    },
    {
      "Pickup": {
        "bid": 2666,
        "id": 16,
        "price": null,
        "cost": null,
        "direct_dist": 8887,
        "direct_cost": 267,
        "direct_time": 590
      }
    },
    {
      "Delivery": {
        "bid": 2254,
        "id": 15,
        "price": null,
        "cost": null,
        "direct_dist": 7515,
        "direct_cost": 226,
        "direct_time": 574
      }
    },
    {
      "Pickup": {
        "bid": 2254,
        "id": 15,
        "price": null,
        "cost": null,
        "direct_dist": 7515,
        "direct_cost": 226,
        "direct_time": 574
      }
    },
    {
      "Delivery": {
        "bid": 2394,
        "id": 13,
        "price": null,
        "cost": null,
        "direct_dist": 7983,
        "direct_cost": 240,
        "direct_time": 566
      }
    },
    {
      "Pickup": {
        "bid": 2394,
        "id": 13,
        "price": null,
        "cost": null,
        "direct_dist": 7983,
        "direct_cost": 240,
        "direct_time": 566
      }
    },
    {
      "Delivery": {
        "bid": 163,
        "id": 12,
        "price": null,
        "cost": null,
        "direct_dist": 7675,
        "direct_cost": 231,
        "direct_time": 507
      }
    },
    {
      "Pickup": {
        "bid": 163,
        "id": 12,
        "price": null,
        "cost": null,
        "direct_dist": 7675,
        "direct_cost": 231,
        "direct_time": 507
      }
    },
    {
      "Delivery": {
        "bid": 426,
        "id": 11,
        "price": null,
        "cost": null,
        "direct_dist": 7504,
        "direct_cost": 226,
        "direct_time": 536
      }
    },
    {
      "Pickup": {
        "bid": 426,
        "id": 11,
        "price": null,
        "cost": null,
        "direct_dist": 7504,
        "direct_cost": 226,
        "direct_time": 536
      }
    },
    {
      "Delivery": {
        "bid": 1761,
        "id": 9,
        "price": null,
        "cost": null,
        "direct_dist": 5870,
        "direct_cost": 177,
        "direct_time": 448
      }
    },
    {
      "Pickup": {
        "bid": 1761,
        "id": 9,
        "price": null,
        "cost": null,
        "direct_dist": 5870,
        "direct_cost": 177,
        "direct_time": 448
      }
    },
    {
      "Delivery": {
        "bid": 580,
        "id": 8,
        "price": null,
        "cost": null,
        "direct_dist": 5138,
        "direct_cost": 155,
        "direct_time": 413
      }
    },
    {
      "Pickup": {
        "bid": 580,
        "id": 8,
        "price": null,
        "cost": null,
        "direct_dist": 5138,
        "direct_cost": 155,
        "direct_time": 413
      }
    },
    {
      "Delivery": {
        "bid": 1812,
        "id": 7,
        "price": null,
        "cost": null,
        "direct_dist": 6801,
        "direct_cost": 205,
        "direct_time": 422
      }
    },
    {
      "Pickup": {
        "bid": 1812,
        "id": 7,
        "price": null,
        "cost": null,
        "direct_dist": 6801,
        "direct_cost": 205,
        "direct_time": 422
      }
    },
    {
      "Delivery": {
        "bid": 3688,
        "id": 5,
        "price": null,
        "cost": null,
        "direct_dist": 12295,
        "direct_cost": 369,
        "direct_time": 835
      }
    },
    {
      "Pickup": {
        "bid": 3688,
        "id": 5,
        "price": null,
        "cost": null,
        "direct_dist": 12295,
        "direct_cost": 369,
        "direct_time": 835
      }
    },
    {
      "Delivery": {
        "bid": 112,
        "id": 4,
        "price": null,
        "cost": null,
        "direct_dist": 8460,
        "direct_cost": 254,
        "direct_time": 565
      }
    },
    {
      "Pickup": {
        "bid": 112,
        "id": 4,
        "price": null,
        "cost": null,
        "direct_dist": 8460,
        "direct_cost": 254,
        "direct_time": 565
      }
    },
    {
      "Delivery": {
        "bid": 1862,
        "id": 3,
        "price": null,
        "cost": null,
        "direct_dist": 13434,
        "direct_cost": 404,
        "direct_time": 854
      }
    },
    {
      "Pickup": {
        "bid": 1862,
        "id": 3,
        "price": null,
        "cost": null,
        "direct_dist": 13434,
        "direct_cost": 404,
        "direct_time": 854
      }
    },
    {
      "Delivery": {
        "bid": 1836,
        "id": 2,
        "price": null,
        "cost": null,
        "direct_dist": 17028,
        "direct_cost": 511,
        "direct_time": 1085
      }
    },
    {
      "Pickup": {
        "bid": 1836,
        "id": 2,
        "price": null,
        "cost": null,
        "direct_dist": 17028,
        "direct_cost": 511,
        "direct_time": 1085
      }
    },
    {
      "DriverStart": {
        "arrive_until": 2400,
        "direct_cost": 428
      }
    },
    {
      "DriverEnd": {
        "arrive_until": 2400,
        "direct_cost": 428
      }
    }
  ],
  "node_holes": [],
  "edge_property": "directed",
  "edges": [
    [
      0,
      26,
      {
        "cost": 227.91,
        "seconds": 502
      }
    ],
    [
      0,
      22,
      {
        "cost": 254.39999999999999,
        "seconds": 611
      }
    ],
    [
      0,
      23,
      {
        "cost": 177.54,
        "seconds": 423
      }
    ],
    [
      0,
      28,
      {
        "cost": 264.78,
        "seconds": 569
      }
    ],
    [
      0,
      24,
      {
        "cost": 239.79,
        "seconds": 547
      }
    ],
    [
      0,
      4,
      {
        "cost": 160.2,
        "seconds": 350
      }
    ],
    [
      0,
      18,
      {
        "cost": 274.8,
        "seconds": 630
      }
    ],
    [
      0,
      16,
      {
        "cost": 343.53,
        "seconds": 800
      }
    ],
    [
      0,
      5,
      {
        "cost": 277.05,
        "seconds": 622
      }
    ],
    [
      0,
      14,
      {
        "cost": 307.68,
        "seconds": 709
      }
    ],
    [
      0,
      12,
      {
        "cost": 316.74,
        "seconds": 713
      }
    ],
    [
      0,
      2,
      {
        "cost": 297.33,
        "seconds": 607
      }
    ],
    [
      0,
      13,
      {
        "cost": 182.22,
        "seconds": 426
      }
    ],
    [
      0,
      3,
      {
        "cost": 207.48,
        "seconds": 513
      }
    ],
    [
      0,
      6,
      {
        "cost": 344.46,
        "seconds": 722
      }
    ],
    [
      0,
      20,
      {
        "cost": 387.45,
        "seconds": 895
      }
    ],
    [
      0,
      8,
      {
        "cost": 280.32,
        "seconds": 636
      }
    ],
    [
      0,
      10,
      {
        "cost": 122.31,
        "seconds": 233
      }
    ],
    [
      0,
      7,
      {
        "cost": 182.97,
        "seconds": 434
      }
    ],
    [
      0,
      9,
      {
        "cost": 213.29999999999999,
        "seconds": 551
      }
    ],
    [
      0,
      11,
      {
        "cost": 224.31,
        "seconds": 475
      }
    ],
    [
      1,
      27,
      {
        "cost": 332.28,
        "seconds": 709
      }
    ],
    [
      1,
      23,
      {
        "cost": 167.79,
        "seconds": 444
      }
    ],
    [
      1,
      4,
      {
        "cost": 108.39,
        "seconds": 241
      }
    ],
    [
      1,
      25,
      {
        "cost": 315.96,
        "seconds": 712
      }
    ],
    [
      1,
      5,
      {
        "cost": 275.4,
        "seconds": 611
      }
    ],
    [
      1,
      19,
      {
        "cost": 339.27,
        "seconds": 739
      }
    ],
    [
      1,
      13,
      {
        "cost": 175.04999999999999,
        "seconds": 407
      }
    ],
    [
      1,
      3,
      {
        "cost": 200.31,
        "seconds": 494
      }
    ],
    [
      1,
      10,
      {
        "cost": 136.01999999999999,
        "seconds": 305
      }
    ],
    [
      1,
      7,
      {
        "cost": 175.79999999999999,
        "seconds": 415
      }
    ],
    [
      1,
      9,
      {
        "cost": 206.13,
        "seconds": 532
      }
    ],
    [
      1,
      11,
      {
        "cost": 172.53,
        "seconds": 366
      }
    ],
    [
      1,
      0,
      {
        "cost": 69.45,
        "seconds": 192
      }
    ],
    [
      2,
      10,
      {
        "cost": 213.39,
        "seconds": 443
      }
    ],
    [
      2,
      28,
      {
        "cost": 87.3,
        "seconds": 226
      }
    ],
    [
      2,
      4,
      {
        "cost": 171.09,
        "seconds": 357
      }
    ],
    [
      2,
      22,
      {
        "cost": 127.22999999999999,
        "seconds": 369
      }
    ],
    [
      2,
      26,
      {
        "cost": 115.71,
        "seconds": 289
      }
    ],
    [
      3,
      1,
      {
        "cost": 238.62,
        "seconds": 519
      }
    ],
    [
      3,
      0,
      {
        "cost": 250.82999999999999,
        "seconds": 558
      }
    ],
    [
      3,
      20,
      {
        "cost": 195.54,
        "seconds": 514
      }
    ],
    [
      3,
      18,
      {
        "cost": 155.19,
        "seconds": 381
      }
    ],
    [
      3,
      10,
      {
        "cost": 350.31,
        "seconds": 730
      }
    ],
    [
      3,
      21,
      {
        "cost": 239.79,
        "seconds": 514
      }
    ],
    [
      3,
      16,
      {
        "cost": 161.37,
        "seconds": 405
      }
    ],
    [
      3,
      6,
      {
        "cost": 237.14999999999999,
        "seconds": 604
      }
    ],
    [
      3,
      19,
      {
        "cost": 154.56,
        "seconds": 377
      }
    ],
    [
      3,
      11,
      {
        "cost": 251.1,
        "seconds": 562
      }
    ],
    [
      3,
      8,
      {
        "cost": 111.81,
        "seconds": 260
      }
    ],
    [
      3,
      17,
      {
        "cost": 243.98999999999999,
        "seconds": 556
      }
    ],
    [
      3,
      14,
      {
        "cost": 125.49,
        "seconds": 314
      }
    ],
    [
      3,
      24,
      {
        "cost": 78.21,
        "seconds": 230
      }
    ],
    [
      3,
      7,
      {
        "cost": 79.92,
        "seconds": 243
      }
    ],
    [
      3,
      9,
      {
        "cost": 220.17,
        "seconds": 577
      }
    ],
    [
      3,
      28,
      {
        "cost": 371.19,
        "seconds": 800
      }
    ],
    [
      3,
      15,
      {
        "cost": 270.71999999999999,
        "seconds": 609
      }
    ],
    [
      3,
      4,
      {
        "cost": 266.58,
        "seconds": 581
      }
    ],
    [
      3,
      25,
      {
        "cost": 205.44,
        "seconds": 482
      }
    ],
    [
      3,
      29,
      {
        "cost": 284.37,
        "seconds": 615
      }
    ],
    [
      3,
      22,
      {
        "cost": 337.77,
        "seconds": 828
      }
    ],
    [
      3,
      12,
      {
        "cost": 136.17,
        "seconds": 400
      }
    ],
    [
      3,
      26,
      {
        "cost": 334.32,
        "seconds": 733
      }
    ],
    [
      3,
      5,
      {
        "cost": 192.87,
        "seconds": 458
      }
    ],
    [
      3,
      13,
      {
        "cost": 108.86999999999999,
        "seconds": 308
      }
    ],
    [
      3,
      23,
      {
        "cost": 99.69,
        "seconds": 222
      }
    ],
    [
      3,
      27,
      {
        "cost": 207.57,
        "seconds": 479
      }
    ],
    [
      3,
      2,
      {
        "cost": 403.74,
        "seconds": 838
      }
    ],
    [
      4,
      0,
      {
        "cost": 196.85999999999999,
        "seconds": 493
      }
    ],
    [
      4,
      2,
      {
        "cost": 159.93,
        "seconds": 379
      }
    ],
    [
      4,
      24,
      {
        "cost": 277.14,
        "seconds": 616
      }
    ],
    [
      4,
      28,
      {
        "cost": 127.38,
        "seconds": 341
      }
    ],
    [
      4,
      14,
      {
        "cost": 325.38,
        "seconds": 765
      }
    ],
    [
      4,
      10,
      {
        "cost": 194.64,
        "seconds": 504
      }
    ],
    [
      4,
      22,
      {
        "cost": 110.16,
        "seconds": 350
      }
    ],
    [
      4,
      11,
      {
        "cost": 59.61,
        "seconds": 176
      }
    ],
    [
      4,
      26,
      {
        "cost": 90.50999999999999,
        "seconds": 274
      }
    ],
    [
      4,
      12,
      {
        "cost": 356.49,
        "seconds": 805
      }
    ],
    [
      4,
      6,
      {
        "cost": 314.67,
        "seconds": 698
      }
    ],
    [
      4,
      8,
      {
        "cost": 298.02,
        "seconds": 692
      }
    ],
    [
      5,
      1,
      {
        "cost": 267.53999999999999,
        "seconds": 606
      }
    ],
    [
      5,
      0,
      {
        "cost": 311.01,
        "seconds": 711
      }
    ],
    [
      5,
      3,
      {
        "cost": 196.89,
        "seconds": 507
      }
    ],
    [
      5,
      2,
      {
        "cost": 405.18,
        "seconds": 840
      }
    ],
    [
      5,
      24,
      {
        "cost": 257.01,
        "seconds": 611
      }
    ],
    [
      5,
      14,
      {
        "cost": 147.72,
        "seconds": 386
      }
    ],
    [
      5,
      28,
      {
        "cost": 372.63,
        "seconds": 801
      }
    ],
    [
      5,
      25,
      {
        "cost": 101.91,
        "seconds": 302
      }
    ],
    [
      5,
      22,
      {
        "cost": 339.21,
        "seconds": 829
      }
    ],
    [
      5,
      29,
      {
        "cost": 224.88,
        "seconds": 529
      }
    ],
    [
      5,
      10,
      {
        "cost": 355.14,
        "seconds": 795
      }
    ],
    [
      5,
      26,
      {
        "cost": 335.76,
        "seconds": 735
      }
    ],
    [
      5,
      15,
      {
        "cost": 72.42,
        "seconds": 194
      }
    ],
    [
      5,
      11,
      {
        "cost": 252.54,
        "seconds": 564
      }
    ],
    [
      5,
      23,
      {
        "cost": 295.40999999999999,
        "seconds": 645
      }
    ],
    [
      5,
      12,
      {
        "cost": 247.35,
        "seconds": 588
      }
    ],
    [
      5,
      21,
      {
        "cost": 245.60999999999999,
        "seconds": 558
      }
    ],
    [
      5,
      27,
      {
        "cost": 62.55,
        "seconds": 155
      }
    ],
    [
      5,
      6,
      {
        "cost": 73.71,
        "seconds": 169
      }
    ],
    [
      5,
      8,
      {
        "cost": 145.17,
        "seconds": 361
      }
    ],
    [
      5,
      16,
      {
        "cost": 195.54,
        "seconds": 493
      }
    ],
    [
      5,
      18,
      {
        "cost": 85.83,
        "seconds": 225
      }
    ],
    [
      5,
      7,
      {
        "cost": 202.29,
        "seconds": 511
      }
    ],
    [
      5,
      13,
      {
        "cost": 144.21,
        "seconds": 385
      }
    ],
    [
      5,
      19,
      {
        "cost": 223.85999999999999,
        "seconds": 557
      }
    ],
    [
      5,
      9,
      {
        "cost": 183.72,
        "seconds": 481
      }
    ],
    [
      5,
      17,
      {
        "cost": 108.27,
        "seconds": 252
      }
    ],
    [
      5,
      4,
      {
        "cost": 268.05,
        "seconds": 582
      }
    ],
    [
      6,
      2,
      {
        "cost": 429.84,
        "seconds": 830
      }
    ],
    [
      6,
      4,
      {
        "cost": 292.71,
        "seconds": 573
      }
    ],
    [
      6,
      5,
      {
        "cost": 55.53,
        "seconds": 132
      }
    ],
    [
      6,
      16,
      {
        "cost": 220.17,
        "seconds": 543
      }
    ],
    [
      6,
      17,
      {
        "cost": 92.31,
        "seconds": 217
      }
    ],
    [
      6,
      10,
      {
        "cost": 379.8,
        "seconds": 786
      }
    ],
    [
      6,
      20,
      {
        "cost": 260.49,
        "seconds": 660
      }
    ],
    [
      6,
      14,
      {
        "cost": 172.35,
        "seconds": 436
      }
    ],
    [
      6,
      22,
      {
        "cost": 363.87,
        "seconds": 820
      }
    ],
    [
      6,
      8,
      {
        "cost": 169.79999999999999,
        "seconds": 411
      }
    ],
    [
      6,
      18,
      {
        "cost": 110.46,
        "seconds": 275
      }
    ],
    [
      6,
      15,
      {
        "cost": 60.72,
        "seconds": 179
      }
    ],
    [
      6,
      24,
      {
        "cost": 299.19,
        "seconds": 623
      }
    ],
    [
      6,
      12,
      {
        "cost": 271.98,
        "seconds": 639
      }
    ],
    [
      6,
      26,
      {
        "cost": 360.41999999999998,
        "seconds": 725
      }
    ],
    [
      6,
      28,
      {
        "cost": 397.28999999999999,
        "seconds": 792
      }
    ],
    [
      6,
      27,
      {
        "cost": 87.17999999999999,
        "seconds": 205
      }
    ],
    [
      7,
      1,
      {
        "cost": 232.32,
        "seconds": 496
      }
    ],
    [
      7,
      0,
      {
        "cost": 244.53,
        "seconds": 535
      }
    ],
    [
      7,
      3,
      {
        "cost": 58.919999999999998,
        "seconds": 172
      }
    ],
    [
      7,
      5,
      {
        "cost": 195.69,
        "seconds": 470
      }
    ],
    [
      7,
      4,
      {
        "cost": 258.15,
        "seconds": 547
      }
    ],
    [
      7,
      16,
      {
        "cost": 228.63,
        "seconds": 507
      }
    ],
    [
      7,
      20,
      {
        "cost": 262.8,
        "seconds": 615
      }
    ],
    [
      7,
      14,
      {
        "cost": 192.75,
        "seconds": 415
      }
    ],
    [
      7,
      17,
      {
        "cost": 270.93,
        "seconds": 637
      }
    ],
    [
      7,
      8,
      {
        "cost": 179.07,
        "seconds": 362
      }
    ],
    [
      7,
      18,
      {
        "cost": 189.54,
        "seconds": 470
      }
    ],
    [
      7,
      11,
      {
        "cost": 242.64,
        "seconds": 529
      }
    ],
    [
      7,
      23,
      {
        "cost": 93.39,
        "seconds": 200
      }
    ],
    [
      7,
      21,
      {
        "cost": 268.68,
        "seconds": 613
      }
    ],
    [
      7,
      15,
      {
        "cost": 281.64,
        "seconds": 633
      }
    ],
    [
      7,
      24,
      {
        "cost": 67.05,
        "seconds": 173
      }
    ],
    [
      7,
      19,
      {
        "cost": 175.85999999999999,
        "seconds": 432
      }
    ],
    [
      7,
      12,
      {
        "cost": 146.4,
        "seconds": 363
      }
    ],
    [
      7,
      9,
      {
        "cost": 211.70999999999999,
        "seconds": 543
      }
    ],
    [
      7,
      27,
      {
        "cost": 228.6,
        "seconds": 561
      }
    ],
    [
      7,
      29,
      {
        "cost": 351.63,
        "seconds": 716
      }
    ],
    [
      7,
      13,
      {
        "cost": 106.89,
        "seconds": 256
      }
    ],
    [
      7,
      25,
      {
        "cost": 232.38,
        "seconds": 562
      }
    ],
    [
      7,
      6,
      {
        "cost": 266.61,
        "seconds": 590
      }
    ],
    [
      8,
      2,
      {
        "cost": 451.08,
        "seconds": 897
      }
    ],
    [
      8,
      4,
      {
        "cost": 313.95,
        "seconds": 639
      }
    ],
    [
      8,
      6,
      {
        "cost": 193.68,
        "seconds": 435
      }
    ],
    [
      8,
      16,
      {
        "cost": 66.66,
        "seconds": 174
      }
    ],
    [
      8,
      22,
      {
        "cost": 385.14,
        "seconds": 886
      }
    ],
    [
      8,
      10,
      {
        "cost": 376.89,
        "seconds": 842
      }
    ],
    [
      8,
      20,
      {
        "cost": 107.00999999999999,
        "seconds": 291
      }
    ],
    [
      8,
      14,
      {
        "cost": 30.779999999999999,
        "seconds": 83
      }
    ],
    [
      8,
      24,
      {
        "cost": 161.97,
        "seconds": 325
      }
    ],
    [
      8,
      26,
      {
        "cost": 381.69,
        "seconds": 792
      }
    ],
    [
      8,
      18,
      {
        "cost": 79.35,
        "seconds": 210
      }
    ],
    [
      8,
      28,
      {
        "cost": 418.56,
        "seconds": 858
      }
    ],
    [
      8,
      12,
      {
        "cost": 107.49,
        "seconds": 251
      }
    ],
    [
      8,
      19,
      {
        "cost": 84.0,
        "seconds": 220
      }
    ],
    [
      9,
      1,
      {
        "cost": 187.26,
        "seconds": 524
      }
    ],
    [
      9,
      0,
      {
        "cost": 230.76,
        "seconds": 628
      }
    ],
    [
      9,
      3,
      {
        "cost": 217.41,
        "seconds": 547
      }
    ],
    [
      9,
      5,
      {
        "cost": 122.03999999999999,
        "seconds": 422
      }
    ],
    [
      9,
      4,
      {
        "cost": 122.36999999999999,
        "seconds": 393
      }
    ],
    [
      9,
      7,
      {
        "cost": 222.78,
        "seconds": 552
      }
    ],
    [
      9,
      6,
      {
        "cost": 148.26,
        "seconds": 460
      }
    ],
    [
      9,
      16,
      {
        "cost": 288.65999999999999,
        "seconds": 738
      }
    ],
    [
      9,
      23,
      {
        "cost": 270.63,
        "seconds": 665
      }
    ],
    [
      9,
      17,
      {
        "cost": 237.03,
        "seconds": 637
      }
    ],
    [
      9,
      20,
      {
        "cost": 332.55,
        "seconds": 832
      }
    ],
    [
      9,
      14,
      {
        "cost": 252.81,
        "seconds": 647
      }
    ],
    [
      9,
      21,
      {
        "cost": 341.21999999999999,
        "seconds": 812
      }
    ],
    [
      9,
      11,
      {
        "cost": 85.11,
        "seconds": 259
      }
    ],
    [
      9,
      15,
      {
        "cost": 193.92,
        "seconds": 571
      }
    ],
    [
      9,
      24,
      {
        "cost": 277.5,
        "seconds": 651
      }
    ],
    [
      9,
      18,
      {
        "cost": 197.16,
        "seconds": 578
      }
    ],
    [
      9,
      12,
      {
        "cost": 299.84999999999999,
        "seconds": 726
      }
    ],
    [
      9,
      27,
      {
        "cost": 184.65,
        "seconds": 543
      }
    ],
    [
      9,
      29,
      {
        "cost": 342.39,
        "seconds": 862
      }
    ],
    [
      9,
      25,
      {
        "cost": 221.48999999999999,
        "seconds": 639
      }
    ],
    [
      9,
      19,
      {
        "cost": 291.53999999999999,
        "seconds": 695
      }
    ],
    [
      9,
      13,
      {
        "cost": 115.74,
        "seconds": 419
      }
    ],
    [
      9,
      8,
      {
        "cost": 225.45,
        "seconds": 574
      }
    ],
    [
      10,
      0,
      {
        "cost": 182.79,
        "seconds": 402
      }
    ],
    [
      10,
      2,
      {
        "cost": 225.06,
        "seconds": 458
      }
    ],
    [
      10,
      4,
      {
        "cost": 204.87,
        "seconds": 441
      }
    ],
    [
      10,
      6,
      {
        "cost": 425.94,
        "seconds": 884
      }
    ],
    [
      10,
      8,
      {
        "cost": 409.32,
        "seconds": 878
      }
    ],
    [
      10,
      26,
      {
        "cost": 217.47,
        "seconds": 530
      }
    ],
    [
      10,
      24,
      {
        "cost": 376.71,
        "seconds": 803
      }
    ],
    [
      10,
      22,
      {
        "cost": 252.69,
        "seconds": 657
      }
    ],
    [
      10,
      28,
      {
        "cost": 247.95,
        "seconds": 557
      }
    ],
    [
      11,
      1,
      {
        "cost": 172.23,
        "seconds": 395
      }
    ],
    [
      11,
      0,
      {
        "cost": 217.65,
        "seconds": 499
      }
    ],
    [
      11,
      3,
      {
        "cost": 226.26,
        "seconds": 515
      }
    ],
    [
      11,
      2,
      {
        "cost": 168.95999999999999,
        "seconds": 388
      }
    ],
    [
      11,
      5,
      {
        "cost": 232.29,
        "seconds": 552
      }
    ],
    [
      11,
      4,
      {
        "cost": 63.839999999999999,
        "seconds": 220
      }
    ],
    [
      11,
      7,
      {
        "cost": 201.75,
        "seconds": 435
      }
    ],
    [
      11,
      6,
      {
        "cost": 224.1,
        "seconds": 547
      }
    ],
    [
      11,
      9,
      {
        "cost": 62.669999999999998,
        "seconds": 249
      }
    ],
    [
      11,
      8,
      {
        "cost": 299.09999999999999,
        "seconds": 637
      }
    ],
    [
      11,
      26,
      {
        "cost": 86.42999999999999,
        "seconds": 248
      }
    ],
    [
      11,
      18,
      {
        "cost": 297.93,
        "seconds": 654
      }
    ],
    [
      11,
      27,
      {
        "cost": 289.17,
        "seconds": 650
      }
    ],
    [
      11,
      24,
      {
        "cost": 258.57,
        "seconds": 548
      }
    ],
    [
      11,
      19,
      {
        "cost": 365.21999999999999,
        "seconds": 759
      }
    ],
    [
      11,
      22,
      {
        "cost": 98.34,
        "seconds": 317
      }
    ],
    [
      11,
      15,
      {
        "cost": 251.76,
        "seconds": 673
      }
    ],
    [
      11,
      25,
      {
        "cost": 340.77,
        "seconds": 746
      }
    ],
    [
      11,
      23,
      {
        "cost": 255.54,
        "seconds": 533
      }
    ],
    [
      11,
      13,
      {
        "cost": 156.69,
        "seconds": 398
      }
    ],
    [
      11,
      10,
      {
        "cost": 239.48999999999999,
        "seconds": 566
      }
    ],
    [
      12,
      2,
      {
        "cost": 498.21,
        "seconds": 969
      }
    ],
    [
      12,
      4,
      {
        "cost": 361.05,
        "seconds": 712
      }
    ],
    [
      12,
      6,
      {
        "cost": 323.25,
        "seconds": 673
      }
    ],
    [
      12,
      8,
      {
        "cost": 155.88,
        "seconds": 321
      }
    ],
    [
      12,
      10,
      {
        "cost": 386.07,
        "seconds": 789
      }
    ],
    [
      12,
      24,
      {
        "cost": 80.61,
        "seconds": 220
      }
    ],
    [
      12,
      20,
      {
        "cost": 160.76999999999999,
        "seconds": 446
      }
    ],
    [
      12,
      16,
      {
        "cost": 196.23,
        "seconds": 411
      }
    ],
    [
      12,
      28,
      {
        "cost": 465.65999999999999,
        "seconds": 930
      }
    ],
    [
      12,
      22,
      {
        "cost": 432.24,
        "seconds": 958
      }
    ],
    [
      12,
      14,
      {
        "cost": 160.35,
        "seconds": 320
      }
    ],
    [
      12,
      18,
      {
        "cost": 208.92,
        "seconds": 448
      }
    ],
    [
      12,
      26,
      {
        "cost": 428.78999999999999,
        "seconds": 864
      }
    ],
    [
      12,
      23,
      {
        "cost": 135.45,
        "seconds": 281
      }
    ],
    [
      12,
      19,
      {
        "cost": 70.61999999999999,
        "seconds": 194
      }
    ],
    [
      13,
      1,
      {
        "cost": 166.89,
        "seconds": 416
      }
    ],
    [
      13,
      0,
      {
        "cost": 209.51999999999999,
        "seconds": 520
      }
    ],
    [
      13,
      3,
      {
        "cost": 88.64999999999999,
        "seconds": 249
      }
    ],
    [
      13,
      5,
      {
        "cost": 146.01,
        "seconds": 378
      }
    ],
    [
      13,
      4,
      {
        "cost": 183.87,
        "seconds": 432
      }
    ],
    [
      13,
      7,
      {
        "cost": 89.64,
        "seconds": 234
      }
    ],
    [
      13,
      6,
      {
        "cost": 222.98999999999999,
        "seconds": 489
      }
    ],
    [
      13,
      9,
      {
        "cost": 151.01999999999999,
        "seconds": 459
      }
    ],
    [
      13,
      8,
      {
        "cost": 155.85,
        "seconds": 355
      }
    ],
    [
      13,
      24,
      {
        "cost": 144.39,
        "seconds": 334
      }
    ],
    [
      13,
      20,
      {
        "cost": 262.95,
        "seconds": 613
      }
    ],
    [
      13,
      16,
      {
        "cost": 219.06,
        "seconds": 519
      }
    ],
    [
      13,
      25,
      {
        "cost": 176.91,
        "seconds": 448
      }
    ],
    [
      13,
      21,
      {
        "cost": 273.24,
        "seconds": 591
      }
    ],
    [
      13,
      29,
      {
        "cost": 280.53,
        "seconds": 629
      }
    ],
    [
      13,
      14,
      {
        "cost": 183.20999999999999,
        "seconds": 428
      }
    ],
    [
      13,
      18,
      {
        "cost": 134.07,
        "seconds": 355
      }
    ],
    [
      13,
      17,
      {
        "cost": 215.45999999999999,
        "seconds": 522
      }
    ],
    [
      13,
      23,
      {
        "cost": 172.82999999999999,
        "seconds": 374
      }
    ],
    [
      13,
      27,
      {
        "cost": 178.92,
        "seconds": 469
      }
    ],
    [
      13,
      15,
      {
        "cost": 221.7,
        "seconds": 515
      }
    ],
    [
      13,
      19,
      {
        "cost": 221.97,
        "seconds": 476
      }
    ],
    [
      13,
      12,
      {
        "cost": 230.25,
        "seconds": 507
      }
    ],
    [
      14,
      2,
      {
        "cost": 473.31,
        "seconds": 980
      }
    ],
    [
      14,
      4,
      {
        "cost": 336.18,
        "seconds": 723
      }
    ],
    [
      14,
      6,
      {
        "cost": 191.7,
        "seconds": 456
      }
    ],
    [
      14,
      8,
      {
        "cost": 51.03,
        "seconds": 150
      }
    ],
    [
      14,
      10,
      {
        "cost": 399.09,
        "seconds": 926
      }
    ],
    [
      14,
      12,
      {
        "cost": 125.31,
        "seconds": 320
      }
    ],
    [
      14,
      18,
      {
        "cost": 77.36999999999999,
        "seconds": 230
      }
    ],
    [
      14,
      20,
      {
        "cost": 86.19,
        "seconds": 247
      }
    ],
    [
      14,
      19,
      {
        "cost": 101.82,
        "seconds": 288
      }
    ],
    [
      14,
      24,
      {
        "cost": 186.57,
        "seconds": 419
      }
    ],
    [
      14,
      21,
      {
        "cost": 121.58999999999999,
        "seconds": 271
      }
    ],
    [
      14,
      26,
      {
        "cost": 403.89,
        "seconds": 875
      }
    ],
    [
      14,
      22,
      {
        "cost": 407.34,
        "seconds": 970
      }
    ],
    [
      14,
      28,
      {
        "cost": 440.76,
        "seconds": 942
      }
    ],
    [
      14,
      16,
      {
        "cost": 45.839999999999999,
        "seconds": 130
      }
    ],
    [
      14,
      25,
      {
        "cost": 107.31,
        "seconds": 284
      }
    ],
    [
      14,
      27,
      {
        "cost": 112.83,
        "seconds": 302
      }
    ],
    [
      14,
      17,
      {
        "cost": 145.85999999999999,
        "seconds": 358
      }
    ],
    [
      15,
      1,
      {
        "cost": 324.81,
        "seconds": 695
      }
    ],
    [
      15,
      3,
      {
        "cost": 271.68,
        "seconds": 618
      }
    ],
    [
      15,
      5,
      {
        "cost": 88.14,
        "seconds": 230
      }
    ],
    [
      15,
      4,
      {
        "cost": 325.32,
        "seconds": 671
      }
    ],
    [
      15,
      7,
      {
        "cost": 277.05,
        "seconds": 622
      }
    ],
    [
      15,
      6,
      {
        "cost": 64.89,
        "seconds": 202
      }
    ],
    [
      15,
      9,
      {
        "cost": 184.2,
        "seconds": 526
      }
    ],
    [
      15,
      8,
      {
        "cost": 222.57,
        "seconds": 512
      }
    ],
    [
      15,
      13,
      {
        "cost": 201.48,
        "seconds": 474
      }
    ],
    [
      15,
      12,
      {
        "cost": 324.75,
        "seconds": 739
      }
    ],
    [
      15,
      18,
      {
        "cost": 163.23,
        "seconds": 375
      }
    ],
    [
      15,
      20,
      {
        "cost": 285.9,
        "seconds": 725
      }
    ],
    [
      15,
      24,
      {
        "cost": 331.77,
        "seconds": 722
      }
    ],
    [
      15,
      19,
      {
        "cost": 301.26,
        "seconds": 708
      }
    ],
    [
      15,
      21,
      {
        "cost": 274.32,
        "seconds": 627
      }
    ],
    [
      15,
      16,
      {
        "cost": 240.89999999999999,
        "seconds": 606
      }
    ],
    [
      15,
      25,
      {
        "cost": 131.51999999999999,
        "seconds": 376
      }
    ],
    [
      15,
      27,
      {
        "cost": 112.5,
        "seconds": 248
      }
    ],
    [
      15,
      23,
      {
        "cost": 360.21,
        "seconds": 761
      }
    ],
    [
      15,
      29,
      {
        "cost": 253.59,
        "seconds": 582
      }
    ],
    [
      15,
      17,
      {
        "cost": 70.47,
        "seconds": 173
      }
    ],
    [
      15,
      14,
      {
        "cost": 225.12,
        "seconds": 536
      }
    ],
    [
      16,
      2,
      {
        "cost": 514.56,
        "seconds": 1075
      }
    ],
    [
      16,
      4,
      {
        "cost": 377.43,
        "seconds": 818
      }
    ],
    [
      16,
      6,
      {
        "cost": 232.95,
        "seconds": 551
      }
    ],
    [
      16,
      8,
      {
        "cost": 84.75,
        "seconds": 245
      }
    ],
    [
      16,
      12,
      {
        "cost": 143.25,
        "seconds": 401
      }
    ],
    [
      16,
      14,
      {
        "cost": 61.71,
        "seconds": 202
      }
    ],
    [
      16,
      18,
      {
        "cost": 118.61999999999999,
        "seconds": 325
      }
    ],
    [
      16,
      24,
      {
        "cost": 229.38,
        "seconds": 518
      }
    ],
    [
      16,
      28,
      {
        "cost": 482.01,
        "seconds": 1037
      }
    ],
    [
      16,
      20,
      {
        "cost": 52.47,
        "seconds": 163
      }
    ],
    [
      16,
      22,
      {
        "cost": 448.59,
        "seconds": 1065
      }
    ],
    [
      16,
      26,
      {
        "cost": 445.14,
        "seconds": 970
      }
    ],
    [
      16,
      19,
      {
        "cost": 119.75999999999999,
        "seconds": 370
      }
    ],
    [
      16,
      21,
      {
        "cost": 94.92,
        "seconds": 207
      }
    ],
    [
      16,
      25,
      {
        "cost": 115.67999999999999,
        "seconds": 322
      }
    ],
    [
      16,
      27,
      {
        "cost": 154.10999999999999,
        "seconds": 397
      }
    ],
    [
      16,
      29,
      {
        "cost": 169.85999999999999,
        "seconds": 347
      }
    ],
    [
      17,
      1,
      {
        "cost": 371.58,
        "seconds": 750
      }
    ],
    [
      17,
      3,
      {
        "cost": 256.08,
        "seconds": 596
      }
    ],
    [
      17,
      5,
      {
        "cost": 134.94,
        "seconds": 285
      }
    ],
    [
      17,
      7,
      {
        "cost": 260.37,
        "seconds": 607
      }
    ],
    [
      17,
      6,
      {
        "cost": 98.91,
        "seconds": 272
      }
    ],
    [
      17,
      9,
      {
        "cost": 218.19,
        "seconds": 596
      }
    ],
    [
      17,
      8,
      {
        "cost": 185.88,
        "seconds": 418
      }
    ],
    [
      17,
      13,
      {
        "cost": 213.81,
        "seconds": 494
      }
    ],
    [
      17,
      12,
      {
        "cost": 288.06,
        "seconds": 645
      }
    ],
    [
      17,
      15,
      {
        "cost": 83.7,
        "seconds": 229
      }
    ],
    [
      17,
      14,
      {
        "cost": 188.45999999999999,
        "seconds": 442
      }
    ],
    [
      17,
      18,
      {
        "cost": 126.57,
        "seconds": 281
      }
    ],
    [
      17,
      24,
      {
        "cost": 330.53999999999999,
        "seconds": 690
      }
    ],
    [
      17,
      20,
      {
        "cost": 221.13,
        "seconds": 567
      }
    ],
    [
      17,
      29,
      {
        "cost": 188.79,
        "seconds": 424
      }
    ],
    [
      17,
      23,
      {
        "cost": 340.8,
        "seconds": 708
      }
    ],
    [
      17,
      19,
      {
        "cost": 264.59999999999999,
        "seconds": 614
      }
    ],
    [
      17,
      27,
      {
        "cost": 75.81,
        "seconds": 154
      }
    ],
    [
      17,
      21,
      {
        "cost": 209.51999999999999,
        "seconds": 469
      }
    ],
    [
      17,
      25,
      {
        "cost": 61.05,
        "seconds": 203
      }
    ],
    [
      17,
      16,
      {
        "cost": 176.1,
        "seconds": 448
      }
    ],
    [
      18,
      0,
      {
        "cost": 311.34,
        "seconds": 705
      }
    ],
    [
      18,
      2,
      {
        "cost": 428.03999999999999,
        "seconds": 884
      }
    ],
    [
      18,
      3,
      {
        "cost": 144.12,
        "seconds": 347
      }
    ],
    [
      18,
      4,
      {
        "cost": 290.90999999999999,
        "seconds": 627
      }
    ],
    [
      18,
      5,
      {
        "cost": 123.89999999999999,
        "seconds": 317
      }
    ],
    [
      18,
      6,
      {
        "cost": 145.59,
        "seconds": 338
      }
    ],
    [
      18,
      7,
      {
        "cost": 166.5,
        "seconds": 410
      }
    ],
    [
      18,
      8,
      {
        "cost": 65.25,
        "seconds": 178
      }
    ],
    [
      18,
      10,
      {
        "cost": 356.61,
        "seconds": 817
      }
    ],
    [
      18,
      12,
      {
        "cost": 176.88,
        "seconds": 420
      }
    ],
    [
      18,
      13,
      {
        "cost": 139.26,
        "seconds": 335
      }
    ],
    [
      18,
      14,
      {
        "cost": 77.28,
        "seconds": 217
      }
    ],
    [
      18,
      15,
      {
        "cost": 142.32,
        "seconds": 340
      }
    ],
    [
      18,
      16,
      {
        "cost": 127.8,
        "seconds": 322
      }
    ],
    [
      18,
      17,
      {
        "cost": 121.35,
        "seconds": 292
      }
    ],
    [
      18,
      22,
      {
        "cost": 362.07,
        "seconds": 874
      }
    ],
    [
      18,
      20,
      {
        "cost": 172.82999999999999,
        "seconds": 441
      }
    ],
    [
      18,
      28,
      {
        "cost": 395.49,
        "seconds": 845
      }
    ],
    [
      18,
      24,
      {
        "cost": 219.35999999999999,
        "seconds": 465
      }
    ],
    [
      18,
      26,
      {
        "cost": 358.62,
        "seconds": 779
      }
    ],
    [
      18,
      23,
      {
        "cost": 228.84,
        "seconds": 459
      }
    ],
    [
      18,
      21,
      {
        "cost": 168.78,
        "seconds": 362
      }
    ],
    [
      18,
      25,
      {
        "cost": 82.8,
        "seconds": 218
      }
    ],
    [
      18,
      29,
      {
        "cost": 161.73,
        "seconds": 351
      }
    ],
    [
      18,
      27,
      {
        "cost": 79.17,
        "seconds": 209
      }
    ],
    [
      19,
      1,
      {
        "cost": 309.9,
        "seconds": 672
      }
    ],
    [
      19,
      3,
      {
        "cost": 175.44,
        "seconds": 464
      }
    ],
    [
      19,
      5,
      {
        "cost": 239.37,
        "seconds": 532
      }
    ],
    [
      19,
      7,
      {
        "cost": 181.65,
        "seconds": 465
      }
    ],
    [
      19,
      6,
      {
        "cost": 268.46999999999999,
        "seconds": 638
      }
    ],
    [
      19,
      9,
      {
        "cost": 331.77,
        "seconds": 759
      }
    ],
    [
      19,
      8,
      {
        "cost": 87.47999999999999,
        "seconds": 224
      }
    ],
    [
      19,
      11,
      {
        "cost": 362.66999999999998,
        "seconds": 744
      }
    ],
    [
      19,
      13,
      {
        "cost": 223.89,
        "seconds": 484
      }
    ],
    [
      19,
      12,
      {
        "cost": 35.519999999999999,
        "seconds": 94
      }
    ],
    [
      19,
      15,
      {
        "cost": 265.23,
        "seconds": 640
      }
    ],
    [
      19,
      14,
      {
        "cost": 105.57,
        "seconds": 285
      }
    ],
    [
      19,
      17,
      {
        "cost": 234.87,
        "seconds": 577
      }
    ],
    [
      19,
      16,
      {
        "cost": 141.45,
        "seconds": 377
      }
    ],
    [
      19,
      24,
      {
        "cost": 116.13,
        "seconds": 314
      }
    ],
    [
      19,
      20,
      {
        "cost": 105.03,
        "seconds": 321
      }
    ],
    [
      19,
      23,
      {
        "cost": 170.97,
        "seconds": 375
      }
    ],
    [
      19,
      29,
      {
        "cost": 275.25,
        "seconds": 636
      }
    ],
    [
      19,
      27,
      {
        "cost": 202.07999999999999,
        "seconds": 509
      }
    ],
    [
      19,
      21,
      {
        "cost": 217.2,
        "seconds": 517
      }
    ],
    [
      19,
      25,
      {
        "cost": 196.32,
        "seconds": 503
      }
    ],
    [
      19,
      18,
      {
        "cost": 154.14,
        "seconds": 413
      }
    ],
    [
      20,
      2,
      {
        "cost": 544.92,
        "seconds": 1147
      }
    ],
    [
      20,
      4,
      {
        "cost": 407.78999999999999,
        "seconds": 890
      }
    ],
    [
      20,
      6,
      {
        "cost": 267.63,
        "seconds": 644
      }
    ],
    [
      20,
      8,
      {
        "cost": 105.17999999999999,
        "seconds": 310
      }
    ],
    [
      20,
      12,
      {
        "cost": 118.92,
        "seconds": 362
      }
    ],
    [
      20,
      14,
      {
        "cost": 84.75,
        "seconds": 261
      }
    ],
    [
      20,
      16,
      {
        "cost": 56.129999999999998,
        "seconds": 181
      }
    ],
    [
      20,
      18,
      {
        "cost": 153.29999999999999,
        "seconds": 419
      }
    ],
    [
      20,
      19,
      {
        "cost": 95.42999999999999,
        "seconds": 331
      }
    ],
    [
      20,
      22,
      {
        "cost": 478.95,
        "seconds": 1137
      }
    ],
    [
      20,
      24,
      {
        "cost": 243.09,
        "seconds": 577
      }
    ],
    [
      20,
      26,
      {
        "cost": 475.5,
        "seconds": 1042
      }
    ],
    [
      20,
      28,
      {
        "cost": 512.37,
        "seconds": 1108
      }
    ],
    [
      21,
      1,
      {
        "cost": 402.87,
        "seconds": 854
      }
    ],
    [
      21,
      3,
      {
        "cost": 269.84999999999999,
        "seconds": 583
      }
    ],
    [
      21,
      7,
      {
        "cost": 292.22999999999998,
        "seconds": 646
      }
    ],
    [
      21,
      6,
      {
        "cost": 232.62,
        "seconds": 477
      }
    ],
    [
      21,
      9,
      {
        "cost": 342.63,
        "seconds": 789
      }
    ],
    [
      21,
      8,
      {
        "cost": 183.51,
        "seconds": 389
      }
    ],
    [
      21,
      13,
      {
        "cost": 256.92,
        "seconds": 559
      }
    ],
    [
      21,
      12,
      {
        "cost": 285.69,
        "seconds": 617
      }
    ],
    [
      21,
      15,
      {
        "cost": 229.26,
        "seconds": 489
      }
    ],
    [
      21,
      14,
      {
        "cost": 166.17,
        "seconds": 383
      }
    ],
    [
      21,
      17,
      {
        "cost": 149.7,
        "seconds": 323
      }
    ],
    [
      21,
      16,
      {
        "cost": 153.96,
        "seconds": 314
      }
    ],
    [
      21,
      19,
      {
        "cost": 262.2,
        "seconds": 585
      }
    ],
    [
      21,
      18,
      {
        "cost": 144.78,
        "seconds": 309
      }
    ],
    [
      21,
      24,
      {
        "cost": 328.14,
        "seconds": 662
      }
    ],
    [
      21,
      27,
      {
        "cost": 155.97,
        "seconds": 338
      }
    ],
    [
      21,
      29,
      {
        "cost": 74.94,
        "seconds": 139
      }
    ],
    [
      21,
      25,
      {
        "cost": 93.21,
        "seconds": 210
      }
    ],
    [
      21,
      20,
      {
        "cost": 204.03,
        "seconds": 422
      }
    ],
    [
      22,
      2,
      {
        "cost": 156.72,
        "seconds": 353
      }
    ],
    [
      22,
      4,
      {
        "cost": 51.6,
        "seconds": 185
      }
    ],
    [
      22,
      10,
      {
        "cost": 228.06,
        "seconds": 575
      }
    ],
    [
      22,
      26,
      {
        "cost": 60.54,
        "seconds": 190
      }
    ],
    [
      22,
      28,
      {
        "cost": 124.17,
        "seconds": 315
      }
    ],
    [
      23,
      1,
      {
        "cost": 162.84,
        "seconds": 397
      }
    ],
    [
      23,
      0,
      {
        "cost": 175.01999999999999,
        "seconds": 435
      }
    ],
    [
      23,
      3,
      {
        "cost": 129.39,
        "seconds": 325
      }
    ],
    [
      23,
      2,
      {
        "cost": 404.94,
        "seconds": 855
      }
    ],
    [
      23,
      5,
      {
        "cost": 275.58,
        "seconds": 618
      }
    ],
    [
      23,
      4,
      {
        "cost": 267.81,
        "seconds": 598
      }
    ],
    [
      23,
      7,
      {
        "cost": 82.77,
        "seconds": 211
      }
    ],
    [
      23,
      6,
      {
        "cost": 343.02,
        "seconds": 719
      }
    ],
    [
      23,
      9,
      {
        "cost": 267.71999999999999,
        "seconds": 631
      }
    ],
    [
      23,
      8,
      {
        "cost": 207.84,
        "seconds": 437
      }
    ],
    [
      23,
      11,
      {
        "cost": 285.09,
        "seconds": 585
      }
    ],
    [
      23,
      10,
      {
        "cost": 274.53,
        "seconds": 607
      }
    ],
    [
      23,
      13,
      {
        "cost": 157.14,
        "seconds": 353
      }
    ],
    [
      23,
      12,
      {
        "cost": 154.95,
        "seconds": 343
      }
    ],
    [
      23,
      15,
      {
        "cost": 341.72999999999998,
        "seconds": 744
      }
    ],
    [
      23,
      14,
      {
        "cost": 238.01999999999999,
        "seconds": 455
      }
    ],
    [
      23,
      17,
      {
        "cost": 340.02,
        "seconds": 732
      }
    ],
    [
      23,
      16,
      {
        "cost": 273.9,
        "seconds": 546
      }
    ],
    [
      23,
      19,
      {
        "cost": 184.41,
        "seconds": 412
      }
    ],
    [
      23,
      18,
      {
        "cost": 251.22,
        "seconds": 557
      }
    ],
    [
      23,
      21,
      {
        "cost": 349.65,
        "seconds": 687
      }
    ],
    [
      23,
      24,
      {
        "cost": 98.07,
        "seconds": 269
      }
    ],
    [
      23,
      26,
      {
        "cost": 335.52,
        "seconds": 750
      }
    ],
    [
      23,
      28,
      {
        "cost": 372.39,
        "seconds": 817
      }
    ],
    [
      23,
      25,
      {
        "cost": 301.46999999999999,
        "seconds": 658
      }
    ],
    [
      23,
      29,
      {
        "cost": 380.43,
        "seconds": 792
      }
    ],
    [
      23,
      27,
      {
        "cost": 303.59999999999999,
        "seconds": 655
      }
    ],
    [
      23,
      22,
      {
        "cost": 368.84999999999999,
        "seconds": 835
      }
    ],
    [
      24,
      2,
      {
        "cost": 466.16999999999998,
        "seconds": 903
      }
    ],
    [
      24,
      4,
      {
        "cost": 329.03999999999999,
        "seconds": 646
      }
    ],
    [
      24,
      6,
      {
        "cost": 324.63,
        "seconds": 674
      }
    ],
    [
      24,
      8,
      {
        "cost": 157.29,
        "seconds": 321
      }
    ],
    [
      24,
      10,
      {
        "cost": 347.78999999999999,
        "seconds": 739
      }
    ],
    [
      24,
      12,
      {
        "cost": 78.66,
        "seconds": 209
      }
    ],
    [
      24,
      14,
      {
        "cost": 161.76,
        "seconds": 321
      }
    ],
    [
      24,
      16,
      {
        "cost": 197.60999999999999,
        "seconds": 412
      }
    ],
    [
      24,
      18,
      {
        "cost": 210.29999999999999,
        "seconds": 448
      }
    ],
    [
      24,
      19,
      {
        "cost": 108.11999999999999,
        "seconds": 278
      }
    ],
    [
      24,
      20,
      {
        "cost": 198.29999999999999,
        "seconds": 529
      }
    ],
    [
      24,
      22,
      {
        "cost": 400.22999999999998,
        "seconds": 893
      }
    ],
    [
      24,
      23,
      {
        "cost": 97.17,
        "seconds": 232
      }
    ],
    [
      24,
      26,
      {
        "cost": 396.75,
        "seconds": 798
      }
    ],
    [
      24,
      28,
      {
        "cost": 433.65,
        "seconds": 865
      }
    ],
    [
      25,
      1,
      {
        "cost": 320.84999999999999,
        "seconds": 709
      }
    ],
    [
      25,
      0,
      {
        "cost": 341.78999999999999,
        "seconds": 764
      }
    ],
    [
      25,
      3,
      {
        "cost": 195.51,
        "seconds": 486
      }
    ],
    [
      25,
      5,
      {
        "cost": 125.58,
        "seconds": 313
      }
    ],
    [
      25,
      4,
      {
        "cost": 321.36,
        "seconds": 685
      }
    ],
    [
      25,
      7,
      {
        "cost": 221.45999999999999,
        "seconds": 527
      }
    ],
    [
      25,
      6,
      {
        "cost": 147.26999999999999,
        "seconds": 334
      }
    ],
    [
      25,
      9,
      {
        "cost": 257.28,
        "seconds": 646
      }
    ],
    [
      25,
      8,
      {
        "cost": 109.17,
        "seconds": 292
      }
    ],
    [
      25,
      11,
      {
        "cost": 305.88,
        "seconds": 667
      }
    ],
    [
      25,
      13,
      {
        "cost": 174.9,
        "seconds": 414
      }
    ],
    [
      25,
      12,
      {
        "cost": 211.35,
        "seconds": 519
      }
    ],
    [
      25,
      15,
      {
        "cost": 144.03,
        "seconds": 336
      }
    ],
    [
      25,
      14,
      {
        "cost": 111.72,
        "seconds": 317
      }
    ],
    [
      25,
      17,
      {
        "cost": 84.42,
        "seconds": 195
      }
    ],
    [
      25,
      16,
      {
        "cost": 109.11,
        "seconds": 294
      }
    ],
    [
      25,
      19,
      {
        "cost": 187.85999999999999,
        "seconds": 488
      }
    ],
    [
      25,
      18,
      {
        "cost": 70.44,
        "seconds": 212
      }
    ],
    [
      25,
      21,
      {
        "cost": 168.78,
        "seconds": 344
      }
    ],
    [
      25,
      20,
      {
        "cost": 154.10999999999999,
        "seconds": 413
      }
    ],
    [
      25,
      23,
      {
        "cost": 280.22999999999998,
        "seconds": 597
      }
    ],
    [
      25,
      27,
      {
        "cost": 61.29,
        "seconds": 175
      }
    ],
    [
      25,
      29,
      {
        "cost": 123.99,
        "seconds": 275
      }
    ],
    [
      25,
      24,
      {
        "cost": 253.79999999999999,
        "seconds": 565
      }
    ],
    [
      26,
      2,
      {
        "cost": 102.21,
        "seconds": 257
      }
    ],
    [
      26,
      4,
      {
        "cost": 94.53,
        "seconds": 230
      }
    ],
    [
      26,
      10,
      {
        "cost": 198.39,
        "seconds": 545
      }
    ],
    [
      26,
      22,
      {
        "cost": 45.12,
        "seconds": 158
      }
    ],
    [
      26,
      28,
      {
        "cost": 58.14,
        "seconds": 209
      }
    ],
    [
      27,
      1,
      {
        "cost": 277.89,
        "seconds": 717
      }
    ],
    [
      27,
      0,
      {
        "cost": 346.8,
        "seconds": 795
      }
    ],
    [
      27,
      3,
      {
        "cost": 223.44,
        "seconds": 546
      }
    ],
    [
      27,
      2,
      {
        "cost": 472.44,
        "seconds": 959
      }
    ],
    [
      27,
      5,
      {
        "cost": 98.13,
        "seconds": 261
      }
    ],
    [
      27,
      4,
      {
        "cost": 335.31,
        "seconds": 702
      }
    ],
    [
      27,
      7,
      {
        "cost": 226.47,
        "seconds": 559
      }
    ],
    [
      27,
      6,
      {
        "cost": 119.82,
        "seconds": 282
      }
    ],
    [
      27,
      9,
      {
        "cost": 229.82999999999999,
        "seconds": 594
      }
    ],
    [
      27,
      8,
      {
        "cost": 137.1,
        "seconds": 356
      }
    ],
    [
      27,
      11,
      {
        "cost": 319.8,
        "seconds": 683
      }
    ],
    [
      27,
      10,
      {
        "cost": 365.46,
        "seconds": 906
      }
    ],
    [
      27,
      13,
      {
        "cost": 150.23999999999999,
        "seconds": 442
      }
    ],
    [
      27,
      12,
      {
        "cost": 239.28,
        "seconds": 584
      }
    ],
    [
      27,
      15,
      {
        "cost": 116.55,
        "seconds": 284
      }
    ],
    [
      27,
      14,
      {
        "cost": 139.65,
        "seconds": 381
      }
    ],
    [
      27,
      17,
      {
        "cost": 61.169999999999998,
        "seconds": 153
      }
    ],
    [
      27,
      16,
      {
        "cost": 170.37,
        "seconds": 453
      }
    ],
    [
      27,
      19,
      {
        "cost": 215.79,
        "seconds": 552
      }
    ],
    [
      27,
      18,
      {
        "cost": 77.75999999999999,
        "seconds": 220
      }
    ],
    [
      27,
      21,
      {
        "cost": 204.35999999999999,
        "seconds": 476
      }
    ],
    [
      27,
      20,
      {
        "cost": 215.4,
        "seconds": 572
      }
    ],
    [
      27,
      23,
      {
        "cost": 308.15999999999999,
        "seconds": 658
      }
    ],
    [
      27,
      22,
      {
        "cost": 406.46999999999999,
        "seconds": 949
      }
    ],
    [
      27,
      25,
      {
        "cost": 49.68,
        "seconds": 175
      }
    ],
    [
      27,
      24,
      {
        "cost": 281.72999999999998,
        "seconds": 629
      }
    ],
    [
      27,
      28,
      {
        "cost": 439.89,
        "seconds": 921
      }
    ],
    [
      27,
      29,
      {
        "cost": 183.63,
        "seconds": 431
      }
    ],
    [
      27,
      26,
      {
        "cost": 403.02,
        "seconds": 854
      }
    ],
    [
      28,
      2,
      {
        "cost": 50.22,
        "seconds": 140
      }
    ],
    [
      28,
      4,
      {
        "cost": 111.39,
        "seconds": 204
      }
    ],
    [
      28,
      22,
      {
        "cost": 67.53,
        "seconds": 216
      }
    ],
    [
      28,
      26,
      {
        "cost": 56.01,
        "seconds": 136
      }
    ],
    [
      29,
      1,
      {
        "cost": 405.75,
        "seconds": 890
      }
    ],
    [
      29,
      3,
      {
        "cost": 272.7,
        "seconds": 619
      }
    ],
    [
      29,
      2,
      {
        "cost": 543.39,
        "seconds": 1124
      }
    ],
    [
      29,
      5,
      {
        "cost": 219.92999999999999,
        "seconds": 484
      }
    ],
    [
      29,
      4,
      {
        "cost": 406.26,
        "seconds": 866
      }
    ],
    [
      29,
      7,
      {
        "cost": 295.11,
        "seconds": 683
      }
    ],
    [
      29,
      6,
      {
        "cost": 211.59,
        "seconds": 456
      }
    ],
    [
      29,
      9,
      {
        "cost": 321.59999999999999,
        "seconds": 769
      }
    ],
    [
      29,
      8,
      {
        "cost": 186.35999999999999,
        "seconds": 426
      }
    ],
    [
      29,
      11,
      {
        "cost": 390.75,
        "seconds": 848
      }
    ],
    [
      29,
      13,
      {
        "cost": 259.77,
        "seconds": 595
      }
    ],
    [
      29,
      12,
      {
        "cost": 288.53999999999999,
        "seconds": 653
      }
    ],
    [
      29,
      15,
      {
        "cost": 208.23,
        "seconds": 469
      }
    ],
    [
      29,
      14,
      {
        "cost": 169.04999999999999,
        "seconds": 419
      }
    ],
    [
      29,
      17,
      {
        "cost": 128.67,
        "seconds": 303
      }
    ],
    [
      29,
      16,
      {
        "cost": 156.84,
        "seconds": 351
      }
    ],
    [
      29,
      19,
      {
        "cost": 265.08,
        "seconds": 622
      }
    ],
    [
      29,
      18,
      {
        "cost": 147.66,
        "seconds": 346
      }
    ],
    [
      29,
      21,
      {
        "cost": 171.32999999999999,
        "seconds": 345
      }
    ],
    [
      29,
      20,
      {
        "cost": 206.88,
        "seconds": 458
      }
    ],
    [
      29,
      23,
      {
        "cost": 357.41999999999998,
        "seconds": 731
      }
    ],
    [
      29,
      22,
      {
        "cost": 477.41999999999998,
        "seconds": 1113
      }
    ],
    [
      29,
      25,
      {
        "cost": 96.09,
        "seconds": 246
      }
    ],
    [
      29,
      24,
      {
        "cost": 331.02,
        "seconds": 698
      }
    ],
    [
      29,
      27,
      {
        "cost": 160.82999999999999,
        "seconds": 353
      }
    ],
    [
      29,
      26,
      {
        "cost": 473.96999999999999,
        "seconds": 1019
      }
    ],
    [
      29,
      28,
      {
        "cost": 510.84,
        "seconds": 1085
      }
    ],
    [
      28,
      31,
      {
        "cost": 85.5,
        "seconds": 211
      }
    ],
    [
      30,
      29,
      {
        "cost": 95.7,
        "seconds": 169
      }
    ],
    [
      28,
      30,
      {
        "cost": 615.15,
        "seconds": 1228
      }
    ],
    [
      31,
      29,
      {
        "cost": 555.39,
        "seconds": 1166
      }
    ],
    [
      26,
      31,
      {
        "cost": 106.77,
        "seconds": 275
      }
    ],
    [
      30,
      27,
      {
        "cost": 176.76,
        "seconds": 368
      }
    ],
    [
      26,
      30,
      {
        "cost": 590.16,
        "seconds": 1233
      }
    ],
    [
      31,
      27,
      {
        "cost": 296.43,
        "seconds": 844
      }
    ],
    [
      24,
      31,
      {
        "cost": 410.82,
        "seconds": 860
      }
    ],
    [
      30,
      25,
      {
        "cost": 114.0,
        "seconds": 240
      }
    ],
    [
      24,
      30,
      {
        "cost": 337.08,
        "seconds": 645
      }
    ],
    [
      31,
      25,
      {
        "cost": 457.2,
        "seconds": 987
      }
    ],
    [
      22,
      31,
      {
        "cost": 155.64,
        "seconds": 386
      }
    ],
    [
      30,
      23,
      {
        "cost": 375.36,
        "seconds": 725
      }
    ],
    [
      22,
      30,
      {
        "cost": 559.7099999999999,
        "seconds": 1159
      }
    ],
    [
      31,
      23,
      {
        "cost": 371.94,
        "seconds": 774
      }
    ],
    [
      20,
      31,
      {
        "cost": 489.57,
        "seconds": 1104
      }
    ],
    [
      30,
      21,
      {
        "cost": 20.79,
        "seconds": 30
      }
    ],
    [
      20,
      30,
      {
        "cost": 129.03,
        "seconds": 270
      }
    ],
    [
      31,
      21,
      {
        "cost": 530.91,
        "seconds": 1097
      }
    ],
    [
      18,
      31,
      {
        "cost": 372.06,
        "seconds": 837
      }
    ],
    [
      30,
      19,
      {
        "cost": 282.99,
        "seconds": 615
      }
    ],
    [
      18,
      30,
      {
        "cost": 270.9,
        "seconds": 540
      }
    ],
    [
      31,
      19,
      {
        "cost": 481.65,
        "seconds": 999
      }
    ],
    [
      16,
      31,
      {
        "cost": 459.21,
        "seconds": 1032
      }
    ],
    [
      30,
      17,
      {
        "cost": 170.48999999999999,
        "seconds": 353
      }
    ],
    [
      16,
      30,
      {
        "cost": 148.71,
        "seconds": 282
      }
    ],
    [
      31,
      17,
      {
        "cost": 301.56,
        "seconds": 857
      }
    ],
    [
      14,
      31,
      {
        "cost": 417.96,
        "seconds": 937
      }
    ],
    [
      30,
      15,
      {
        "cost": 250.04999999999999,
        "seconds": 519
      }
    ],
    [
      14,
      30,
      {
        "cost": 185.28,
        "seconds": 363
      }
    ],
    [
      31,
      15,
      {
        "cost": 241.64999999999999,
        "seconds": 784
      }
    ],
    [
      12,
      31,
      {
        "cost": 442.85999999999998,
        "seconds": 926
      }
    ],
    [
      30,
      13,
      {
        "cost": 277.68,
        "seconds": 589
      }
    ],
    [
      12,
      30,
      {
        "cost": 272.61,
        "seconds": 631
      }
    ],
    [
      31,
      13,
      {
        "cost": 287.4,
        "seconds": 647
      }
    ],
    [
      10,
      31,
      {
        "cost": 311.94,
        "seconds": 671
      }
    ],
    [
      30,
      11,
      {
        "cost": 408.69,
        "seconds": 842
      }
    ],
    [
      10,
      30,
      {
        "cost": 626.79,
        "seconds": 1275
      }
    ],
    [
      31,
      11,
      {
        "cost": 117.81,
        "seconds": 260
      }
    ],
    [
      8,
      31,
      {
        "cost": 395.76,
        "seconds": 853
      }
    ],
    [
      30,
      9,
      {
        "cost": 363.41999999999998,
        "seconds": 819
      }
    ],
    [
      8,
      30,
      {
        "cost": 206.1,
        "seconds": 407
      }
    ],
    [
      31,
      9,
      {
        "cost": 175.47,
        "seconds": 486
      }
    ],
    [
      6,
      31,
      {
        "cost": 210.63,
        "seconds": 704
      }
    ],
    [
      30,
      7,
      {
        "cost": 313.02,
        "seconds": 676
      }
    ],
    [
      6,
      30,
      {
        "cost": 359.61,
        "seconds": 776
      }
    ],
    [
      31,
      7,
      {
        "cost": 318.18,
        "seconds": 676
      }
    ],
    [
      4,
      31,
      {
        "cost": 172.10999999999999,
        "seconds": 437
      }
    ],
    [
      30,
      5,
      {
        "cost": 241.04999999999999,
        "seconds": 506
      }
    ],
    [
      4,
      30,
      {
        "cost": 515.52,
        "seconds": 1089
      }
    ],
    [
      31,
      5,
      {
        "cost": 264.78,
        "seconds": 772
      }
    ],
    [
      2,
      31,
      {
        "cost": 128.97,
        "seconds": 329
      }
    ],
    [
      30,
      3,
      {
        "cost": 290.64,
        "seconds": 613
      }
    ],
    [
      2,
      30,
      {
        "cost": 674.85,
        "seconds": 1381
      }
    ],
    [
      31,
      3,
      {
        "cost": 342.69,
        "seconds": 755
      }
    ],
    [
      0,
      31,
      {
        "cost": 332.61,
        "seconds": 678
      }
    ],
    [
      30,
      1,
      {
        "cost": 423.65999999999999,
        "seconds": 884
      }
    ],
    [
      0,
      30,
      {
        "cost": 497.82,
        "seconds": 1033
      }
    ],
    [
      31,
      1,
      {
        "cost": 265.98,
        "seconds": 608
      }
    ]
  ]
}