{
  "nodes": [
    {
      "Delivery": {
        "bid": 1967,
        "id": 22,
        "price": null,
        "cost": null,
        "direct_dist": 11012,
        "direct_cost": 331,
        "direct_time": 767
      }
    },
    {
      "Pickup": {
        "bid": 1967,
        "id": 22,
        "price": null,
        "cost": null,
        "direct_dist": 11012,
        "direct_cost": 331,
        "direct_time": 767
      }
    },
    {
      "Delivery": {
        "bid": 1099,
        "id": 21,
        "price": null,
        "cost": null,
        "direct_dist": 3664,
        "direct_cost": 110,
        "direct_time": 312
      }
    },
    {
      "Pickup": {
        "bid": 1099,
        "id": 21,
        "price": null,
        "cost": null,
        "direct_dist": 3664,
        "direct_cost": 110,
        "direct_time": 312
      }
    },
    {
      "Delivery": {
        "bid": 319,
        "id": 18,
        "price": null,
        "cost": null,
        "direct_dist": 2769,
        "direct_cost": 84,
        "direct_time": 196
      }
    },
    {
      "Pickup": {
        "bid": 319,
        "id": 18,
        "price": null,
        "cost": null,
        "direct_dist": 2769,
        "direct_cost": 84,
        "direct_time": 196
      }
    },
    {
      "Delivery": {
        "bid": 1401,
        "id": 15,
        "price": null,
        "cost": null,
        "direct_dist": 4672,
        "direct_cost": 141,
        "direct_time": 300
      }
    },
    {
      "Pickup": {
        "bid": 1401,
        "id": 15,
        "price": null,
        "cost": null,
        "direct_dist": 4672,
        "direct_cost": 141,
        "direct_time": 300
      }
    },
    {
      "Delivery": {
        "bid": 2225,
        "id": 14,
        "price": null,
        "cost": null,
        "direct_dist": 7418,
        "direct_cost": 223,
        "direct_time": 499
      }
    },
    {
      "Pickup": {
        "bid": 2225,
        "id": 14,
        "price": null,
        "cost": null,
        "direct_dist": 7418,
        "direct_cost": 223,
        "direct_time": 499
      }
    },
    {
      "Delivery": {
        "bid": 3150,
        "id": 12,
        "price": null,
        "cost": null,
        "direct_dist": 10501,
        "direct_cost": 316,
        "direct_time": 669
      }
    },
    {
      "Pickup": {
        "bid": 3150,
        "id": 12,
        "price": null,
        "cost": null,
        "direct_dist": 10501,
        "direct_cost": 316,
        "direct_time": 669
      }
    },
    {
      "Delivery": {
        "bid": 2496,
        "id": 11,
        "price": null,
        "cost": null,
        "direct_dist": 8323,
        "direct_cost": 250,
        "direct_time": 513
      }
    },
    {
      "Pickup": {
        "bid": 2496,
        "id": 11,
        "price": null,
        "cost": null,
        "direct_dist": 8323,
        "direct_cost": 250,
        "direct_time": 513
      }
    },
    {
      "Delivery": {
        "bid": 2474,
        "id": 9,
        "price": null,
        "cost": null,
        "direct_dist": 8247,
        "direct_cost": 248,
        "direct_time": 585
      }
    },
    {
      "Pickup": {
        "bid": 2474,
        "id": 9,
        "price": null,
        "cost": null,
        "direct_dist": 8247,
        "direct_cost": 248,
        "direct_time": 585
      }
    },
    {
      "Delivery": {
        "bid": 3516,
        "id": 5,
        "price": null,
        "cost": null,
        "direct_dist": 11720,
        "direct_cost": 352,
        "direct_time": 774
      }
    },
    {
      "Pickup": {
        "bid": 3516,
        "id": 5,
        "price": null,
        "cost": null,
        "direct_dist": 11720,
        "direct_cost": 352,
        "direct_time": 774
      }
    },
    {
      "DriverStart": {
        "arrive_until": 2400,
        "direct_cost": 457
      }
    },
    {
      "DriverEnd": {
        "arrive_until": 2400,
        "direct_cost": 457
      }
    }
  ],
  "node_holes": [],
  "edge_property": "directed",
  "edges": [
    [
      0,
      14,
      {
        "cost": 243.26999999999999,
        "seconds": 514
      }
    ],
    [
      0,
      16,
      {
        "cost": 92.78999999999999,
        "seconds": 257
      }
    ],
    [
      0,
      12,
      {
        "cost": 213.63,
        "seconds": 447
      }
    ],
    [
      0,
      10,
      {
        "cost": 207.98999999999999,
        "seconds": 494
      }
    ],
    [
      0,
      8,
      {
        "cost": 141.48,
        "seconds": 323
      }
    ],
    [
      1,
      14,
      {
        "cost": 348.41999999999998,
        "seconds": 808
      }
    ],
    [
      1,
      6,
      {
        "cost": 158.19,
        "seconds": 359
      }
    ],
    [
      1,
      15,
      {
        "cost": 138.09,
        "seconds": 344
      }
    ],
    [
      1,
      16,
      {
        "cost": 397.77,
        "seconds": 897
      }
    ],
    [
      1,
      12,
      {
        "cost": 432.12,
        "seconds": 940
      }
    ],
    [
      1,
      7,
      {
        "cost": 231.66,
        "seconds": 530
      }
    ],
    [
      1,
      2,
      {
        "cost": 207.45,
        "seconds": 471
      }
    ],
    [
      1,
      4,
      {
        "cost": 225.39,
        "seconds": 586
      }
    ],
    [
      1,
      10,
      {
        "cost": 201.29999999999999,
        "seconds": 458
      }
    ],
    [
      1,
      17,
      {
        "cost": 150.48,
        "seconds": 360
      }
    ],
    [
      1,
      8,
      {
        "cost": 434.58,
        "seconds": 951
      }
    ],
    [
      1,
      11,
      {
        "cost": 284.21999999999999,
        "seconds": 587
      }
    ],
    [
      1,
      3,
      {
        "cost": 268.95,
        "seconds": 563
      }
    ],
    [
      1,
      5,
      {
        "cost": 289.28999999999999,
        "seconds": 698
      }
    ],
    [
      1,
      13,
      {
        "cost": 184.62,
        "seconds": 433
      }
    ],
    [
      1,
      9,
      {
        "cost": 212.82,
        "seconds": 497
      }
    ],
    [
      1,
      0,
      {
        "cost": 330.36,
        "seconds": 767
      }
    ],
    [
      2,
      0,
      {
        "cost": 355.38,
        "seconds": 872
      }
    ],
    [
      2,
      1,
      {
        "cost": 205.17,
        "seconds": 505
      }
    ],
    [
      2,
      14,
      {
        "cost": 423.99,
        "seconds": 969
      }
    ],
    [
      2,
      15,
      {
        "cost": 213.69,
        "seconds": 504
      }
    ],
    [
      2,
      16,
      {
        "cost": 381.99,
        "seconds": 933
      }
    ],
    [
      2,
      10,
      {
        "cost": 276.87,
        "seconds": 619
      }
    ],
    [
      2,
      6,
      {
        "cost": 121.94999999999999,
        "seconds": 310
      }
    ],
    [
      2,
      11,
      {
        "cost": 96.84,
        "seconds": 255
      }
    ],
    [
      3,
      1,
      {
        "cost": 263.55,
        "seconds": 547
      }
    ],
    [
      3,
      15,
      {
        "cost": 308.96999999999999,
        "seconds": 651
      }
    ],
    [
      3,
      17,
      {
        "cost": 372.81,
        "seconds": 765
      }
    ],
    [
      3,
      6,
      {
        "cost": 225.66,
        "seconds": 481
      }
    ],
    [
      3,
      11,
      {
        "cost": 125.07,
        "seconds": 333
      }
    ],
    [
      3,
      7,
      {
        "cost": 362.61,
        "seconds": 848
      }
    ],
    [
      3,
      2,
      {
        "cost": 109.92,
        "seconds": 312
      }
    ],
    [
      4,
      0,
      {
        "cost": 265.17,
        "seconds": 546
      }
    ],
    [
      4,
      1,
      {
        "cost": 246.95999999999999,
        "seconds": 524
      }
    ],
    [
      4,
      6,
      {
        "cost": 265.83,
        "seconds": 495
      }
    ],
    [
      4,
      7,
      {
        "cost": 188.7,
        "seconds": 405
      }
    ],
    [
      4,
      14,
      {
        "cost": 129.0,
        "seconds": 299
      }
    ],
    [
      4,
      12,
      {
        "cost": 333.93,
        "seconds": 656
      }
    ],
    [
      4,
      13,
      {
        "cost": 137.85,
        "seconds": 268
      }
    ],
    [
      4,
      10,
      {
        "cost": 77.7,
        "seconds": 168
      }
    ],
    [
      4,
      8,
      {
        "cost": 351.15,
        "seconds": 703
      }
    ],
    [
      4,
      16,
      {
        "cost": 337.77,
        "seconds": 706
      }
    ],
    [
      4,
      15,
      {
        "cost": 185.43,
        "seconds": 353
      }
    ],
    [
      4,
      9,
      {
        "cost": 166.04999999999999,
        "seconds": 333
      }
    ],
    [
      4,
      17,
      {
        "cost": 125.69999999999999,
        "seconds": 233
      }
    ],
    [
      5,
      1,
      {
        "cost": 299.31,
        "seconds": 645
      }
    ],
    [
      5,
      6,
      {
        "cost": 242.01,
        "seconds": 520
      }
    ],
    [
      5,
      7,
      {
        "cost": 148.79999999999999,
        "seconds": 325
      }
    ],
    [
      5,
      14,
      {
        "cost": 98.88,
        "seconds": 252
      }
    ],
    [
      5,
      13,
      {
        "cost": 114.27,
        "seconds": 284
      }
    ],
    [
      5,
      15,
      {
        "cost": 158.31,
        "seconds": 429
      }
    ],
    [
      5,
      8,
      {
        "cost": 262.34999999999999,
        "seconds": 538
      }
    ],
    [
      5,
      17,
      {
        "cost": 178.04999999999999,
        "seconds": 353
      }
    ],
    [
      5,
      11,
      {
        "cost": 367.62,
        "seconds": 807
      }
    ],
    [
      5,
      9,
      {
        "cost": 84.0,
        "seconds": 278
      }
    ],
    [
      5,
      4,
      {
        "cost": 83.07,
        "seconds": 196
      }
    ],
    [
      6,
      0,
      {
        "cost": 271.28999999999999,
        "seconds": 613
      }
    ],
    [
      6,
      1,
      {
        "cost": 132.32999999999999,
        "seconds": 290
      }
    ],
    [
      6,
      2,
      {
        "cost": 110.52,
        "seconds": 296
      }
    ],
    [
      6,
      3,
      {
        "cost": 233.51999999999999,
        "seconds": 483
      }
    ],
    [
      6,
      4,
      {
        "cost": 238.23,
        "seconds": 485
      }
    ],
    [
      6,
      5,
      {
        "cost": 247.44,
        "seconds": 564
      }
    ],
    [
      6,
      12,
      {
        "cost": 390.3,
        "seconds": 806
      }
    ],
    [
      6,
      16,
      {
        "cost": 329.58,
        "seconds": 733
      }
    ],
    [
      6,
      14,
      {
        "cost": 306.59999999999999,
        "seconds": 674
      }
    ],
    [
      6,
      17,
      {
        "cost": 158.13,
        "seconds": 321
      }
    ],
    [
      6,
      13,
      {
        "cost": 142.79999999999999,
        "seconds": 299
      }
    ],
    [
      6,
      15,
      {
        "cost": 96.3,
        "seconds": 209
      }
    ],
    [
      6,
      8,
      {
        "cost": 368.21999999999999,
        "seconds": 802
      }
    ],
    [
      6,
      10,
      {
        "cost": 159.45,
        "seconds": 324
      }
    ],
    [
      6,
      9,
      {
        "cost": 171.0,
        "seconds": 363
      }
    ],
    [
      6,
      11,
      {
        "cost": 176.19,
        "seconds": 383
      }
    ],
    [
      7,
      1,
      {
        "cost": 206.13,
        "seconds": 434
      }
    ],
    [
      7,
      3,
      {
        "cost": 346.89,
        "seconds": 699
      }
    ],
    [
      7,
      2,
      {
        "cost": 239.28,
        "seconds": 548
      }
    ],
    [
      7,
      5,
      {
        "cost": 175.26,
        "seconds": 408
      }
    ],
    [
      7,
      4,
      {
        "cost": 165.0,
        "seconds": 364
      }
    ],
    [
      7,
      13,
      {
        "cost": 49.8,
        "seconds": 129
      }
    ],
    [
      7,
      17,
      {
        "cost": 152.64,
        "seconds": 291
      }
    ],
    [
      7,
      15,
      {
        "cost": 103.53,
        "seconds": 260
      }
    ],
    [
      7,
      8,
      {
        "cost": 223.53,
        "seconds": 485
      }
    ],
    [
      7,
      10,
      {
        "cost": 114.92999999999999,
        "seconds": 295
      }
    ],
    [
      7,
      9,
      {
        "cost": 64.23,
        "seconds": 158
      }
    ],
    [
      7,
      11,
      {
        "cost": 265.77,
        "seconds": 588
      }
    ],
    [
      7,
      6,
      {
        "cost": 140.16,
        "seconds": 300
      }
    ],
    [
      8,
      0,
      {
        "cost": 88.71,
        "seconds": 197
      }
    ],
    [
      8,
      4,
      {
        "cost": 284.52,
        "seconds": 573
      }
    ],
    [
      8,
      6,
      {
        "cost": 291.78,
        "seconds": 624
      }
    ],
    [
      8,
      10,
      {
        "cost": 251.01,
        "seconds": 578
      }
    ],
    [
      8,
      14,
      {
        "cost": 273.06,
        "seconds": 561
      }
    ],
    [
      8,
      16,
      {
        "cost": 106.44,
        "seconds": 254
      }
    ],
    [
      8,
      12,
      {
        "cost": 167.25,
        "seconds": 310
      }
    ],
    [
      9,
      1,
      {
        "cost": 206.19,
        "seconds": 453
      }
    ],
    [
      9,
      0,
      {
        "cost": 136.56,
        "seconds": 342
      }
    ],
    [
      9,
      5,
      {
        "cost": 89.36999999999999,
        "seconds": 326
      }
    ],
    [
      9,
      4,
      {
        "cost": 153.39,
        "seconds": 342
      }
    ],
    [
      9,
      7,
      {
        "cost": 69.53999999999999,
        "seconds": 178
      }
    ],
    [
      9,
      6,
      {
        "cost": 164.4,
        "seconds": 329
      }
    ],
    [
      9,
      10,
      {
        "cost": 96.75,
        "seconds": 238
      }
    ],
    [
      9,
      11,
      {
        "cost": 290.01,
        "seconds": 617
      }
    ],
    [
      9,
      14,
      {
        "cost": 188.31,
        "seconds": 423
      }
    ],
    [
      9,
      16,
      {
        "cost": 209.19,
        "seconds": 503
      }
    ],
    [
      9,
      12,
      {
        "cost": 219.29999999999999,
        "seconds": 443
      }
    ],
    [
      9,
      15,
      {
        "cost": 117.50999999999999,
        "seconds": 308
      }
    ],
    [
      9,
      13,
      {
        "cost": 43.41,
        "seconds": 111
      }
    ],
    [
      9,
      17,
      {
        "cost": 166.62,
        "seconds": 339
      }
    ],
    [
      9,
      8,
      {
        "cost": 222.54,
        "seconds": 499
      }
    ],
    [
      10,
      0,
      {
        "cost": 231.84,
        "seconds": 537
      }
    ],
    [
      10,
      4,
      {
        "cost": 97.22999999999999,
        "seconds": 253
      }
    ],
    [
      10,
      6,
      {
        "cost": 189.35999999999999,
        "seconds": 438
      }
    ],
    [
      10,
      8,
      {
        "cost": 317.82,
        "seconds": 694
      }
    ],
    [
      10,
      14,
      {
        "cost": 190.41,
        "seconds": 420
      }
    ],
    [
      10,
      12,
      {
        "cost": 320.72999999999998,
        "seconds": 681
      }
    ],
    [
      10,
      16,
      {
        "cost": 290.15999999999999,
        "seconds": 678
      }
    ],
    [
      10,
      13,
      {
        "cost": 73.2,
        "seconds": 174
      }
    ],
    [
      11,
      1,
      {
        "cost": 297.87,
        "seconds": 615
      }
    ],
    [
      11,
      0,
      {
        "cost": 282.36,
        "seconds": 787
      }
    ],
    [
      11,
      3,
      {
        "cost": 128.04,
        "seconds": 329
      }
    ],
    [
      11,
      2,
      {
        "cost": 103.5,
        "seconds": 268
      }
    ],
    [
      11,
      4,
      {
        "cost": 393.81,
        "seconds": 830
      }
    ],
    [
      11,
      7,
      {
        "cost": 344.28,
        "seconds": 755
      }
    ],
    [
      11,
      6,
      {
        "cost": 161.51999999999999,
        "seconds": 378
      }
    ],
    [
      11,
      9,
      {
        "cost": 326.58,
        "seconds": 708
      }
    ],
    [
      11,
      8,
      {
        "cost": 401.4,
        "seconds": 1026
      }
    ],
    [
      11,
      14,
      {
        "cost": 462.18,
        "seconds": 1018
      }
    ],
    [
      11,
      16,
      {
        "cost": 308.96999999999999,
        "seconds": 848
      }
    ],
    [
      11,
      15,
      {
        "cost": 251.88,
        "seconds": 554
      }
    ],
    [
      11,
      13,
      {
        "cost": 298.38,
        "seconds": 644
      }
    ],
    [
      11,
      17,
      {
        "cost": 315.71999999999999,
        "seconds": 668
      }
    ],
    [
      11,
      10,
      {
        "cost": 315.03,
        "seconds": 669
      }
    ],
    [
      12,
      0,
      {
        "cost": 136.26,
        "seconds": 281
      }
    ],
    [
      12,
      8,
      {
        "cost": 47.55,
        "seconds": 84
      }
    ],
    [
      12,
      10,
      {
        "cost": 298.56,
        "seconds": 662
      }
    ],
    [
      12,
      16,
      {
        "cost": 128.22,
        "seconds": 286
      }
    ],
    [
      12,
      14,
      {
        "cost": 320.58,
        "seconds": 645
      }
    ],
    [
      13,
      1,
      {
        "cost": 178.07999999999999,
        "seconds": 392
      }
    ],
    [
      13,
      0,
      {
        "cost": 171.66,
        "seconds": 397
      }
    ],
    [
      13,
      5,
      {
        "cost": 134.13,
        "seconds": 365
      }
    ],
    [
      13,
      4,
      {
        "cost": 124.92,
        "seconds": 286
      }
    ],
    [
      13,
      7,
      {
        "cost": 63.87,
        "seconds": 170
      }
    ],
    [
      13,
      6,
      {
        "cost": 128.60999999999999,
        "seconds": 298
      }
    ],
    [
      13,
      9,
      {
        "cost": 30.39,
        "seconds": 71
      }
    ],
    [
      13,
      8,
      {
        "cost": 257.64,
        "seconds": 554
      }
    ],
    [
      13,
      11,
      {
        "cost": 258.48,
        "seconds": 565
      }
    ],
    [
      13,
      10,
      {
        "cost": 68.28,
        "seconds": 182
      }
    ],
    [
      13,
      14,
      {
        "cost": 193.29,
        "seconds": 475
      }
    ],
    [
      13,
      16,
      {
        "cost": 229.95,
        "seconds": 538
      }
    ],
    [
      13,
      17,
      {
        "cost": 138.51,
        "seconds": 278
      }
    ],
    [
      13,
      15,
      {
        "cost": 89.39999999999999,
        "seconds": 247
      }
    ],
    [
      13,
      12,
      {
        "cost": 249.69,
        "seconds": 513
      }
    ],
    [
      14,
      0,
      {
        "cost": 208.14,
        "seconds": 513
      }
    ],
    [
      14,
      4,
      {
        "cost": 134.25,
        "seconds": 296
      }
    ],
    [
      14,
      5,
      {
        "cost": 103.53,
        "seconds": 276
      }
    ],
    [
      14,
      8,
      {
        "cost": 290.49,
        "seconds": 661
      }
    ],
    [
      14,
      10,
      {
        "cost": 181.23,
        "seconds": 388
      }
    ],
    [
      14,
      12,
      {
        "cost": 259.83,
        "seconds": 597
      }
    ],
    [
      14,
      16,
      {
        "cost": 277.14,
        "seconds": 664
      }
    ],
    [
      15,
      1,
      {
        "cost": 136.35,
        "seconds": 275
      }
    ],
    [
      15,
      0,
      {
        "cost": 228.17999999999999,
        "seconds": 559
      }
    ],
    [
      15,
      3,
      {
        "cost": 298.38,
        "seconds": 576
      }
    ],
    [
      15,
      2,
      {
        "cost": 187.85999999999999,
        "seconds": 410
      }
    ],
    [
      15,
      5,
      {
        "cost": 188.25,
        "seconds": 475
      }
    ],
    [
      15,
      4,
      {
        "cost": 179.04,
        "seconds": 397
      }
    ],
    [
      15,
      7,
      {
        "cost": 129.51,
        "seconds": 321
      }
    ],
    [
      15,
      6,
      {
        "cost": 91.64999999999999,
        "seconds": 178
      }
    ],
    [
      15,
      9,
      {
        "cost": 111.81,
        "seconds": 275
      }
    ],
    [
      15,
      8,
      {
        "cost": 328.2,
        "seconds": 731
      }
    ],
    [
      15,
      11,
      {
        "cost": 220.56,
        "seconds": 440
      }
    ],
    [
      15,
      10,
      {
        "cost": 100.25999999999999,
        "seconds": 236
      }
    ],
    [
      15,
      13,
      {
        "cost": 83.58,
        "seconds": 210
      }
    ],
    [
      15,
      12,
      {
        "cost": 331.11,
        "seconds": 717
      }
    ],
    [
      15,
      17,
      {
        "cost": 105.99,
        "seconds": 240
      }
    ],
    [
      15,
      14,
      {
        "cost": 247.41,
        "seconds": 585
      }
    ],
    [
      16,
      0,
      {
        "cost": 93.86999999999999,
        "seconds": 228
      }
    ],
    [
      16,
      8,
      {
        "cost": 105.17999999999999,
        "seconds": 260
      }
    ],
    [
      16,
      10,
      {
        "cost": 284.4,
        "seconds": 669
      }
    ],
    [
      16,
      12,
      {
        "cost": 195.75,
        "seconds": 443
      }
    ],
    [
      17,
      1,
      {
        "cost": 148.35,
        "seconds": 380
      }
    ],
    [
      17,
      0,
      {
        "cost": 284.19,
        "seconds": 644
      }
    ],
    [
      17,
      3,
      {
        "cost": 343.32,
        "seconds": 758
      }
    ],
    [
      17,
      2,
      {
        "cost": 274.05,
        "seconds": 605
      }
    ],
    [
      17,
      5,
      {
        "cost": 248.64,
        "seconds": 584
      }
    ],
    [
      17,
      4,
      {
        "cost": 145.5,
        "seconds": 364
      }
    ],
    [
      17,
      7,
      {
        "cost": 185.48999999999999,
        "seconds": 407
      }
    ],
    [
      17,
      6,
      {
        "cost": 177.87,
        "seconds": 372
      }
    ],
    [
      17,
      9,
      {
        "cost": 172.17,
        "seconds": 383
      }
    ],
    [
      17,
      8,
      {
        "cost": 388.40999999999999,
        "seconds": 828
      }
    ],
    [
      17,
      11,
      {
        "cost": 306.75,
        "seconds": 635
      }
    ],
    [
      17,
      10,
      {
        "cost": 160.65,
        "seconds": 344
      }
    ],
    [
      17,
      13,
      {
        "cost": 143.97,
        "seconds": 319
      }
    ],
    [
      17,
      12,
      {
        "cost": 391.46999999999999,
        "seconds": 826
      }
    ],
    [
      17,
      15,
      {
        "cost": 97.44,
        "seconds": 230
      }
    ],
    [
      17,
      14,
      {
        "cost": 263.52,
        "seconds": 602
      }
    ],
    [
      17,
      16,
      {
        "cost": 351.59999999999999,
        "seconds": 774
      }
    ],
    [
      16,
      19,
      {
        "cost": 351.84,
        "seconds": 798
      }
    ],
    [
      18,
      17,
      {
        "cost": 224.16,
        "seconds": 588
      }
    ],
    [
      16,
      18,
      {
        "cost": 431.34,
        "seconds": 877
      }
    ],
    [
      19,
      17,
      {
        "cost": 285.53999999999999,
        "seconds": 574
      }
    ],
    [
      14,
      19,
      {
        "cost": 87.57,
        "seconds": 275
      }
    ],
    [
      18,
      15,
      {
        "cost": 197.28,
        "seconds": 546
      }
    ],
    [
      14,
      18,
      {
        "cost": 382.08,
        "seconds": 827
      }
    ],
    [
      19,
      15,
      {
        "cost": 286.74,
        "seconds": 684
      }
    ],
    [
      12,
      19,
      {
        "cost": 307.08,
        "seconds": 662
      }
    ],
    [
      18,
      13,
      {
        "cost": 243.81,
        "seconds": 634
      }
    ],
    [
      12,
      18,
      {
        "cost": 436.85999999999998,
        "seconds": 924
      }
    ],
    [
      19,
      13,
      {
        "cost": 236.67,
        "seconds": 536
      }
    ],
    [
      10,
      19,
      {
        "cost": 227.31,
        "seconds": 591
      }
    ],
    [
      18,
      11,
      {
        "cost": 316.71,
        "seconds": 685
      }
    ],
    [
      10,
      18,
      {
        "cost": 230.07,
        "seconds": 589
      }
    ],
    [
      19,
      11,
      {
        "cost": 496.16999999999998,
        "seconds": 1037
      }
    ],
    [
      8,
      19,
      {
        "cost": 305.88,
        "seconds": 663
      }
    ],
    [
      18,
      9,
      {
        "cost": 324.27,
        "seconds": 692
      }
    ],
    [
      8,
      18,
      {
        "cost": 389.31,
        "seconds": 840
      }
    ],
    [
      19,
      9,
      {
        "cost": 251.13,
        "seconds": 532
      }
    ],
    [
      6,
      19,
      {
        "cost": 355.53,
        "seconds": 808
      }
    ],
    [
      18,
      7,
      {
        "cost": 289.71,
        "seconds": 747
      }
    ],
    [
      6,
      18,
      {
        "cost": 163.92,
        "seconds": 372
      }
    ],
    [
      19,
      7,
      {
        "cost": 275.7,
        "seconds": 599
      }
    ],
    [
      4,
      19,
      {
        "cost": 194.43,
        "seconds": 482
      }
    ],
    [
      18,
      5,
      {
        "cost": 348.47999999999998,
        "seconds": 899
      }
    ],
    [
      4,
      18,
      {
        "cost": 278.55,
        "seconds": 606
      }
    ],
    [
      19,
      5,
      {
        "cost": 164.16,
        "seconds": 415
      }
    ],
    [
      2,
      19,
      {
        "cost": 472.91999999999998,
        "seconds": 1103
      }
    ],
    [
      18,
      3,
      {
        "cost": 249.87,
        "seconds": 520
      }
    ],
    [
      2,
      18,
      {
        "cost": 236.76,
        "seconds": 587
      }
    ],
    [
      19,
      3,
      {
        "cost": 577.26,
        "seconds": 1148
      }
    ],
    [
      0,
      19,
      {
        "cost": 252.29999999999999,
        "seconds": 679
      }
    ],
    [
      18,
      1,
      {
        "cost": 77.78999999999999,
        "seconds": 240
      }
    ],
    [
      0,
      18,
      {
        "cost": 330.75,
        "seconds": 714
      }
    ],
    [
      19,
      1,
      {
        "cost": 406.8,
        "seconds": 865
      }
    ]
  ]
}