{
  "nodes": [
    {
      "Delivery": {
        "bid": 3285,
        "id": 25,
        "price": null,
        "cost": null,
        "direct_dist": 10951,
        "direct_cost": 329,
        "direct_time": 839
      }
    },
    {
      "Pickup": {
        "bid": 3285,
        "id": 25,
        "price": null,
        "cost": null,
        "direct_dist": 10951,
        "direct_cost": 329,
        "direct_time": 839
      }
    },
    {
      "Delivery": {
        "bid": 151,
        "id": 22,
        "price": null,
        "cost": null,
        "direct_dist": 1631,
        "direct_cost": 49,
        "direct_time": 145
      }
    },
    {
      "Pickup": {
        "bid": 151,
        "id": 22,
        "price": null,
        "cost": null,
        "direct_dist": 1631,
        "direct_cost": 49,
        "direct_time": 145
      }
    },
    {
      "Delivery": {
        "bid": 1300,
        "id": 21,
        "price": null,
        "cost": null,
        "direct_dist": 4336,
        "direct_cost": 131,
        "direct_time": 295
      }
    },
    {
      "Pickup": {
        "bid": 1300,
        "id": 21,
        "price": null,
        "cost": null,
        "direct_dist": 4336,
        "direct_cost": 131,
        "direct_time": 295
      }
    },
    {
      "Delivery": {
        "bid": 2697,
        "id": 19,
        "price": null,
        "cost": null,
        "direct_dist": 12990,
        "direct_cost": 390,
        "direct_time": 950
      }
    },
    {
      "Pickup": {
        "bid": 2697,
        "id": 19,
        "price": null,
        "cost": null,
        "direct_dist": 12990,
        "direct_cost": 390,
        "direct_time": 950
      }
    },
    {
      "Delivery": {
        "bid": 794,
        "id": 18,
        "price": null,
        "cost": null,
        "direct_dist": 16513,
        "direct_cost": 496,
        "direct_time": 1096
      }
    },
    {
      "Pickup": {
        "bid": 794,
        "id": 18,
        "price": null,
        "cost": null,
        "direct_dist": 16513,
        "direct_cost": 496,
        "direct_time": 1096
      }
    },
    {
      "Delivery": {
        "bid": 1244,
        "id": 16,
        "price": null,
        "cost": null,
        "direct_dist": 18590,
        "direct_cost": 558,
        "direct_time": 1239
      }
    },
    {
      "Pickup": {
        "bid": 1244,
        "id": 16,
        "price": null,
        "cost": null,
        "direct_dist": 18590,
        "direct_cost": 558,
        "direct_time": 1239
      }
    },
    {
      "Delivery": {
        "bid": 483,
        "id": 12,
        "price": null,
        "cost": null,
        "direct_dist": 1613,
        "direct_cost": 49,
        "direct_time": 111
      }
    },
    {
      "Pickup": {
        "bid": 483,
        "id": 12,
        "price": null,
        "cost": null,
        "direct_dist": 1613,
        "direct_cost": 49,
        "direct_time": 111
      }
    },
    {
      "Delivery": {
        "bid": 4644,
        "id": 10,
        "price": null,
        "cost": null,
        "direct_dist": 15481,
        "direct_cost": 465,
        "direct_time": 1014
      }
    },
    {
      "Pickup": {
        "bid": 4644,
        "id": 10,
        "price": null,
        "cost": null,
        "direct_dist": 15481,
        "direct_cost": 465,
        "direct_time": 1014
      }
    },
    {
      "Delivery": {
        "bid": 1266,
        "id": 8,
        "price": null,
        "cost": null,
        "direct_dist": 11098,
        "direct_cost": 333,
        "direct_time": 753
      }
    },
    {
      "Pickup": {
        "bid": 1266,
        "id": 8,
        "price": null,
        "cost": null,
        "direct_dist": 11098,
        "direct_cost": 333,
        "direct_time": 753
      }
    },
    {
      "Delivery": {
        "bid": 978,
        "id": 7,
        "price": null,
        "cost": null,
        "direct_dist": 3263,
        "direct_cost": 98,
        "direct_time": 292
      }
    },
    {
      "Pickup": {
        "bid": 978,
        "id": 7,
        "price": null,
        "cost": null,
        "direct_dist": 3263,
        "direct_cost": 98,
        "direct_time": 292
      }
    },
    {
      "Delivery": {
        "bid": 1127,
        "id": 4,
        "price": null,
        "cost": null,
        "direct_dist": 11818,
        "direct_cost": 355,
        "direct_time": 781
      }
    },
    {
      "Pickup": {
        "bid": 1127,
        "id": 4,
        "price": null,
        "cost": null,
        "direct_dist": 11818,
        "direct_cost": 355,
        "direct_time": 781
      }
    },
    {
      "Delivery": {
        "bid": 1485,
        "id": 2,
        "price": null,
        "cost": null,
        "direct_dist": 9274,
        "direct_cost": 279,
        "direct_time": 642
      }
    },
    {
      "Pickup": {
        "bid": 1485,
        "id": 2,
        "price": null,
        "cost": null,
        "direct_dist": 9274,
        "direct_cost": 279,
        "direct_time": 642
      }
    },
    {
      "Delivery": {
        "bid": 1532,
        "id": 1,
        "price": null,
        "cost": null,
        "direct_dist": 7485,
        "direct_cost": 225,
        "direct_time": 519
      }
    },
    {
      "Pickup": {
        "bid": 1532,
        "id": 1,
        "price": null,
        "cost": null,
        "direct_dist": 7485,
        "direct_cost": 225,
        "direct_time": 519
      }
    },
    {
      "DriverStart": {
        "arrive_until": 2400,
        "direct_cost": 499
      }
    },
    {
      "DriverEnd": {
        "arrive_until": 2400,
        "direct_cost": 499
      }
    }
  ],
  "node_holes": [],
  "edge_property": "directed",
  "edges": [
    [
      0,
      24,
      {
        "cost": 166.26,
        "seconds": 436
      }
    ],
    [
      0,
      16,
      {
        "cost": 124.28999999999999,
        "seconds": 340
      }
    ],
    [
      0,
      14,
      {
        "cost": 98.97,
        "seconds": 220
      }
    ],
    [
      0,
      8,
      {
        "cost": 116.97,
        "seconds": 302
      }
    ],
    [
      0,
      10,
      {
        "cost": 200.34,
        "seconds": 443
      }
    ],
    [
      0,
      6,
      {
        "cost": 140.51999999999999,
        "seconds": 343
      }
    ],
    [
      1,
      24,
      {
        "cost": 202.14,
        "seconds": 572
      }
    ],
    [
      1,
      22,
      {
        "cost": 172.79999999999999,
        "seconds": 481
      }
    ],
    [
      1,
      16,
      {
        "cost": 320.13,
        "seconds": 806
      }
    ],
    [
      1,
      25,
      {
        "cost": 215.82,
        "seconds": 534
      }
    ],
    [
      1,
      17,
      {
        "cost": 154.07999999999999,
        "seconds": 410
      }
    ],
    [
      1,
      23,
      {
        "cost": 177.72,
        "seconds": 434
      }
    ],
    [
      1,
      14,
      {
        "cost": 248.57999999999999,
        "seconds": 653
      }
    ],
    [
      1,
      15,
      {
        "cost": 163.14,
        "seconds": 468
      }
    ],
    [
      1,
      12,
      {
        "cost": 131.85,
        "seconds": 356
      }
    ],
    [
      1,
      8,
      {
        "cost": 312.81,
        "seconds": 768
      }
    ],
    [
      1,
      10,
      {
        "cost": 335.34,
        "seconds": 825
      }
    ],
    [
      1,
      13,
      {
        "cost": 104.67,
        "seconds": 311
      }
    ],
    [
      1,
      4,
      {
        "cost": 218.01,
        "seconds": 557
      }
    ],
    [
      1,
      9,
      {
        "cost": 190.62,
        "seconds": 495
      }
    ],
    [
      1,
      11,
      {
        "cost": 201.69,
        "seconds": 534
      }
    ],
    [
      1,
      2,
      {
        "cost": 196.26,
        "seconds": 525
      }
    ],
    [
      1,
      6,
      {
        "cost": 273.53999999999999,
        "seconds": 667
      }
    ],
    [
      1,
      18,
      {
        "cost": 167.79,
        "seconds": 472
      }
    ],
    [
      1,
      3,
      {
        "cost": 145.17,
        "seconds": 404
      }
    ],
    [
      1,
      5,
      {
        "cost": 90.50999999999999,
        "seconds": 272
      }
    ],
    [
      1,
      7,
      {
        "cost": 148.76999999999999,
        "seconds": 493
      }
    ],
    [
      1,
      19,
      {
        "cost": 252.14999999999999,
        "seconds": 659
      }
    ],
    [
      1,
      0,
      {
        "cost": 328.53,
        "seconds": 839
      }
    ],
    [
      2,
      0,
      {
        "cost": 439.34999999999999,
        "seconds": 951
      }
    ],
    [
      2,
      1,
      {
        "cost": 196.92,
        "seconds": 495
      }
    ],
    [
      2,
      24,
      {
        "cost": 352.11,
        "seconds": 796
      }
    ],
    [
      2,
      20,
      {
        "cost": 144.48,
        "seconds": 279
      }
    ],
    [
      2,
      25,
      {
        "cost": 219.09,
        "seconds": 547
      }
    ],
    [
      2,
      16,
      {
        "cost": 387.81,
        "seconds": 896
      }
    ],
    [
      2,
      22,
      {
        "cost": 34.92,
        "seconds": 89
      }
    ],
    [
      2,
      21,
      {
        "cost": 323.7,
        "seconds": 697
      }
    ],
    [
      2,
      17,
      {
        "cost": 84.33,
        "seconds": 221
      }
    ],
    [
      2,
      23,
      {
        "cost": 245.82,
        "seconds": 543
      }
    ],
    [
      2,
      12,
      {
        "cost": 83.64,
        "seconds": 220
      }
    ],
    [
      2,
      18,
      {
        "cost": 273.0,
        "seconds": 566
      }
    ],
    [
      2,
      14,
      {
        "cost": 344.94,
        "seconds": 760
      }
    ],
    [
      2,
      19,
      {
        "cost": 266.34,
        "seconds": 519
      }
    ],
    [
      2,
      6,
      {
        "cost": 341.61,
        "seconds": 777
      }
    ],
    [
      2,
      15,
      {
        "cost": 310.32,
        "seconds": 655
      }
    ],
    [
      2,
      13,
      {
        "cost": 112.74,
        "seconds": 303
      }
    ],
    [
      2,
      8,
      {
        "cost": 380.49,
        "seconds": 858
      }
    ],
    [
      2,
      9,
      {
        "cost": 229.56,
        "seconds": 466
      }
    ],
    [
      2,
      4,
      {
        "cost": 69.0,
        "seconds": 176
      }
    ],
    [
      2,
      10,
      {
        "cost": 403.44,
        "seconds": 934
      }
    ],
    [
      2,
      5,
      {
        "cost": 117.75,
        "seconds": 322
      }
    ],
    [
      2,
      11,
      {
        "cost": 329.7,
        "seconds": 690
      }
    ],
    [
      3,
      1,
      {
        "cost": 164.7,
        "seconds": 414
      }
    ],
    [
      3,
      25,
      {
        "cost": 186.84,
        "seconds": 467
      }
    ],
    [
      3,
      22,
      {
        "cost": 27.63,
        "seconds": 77
      }
    ],
    [
      3,
      21,
      {
        "cost": 289.74,
        "seconds": 647
      }
    ],
    [
      3,
      17,
      {
        "cost": 52.08,
        "seconds": 141
      }
    ],
    [
      3,
      23,
      {
        "cost": 213.57,
        "seconds": 462
      }
    ],
    [
      3,
      12,
      {
        "cost": 58.86,
        "seconds": 162
      }
    ],
    [
      3,
      15,
      {
        "cost": 275.78999999999999,
        "seconds": 601
      }
    ],
    [
      3,
      19,
      {
        "cost": 278.58,
        "seconds": 592
      }
    ],
    [
      3,
      7,
      {
        "cost": 292.5,
        "seconds": 659
      }
    ],
    [
      3,
      13,
      {
        "cost": 77.75999999999999,
        "seconds": 211
      }
    ],
    [
      3,
      9,
      {
        "cost": 224.73,
        "seconds": 473
      }
    ],
    [
      3,
      4,
      {
        "cost": 106.38,
        "seconds": 275
      }
    ],
    [
      3,
      11,
      {
        "cost": 314.31,
        "seconds": 667
      }
    ],
    [
      3,
      5,
      {
        "cost": 82.77,
        "seconds": 230
      }
    ],
    [
      3,
      2,
      {
        "cost": 48.93,
        "seconds": 145
      }
    ],
    [
      4,
      0,
      {
        "cost": 477.33,
        "seconds": 1059
      }
    ],
    [
      4,
      2,
      {
        "cost": 74.31,
        "seconds": 191
      }
    ],
    [
      4,
      3,
      {
        "cost": 93.47999999999999,
        "seconds": 271
      }
    ],
    [
      4,
      8,
      {
        "cost": 418.44,
        "seconds": 965
      }
    ],
    [
      4,
      9,
      {
        "cost": 229.85999999999999,
        "seconds": 485
      }
    ],
    [
      4,
      20,
      {
        "cost": 91.53,
        "seconds": 183
      }
    ],
    [
      4,
      24,
      {
        "cost": 390.06,
        "seconds": 903
      }
    ],
    [
      4,
      6,
      {
        "cost": 379.56,
        "seconds": 884
      }
    ],
    [
      4,
      12,
      {
        "cost": 96.99,
        "seconds": 270
      }
    ],
    [
      4,
      10,
      {
        "cost": 441.39,
        "seconds": 1041
      }
    ],
    [
      4,
      13,
      {
        "cost": 147.96,
        "seconds": 399
      }
    ],
    [
      4,
      18,
      {
        "cost": 273.3,
        "seconds": 585
      }
    ],
    [
      4,
      19,
      {
        "cost": 212.28,
        "seconds": 429
      }
    ],
    [
      4,
      14,
      {
        "cost": 382.89,
        "seconds": 867
      }
    ],
    [
      4,
      22,
      {
        "cost": 81.09,
        "seconds": 215
      }
    ],
    [
      4,
      16,
      {
        "cost": 425.78999999999999,
        "seconds": 1003
      }
    ],
    [
      4,
      17,
      {
        "cost": 122.28,
        "seconds": 329
      }
    ],
    [
      5,
      1,
      {
        "cost": 110.55,
        "seconds": 358
      }
    ],
    [
      5,
      3,
      {
        "cost": 57.269999999999999,
        "seconds": 142
      }
    ],
    [
      5,
      2,
      {
        "cost": 106.2,
        "seconds": 286
      }
    ],
    [
      5,
      9,
      {
        "cost": 205.14,
        "seconds": 437
      }
    ],
    [
      5,
      20,
      {
        "cost": 193.35,
        "seconds": 425
      }
    ],
    [
      5,
      12,
      {
        "cost": 43.92,
        "seconds": 94
      }
    ],
    [
      5,
      21,
      {
        "cost": 235.62,
        "seconds": 591
      }
    ],
    [
      5,
      7,
      {
        "cost": 238.35,
        "seconds": 603
      }
    ],
    [
      5,
      18,
      {
        "cost": 186.57,
        "seconds": 490
      }
    ],
    [
      5,
      13,
      {
        "cost": 16.77,
        "seconds": 49
      }
    ],
    [
      5,
      11,
      {
        "cost": 236.82,
        "seconds": 580
      }
    ],
    [
      5,
      19,
      {
        "cost": 279.78,
        "seconds": 557
      }
    ],
    [
      5,
      22,
      {
        "cost": 84.89999999999999,
        "seconds": 219
      }
    ],
    [
      5,
      15,
      {
        "cost": 217.41,
        "seconds": 545
      }
    ],
    [
      5,
      17,
      {
        "cost": 86.7,
        "seconds": 202
      }
    ],
    [
      5,
      23,
      {
        "cost": 198.69,
        "seconds": 429
      }
    ],
    [
      5,
      4,
      {
        "cost": 130.07999999999999,
        "seconds": 295
      }
    ],
    [
      6,
      0,
      {
        "cost": 162.32999999999999,
        "seconds": 405
      }
    ],
    [
      6,
      8,
      {
        "cost": 87.57,
        "seconds": 246
      }
    ],
    [
      6,
      16,
      {
        "cost": 94.89,
        "seconds": 285
      }
    ],
    [
      6,
      10,
      {
        "cost": 74.36999999999999,
        "seconds": 195
      }
    ],
    [
      6,
      14,
      {
        "cost": 93.96,
        "seconds": 259
      }
    ],
    [
      7,
      1,
      {
        "cost": 152.25,
        "seconds": 511
      }
    ],
    [
      7,
      0,
      {
        "cost": 433.32,
        "seconds": 1063
      }
    ],
    [
      7,
      3,
      {
        "cost": 242.28,
        "seconds": 651
      }
    ],
    [
      7,
      2,
      {
        "cost": 313.92,
        "seconds": 767
      }
    ],
    [
      7,
      5,
      {
        "cost": 206.57999999999999,
        "seconds": 523
      }
    ],
    [
      7,
      4,
      {
        "cost": 310.95,
        "seconds": 794
      }
    ],
    [
      7,
      12,
      {
        "cost": 247.92,
        "seconds": 607
      }
    ],
    [
      7,
      24,
      {
        "cost": 263.78999999999999,
        "seconds": 680
      }
    ],
    [
      7,
      18,
      {
        "cost": 119.28,
        "seconds": 356
      }
    ],
    [
      7,
      22,
      {
        "cost": 269.90999999999999,
        "seconds": 728
      }
    ],
    [
      7,
      13,
      {
        "cost": 220.73999999999999,
        "seconds": 562
      }
    ],
    [
      7,
      14,
      {
        "cost": 335.88,
        "seconds": 881
      }
    ],
    [
      7,
      25,
      {
        "cost": 331.97999999999998,
        "seconds": 816
      }
    ],
    [
      7,
      8,
      {
        "cost": 428.96999999999999,
        "seconds": 1050
      }
    ],
    [
      7,
      19,
      {
        "cost": 175.98,
        "seconds": 498
      }
    ],
    [
      7,
      23,
      {
        "cost": 293.88,
        "seconds": 716
      }
    ],
    [
      7,
      16,
      {
        "cost": 436.28999999999999,
        "seconds": 1088
      }
    ],
    [
      7,
      10,
      {
        "cost": 451.5,
        "seconds": 1107
      }
    ],
    [
      7,
      17,
      {
        "cost": 271.71,
        "seconds": 651
      }
    ],
    [
      7,
      11,
      {
        "cost": 65.75999999999999,
        "seconds": 242
      }
    ],
    [
      7,
      15,
      {
        "cost": 71.82,
        "seconds": 249
      }
    ],
    [
      7,
      9,
      {
        "cost": 127.19999999999999,
        "seconds": 384
      }
    ],
    [
      7,
      6,
      {
        "cost": 389.7,
        "seconds": 950
      }
    ],
    [
      8,
      0,
      {
        "cost": 146.76,
        "seconds": 350
      }
    ],
    [
      8,
      6,
      {
        "cost": 68.07,
        "seconds": 200
      }
    ],
    [
      8,
      14,
      {
        "cost": 113.16,
        "seconds": 250
      }
    ],
    [
      8,
      10,
      {
        "cost": 119.1,
        "seconds": 288
      }
    ],
    [
      8,
      16,
      {
        "cost": 13.17,
        "seconds": 69
      }
    ],
    [
      9,
      1,
      {
        "cost": 183.66,
        "seconds": 508
      }
    ],
    [
      9,
      0,
      {
        "cost": 560.28,
        "seconds": 1198
      }
    ],
    [
      9,
      3,
      {
        "cost": 209.04,
        "seconds": 453
      }
    ],
    [
      9,
      2,
      {
        "cost": 227.7,
        "seconds": 508
      }
    ],
    [
      9,
      5,
      {
        "cost": 204.87,
        "seconds": 433
      }
    ],
    [
      9,
      4,
      {
        "cost": 232.76999999999999,
        "seconds": 491
      }
    ],
    [
      9,
      7,
      {
        "cost": 116.85,
        "seconds": 360
      }
    ],
    [
      9,
      6,
      {
        "cost": 456.51,
        "seconds": 1015
      }
    ],
    [
      9,
      14,
      {
        "cost": 465.87,
        "seconds": 1007
      }
    ],
    [
      9,
      24,
      {
        "cost": 350.64,
        "seconds": 856
      }
    ],
    [
      9,
      20,
      {
        "cost": 235.04999999999999,
        "seconds": 580
      }
    ],
    [
      9,
      12,
      {
        "cost": 189.29999999999999,
        "seconds": 396
      }
    ],
    [
      9,
      22,
      {
        "cost": 221.4,
        "seconds": 468
      }
    ],
    [
      9,
      10,
      {
        "cost": 518.34,
        "seconds": 1172
      }
    ],
    [
      9,
      15,
      {
        "cost": 85.67999999999999,
        "seconds": 255
      }
    ],
    [
      9,
      25,
      {
        "cost": 337.62,
        "seconds": 786
      }
    ],
    [
      9,
      13,
      {
        "cost": 219.03,
        "seconds": 472
      }
    ],
    [
      9,
      21,
      {
        "cost": 99.06,
        "seconds": 297
      }
    ],
    [
      9,
      18,
      {
        "cost": 42.93,
        "seconds": 133
      }
    ],
    [
      9,
      11,
      {
        "cost": 105.06,
        "seconds": 290
      }
    ],
    [
      9,
      23,
      {
        "cost": 360.71999999999999,
        "seconds": 781
      }
    ],
    [
      9,
      16,
      {
        "cost": 502.71,
        "seconds": 1134
      }
    ],
    [
      9,
      17,
      {
        "cost": 262.08,
        "seconds": 564
      }
    ],
    [
      9,
      19,
      {
        "cost": 93.81,
        "seconds": 263
      }
    ],
    [
      9,
      8,
      {
        "cost": 495.39,
        "seconds": 1096
      }
    ],
    [
      10,
      0,
      {
        "cost": 165.98999999999999,
        "seconds": 415
      }
    ],
    [
      10,
      6,
      {
        "cost": 87.11999999999999,
        "seconds": 203
      }
    ],
    [
      10,
      8,
      {
        "cost": 101.1,
        "seconds": 220
      }
    ],
    [
      10,
      14,
      {
        "cost": 178.41,
        "seconds": 322
      }
    ],
    [
      10,
      16,
      {
        "cost": 108.45,
        "seconds": 258
      }
    ],
    [
      11,
      1,
      {
        "cost": 211.62,
        "seconds": 568
      }
    ],
    [
      11,
      0,
      {
        "cost": 588.27,
        "seconds": 1258
      }
    ],
    [
      11,
      3,
      {
        "cost": 247.47,
        "seconds": 591
      }
    ],
    [
      11,
      2,
      {
        "cost": 296.4,
        "seconds": 736
      }
    ],
    [
      11,
      5,
      {
        "cost": 224.94,
        "seconds": 496
      }
    ],
    [
      11,
      4,
      {
        "cost": 316.14,
        "seconds": 734
      }
    ],
    [
      11,
      7,
      {
        "cost": 66.45,
        "seconds": 255
      }
    ],
    [
      11,
      6,
      {
        "cost": 495.9,
        "seconds": 1081
      }
    ],
    [
      11,
      9,
      {
        "cost": 121.61999999999999,
        "seconds": 330
      }
    ],
    [
      11,
      8,
      {
        "cost": 534.75,
        "seconds": 1162
      }
    ],
    [
      11,
      24,
      {
        "cost": 317.01,
        "seconds": 899
      }
    ],
    [
      11,
      14,
      {
        "cost": 493.85999999999998,
        "seconds": 1067
      }
    ],
    [
      11,
      18,
      {
        "cost": 113.72999999999999,
        "seconds": 302
      }
    ],
    [
      11,
      25,
      {
        "cost": 373.38,
        "seconds": 852
      }
    ],
    [
      11,
      22,
      {
        "cost": 275.09999999999999,
        "seconds": 668
      }
    ],
    [
      11,
      15,
      {
        "cost": 56.519999999999999,
        "seconds": 176
      }
    ],
    [
      11,
      19,
      {
        "cost": 164.51999999999999,
        "seconds": 439
      }
    ],
    [
      11,
      16,
      {
        "cost": 542.1,
        "seconds": 1201
      }
    ],
    [
      11,
      20,
      {
        "cost": 363.24,
        "seconds": 795
      }
    ],
    [
      11,
      12,
      {
        "cost": 245.07,
        "seconds": 578
      }
    ],
    [
      11,
      23,
      {
        "cost": 400.08,
        "seconds": 848
      }
    ],
    [
      11,
      17,
      {
        "cost": 290.07,
        "seconds": 624
      }
    ],
    [
      11,
      13,
      {
        "cost": 239.1,
        "seconds": 534
      }
    ],
    [
      11,
      21,
      {
        "cost": 55.8,
        "seconds": 208
      }
    ],
    [
      11,
      10,
      {
        "cost": 557.6999999999999,
        "seconds": 1239
      }
    ],
    [
      12,
      0,
      {
        "cost": 423.53999999999999,
        "seconds": 935
      }
    ],
    [
      12,
      1,
      {
        "cost": 177.69,
        "seconds": 466
      }
    ],
    [
      12,
      2,
      {
        "cost": 67.89,
        "seconds": 204
      }
    ],
    [
      12,
      3,
      {
        "cost": 26.79,
        "seconds": 74
      }
    ],
    [
      12,
      4,
      {
        "cost": 86.16,
        "seconds": 201
      }
    ],
    [
      12,
      5,
      {
        "cost": 79.86,
        "seconds": 226
      }
    ],
    [
      12,
      6,
      {
        "cost": 331.14,
        "seconds": 758
      }
    ],
    [
      12,
      7,
      {
        "cost": 293.90999999999999,
        "seconds": 638
      }
    ],
    [
      12,
      8,
      {
        "cost": 370.02,
        "seconds": 839
      }
    ],
    [
      12,
      9,
      {
        "cost": 181.98,
        "seconds": 344
      }
    ],
    [
      12,
      10,
      {
        "cost": 392.96999999999999,
        "seconds": 915
      }
    ],
    [
      12,
      11,
      {
        "cost": 282.12,
        "seconds": 568
      }
    ],
    [
      12,
      22,
      {
        "cost": 48.809999999999998,
        "seconds": 137
      }
    ],
    [
      12,
      24,
      {
        "cost": 346.65,
        "seconds": 789
      }
    ],
    [
      12,
      20,
      {
        "cost": 149.43,
        "seconds": 331
      }
    ],
    [
      12,
      14,
      {
        "cost": 329.09999999999999,
        "seconds": 743
      }
    ],
    [
      12,
      21,
      {
        "cost": 276.12,
        "seconds": 575
      }
    ],
    [
      12,
      23,
      {
        "cost": 235.35,
        "seconds": 524
      }
    ],
    [
      12,
      15,
      {
        "cost": 262.71,
        "seconds": 533
      }
    ],
    [
      12,
      25,
      {
        "cost": 208.62,
        "seconds": 528
      }
    ],
    [
      12,
      18,
      {
        "cost": 225.42,
        "seconds": 444
      }
    ],
    [
      12,
      16,
      {
        "cost": 377.34,
        "seconds": 877
      }
    ],
    [
      12,
      19,
      {
        "cost": 235.82999999999999,
        "seconds": 463
      }
    ],
    [
      12,
      17,
      {
        "cost": 78.86999999999999,
        "seconds": 215
      }
    ],
    [
      13,
      1,
      {
        "cost": 109.47,
        "seconds": 354
      }
    ],
    [
      13,
      3,
      {
        "cost": 61.739999999999998,
        "seconds": 159
      }
    ],
    [
      13,
      2,
      {
        "cost": 110.67,
        "seconds": 304
      }
    ],
    [
      13,
      5,
      {
        "cost": 5.01,
        "seconds": 19
      }
    ],
    [
      13,
      4,
      {
        "cost": 134.54999999999999,
        "seconds": 312
      }
    ],
    [
      13,
      7,
      {
        "cost": 237.26999999999999,
        "seconds": 598
      }
    ],
    [
      13,
      9,
      {
        "cost": 200.7,
        "seconds": 446
      }
    ],
    [
      13,
      11,
      {
        "cost": 232.38,
        "seconds": 589
      }
    ],
    [
      13,
      22,
      {
        "cost": 89.36999999999999,
        "seconds": 236
      }
    ],
    [
      13,
      25,
      {
        "cost": 174.45,
        "seconds": 445
      }
    ],
    [
      13,
      21,
      {
        "cost": 234.54,
        "seconds": 586
      }
    ],
    [
      13,
      15,
      {
        "cost": 221.48999999999999,
        "seconds": 545
      }
    ],
    [
      13,
      23,
      {
        "cost": 201.15,
        "seconds": 440
      }
    ],
    [
      13,
      18,
      {
        "cost": 182.16,
        "seconds": 498
      }
    ],
    [
      13,
      17,
      {
        "cost": 89.13,
        "seconds": 214
      }
    ],
    [
      13,
      19,
      {
        "cost": 284.21999999999999,
        "seconds": 574
      }
    ],
    [
      13,
      12,
      {
        "cost": 48.39,
        "seconds": 111
      }
    ],
    [
      14,
      0,
      {
        "cost": 133.14,
        "seconds": 308
      }
    ],
    [
      14,
      6,
      {
        "cost": 102.50999999999999,
        "seconds": 274
      }
    ],
    [
      14,
      8,
      {
        "cost": 149.88,
        "seconds": 347
      }
    ],
    [
      14,
      10,
      {
        "cost": 193.76999999999999,
        "seconds": 395
      }
    ],
    [
      14,
      16,
      {
        "cost": 157.23,
        "seconds": 385
      }
    ],
    [
      14,
      24,
      {
        "cost": 82.28999999999999,
        "seconds": 256
      }
    ],
    [
      15,
      1,
      {
        "cost": 182.19,
        "seconds": 515
      }
    ],
    [
      15,
      0,
      {
        "cost": 558.84,
        "seconds": 1205
      }
    ],
    [
      15,
      3,
      {
        "cost": 221.85,
        "seconds": 552
      }
    ],
    [
      15,
      2,
      {
        "cost": 309.93,
        "seconds": 672
      }
    ],
    [
      15,
      5,
      {
        "cost": 195.48,
        "seconds": 442
      }
    ],
    [
      15,
      4,
      {
        "cost": 315.0,
        "seconds": 655
      }
    ],
    [
      15,
      7,
      {
        "cost": 69.0,
        "seconds": 272
      }
    ],
    [
      15,
      6,
      {
        "cost": 466.44,
        "seconds": 1028
      }
    ],
    [
      15,
      9,
      {
        "cost": 88.35,
        "seconds": 250
      }
    ],
    [
      15,
      8,
      {
        "cost": 505.32,
        "seconds": 1109
      }
    ],
    [
      15,
      11,
      {
        "cost": 39.809999999999998,
        "seconds": 154
      }
    ],
    [
      15,
      10,
      {
        "cost": 528.27,
        "seconds": 1186
      }
    ],
    [
      15,
      13,
      {
        "cost": 209.67,
        "seconds": 481
      }
    ],
    [
      15,
      12,
      {
        "cost": 236.85,
        "seconds": 526
      }
    ],
    [
      15,
      18,
      {
        "cost": 78.27,
        "seconds": 224
      }
    ],
    [
      15,
      24,
      {
        "cost": 349.2,
        "seconds": 862
      }
    ],
    [
      15,
      16,
      {
        "cost": 512.64,
        "seconds": 1148
      }
    ],
    [
      15,
      20,
      {
        "cost": 328.59,
        "seconds": 699
      }
    ],
    [
      15,
      22,
      {
        "cost": 249.48,
        "seconds": 629
      }
    ],
    [
      15,
      19,
      {
        "cost": 129.87,
        "seconds": 343
      }
    ],
    [
      15,
      17,
      {
        "cost": 260.61,
        "seconds": 570
      }
    ],
    [
      15,
      25,
      {
        "cost": 343.91999999999998,
        "seconds": 799
      }
    ],
    [
      15,
      21,
      {
        "cost": 58.8,
        "seconds": 212
      }
    ],
    [
      15,
      23,
      {
        "cost": 370.65,
        "seconds": 794
      }
    ],
    [
      15,
      14,
      {
        "cost": 464.43,
        "seconds": 1014
      }
    ],
    [
      16,
      0,
      {
        "cost": 154.07999999999999,
        "seconds": 388
      }
    ],
    [
      16,
      6,
      {
        "cost": 75.39,
        "seconds": 238
      }
    ],
    [
      16,
      8,
      {
        "cost": 13.17,
        "seconds": 69
      }
    ],
    [
      16,
      10,
      {
        "cost": 126.44999999999999,
        "seconds": 326
      }
    ],
    [
      16,
      14,
      {
        "cost": 120.47999999999999,
        "seconds": 289
      }
    ],
    [
      16,
      24,
      {
        "cost": 194.82,
        "seconds": 515
      }
    ],
    [
      17,
      1,
      {
        "cost": 142.04999999999999,
        "seconds": 352
      }
    ],
    [
      17,
      0,
      {
        "cost": 378.96,
        "seconds": 800
      }
    ],
    [
      17,
      3,
      {
        "cost": 53.07,
        "seconds": 134
      }
    ],
    [
      17,
      2,
      {
        "cost": 72.75,
        "seconds": 197
      }
    ],
    [
      17,
      5,
      {
        "cost": 107.33999999999999,
        "seconds": 193
      }
    ],
    [
      17,
      4,
      {
        "cost": 137.73,
        "seconds": 351
      }
    ],
    [
      17,
      7,
      {
        "cost": 269.84999999999999,
        "seconds": 597
      }
    ],
    [
      17,
      6,
      {
        "cost": 286.74,
        "seconds": 634
      }
    ],
    [
      17,
      9,
      {
        "cost": 246.09,
        "seconds": 515
      }
    ],
    [
      17,
      8,
      {
        "cost": 325.59,
        "seconds": 715
      }
    ],
    [
      17,
      11,
      {
        "cost": 291.65999999999999,
        "seconds": 605
      }
    ],
    [
      17,
      10,
      {
        "cost": 348.53999999999999,
        "seconds": 791
      }
    ],
    [
      17,
      13,
      {
        "cost": 100.5,
        "seconds": 195
      }
    ],
    [
      17,
      12,
      {
        "cost": 80.22,
        "seconds": 204
      }
    ],
    [
      17,
      15,
      {
        "cost": 253.14,
        "seconds": 539
      }
    ],
    [
      17,
      14,
      {
        "cost": 284.55,
        "seconds": 609
      }
    ],
    [
      17,
      24,
      {
        "cost": 291.71999999999999,
        "seconds": 644
      }
    ],
    [
      17,
      22,
      {
        "cost": 72.36,
        "seconds": 197
      }
    ],
    [
      17,
      25,
      {
        "cost": 164.22,
        "seconds": 404
      }
    ],
    [
      17,
      19,
      {
        "cost": 299.94,
        "seconds": 634
      }
    ],
    [
      17,
      23,
      {
        "cost": 190.92,
        "seconds": 400
      }
    ],
    [
      17,
      16,
      {
        "cost": 332.94,
        "seconds": 753
      }
    ],
    [
      18,
      1,
      {
        "cost": 190.01999999999999,
        "seconds": 516
      }
    ],
    [
      18,
      0,
      {
        "cost": 566.67,
        "seconds": 1205
      }
    ],
    [
      18,
      2,
      {
        "cost": 261.06,
        "seconds": 619
      }
    ],
    [
      18,
      3,
      {
        "cost": 205.89,
        "seconds": 537
      }
    ],
    [
      18,
      4,
      {
        "cost": 266.09999999999999,
        "seconds": 601
      }
    ],
    [
      18,
      5,
      {
        "cost": 203.31,
        "seconds": 443
      }
    ],
    [
      18,
      6,
      {
        "cost": 474.27,
        "seconds": 1029
      }
    ],
    [
      18,
      7,
      {
        "cost": 124.86,
        "seconds": 373
      }
    ],
    [
      18,
      8,
      {
        "cost": 513.15,
        "seconds": 1110
      }
    ],
    [
      18,
      9,
      {
        "cost": 46.53,
        "seconds": 150
      }
    ],
    [
      18,
      10,
      {
        "cost": 536.1,
        "seconds": 1186
      }
    ],
    [
      18,
      11,
      {
        "cost": 118.32,
        "seconds": 313
      }
    ],
    [
      18,
      12,
      {
        "cost": 222.66,
        "seconds": 507
      }
    ],
    [
      18,
      13,
      {
        "cost": 217.5,
        "seconds": 482
      }
    ],
    [
      18,
      15,
      {
        "cost": 98.94,
        "seconds": 278
      }
    ],
    [
      18,
      14,
      {
        "cost": 472.26,
        "seconds": 1014
      }
    ],
    [
      18,
      16,
      {
        "cost": 520.5,
        "seconds": 1148
      }
    ],
    [
      18,
      17,
      {
        "cost": 268.44,
        "seconds": 571
      }
    ],
    [
      18,
      24,
      {
        "cost": 357.03,
        "seconds": 863
      }
    ],
    [
      18,
      22,
      {
        "cost": 254.73,
        "seconds": 579
      }
    ],
    [
      18,
      20,
      {
        "cost": 268.40999999999999,
        "seconds": 691
      }
    ],
    [
      18,
      21,
      {
        "cost": 107.00999999999999,
        "seconds": 307
      }
    ],
    [
      19,
      1,
      {
        "cost": 238.59,
        "seconds": 667
      }
    ],
    [
      19,
      3,
      {
        "cost": 235.32,
        "seconds": 553
      }
    ],
    [
      19,
      2,
      {
        "cost": 308.76,
        "seconds": 596
      }
    ],
    [
      19,
      5,
      {
        "cost": 231.14999999999999,
        "seconds": 533
      }
    ],
    [
      19,
      4,
      {
        "cost": 244.92,
        "seconds": 475
      }
    ],
    [
      19,
      7,
      {
        "cost": 165.69,
        "seconds": 484
      }
    ],
    [
      19,
      9,
      {
        "cost": 71.19,
        "seconds": 222
      }
    ],
    [
      19,
      11,
      {
        "cost": 153.9,
        "seconds": 414
      }
    ],
    [
      19,
      13,
      {
        "cost": 245.34,
        "seconds": 572
      }
    ],
    [
      19,
      12,
      {
        "cost": 215.60999999999999,
        "seconds": 496
      }
    ],
    [
      19,
      15,
      {
        "cost": 134.49,
        "seconds": 379
      }
    ],
    [
      19,
      21,
      {
        "cost": 147.9,
        "seconds": 421
      }
    ],
    [
      19,
      23,
      {
        "cost": 387.0,
        "seconds": 881
      }
    ],
    [
      19,
      18,
      {
        "cost": 97.89,
        "seconds": 292
      }
    ],
    [
      20,
      4,
      {
        "cost": 118.19999999999999,
        "seconds": 264
      }
    ],
    [
      20,
      8,
      {
        "cost": 520.5,
        "seconds": 1138
      }
    ],
    [
      20,
      10,
      {
        "cost": 543.4499999999999,
        "seconds": 1215
      }
    ],
    [
      20,
      14,
      {
        "cost": 487.5,
        "seconds": 1057
      }
    ],
    [
      20,
      22,
      {
        "cost": 190.14,
        "seconds": 415
      }
    ],
    [
      21,
      3,
      {
        "cost": 231.12,
        "seconds": 613
      }
    ],
    [
      21,
      2,
      {
        "cost": 302.76,
        "seconds": 729
      }
    ],
    [
      21,
      5,
      {
        "cost": 195.42,
        "seconds": 486
      }
    ],
    [
      21,
      4,
      {
        "cost": 340.95,
        "seconds": 736
      }
    ],
    [
      21,
      9,
      {
        "cost": 107.00999999999999,
        "seconds": 311
      }
    ],
    [
      21,
      11,
      {
        "cost": 62.79,
        "seconds": 226
      }
    ],
    [
      21,
      13,
      {
        "cost": 209.57999999999999,
        "seconds": 524
      }
    ],
    [
      21,
      12,
      {
        "cost": 236.76,
        "seconds": 570
      }
    ],
    [
      21,
      15,
      {
        "cost": 51.629999999999998,
        "seconds": 176
      }
    ],
    [
      21,
      19,
      {
        "cost": 155.82,
        "seconds": 425
      }
    ],
    [
      21,
      18,
      {
        "cost": 99.09,
        "seconds": 283
      }
    ],
    [
      21,
      24,
      {
        "cost": 261.21,
        "seconds": 690
      }
    ],
    [
      21,
      22,
      {
        "cost": 258.75,
        "seconds": 690
      }
    ],
    [
      21,
      25,
      {
        "cost": 329.37,
        "seconds": 826
      }
    ],
    [
      21,
      23,
      {
        "cost": 291.3,
        "seconds": 726
      }
    ],
    [
      21,
      20,
      {
        "cost": 354.53999999999999,
        "seconds": 781
      }
    ],
    [
      22,
      0,
      {
        "cost": 412.32,
        "seconds": 885
      }
    ],
    [
      22,
      3,
      {
        "cost": 28.5,
        "seconds": 98
      }
    ],
    [
      22,
      2,
      {
        "cost": 54.15,
        "seconds": 159
      }
    ],
    [
      22,
      4,
      {
        "cost": 86.78999999999999,
        "seconds": 240
      }
    ],
    [
      22,
      6,
      {
        "cost": 314.58,
        "seconds": 710
      }
    ],
    [
      22,
      8,
      {
        "cost": 353.46,
        "seconds": 791
      }
    ],
    [
      22,
      10,
      {
        "cost": 376.38,
        "seconds": 867
      }
    ],
    [
      22,
      12,
      {
        "cost": 44.91,
        "seconds": 142
      }
    ],
    [
      22,
      13,
      {
        "cost": 82.98,
        "seconds": 225
      }
    ],
    [
      22,
      14,
      {
        "cost": 317.90999999999999,
        "seconds": 694
      }
    ],
    [
      22,
      16,
      {
        "cost": 360.78,
        "seconds": 830
      }
    ],
    [
      22,
      17,
      {
        "cost": 57.269999999999999,
        "seconds": 155
      }
    ],
    [
      22,
      18,
      {
        "cost": 250.41,
        "seconds": 525
      }
    ],
    [
      22,
      20,
      {
        "cost": 169.5,
        "seconds": 373
      }
    ],
    [
      22,
      24,
      {
        "cost": 325.05,
        "seconds": 729
      }
    ],
    [
      23,
      1,
      {
        "cost": 240.95999999999999,
        "seconds": 572
      }
    ],
    [
      23,
      3,
      {
        "cost": 250.62,
        "seconds": 565
      }
    ],
    [
      23,
      2,
      {
        "cost": 300.57,
        "seconds": 633
      }
    ],
    [
      23,
      5,
      {
        "cost": 220.07999999999999,
        "seconds": 444
      }
    ],
    [
      23,
      4,
      {
        "cost": 323.43,
        "seconds": 719
      }
    ],
    [
      23,
      7,
      {
        "cost": 330.06,
        "seconds": 860
      }
    ],
    [
      23,
      9,
      {
        "cost": 391.34999999999999,
        "seconds": 772
      }
    ],
    [
      23,
      11,
      {
        "cost": 400.85999999999998,
        "seconds": 881
      }
    ],
    [
      23,
      13,
      {
        "cost": 210.09,
        "seconds": 473
      }
    ],
    [
      23,
      12,
      {
        "cost": 237.26999999999999,
        "seconds": 518
      }
    ],
    [
      23,
      15,
      {
        "cost": 362.34,
        "seconds": 815
      }
    ],
    [
      23,
      17,
      {
        "cost": 257.49,
        "seconds": 497
      }
    ],
    [
      23,
      18,
      {
        "cost": 366.99,
        "seconds": 819
      }
    ],
    [
      23,
      21,
      {
        "cost": 327.33,
        "seconds": 848
      }
    ],
    [
      23,
      20,
      {
        "cost": 386.7,
        "seconds": 849
      }
    ],
    [
      23,
      24,
      {
        "cost": 181.56,
        "seconds": 449
      }
    ],
    [
      23,
      25,
      {
        "cost": 73.95,
        "seconds": 188
      }
    ],
    [
      23,
      22,
      {
        "cost": 278.21999999999999,
        "seconds": 642
      }
    ],
    [
      24,
      0,
      {
        "cost": 194.1,
        "seconds": 465
      }
    ],
    [
      24,
      6,
      {
        "cost": 188.85,
        "seconds": 464
      }
    ],
    [
      24,
      8,
      {
        "cost": 208.98,
        "seconds": 511
      }
    ],
    [
      24,
      10,
      {
        "cost": 270.33,
        "seconds": 562
      }
    ],
    [
      24,
      14,
      {
        "cost": 125.07,
        "seconds": 307
      }
    ],
    [
      24,
      16,
      {
        "cost": 216.29999999999999,
        "seconds": 549
      }
    ],
    [
      24,
      20,
      {
        "cost": 460.08,
        "seconds": 961
      }
    ],
    [
      24,
      22,
      {
        "cost": 351.59999999999999,
        "seconds": 755
      }
    ],
    [
      25,
      1,
      {
        "cost": 208.44,
        "seconds": 550
      }
    ],
    [
      25,
      0,
      {
        "cost": 288.36,
        "seconds": 618
      }
    ],
    [
      25,
      3,
      {
        "cost": 241.98,
        "seconds": 505
      }
    ],
    [
      25,
      2,
      {
        "cost": 234.66,
        "seconds": 523
      }
    ],
    [
      25,
      5,
      {
        "cost": 187.56,
        "seconds": 422
      }
    ],
    [
      25,
      7,
      {
        "cost": 345.57,
        "seconds": 846
      }
    ],
    [
      25,
      9,
      {
        "cost": 358.83,
        "seconds": 749
      }
    ],
    [
      25,
      11,
      {
        "cost": 368.34,
        "seconds": 859
      }
    ],
    [
      25,
      13,
      {
        "cost": 173.73,
        "seconds": 455
      }
    ],
    [
      25,
      12,
      {
        "cost": 200.91,
        "seconds": 500
      }
    ],
    [
      25,
      15,
      {
        "cost": 329.78999999999999,
        "seconds": 793
      }
    ],
    [
      25,
      14,
      {
        "cost": 193.92,
        "seconds": 426
      }
    ],
    [
      25,
      17,
      {
        "cost": 191.57999999999999,
        "seconds": 388
      }
    ],
    [
      25,
      16,
      {
        "cost": 222.06,
        "seconds": 527
      }
    ],
    [
      25,
      19,
      {
        "cost": 389.78999999999999,
        "seconds": 895
      }
    ],
    [
      25,
      21,
      {
        "cost": 342.84,
        "seconds": 834
      }
    ],
    [
      25,
      23,
      {
        "cost": 67.44,
        "seconds": 140
      }
    ],
    [
      25,
      22,
      {
        "cost": 243.63,
        "seconds": 534
      }
    ],
    [
      25,
      24,
      {
        "cost": 224.54999999999999,
        "seconds": 519
      }
    ],
    [
      24,
      27,
      {
        "cost": 277.02,
        "seconds": 688
      }
    ],
    [
      26,
      25,
      {
        "cost": 343.40999999999999,
        "seconds": 858
      }
    ],
    [
      24,
      26,
      {
        "cost": 469.38,
        "seconds": 1003
      }
    ],
    [
      27,
      25,
      {
        "cost": 188.4,
        "seconds": 470
      }
    ],
    [
      22,
      27,
      {
        "cost": 350.96999999999999,
        "seconds": 757
      }
    ],
    [
      26,
      23,
      {
        "cost": 366.47999999999998,
        "seconds": 854
      }
    ],
    [
      22,
      26,
      {
        "cost": 235.82999999999999,
        "seconds": 554
      }
    ],
    [
      27,
      23,
      {
        "cost": 157.07999999999999,
        "seconds": 327
      }
    ],
    [
      20,
      27,
      {
        "cost": 518.01,
        "seconds": 1104
      }
    ],
    [
      26,
      21,
      {
        "cost": 152.57999999999999,
        "seconds": 457
      }
    ],
    [
      20,
      26,
      {
        "cost": 171.35999999999999,
        "seconds": 382
      }
    ],
    [
      27,
      21,
      {
        "cost": 434.76,
        "seconds": 1063
      }
    ],
    [
      18,
      27,
      {
        "cost": 510.65999999999999,
        "seconds": 1075
      }
    ],
    [
      26,
      19,
      {
        "cost": 34.949999999999999,
        "seconds": 109
      }
    ],
    [
      18,
      26,
      {
        "cost": 104.1,
        "seconds": 373
      }
    ],
    [
      27,
      19,
      {
        "cost": 529.74,
        "seconds": 1132
      }
    ],
    [
      16,
      27,
      {
        "cost": 175.32,
        "seconds": 511
      }
    ],
    [
      26,
      17,
      {
        "cost": 276.12,
        "seconds": 643
      }
    ],
    [
      16,
      26,
      {
        "cost": 528.5699999999999,
        "seconds": 1197
      }
    ],
    [
      27,
      17,
      {
        "cost": 323.88,
        "seconds": 722
      }
    ],
    [
      14,
      27,
      {
        "cost": 242.64,
        "seconds": 581
      }
    ],
    [
      26,
      15,
      {
        "cost": 139.2,
        "seconds": 416
      }
    ],
    [
      14,
      26,
      {
        "cost": 475.2,
        "seconds": 1063
      }
    ],
    [
      27,
      15,
      {
        "cost": 469.74,
        "seconds": 1030
      }
    ],
    [
      12,
      27,
      {
        "cost": 367.53,
        "seconds": 805
      }
    ],
    [
      26,
      13,
      {
        "cost": 224.82,
        "seconds": 544
      }
    ],
    [
      12,
      26,
      {
        "cost": 210.81,
        "seconds": 473
      }
    ],
    [
      27,
      13,
      {
        "cost": 317.52,
        "seconds": 688
      }
    ],
    [
      10,
      27,
      {
        "cost": 83.75999999999999,
        "seconds": 279
      }
    ],
    [
      26,
      11,
      {
        "cost": 158.57999999999999,
        "seconds": 450
      }
    ],
    [
      10,
      26,
      {
        "cost": 547.3199999999999,
        "seconds": 1200
      }
    ],
    [
      27,
      11,
      {
        "cost": 508.28999999999999,
        "seconds": 1096
      }
    ],
    [
      8,
      27,
      {
        "cost": 167.97,
        "seconds": 473
      }
    ],
    [
      26,
      9,
      {
        "cost": 75.89999999999999,
        "seconds": 259
      }
    ],
    [
      8,
      26,
      {
        "cost": 521.22,
        "seconds": 1159
      }
    ],
    [
      27,
      9,
      {
        "cost": 498.78,
        "seconds": 987
      }
    ],
    [
      6,
      27,
      {
        "cost": 118.5,
        "seconds": 345
      }
    ],
    [
      26,
      7,
      {
        "cost": 170.37,
        "seconds": 521
      }
    ],
    [
      6,
      26,
      {
        "cost": 501.71999999999999,
        "seconds": 1123
      }
    ],
    [
      27,
      7,
      {
        "cost": 437.49,
        "seconds": 1075
      }
    ],
    [
      4,
      27,
      {
        "cost": 415.95,
        "seconds": 931
      }
    ],
    [
      26,
      5,
      {
        "cost": 210.66,
        "seconds": 506
      }
    ],
    [
      4,
      26,
      {
        "cost": 204.95999999999999,
        "seconds": 446
      }
    ],
    [
      27,
      5,
      {
        "cost": 327.51,
        "seconds": 659
      }
    ],
    [
      2,
      27,
      {
        "cost": 378.0,
        "seconds": 823
      }
    ],
    [
      26,
      3,
      {
        "cost": 214.82999999999999,
        "seconds": 526
      }
    ],
    [
      2,
      26,
      {
        "cost": 259.02,
        "seconds": 536
      }
    ],
    [
      27,
      3,
      {
        "cost": 358.02,
        "seconds": 780
      }
    ],
    [
      0,
      27,
      {
        "cost": 249.20999999999999,
        "seconds": 628
      }
    ],
    [
      26,
      1,
      {
        "cost": 207.20999999999999,
        "seconds": 625
      }
    ],
    [
      0,
      26,
      {
        "cost": 556.56,
        "seconds": 1213
      }
    ],
    [
      27,
      1,
      {
        "cost": 348.39,
        "seconds": 787
      }
    ]
  ]
}