{
  "nodes": [
    {
      "Delivery": {
        "bid": 251,
        "id": 25,
        "price": null,
        "cost": null,
        "direct_dist": 4717,
        "direct_cost": 142,
        "direct_time": 388
      }
    },
    {
      "Pickup": {
        "bid": 251,
        "id": 25,
        "price": null,
        "cost": null,
        "direct_dist": 4717,
        "direct_cost": 142,
        "direct_time": 388
      }
    },
    {
      "Delivery": {
        "bid": 3074,
        "id": 22,
        "price": null,
        "cost": null,
        "direct_dist": 10247,
        "direct_cost": 308,
        "direct_time": 738
      }
    },
    {
      "Pickup": {
        "bid": 3074,
        "id": 22,
        "price": null,
        "cost": null,
        "direct_dist": 10247,
        "direct_cost": 308,
        "direct_time": 738
      }
    },
    {
      "Delivery": {
        "bid": 956,
        "id": 21,
        "price": null,
        "cost": null,
        "direct_dist": 3532,
        "direct_cost": 106,
        "direct_time": 241
      }
    },
    {
      "Pickup": {
        "bid": 956,
        "id": 21,
        "price": null,
        "cost": null,
        "direct_dist": 3532,
        "direct_cost": 106,
        "direct_time": 241
      }
    },
    {
      "Delivery": {
        "bid": 117,
        "id": 18,
        "price": null,
        "cost": null,
        "direct_dist": 11245,
        "direct_cost": 338,
        "direct_time": 816
      }
    },
    {
      "Pickup": {
        "bid": 117,
        "id": 18,
        "price": null,
        "cost": null,
        "direct_dist": 11245,
        "direct_cost": 338,
        "direct_time": 816
      }
    },
    {
      "Delivery": {
        "bid": 446,
        "id": 17,
        "price": null,
        "cost": null,
        "direct_dist": 14962,
        "direct_cost": 449,
        "direct_time": 917
      }
    },
    {
      "Pickup": {
        "bid": 446,
        "id": 17,
        "price": null,
        "cost": null,
        "direct_dist": 14962,
        "direct_cost": 449,
        "direct_time": 917
      }
    },
    {
      "Delivery": {
        "bid": 2982,
        "id": 16,
        "price": null,
        "cost": null,
        "direct_dist": 11795,
        "direct_cost": 354,
        "direct_time": 861
      }
    },
    {
      "Pickup": {
        "bid": 2982,
        "id": 16,
        "price": null,
        "cost": null,
        "direct_dist": 11795,
        "direct_cost": 354,
        "direct_time": 861
      }
    },
    {
      "Delivery": {
        "bid": 3590,
        "id": 14,
        "price": null,
        "cost": null,
        "direct_dist": 15629,
        "direct_cost": 469,
        "direct_time": 954
      }
    },
    {
      "Pickup": {
        "bid": 3590,
        "id": 14,
        "price": null,
        "cost": null,
        "direct_dist": 15629,
        "direct_cost": 469,
        "direct_time": 954
      }
    },
    {
      "Delivery": {
        "bid": 1195,
        "id": 13,
        "price": null,
        "cost": null,
        "direct_dist": 19063,
        "direct_cost": 572,
        "direct_time": 1221
      }
    },
    {
      "Pickup": {
        "bid": 1195,
        "id": 13,
        "price": null,
        "cost": null,
        "direct_dist": 19063,
        "direct_cost": 572,
        "direct_time": 1221
      }
    },
    {
      "Delivery": {
        "bid": 1896,
        "id": 11,
        "price": null,
        "cost": null,
        "direct_dist": 10255,
        "direct_cost": 308,
        "direct_time": 816
      }
    },
    {
      "Pickup": {
        "bid": 1896,
        "id": 11,
        "price": null,
        "cost": null,
        "direct_dist": 10255,
        "direct_cost": 308,
        "direct_time": 816
      }
    },
    {
      "Delivery": {
        "bid": 1409,
        "id": 10,
        "price": null,
        "cost": null,
        "direct_dist": 5562,
        "direct_cost": 167,
        "direct_time": 319
      }
    },
    {
      "Pickup": {
        "bid": 1409,
        "id": 10,
        "price": null,
        "cost": null,
        "direct_dist": 5562,
        "direct_cost": 167,
        "direct_time": 319
      }
    },
    {
      "Delivery": {
        "bid": 361,
        "id": 8,
        "price": null,
        "cost": null,
        "direct_dist": 4026,
        "direct_cost": 121,
        "direct_time": 268
      }
    },
    {
      "Pickup": {
        "bid": 361,
        "id": 8,
        "price": null,
        "cost": null,
        "direct_dist": 4026,
        "direct_cost": 121,
        "direct_time": 268
      }
    },
    {
      "Delivery": {
        "bid": 2038,
        "id": 7,
        "price": null,
        "cost": null,
        "direct_dist": 6795,
        "direct_cost": 204,
        "direct_time": 477
      }
    },
    {
      "Pickup": {
        "bid": 2038,
        "id": 7,
        "price": null,
        "cost": null,
        "direct_dist": 6795,
        "direct_cost": 204,
        "direct_time": 477
      }
    },
    {
      "Delivery": {
        "bid": 1940,
        "id": 5,
        "price": null,
        "cost": null,
        "direct_dist": 6467,
        "direct_cost": 195,
        "direct_time": 453
      }
    },
    {
      "Pickup": {
        "bid": 1940,
        "id": 5,
        "price": null,
        "cost": null,
        "direct_dist": 6467,
        "direct_cost": 195,
        "direct_time": 453
      }
    },
    {
      "Delivery": {
        "bid": 872,
        "id": 2,
        "price": null,
        "cost": null,
        "direct_dist": 2909,
        "direct_cost": 88,
        "direct_time": 307
      }
    },
    {
      "Pickup": {
        "bid": 872,
        "id": 2,
        "price": null,
        "cost": null,
        "direct_dist": 2909,
        "direct_cost": 88,
        "direct_time": 307
      }
    },
    {
      "DriverStart": {
        "arrive_until": 2400,
        "direct_cost": 609
      }
    },
    {
      "DriverEnd": {
        "arrive_until": 2400,
        "direct_cost": 609
      }
    }
  ],
  "node_holes": [],
  "edge_property": "directed",
  "edges": [
    [
      0,
      8,
      {
        "cost": 354.18,
        "seconds": 738
      }
    ],
    [
      0,
      24,
      {
        "cost": 202.70999999999999,
        "seconds": 573
      }
    ],
    [
      0,
      26,
      {
        "cost": 169.10999999999999,
        "seconds": 475
      }
    ],
    [
      0,
      20,
      {
        "cost": 210.29999999999999,
        "seconds": 499
      }
    ],
    [
      0,
      6,
      {
        "cost": 310.59,
        "seconds": 743
      }
    ],
    [
      0,
      25,
      {
        "cost": 123.33,
        "seconds": 450
      }
    ],
    [
      0,
      27,
      {
        "cost": 51.78,
        "seconds": 201
      }
    ],
    [
      0,
      12,
      {
        "cost": 356.4,
        "seconds": 744
      }
    ],
    [
      0,
      7,
      {
        "cost": 51.6,
        "seconds": 168
      }
    ],
    [
      0,
      4,
      {
        "cost": 225.87,
        "seconds": 548
      }
    ],
    [
      0,
      5,
      {
        "cost": 128.25,
        "seconds": 327
      }
    ],
    [
      0,
      16,
      {
        "cost": 155.1,
        "seconds": 472
      }
    ],
    [
      0,
      14,
      {
        "cost": 417.69,
        "seconds": 990
      }
    ],
    [
      0,
      2,
      {
        "cost": 280.83,
        "seconds": 668
      }
    ],
    [
      0,
      10,
      {
        "cost": 256.95,
        "seconds": 665
      }
    ],
    [
      0,
      18,
      {
        "cost": 268.71,
        "seconds": 556
      }
    ],
    [
      0,
      22,
      {
        "cost": 35.879999999999998,
        "seconds": 119
      }
    ],
    [
      0,
      17,
      {
        "cost": 162.75,
        "seconds": 409
      }
    ],
    [
      0,
      3,
      {
        "cost": 114.14999999999999,
        "seconds": 373
      }
    ],
    [
      0,
      15,
      {
        "cost": 127.14,
        "seconds": 427
      }
    ],
    [
      0,
      11,
      {
        "cost": 163.5,
        "seconds": 427
      }
    ],
    [
      1,
      9,
      {
        "cost": 299.4,
        "seconds": 858
      }
    ],
    [
      1,
      20,
      {
        "cost": 246.75,
        "seconds": 484
      }
    ],
    [
      1,
      24,
      {
        "cost": 344.09999999999999,
        "seconds": 675
      }
    ],
    [
      1,
      26,
      {
        "cost": 201.0,
        "seconds": 389
      }
    ],
    [
      1,
      25,
      {
        "cost": 153.6,
        "seconds": 375
      }
    ],
    [
      1,
      27,
      {
        "cost": 142.41,
        "seconds": 377
      }
    ],
    [
      1,
      7,
      {
        "cost": 159.51,
        "seconds": 430
      }
    ],
    [
      1,
      21,
      {
        "cost": 293.94,
        "seconds": 526
      }
    ],
    [
      1,
      13,
      {
        "cost": 321.93,
        "seconds": 894
      }
    ],
    [
      1,
      4,
      {
        "cost": 306.42,
        "seconds": 606
      }
    ],
    [
      1,
      16,
      {
        "cost": 19.2,
        "seconds": 54
      }
    ],
    [
      1,
      5,
      {
        "cost": 337.02,
        "seconds": 633
      }
    ],
    [
      1,
      18,
      {
        "cost": 276.27,
        "seconds": 494
      }
    ],
    [
      1,
      22,
      {
        "cost": 110.97,
        "seconds": 278
      }
    ],
    [
      1,
      15,
      {
        "cost": 259.28999999999999,
        "seconds": 764
      }
    ],
    [
      1,
      3,
      {
        "cost": 276.48,
        "seconds": 704
      }
    ],
    [
      1,
      11,
      {
        "cost": 353.55,
        "seconds": 693
      }
    ],
    [
      1,
      17,
      {
        "cost": 365.90999999999999,
        "seconds": 710
      }
    ],
    [
      1,
      19,
      {
        "cost": 247.95,
        "seconds": 499
      }
    ],
    [
      1,
      23,
      {
        "cost": 183.03,
        "seconds": 398
      }
    ],
    [
      1,
      0,
      {
        "cost": 141.51,
        "seconds": 388
      }
    ],
    [
      2,
      6,
      {
        "cost": 64.05,
        "seconds": 218
      }
    ],
    [
      2,
      26,
      {
        "cost": 161.7,
        "seconds": 385
      }
    ],
    [
      2,
      18,
      {
        "cost": 170.91,
        "seconds": 336
      }
    ],
    [
      2,
      14,
      {
        "cost": 239.13,
        "seconds": 551
      }
    ],
    [
      2,
      10,
      {
        "cost": 197.85,
        "seconds": 442
      }
    ],
    [
      2,
      16,
      {
        "cost": 267.65999999999999,
        "seconds": 594
      }
    ],
    [
      2,
      12,
      {
        "cost": 74.85,
        "seconds": 172
      }
    ],
    [
      2,
      8,
      {
        "cost": 72.6,
        "seconds": 167
      }
    ],
    [
      3,
      1,
      {
        "cost": 317.37,
        "seconds": 801
      }
    ],
    [
      3,
      0,
      {
        "cost": 123.42,
        "seconds": 392
      }
    ],
    [
      3,
      20,
      {
        "cost": 172.85999999999999,
        "seconds": 437
      }
    ],
    [
      3,
      6,
      {
        "cost": 371.66999999999998,
        "seconds": 860
      }
    ],
    [
      3,
      22,
      {
        "cost": 189.03,
        "seconds": 467
      }
    ],
    [
      3,
      21,
      {
        "cost": 265.08,
        "seconds": 566
      }
    ],
    [
      3,
      7,
      {
        "cost": 147.81,
        "seconds": 422
      }
    ],
    [
      3,
      23,
      {
        "cost": 284.15999999999999,
        "seconds": 640
      }
    ],
    [
      3,
      26,
      {
        "cost": 182.28,
        "seconds": 455
      }
    ],
    [
      3,
      18,
      {
        "cost": 249.26999999999999,
        "seconds": 544
      }
    ],
    [
      3,
      19,
      {
        "cost": 268.98,
        "seconds": 606
      }
    ],
    [
      3,
      15,
      {
        "cost": 138.03,
        "seconds": 351
      }
    ],
    [
      3,
      27,
      {
        "cost": 161.13,
        "seconds": 443
      }
    ],
    [
      3,
      24,
      {
        "cost": 143.64,
        "seconds": 441
      }
    ],
    [
      3,
      10,
      {
        "cost": 412.65,
        "seconds": 924
      }
    ],
    [
      3,
      12,
      {
        "cost": 336.96,
        "seconds": 731
      }
    ],
    [
      3,
      16,
      {
        "cost": 308.25,
        "seconds": 820
      }
    ],
    [
      3,
      8,
      {
        "cost": 334.74,
        "seconds": 726
      }
    ],
    [
      3,
      4,
      {
        "cost": 166.79999999999999,
        "seconds": 416
      }
    ],
    [
      3,
      25,
      {
        "cost": 164.85,
        "seconds": 529
      }
    ],
    [
      3,
      17,
      {
        "cost": 75.86999999999999,
        "seconds": 206
      }
    ],
    [
      3,
      13,
      {
        "cost": 138.29999999999999,
        "seconds": 371
      }
    ],
    [
      3,
      9,
      {
        "cost": 115.77,
        "seconds": 334
      }
    ],
    [
      3,
      11,
      {
        "cost": 104.42999999999999,
        "seconds": 294
      }
    ],
    [
      3,
      5,
      {
        "cost": 69.17999999999999,
        "seconds": 194
      }
    ],
    [
      3,
      2,
      {
        "cost": 307.40999999999999,
        "seconds": 738
      }
    ],
    [
      4,
      0,
      {
        "cost": 264.96,
        "seconds": 610
      }
    ],
    [
      4,
      2,
      {
        "cost": 215.42999999999999,
        "seconds": 551
      }
    ],
    [
      4,
      3,
      {
        "cost": 210.9,
        "seconds": 426
      }
    ],
    [
      4,
      8,
      {
        "cost": 242.76,
        "seconds": 538
      }
    ],
    [
      4,
      9,
      {
        "cost": 257.37,
        "seconds": 558
      }
    ],
    [
      4,
      24,
      {
        "cost": 125.19,
        "seconds": 291
      }
    ],
    [
      4,
      22,
      {
        "cost": 290.82,
        "seconds": 650
      }
    ],
    [
      4,
      25,
      {
        "cost": 177.39,
        "seconds": 481
      }
    ],
    [
      4,
      14,
      {
        "cost": 416.66999999999998,
        "seconds": 950
      }
    ],
    [
      4,
      6,
      {
        "cost": 279.71999999999999,
        "seconds": 672
      }
    ],
    [
      4,
      18,
      {
        "cost": 130.82999999999999,
        "seconds": 330
      }
    ],
    [
      4,
      26,
      {
        "cost": 157.10999999999999,
        "seconds": 390
      }
    ],
    [
      4,
      23,
      {
        "cost": 192.18,
        "seconds": 453
      }
    ],
    [
      4,
      15,
      {
        "cost": 284.09999999999999,
        "seconds": 579
      }
    ],
    [
      4,
      19,
      {
        "cost": 177.0,
        "seconds": 418
      }
    ],
    [
      4,
      20,
      {
        "cost": 75.92999999999999,
        "seconds": 209
      }
    ],
    [
      4,
      12,
      {
        "cost": 244.98,
        "seconds": 543
      }
    ],
    [
      4,
      16,
      {
        "cost": 350.7,
        "seconds": 787
      }
    ],
    [
      4,
      10,
      {
        "cost": 320.64,
        "seconds": 738
      }
    ],
    [
      4,
      21,
      {
        "cost": 146.64,
        "seconds": 353
      }
    ],
    [
      4,
      13,
      {
        "cost": 279.9,
        "seconds": 595
      }
    ],
    [
      4,
      17,
      {
        "cost": 152.85,
        "seconds": 339
      }
    ],
    [
      4,
      11,
      {
        "cost": 140.46,
        "seconds": 321
      }
    ],
    [
      5,
      1,
      {
        "cost": 337.32,
        "seconds": 757
      }
    ],
    [
      5,
      0,
      {
        "cost": 150.63,
        "seconds": 385
      }
    ],
    [
      5,
      3,
      {
        "cost": 75.96,
        "seconds": 210
      }
    ],
    [
      5,
      9,
      {
        "cost": 166.26,
        "seconds": 390
      }
    ],
    [
      5,
      24,
      {
        "cost": 111.11999999999999,
        "seconds": 273
      }
    ],
    [
      5,
      22,
      {
        "cost": 176.45999999999999,
        "seconds": 425
      }
    ],
    [
      5,
      18,
      {
        "cost": 214.98,
        "seconds": 450
      }
    ],
    [
      5,
      26,
      {
        "cost": 147.98999999999999,
        "seconds": 361
      }
    ],
    [
      5,
      25,
      {
        "cost": 130.56,
        "seconds": 435
      }
    ],
    [
      5,
      15,
      {
        "cost": 192.98999999999999,
        "seconds": 411
      }
    ],
    [
      5,
      7,
      {
        "cost": 171.57,
        "seconds": 433
      }
    ],
    [
      5,
      23,
      {
        "cost": 249.87,
        "seconds": 546
      }
    ],
    [
      5,
      19,
      {
        "cost": 234.66,
        "seconds": 512
      }
    ],
    [
      5,
      27,
      {
        "cost": 126.24,
        "seconds": 380
      }
    ],
    [
      5,
      20,
      {
        "cost": 138.57,
        "seconds": 343
      }
    ],
    [
      5,
      13,
      {
        "cost": 188.79,
        "seconds": 427
      }
    ],
    [
      5,
      17,
      {
        "cost": 48.629999999999998,
        "seconds": 136
      }
    ],
    [
      5,
      11,
      {
        "cost": 49.379999999999998,
        "seconds": 153
      }
    ],
    [
      5,
      21,
      {
        "cost": 230.76,
        "seconds": 472
      }
    ],
    [
      5,
      4,
      {
        "cost": 105.96,
        "seconds": 241
      }
    ],
    [
      6,
      2,
      {
        "cost": 56.519999999999999,
        "seconds": 189
      }
    ],
    [
      6,
      10,
      {
        "cost": 189.42,
        "seconds": 444
      }
    ],
    [
      6,
      16,
      {
        "cost": 262.86,
        "seconds": 605
      }
    ],
    [
      6,
      14,
      {
        "cost": 219.9,
        "seconds": 503
      }
    ],
    [
      6,
      8,
      {
        "cost": 94.56,
        "seconds": 253
      }
    ],
    [
      6,
      12,
      {
        "cost": 96.81,
        "seconds": 259
      }
    ],
    [
      7,
      1,
      {
        "cost": 191.01,
        "seconds": 524
      }
    ],
    [
      7,
      0,
      {
        "cost": 52.5,
        "seconds": 165
      }
    ],
    [
      7,
      3,
      {
        "cost": 118.28999999999999,
        "seconds": 352
      }
    ],
    [
      7,
      2,
      {
        "cost": 307.62,
        "seconds": 740
      }
    ],
    [
      7,
      5,
      {
        "cost": 151.76999999999999,
        "seconds": 430
      }
    ],
    [
      7,
      4,
      {
        "cost": 249.39,
        "seconds": 652
      }
    ],
    [
      7,
      18,
      {
        "cost": 291.9,
        "seconds": 663
      }
    ],
    [
      7,
      10,
      {
        "cost": 283.71,
        "seconds": 737
      }
    ],
    [
      7,
      8,
      {
        "cost": 364.83,
        "seconds": 811
      }
    ],
    [
      7,
      19,
      {
        "cost": 299.07,
        "seconds": 692
      }
    ],
    [
      7,
      16,
      {
        "cost": 181.89,
        "seconds": 544
      }
    ],
    [
      7,
      26,
      {
        "cost": 193.89,
        "seconds": 582
      }
    ],
    [
      7,
      20,
      {
        "cost": 233.48999999999999,
        "seconds": 606
      }
    ],
    [
      7,
      11,
      {
        "cost": 187.01999999999999,
        "seconds": 530
      }
    ],
    [
      7,
      15,
      {
        "cost": 106.74,
        "seconds": 362
      }
    ],
    [
      7,
      17,
      {
        "cost": 141.69,
        "seconds": 409
      }
    ],
    [
      7,
      27,
      {
        "cost": 98.25,
        "seconds": 331
      }
    ],
    [
      7,
      9,
      {
        "cost": 158.73,
        "seconds": 466
      }
    ],
    [
      7,
      22,
      {
        "cost": 62.669999999999998,
        "seconds": 191
      }
    ],
    [
      7,
      24,
      {
        "cost": 226.23,
        "seconds": 677
      }
    ],
    [
      7,
      12,
      {
        "cost": 367.05,
        "seconds": 817
      }
    ],
    [
      7,
      21,
      {
        "cost": 307.71,
        "seconds": 685
      }
    ],
    [
      7,
      23,
      {
        "cost": 242.39999999999999,
        "seconds": 598
      }
    ],
    [
      7,
      13,
      {
        "cost": 181.26,
        "seconds": 502
      }
    ],
    [
      7,
      25,
      {
        "cost": 208.5,
        "seconds": 559
      }
    ],
    [
      7,
      6,
      {
        "cost": 337.34999999999999,
        "seconds": 816
      }
    ],
    [
      8,
      2,
      {
        "cost": 106.25999999999999,
        "seconds": 318
      }
    ],
    [
      8,
      6,
      {
        "cost": 125.19,
        "seconds": 322
      }
    ],
    [
      8,
      18,
      {
        "cost": 118.14,
        "seconds": 218
      }
    ],
    [
      8,
      16,
      {
        "cost": 349.62,
        "seconds": 723
      }
    ],
    [
      8,
      12,
      {
        "cost": 2.25,
        "seconds": 5
      }
    ],
    [
      8,
      10,
      {
        "cost": 289.59,
        "seconds": 598
      }
    ],
    [
      8,
      14,
      {
        "cost": 354.09,
        "seconds": 688
      }
    ],
    [
      9,
      0,
      {
        "cost": 167.88,
        "seconds": 516
      }
    ],
    [
      9,
      3,
      {
        "cost": 98.82,
        "seconds": 286
      }
    ],
    [
      9,
      2,
      {
        "cost": 405.51,
        "seconds": 917
      }
    ],
    [
      9,
      5,
      {
        "cost": 162.09,
        "seconds": 358
      }
    ],
    [
      9,
      4,
      {
        "cost": 244.04999999999999,
        "seconds": 502
      }
    ],
    [
      9,
      7,
      {
        "cost": 164.37,
        "seconds": 500
      }
    ],
    [
      9,
      6,
      {
        "cost": 485.82,
        "seconds": 1051
      }
    ],
    [
      9,
      18,
      {
        "cost": 363.41999999999998,
        "seconds": 735
      }
    ],
    [
      9,
      26,
      {
        "cost": 288.33,
        "seconds": 627
      }
    ],
    [
      9,
      16,
      {
        "cost": 352.71,
        "seconds": 945
      }
    ],
    [
      9,
      19,
      {
        "cost": 383.09999999999999,
        "seconds": 797
      }
    ],
    [
      9,
      10,
      {
        "cost": 493.28999999999999,
        "seconds": 1114
      }
    ],
    [
      9,
      27,
      {
        "cost": 205.59,
        "seconds": 568
      }
    ],
    [
      9,
      20,
      {
        "cost": 299.28,
        "seconds": 638
      }
    ],
    [
      9,
      24,
      {
        "cost": 183.95999999999999,
        "seconds": 507
      }
    ],
    [
      9,
      22,
      {
        "cost": 233.51999999999999,
        "seconds": 592
      }
    ],
    [
      9,
      12,
      {
        "cost": 451.10999999999998,
        "seconds": 922
      }
    ],
    [
      9,
      17,
      {
        "cost": 121.14,
        "seconds": 301
      }
    ],
    [
      9,
      15,
      {
        "cost": 145.47,
        "seconds": 382
      }
    ],
    [
      9,
      21,
      {
        "cost": 379.2,
        "seconds": 757
      }
    ],
    [
      9,
      13,
      {
        "cost": 27.119999999999999,
        "seconds": 90
      }
    ],
    [
      9,
      23,
      {
        "cost": 364.83,
        "seconds": 829
      }
    ],
    [
      9,
      11,
      {
        "cost": 152.46,
        "seconds": 369
      }
    ],
    [
      9,
      25,
      {
        "cost": 308.61,
        "seconds": 718
      }
    ],
    [
      9,
      8,
      {
        "cost": 448.85999999999998,
        "seconds": 917
      }
    ],
    [
      10,
      2,
      {
        "cost": 194.91,
        "seconds": 449
      }
    ],
    [
      10,
      6,
      {
        "cost": 207.42,
        "seconds": 470
      }
    ],
    [
      10,
      8,
      {
        "cost": 258.71999999999999,
        "seconds": 534
      }
    ],
    [
      10,
      22,
      {
        "cost": 191.28,
        "seconds": 458
      }
    ],
    [
      10,
      16,
      {
        "cost": 127.41,
        "seconds": 292
      }
    ],
    [
      10,
      14,
      {
        "cost": 211.01999999999999,
        "seconds": 503
      }
    ],
    [
      10,
      12,
      {
        "cost": 260.94,
        "seconds": 540
      }
    ],
    [
      11,
      1,
      {
        "cost": 338.21999999999999,
        "seconds": 770
      }
    ],
    [
      11,
      0,
      {
        "cost": 187.53,
        "seconds": 497
      }
    ],
    [
      11,
      3,
      {
        "cost": 117.69,
        "seconds": 299
      }
    ],
    [
      11,
      2,
      {
        "cost": 266.07,
        "seconds": 663
      }
    ],
    [
      11,
      5,
      {
        "cost": 46.47,
        "seconds": 149
      }
    ],
    [
      11,
      4,
      {
        "cost": 104.61,
        "seconds": 249
      }
    ],
    [
      11,
      7,
      {
        "cost": 208.44,
        "seconds": 545
      }
    ],
    [
      11,
      6,
      {
        "cost": 346.38,
        "seconds": 797
      }
    ],
    [
      11,
      9,
      {
        "cost": 164.16,
        "seconds": 432
      }
    ],
    [
      11,
      8,
      {
        "cost": 309.42,
        "seconds": 664
      }
    ],
    [
      11,
      22,
      {
        "cost": 213.35999999999999,
        "seconds": 537
      }
    ],
    [
      11,
      26,
      {
        "cost": 148.89,
        "seconds": 374
      }
    ],
    [
      11,
      24,
      {
        "cost": 62.97,
        "seconds": 200
      }
    ],
    [
      11,
      27,
      {
        "cost": 163.14,
        "seconds": 491
      }
    ],
    [
      11,
      23,
      {
        "cost": 225.35999999999999,
        "seconds": 576
      }
    ],
    [
      11,
      25,
      {
        "cost": 169.14,
        "seconds": 465
      }
    ],
    [
      11,
      16,
      {
        "cost": 345.87,
        "seconds": 796
      }
    ],
    [
      11,
      20,
      {
        "cost": 159.81,
        "seconds": 384
      }
    ],
    [
      11,
      14,
      {
        "cost": 463.68,
        "seconds": 1062
      }
    ],
    [
      11,
      12,
      {
        "cost": 311.67,
        "seconds": 669
      }
    ],
    [
      11,
      18,
      {
        "cost": 223.95,
        "seconds": 481
      }
    ],
    [
      11,
      17,
      {
        "cost": 75.39,
        "seconds": 226
      }
    ],
    [
      11,
      15,
      {
        "cost": 190.92,
        "seconds": 452
      }
    ],
    [
      11,
      13,
      {
        "cost": 186.69,
        "seconds": 468
      }
    ],
    [
      11,
      21,
      {
        "cost": 239.76,
        "seconds": 504
      }
    ],
    [
      11,
      19,
      {
        "cost": 243.66,
        "seconds": 544
      }
    ],
    [
      11,
      10,
      {
        "cost": 353.84999999999999,
        "seconds": 861
      }
    ],
    [
      12,
      2,
      {
        "cost": 104.00999999999999,
        "seconds": 313
      }
    ],
    [
      12,
      6,
      {
        "cost": 122.94,
        "seconds": 317
      }
    ],
    [
      12,
      8,
      {
        "cost": 17.58,
        "seconds": 43
      }
    ],
    [
      12,
      10,
      {
        "cost": 287.34,
        "seconds": 593
      }
    ],
    [
      12,
      18,
      {
        "cost": 115.89,
        "seconds": 213
      }
    ],
    [
      12,
      14,
      {
        "cost": 351.84,
        "seconds": 682
      }
    ],
    [
      12,
      16,
      {
        "cost": 347.4,
        "seconds": 718
      }
    ],
    [
      13,
      0,
      {
        "cost": 185.64,
        "seconds": 548
      }
    ],
    [
      13,
      3,
      {
        "cost": 116.58,
        "seconds": 318
      }
    ],
    [
      13,
      2,
      {
        "cost": 423.27,
        "seconds": 949
      }
    ],
    [
      13,
      5,
      {
        "cost": 179.85,
        "seconds": 390
      }
    ],
    [
      13,
      4,
      {
        "cost": 261.81,
        "seconds": 534
      }
    ],
    [
      13,
      7,
      {
        "cost": 182.13,
        "seconds": 532
      }
    ],
    [
      13,
      6,
      {
        "cost": 503.58,
        "seconds": 1083
      }
    ],
    [
      13,
      9,
      {
        "cost": 27.119999999999999,
        "seconds": 90
      }
    ],
    [
      13,
      8,
      {
        "cost": 466.62,
        "seconds": 949
      }
    ],
    [
      13,
      11,
      {
        "cost": 170.22,
        "seconds": 401
      }
    ],
    [
      13,
      10,
      {
        "cost": 511.04999999999998,
        "seconds": 1146
      }
    ],
    [
      13,
      24,
      {
        "cost": 201.72,
        "seconds": 540
      }
    ],
    [
      13,
      20,
      {
        "cost": 317.03999999999999,
        "seconds": 670
      }
    ],
    [
      13,
      22,
      {
        "cost": 251.28,
        "seconds": 624
      }
    ],
    [
      13,
      26,
      {
        "cost": 306.09,
        "seconds": 659
      }
    ],
    [
      13,
      25,
      {
        "cost": 326.37,
        "seconds": 751
      }
    ],
    [
      13,
      16,
      {
        "cost": 370.46999999999999,
        "seconds": 977
      }
    ],
    [
      13,
      19,
      {
        "cost": 400.85999999999998,
        "seconds": 829
      }
    ],
    [
      13,
      21,
      {
        "cost": 396.99,
        "seconds": 789
      }
    ],
    [
      13,
      15,
      {
        "cost": 163.23,
        "seconds": 414
      }
    ],
    [
      13,
      27,
      {
        "cost": 223.35,
        "seconds": 600
      }
    ],
    [
      13,
      23,
      {
        "cost": 382.59,
        "seconds": 862
      }
    ],
    [
      13,
      17,
      {
        "cost": 138.9,
        "seconds": 333
      }
    ],
    [
      13,
      12,
      {
        "cost": 468.87,
        "seconds": 954
      }
    ],
    [
      14,
      10,
      {
        "cost": 190.79999999999999,
        "seconds": 412
      }
    ],
    [
      15,
      1,
      {
        "cost": 333.47999999999998,
        "seconds": 830
      }
    ],
    [
      15,
      0,
      {
        "cost": 139.5,
        "seconds": 421
      }
    ],
    [
      15,
      3,
      {
        "cost": 116.1,
        "seconds": 280
      }
    ],
    [
      15,
      2,
      {
        "cost": 370.65,
        "seconds": 822
      }
    ],
    [
      15,
      5,
      {
        "cost": 159.18,
        "seconds": 363
      }
    ],
    [
      15,
      4,
      {
        "cost": 256.8,
        "seconds": 584
      }
    ],
    [
      15,
      7,
      {
        "cost": 112.02,
        "seconds": 376
      }
    ],
    [
      15,
      6,
      {
        "cost": 434.90999999999999,
        "seconds": 943
      }
    ],
    [
      15,
      9,
      {
        "cost": 152.25,
        "seconds": 394
      }
    ],
    [
      15,
      8,
      {
        "cost": 397.95,
        "seconds": 809
      }
    ],
    [
      15,
      11,
      {
        "cost": 194.43,
        "seconds": 462
      }
    ],
    [
      15,
      10,
      {
        "cost": 475.85999999999998,
        "seconds": 1007
      }
    ],
    [
      15,
      13,
      {
        "cost": 174.78,
        "seconds": 431
      }
    ],
    [
      15,
      12,
      {
        "cost": 400.2,
        "seconds": 814
      }
    ],
    [
      15,
      20,
      {
        "cost": 237.48,
        "seconds": 539
      }
    ],
    [
      15,
      22,
      {
        "cost": 205.14,
        "seconds": 496
      }
    ],
    [
      15,
      16,
      {
        "cost": 324.36,
        "seconds": 849
      }
    ],
    [
      15,
      26,
      {
        "cost": 240.92999999999999,
        "seconds": 550
      }
    ],
    [
      15,
      18,
      {
        "cost": 312.51,
        "seconds": 627
      }
    ],
    [
      15,
      24,
      {
        "cost": 233.64,
        "seconds": 609
      }
    ],
    [
      15,
      21,
      {
        "cost": 328.28999999999999,
        "seconds": 650
      }
    ],
    [
      15,
      17,
      {
        "cost": 139.47,
        "seconds": 338
      }
    ],
    [
      15,
      19,
      {
        "cost": 332.19,
        "seconds": 690
      }
    ],
    [
      15,
      27,
      {
        "cost": 177.20999999999999,
        "seconds": 472
      }
    ],
    [
      15,
      23,
      {
        "cost": 347.4,
        "seconds": 723
      }
    ],
    [
      15,
      25,
      {
        "cost": 222.63,
        "seconds": 611
      }
    ],
    [
      15,
      14,
      {
        "cost": 571.89,
        "seconds": 1221
      }
    ],
    [
      16,
      0,
      {
        "cost": 152.82,
        "seconds": 437
      }
    ],
    [
      16,
      1,
      {
        "cost": 17.97,
        "seconds": 51
      }
    ],
    [
      16,
      2,
      {
        "cost": 263.88,
        "seconds": 586
      }
    ],
    [
      16,
      6,
      {
        "cost": 279.42,
        "seconds": 616
      }
    ],
    [
      16,
      8,
      {
        "cost": 321.09,
        "seconds": 657
      }
    ],
    [
      16,
      10,
      {
        "cost": 145.53,
        "seconds": 318
      }
    ],
    [
      16,
      12,
      {
        "cost": 323.34,
        "seconds": 662
      }
    ],
    [
      16,
      14,
      {
        "cost": 277.2,
        "seconds": 639
      }
    ],
    [
      16,
      22,
      {
        "cost": 122.25,
        "seconds": 327
      }
    ],
    [
      17,
      1,
      {
        "cost": 316.77,
        "seconds": 797
      }
    ],
    [
      17,
      0,
      {
        "cost": 122.82,
        "seconds": 387
      }
    ],
    [
      17,
      3,
      {
        "cost": 51.9,
        "seconds": 144
      }
    ],
    [
      17,
      2,
      {
        "cost": 311.78999999999999,
        "seconds": 756
      }
    ],
    [
      17,
      5,
      {
        "cost": 61.29,
        "seconds": 182
      }
    ],
    [
      17,
      4,
      {
        "cost": 162.06,
        "seconds": 363
      }
    ],
    [
      17,
      7,
      {
        "cost": 147.23999999999999,
        "seconds": 418
      }
    ],
    [
      17,
      6,
      {
        "cost": 376.05,
        "seconds": 877
      }
    ],
    [
      17,
      9,
      {
        "cost": 111.06,
        "seconds": 323
      }
    ],
    [
      17,
      8,
      {
        "cost": 339.09,
        "seconds": 744
      }
    ],
    [
      17,
      11,
      {
        "cost": 70.47,
        "seconds": 230
      }
    ],
    [
      17,
      10,
      {
        "cost": 417.0,
        "seconds": 942
      }
    ],
    [
      17,
      13,
      {
        "cost": 133.59,
        "seconds": 359
      }
    ],
    [
      17,
      12,
      {
        "cost": 341.34,
        "seconds": 749
      }
    ],
    [
      17,
      15,
      {
        "cost": 133.32,
        "seconds": 339
      }
    ],
    [
      17,
      26,
      {
        "cost": 186.66,
        "seconds": 472
      }
    ],
    [
      17,
      18,
      {
        "cost": 253.64999999999999,
        "seconds": 561
      }
    ],
    [
      17,
      27,
      {
        "cost": 160.53,
        "seconds": 439
      }
    ],
    [
      17,
      22,
      {
        "cost": 188.43,
        "seconds": 463
      }
    ],
    [
      17,
      20,
      {
        "cost": 177.23999999999999,
        "seconds": 454
      }
    ],
    [
      17,
      24,
      {
        "cost": 101.97,
        "seconds": 368
      }
    ],
    [
      17,
      19,
      {
        "cost": 273.33,
        "seconds": 624
      }
    ],
    [
      17,
      23,
      {
        "cost": 288.53999999999999,
        "seconds": 657
      }
    ],
    [
      17,
      25,
      {
        "cost": 169.23,
        "seconds": 547
      }
    ],
    [
      17,
      21,
      {
        "cost": 269.46,
        "seconds": 584
      }
    ],
    [
      17,
      16,
      {
        "cost": 307.65,
        "seconds": 816
      }
    ],
    [
      18,
      0,
      {
        "cost": 251.37,
        "seconds": 516
      }
    ],
    [
      18,
      2,
      {
        "cost": 171.03,
        "seconds": 395
      }
    ],
    [
      18,
      3,
      {
        "cost": 253.92,
        "seconds": 537
      }
    ],
    [
      18,
      4,
      {
        "cost": 121.11,
        "seconds": 306
      }
    ],
    [
      18,
      5,
      {
        "cost": 203.79,
        "seconds": 433
      }
    ],
    [
      18,
      6,
      {
        "cost": 235.29,
        "seconds": 517
      }
    ],
    [
      18,
      8,
      {
        "cost": 198.32999999999999,
        "seconds": 383
      }
    ],
    [
      18,
      10,
      {
        "cost": 271.89,
        "seconds": 558
      }
    ],
    [
      18,
      11,
      {
        "cost": 220.32,
        "seconds": 492
      }
    ],
    [
      18,
      12,
      {
        "cost": 200.57999999999999,
        "seconds": 388
      }
    ],
    [
      18,
      14,
      {
        "cost": 372.27,
        "seconds": 795
      }
    ],
    [
      18,
      17,
      {
        "cost": 232.70999999999999,
        "seconds": 510
      }
    ],
    [
      18,
      16,
      {
        "cost": 301.95,
        "seconds": 608
      }
    ],
    [
      18,
      20,
      {
        "cost": 74.36999999999999,
        "seconds": 179
      }
    ],
    [
      18,
      22,
      {
        "cost": 277.22999999999998,
        "seconds": 555
      }
    ],
    [
      18,
      24,
      {
        "cost": 187.07999999999999,
        "seconds": 437
      }
    ],
    [
      18,
      26,
      {
        "cost": 121.47,
        "seconds": 245
      }
    ],
    [
      18,
      21,
      {
        "cost": 78.33,
        "seconds": 129
      }
    ],
    [
      18,
      25,
      {
        "cost": 141.75,
        "seconds": 337
      }
    ],
    [
      18,
      23,
      {
        "cost": 143.4,
        "seconds": 274
      }
    ],
    [
      18,
      27,
      {
        "cost": 197.64,
        "seconds": 498
      }
    ],
    [
      19,
      1,
      {
        "cost": 275.7,
        "seconds": 607
      }
    ],
    [
      19,
      0,
      {
        "cost": 301.26,
        "seconds": 695
      }
    ],
    [
      19,
      3,
      {
        "cost": 311.72999999999998,
        "seconds": 716
      }
    ],
    [
      19,
      2,
      {
        "cost": 65.39999999999999,
        "seconds": 194
      }
    ],
    [
      19,
      5,
      {
        "cost": 291.47999999999998,
        "seconds": 602
      }
    ],
    [
      19,
      4,
      {
        "cost": 239.37,
        "seconds": 551
      }
    ],
    [
      19,
      7,
      {
        "cost": 322.17,
        "seconds": 743
      }
    ],
    [
      19,
      9,
      {
        "cost": 386.96999999999999,
        "seconds": 882
      }
    ],
    [
      19,
      8,
      {
        "cost": 68.55,
        "seconds": 149
      }
    ],
    [
      19,
      11,
      {
        "cost": 308.03999999999999,
        "seconds": 661
      }
    ],
    [
      19,
      12,
      {
        "cost": 70.8,
        "seconds": 155
      }
    ],
    [
      19,
      15,
      {
        "cost": 360.21,
        "seconds": 800
      }
    ],
    [
      19,
      17,
      {
        "cost": 320.4,
        "seconds": 678
      }
    ],
    [
      19,
      20,
      {
        "cost": 145.35,
        "seconds": 421
      }
    ],
    [
      19,
      22,
      {
        "cost": 278.01,
        "seconds": 651
      }
    ],
    [
      19,
      24,
      {
        "cost": 298.59,
        "seconds": 643
      }
    ],
    [
      19,
      26,
      {
        "cost": 155.48999999999999,
        "seconds": 357
      }
    ],
    [
      19,
      21,
      {
        "cost": 184.53,
        "seconds": 351
      }
    ],
    [
      19,
      25,
      {
        "cost": 170.4,
        "seconds": 432
      }
    ],
    [
      19,
      23,
      {
        "cost": 101.1,
        "seconds": 254
      }
    ],
    [
      19,
      27,
      {
        "cost": 239.01,
        "seconds": 630
      }
    ],
    [
      19,
      18,
      {
        "cost": 166.85999999999999,
        "seconds": 319
      }
    ],
    [
      20,
      0,
      {
        "cost": 218.73,
        "seconds": 478
      }
    ],
    [
      20,
      1,
      {
        "cost": 267.27,
        "seconds": 569
      }
    ],
    [
      20,
      2,
      {
        "cost": 139.65,
        "seconds": 359
      }
    ],
    [
      20,
      3,
      {
        "cost": 221.28,
        "seconds": 500
      }
    ],
    [
      20,
      4,
      {
        "cost": 103.64999999999999,
        "seconds": 284
      }
    ],
    [
      20,
      5,
      {
        "cost": 203.91,
        "seconds": 401
      }
    ],
    [
      20,
      6,
      {
        "cost": 203.91,
        "seconds": 480
      }
    ],
    [
      20,
      7,
      {
        "cost": 239.67,
        "seconds": 526
      }
    ],
    [
      20,
      8,
      {
        "cost": 166.98,
        "seconds": 346
      }
    ],
    [
      20,
      10,
      {
        "cost": 244.85999999999999,
        "seconds": 546
      }
    ],
    [
      20,
      11,
      {
        "cost": 220.47,
        "seconds": 460
      }
    ],
    [
      20,
      12,
      {
        "cost": 169.2,
        "seconds": 351
      }
    ],
    [
      20,
      15,
      {
        "cost": 276.75,
        "seconds": 578
      }
    ],
    [
      20,
      14,
      {
        "cost": 340.89,
        "seconds": 758
      }
    ],
    [
      20,
      16,
      {
        "cost": 274.92,
        "seconds": 595
      }
    ],
    [
      20,
      17,
      {
        "cost": 232.82999999999999,
        "seconds": 478
      }
    ],
    [
      20,
      18,
      {
        "cost": 78.48,
        "seconds": 159
      }
    ],
    [
      20,
      19,
      {
        "cost": 101.22,
        "seconds": 226
      }
    ],
    [
      20,
      24,
      {
        "cost": 169.62,
        "seconds": 414
      }
    ],
    [
      20,
      22,
      {
        "cost": 244.59,
        "seconds": 518
      }
    ],
    [
      20,
      26,
      {
        "cost": 88.83,
        "seconds": 207
      }
    ],
    [
      20,
      25,
      {
        "cost": 109.11,
        "seconds": 299
      }
    ],
    [
      20,
      27,
      {
        "cost": 165.0,
        "seconds": 461
      }
    ],
    [
      20,
      23,
      {
        "cost": 116.36999999999999,
        "seconds": 261
      }
    ],
    [
      21,
      1,
      {
        "cost": 312.3,
        "seconds": 614
      }
    ],
    [
      21,
      0,
      {
        "cost": 297.78,
        "seconds": 605
      }
    ],
    [
      21,
      3,
      {
        "cost": 300.3,
        "seconds": 627
      }
    ],
    [
      21,
      5,
      {
        "cost": 250.17,
        "seconds": 523
      }
    ],
    [
      21,
      4,
      {
        "cost": 167.51999999999999,
        "seconds": 395
      }
    ],
    [
      21,
      7,
      {
        "cost": 318.69,
        "seconds": 652
      }
    ],
    [
      21,
      9,
      {
        "cost": 382.53,
        "seconds": 787
      }
    ],
    [
      21,
      11,
      {
        "cost": 266.73,
        "seconds": 582
      }
    ],
    [
      21,
      13,
      {
        "cost": 405.06,
        "seconds": 823
      }
    ],
    [
      21,
      15,
      {
        "cost": 355.77,
        "seconds": 705
      }
    ],
    [
      21,
      17,
      {
        "cost": 279.09,
        "seconds": 599
      }
    ],
    [
      21,
      19,
      {
        "cost": 95.00999999999999,
        "seconds": 306
      }
    ],
    [
      21,
      18,
      {
        "cost": 46.379999999999998,
        "seconds": 89
      }
    ],
    [
      21,
      26,
      {
        "cost": 167.85,
        "seconds": 334
      }
    ],
    [
      21,
      24,
      {
        "cost": 233.45999999999999,
        "seconds": 526
      }
    ],
    [
      21,
      25,
      {
        "cost": 188.13,
        "seconds": 426
      }
    ],
    [
      21,
      27,
      {
        "cost": 244.01999999999999,
        "seconds": 588
      }
    ],
    [
      21,
      23,
      {
        "cost": 161.4,
        "seconds": 306
      }
    ],
    [
      21,
      20,
      {
        "cost": 120.78,
        "seconds": 268
      }
    ],
    [
      22,
      1,
      {
        "cost": 136.59,
        "seconds": 366
      }
    ],
    [
      22,
      0,
      {
        "cost": 55.26,
        "seconds": 185
      }
    ],
    [
      22,
      2,
      {
        "cost": 253.2,
        "seconds": 582
      }
    ],
    [
      22,
      4,
      {
        "cost": 276.57,
        "seconds": 674
      }
    ],
    [
      22,
      6,
      {
        "cost": 282.93,
        "seconds": 657
      }
    ],
    [
      22,
      7,
      {
        "cost": 65.52,
        "seconds": 214
      }
    ],
    [
      22,
      8,
      {
        "cost": 310.40999999999999,
        "seconds": 653
      }
    ],
    [
      22,
      10,
      {
        "cost": 229.29,
        "seconds": 579
      }
    ],
    [
      22,
      12,
      {
        "cost": 312.65999999999999,
        "seconds": 659
      }
    ],
    [
      22,
      14,
      {
        "cost": 390.06,
        "seconds": 904
      }
    ],
    [
      22,
      16,
      {
        "cost": 124.94999999999999,
        "seconds": 375
      }
    ],
    [
      22,
      18,
      {
        "cost": 282.71999999999999,
        "seconds": 591
      }
    ],
    [
      22,
      20,
      {
        "cost": 253.2,
        "seconds": 581
      }
    ],
    [
      22,
      26,
      {
        "cost": 173.4,
        "seconds": 453
      }
    ],
    [
      22,
      24,
      {
        "cost": 253.41,
        "seconds": 699
      }
    ],
    [
      22,
      27,
      {
        "cost": 107.03999999999999,
        "seconds": 316
      }
    ],
    [
      22,
      25,
      {
        "cost": 154.07999999999999,
        "seconds": 401
      }
    ],
    [
      23,
      1,
      {
        "cost": 189.72,
        "seconds": 434
      }
    ],
    [
      23,
      0,
      {
        "cost": 210.9,
        "seconds": 539
      }
    ],
    [
      23,
      3,
      {
        "cost": 248.57999999999999,
        "seconds": 565
      }
    ],
    [
      23,
      5,
      {
        "cost": 228.32999999999999,
        "seconds": 450
      }
    ],
    [
      23,
      4,
      {
        "cost": 197.73,
        "seconds": 423
      }
    ],
    [
      23,
      7,
      {
        "cost": 259.83,
        "seconds": 596
      }
    ],
    [
      23,
      9,
      {
        "cost": 324.63,
        "seconds": 735
      }
    ],
    [
      23,
      11,
      {
        "cost": 244.89,
        "seconds": 510
      }
    ],
    [
      23,
      10,
      {
        "cost": 128.46,
        "seconds": 285
      }
    ],
    [
      23,
      13,
      {
        "cost": 347.15999999999999,
        "seconds": 772
      }
    ],
    [
      23,
      15,
      {
        "cost": 297.87,
        "seconds": 653
      }
    ],
    [
      23,
      17,
      {
        "cost": 257.25,
        "seconds": 527
      }
    ],
    [
      23,
      16,
      {
        "cost": 197.4,
        "seconds": 460
      }
    ],
    [
      23,
      19,
      {
        "cost": 87.63,
        "seconds": 207
      }
    ],
    [
      23,
      18,
      {
        "cost": 137.76,
        "seconds": 258
      }
    ],
    [
      23,
      21,
      {
        "cost": 155.4,
        "seconds": 290
      }
    ],
    [
      23,
      20,
      {
        "cost": 138.09,
        "seconds": 301
      }
    ],
    [
      23,
      26,
      {
        "cost": 92.34,
        "seconds": 206
      }
    ],
    [
      23,
      24,
      {
        "cost": 235.44,
        "seconds": 492
      }
    ],
    [
      23,
      27,
      {
        "cost": 175.85999999999999,
        "seconds": 479
      }
    ],
    [
      23,
      25,
      {
        "cost": 107.25,
        "seconds": 281
      }
    ],
    [
      23,
      22,
      {
        "cost": 203.85,
        "seconds": 477
      }
    ],
    [
      24,
      0,
      {
        "cost": 220.29,
        "seconds": 604
      }
    ],
    [
      24,
      2,
      {
        "cost": 293.88,
        "seconds": 701
      }
    ],
    [
      24,
      3,
      {
        "cost": 149.37,
        "seconds": 361
      }
    ],
    [
      24,
      4,
      {
        "cost": 118.58999999999999,
        "seconds": 293
      }
    ],
    [
      24,
      5,
      {
        "cost": 101.97,
        "seconds": 256
      }
    ],
    [
      24,
      6,
      {
        "cost": 362.43,
        "seconds": 837
      }
    ],
    [
      24,
      8,
      {
        "cost": 325.5,
        "seconds": 703
      }
    ],
    [
      24,
      10,
      {
        "cost": 381.65999999999999,
        "seconds": 898
      }
    ],
    [
      24,
      11,
      {
        "cost": 51.51,
        "seconds": 194
      }
    ],
    [
      24,
      12,
      {
        "cost": 327.71999999999999,
        "seconds": 709
      }
    ],
    [
      24,
      14,
      {
        "cost": 491.49,
        "seconds": 1100
      }
    ],
    [
      24,
      17,
      {
        "cost": 114.99,
        "seconds": 295
      }
    ],
    [
      24,
      16,
      {
        "cost": 373.68,
        "seconds": 833
      }
    ],
    [
      24,
      18,
      {
        "cost": 238.01999999999999,
        "seconds": 518
      }
    ],
    [
      24,
      20,
      {
        "cost": 173.82,
        "seconds": 428
      }
    ],
    [
      24,
      22,
      {
        "cost": 268.86,
        "seconds": 643
      }
    ],
    [
      24,
      26,
      {
        "cost": 162.87,
        "seconds": 417
      }
    ],
    [
      25,
      1,
      {
        "cost": 204.9,
        "seconds": 512
      }
    ],
    [
      25,
      0,
      {
        "cost": 153.51,
        "seconds": 433
      }
    ],
    [
      25,
      3,
      {
        "cost": 163.41,
        "seconds": 478
      }
    ],
    [
      25,
      5,
      {
        "cost": 129.09,
        "seconds": 383
      }
    ],
    [
      25,
      4,
      {
        "cost": 156.03,
        "seconds": 384
      }
    ],
    [
      25,
      7,
      {
        "cost": 174.45,
        "seconds": 481
      }
    ],
    [
      25,
      9,
      {
        "cost": 245.64,
        "seconds": 638
      }
    ],
    [
      25,
      11,
      {
        "cost": 203.45999999999999,
        "seconds": 471
      }
    ],
    [
      25,
      13,
      {
        "cost": 268.17,
        "seconds": 674
      }
    ],
    [
      25,
      15,
      {
        "cost": 218.88,
        "seconds": 556
      }
    ],
    [
      25,
      17,
      {
        "cost": 163.62,
        "seconds": 466
      }
    ],
    [
      25,
      19,
      {
        "cost": 174.93,
        "seconds": 394
      }
    ],
    [
      25,
      18,
      {
        "cost": 153.23999999999999,
        "seconds": 328
      }
    ],
    [
      25,
      21,
      {
        "cost": 169.01999999999999,
        "seconds": 351
      }
    ],
    [
      25,
      20,
      {
        "cost": 96.36,
        "seconds": 262
      }
    ],
    [
      25,
      23,
      {
        "cost": 102.53999999999999,
        "seconds": 321
      }
    ],
    [
      25,
      22,
      {
        "cost": 179.37,
        "seconds": 473
      }
    ],
    [
      25,
      26,
      {
        "cost": 23.91,
        "seconds": 82
      }
    ],
    [
      25,
      27,
      {
        "cost": 79.71,
        "seconds": 297
      }
    ],
    [
      25,
      24,
      {
        "cost": 194.01,
        "seconds": 453
      }
    ],
    [
      26,
      0,
      {
        "cost": 165.51,
        "seconds": 390
      }
    ],
    [
      26,
      1,
      {
        "cost": 229.01999999999999,
        "seconds": 506
      }
    ],
    [
      26,
      3,
      {
        "cost": 168.98999999999999,
        "seconds": 416
      }
    ],
    [
      26,
      2,
      {
        "cost": 156.9,
        "seconds": 400
      }
    ],
    [
      26,
      5,
      {
        "cost": 134.67,
        "seconds": 322
      }
    ],
    [
      26,
      4,
      {
        "cost": 132.15,
        "seconds": 302
      }
    ],
    [
      26,
      6,
      {
        "cost": 253.73999999999999,
        "seconds": 565
      }
    ],
    [
      26,
      7,
      {
        "cost": 186.45,
        "seconds": 438
      }
    ],
    [
      26,
      8,
      {
        "cost": 216.78,
        "seconds": 432
      }
    ],
    [
      26,
      10,
      {
        "cost": 244.64999999999999,
        "seconds": 597
      }
    ],
    [
      26,
      11,
      {
        "cost": 179.54999999999999,
        "seconds": 389
      }
    ],
    [
      26,
      12,
      {
        "cost": 219.03,
        "seconds": 437
      }
    ],
    [
      26,
      14,
      {
        "cost": 354.51,
        "seconds": 799
      }
    ],
    [
      26,
      15,
      {
        "cost": 224.45999999999999,
        "seconds": 495
      }
    ],
    [
      26,
      16,
      {
        "cost": 236.7,
        "seconds": 532
      }
    ],
    [
      26,
      17,
      {
        "cost": 169.2,
        "seconds": 404
      }
    ],
    [
      26,
      18,
      {
        "cost": 129.32999999999999,
        "seconds": 247
      }
    ],
    [
      26,
      19,
      {
        "cost": 151.01999999999999,
        "seconds": 312
      }
    ],
    [
      26,
      20,
      {
        "cost": 72.48,
        "seconds": 180
      }
    ],
    [
      26,
      21,
      {
        "cost": 145.14,
        "seconds": 269
      }
    ],
    [
      26,
      22,
      {
        "cost": 191.34,
        "seconds": 430
      }
    ],
    [
      26,
      23,
      {
        "cost": 116.19,
        "seconds": 313
      }
    ],
    [
      26,
      24,
      {
        "cost": 170.1,
        "seconds": 371
      }
    ],
    [
      26,
      25,
      {
        "cost": 51.69,
        "seconds": 183
      }
    ],
    [
      27,
      1,
      {
        "cost": 166.29,
        "seconds": 504
      }
    ],
    [
      27,
      0,
      {
        "cost": 56.55,
        "seconds": 205
      }
    ],
    [
      27,
      3,
      {
        "cost": 157.89,
        "seconds": 432
      }
    ],
    [
      27,
      2,
      {
        "cost": 223.65,
        "seconds": 564
      }
    ],
    [
      27,
      5,
      {
        "cost": 133.38,
        "seconds": 370
      }
    ],
    [
      27,
      4,
      {
        "cost": 231.0,
        "seconds": 591
      }
    ],
    [
      27,
      7,
      {
        "cost": 99.75,
        "seconds": 307
      }
    ],
    [
      27,
      9,
      {
        "cost": 224.31,
        "seconds": 588
      }
    ],
    [
      27,
      11,
      {
        "cost": 168.63,
        "seconds": 469
      }
    ],
    [
      27,
      13,
      {
        "cost": 246.84,
        "seconds": 624
      }
    ],
    [
      27,
      15,
      {
        "cost": 194.22,
        "seconds": 513
      }
    ],
    [
      27,
      17,
      {
        "cost": 167.88,
        "seconds": 452
      }
    ],
    [
      27,
      19,
      {
        "cost": 215.1,
        "seconds": 515
      }
    ],
    [
      27,
      18,
      {
        "cost": 214.35,
        "seconds": 554
      }
    ],
    [
      27,
      21,
      {
        "cost": 230.16,
        "seconds": 577
      }
    ],
    [
      27,
      20,
      {
        "cost": 157.5,
        "seconds": 487
      }
    ],
    [
      27,
      23,
      {
        "cost": 158.43,
        "seconds": 421
      }
    ],
    [
      27,
      22,
      {
        "cost": 82.38,
        "seconds": 244
      }
    ],
    [
      27,
      25,
      {
        "cost": 67.95,
        "seconds": 255
      }
    ],
    [
      27,
      24,
      {
        "cost": 207.84,
        "seconds": 616
      }
    ],
    [
      27,
      26,
      {
        "cost": 87.27,
        "seconds": 307
      }
    ],
    [
      26,
      29,
      {
        "cost": 363.53999999999999,
        "seconds": 835
      }
    ],
    [
      28,
      27,
      {
        "cost": 181.92,
        "seconds": 514
      }
    ],
    [
      26,
      28,
      {
        "cost": 277.62,
        "seconds": 567
      }
    ],
    [
      29,
      27,
      {
        "cost": 353.01,
        "seconds": 828
      }
    ],
    [
      24,
      29,
      {
        "cost": 500.54999999999998,
        "seconds": 1136
      }
    ],
    [
      28,
      25,
      {
        "cost": 277.22999999999998,
        "seconds": 648
      }
    ],
    [
      24,
      28,
      {
        "cost": 128.4,
        "seconds": 306
      }
    ],
    [
      29,
      25,
      {
        "cost": 341.07,
        "seconds": 807
      }
    ],
    [
      22,
      29,
      {
        "cost": 358.34999999999999,
        "seconds": 843
      }
    ],
    [
      28,
      23,
      {
        "cost": 333.45,
        "seconds": 759
      }
    ],
    [
      22,
      28,
      {
        "cost": 211.23,
        "seconds": 647
      }
    ],
    [
      29,
      23,
      {
        "cost": 250.04999999999999,
        "seconds": 545
      }
    ],
    [
      20,
      29,
      {
        "cost": 358.34999999999999,
        "seconds": 780
      }
    ],
    [
      28,
      21,
      {
        "cost": 347.84999999999999,
        "seconds": 687
      }
    ],
    [
      20,
      28,
      {
        "cost": 318.53999999999999,
        "seconds": 638
      }
    ],
    [
      29,
      21,
      {
        "cost": 397.46999999999999,
        "seconds": 819
      }
    ],
    [
      18,
      29,
      {
        "cost": 389.58,
        "seconds": 806
      }
    ],
    [
      28,
      19,
      {
        "cost": 351.75,
        "seconds": 727
      }
    ],
    [
      18,
      28,
      {
        "cost": 318.39,
        "seconds": 670
      }
    ],
    [
      29,
      19,
      {
        "cost": 318.45,
        "seconds": 711
      }
    ],
    [
      16,
      29,
      {
        "cost": 228.63,
        "seconds": 533
      }
    ],
    [
      28,
      17,
      {
        "cost": 89.75999999999999,
        "seconds": 231
      }
    ],
    [
      16,
      28,
      {
        "cost": 459.0,
        "seconds": 909
      }
    ],
    [
      29,
      17,
      {
        "cost": 499.32,
        "seconds": 1056
      }
    ],
    [
      14,
      29,
      {
        "cost": 134.97,
        "seconds": 341
      }
    ],
    [
      28,
      15,
      {
        "cost": 145.82999999999999,
        "seconds": 370
      }
    ],
    [
      14,
      28,
      {
        "cost": 592.1999999999999,
        "seconds": 1242
      }
    ],
    [
      29,
      15,
      {
        "cost": 539.9399999999999,
        "seconds": 1182
      }
    ],
    [
      12,
      29,
      {
        "cost": 381.57,
        "seconds": 783
      }
    ],
    [
      28,
      13,
      {
        "cost": 108.99,
        "seconds": 337
      }
    ],
    [
      12,
      28,
      {
        "cost": 434.28,
        "seconds": 883
      }
    ],
    [
      29,
      13,
      {
        "cost": 589.23,
        "seconds": 1301
      }
    ],
    [
      10,
      29,
      {
        "cost": 163.04999999999999,
        "seconds": 399
      }
    ],
    [
      28,
      11,
      {
        "cost": 121.08,
        "seconds": 299
      }
    ],
    [
      10,
      28,
      {
        "cost": 450.99,
        "seconds": 933
      }
    ],
    [
      29,
      11,
      {
        "cost": 486.96,
        "seconds": 1039
      }
    ],
    [
      8,
      29,
      {
        "cost": 383.82,
        "seconds": 788
      }
    ],
    [
      28,
      9,
      {
        "cost": 82.28999999999999,
        "seconds": 249
      }
    ],
    [
      8,
      28,
      {
        "cost": 436.53,
        "seconds": 888
      }
    ],
    [
      29,
      9,
      {
        "cost": 566.6999999999999,
        "seconds": 1264
      }
    ],
    [
      6,
      29,
      {
        "cost": 283.65,
        "seconds": 634
      }
    ],
    [
      28,
      7,
      {
        "cost": 164.73,
        "seconds": 488
      }
    ],
    [
      6,
      28,
      {
        "cost": 482.52,
        "seconds": 979
      }
    ],
    [
      29,
      7,
      {
        "cost": 370.14,
        "seconds": 880
      }
    ],
    [
      4,
      29,
      {
        "cost": 434.13,
        "seconds": 972
      }
    ],
    [
      28,
      5,
      {
        "cost": 130.74,
        "seconds": 288
      }
    ],
    [
      4,
      28,
      {
        "cost": 238.53,
        "seconds": 499
      }
    ],
    [
      29,
      5,
      {
        "cost": 470.4,
        "seconds": 980
      }
    ],
    [
      2,
      29,
      {
        "cost": 292.08,
        "seconds": 632
      }
    ],
    [
      28,
      3,
      {
        "cost": 73.28999999999999,
        "seconds": 219
      }
    ],
    [
      2,
      28,
      {
        "cost": 412.32,
        "seconds": 866
      }
    ],
    [
      29,
      3,
      {
        "cost": 490.65,
        "seconds": 1094
      }
    ],
    [
      0,
      29,
      {
        "cost": 385.97999999999998,
        "seconds": 929
      }
    ],
    [
      28,
      1,
      {
        "cost": 338.15999999999999,
        "seconds": 872
      }
    ],
    [
      0,
      28,
      {
        "cost": 160.38,
        "seconds": 501
      }
    ],
    [
      29,
      1,
      {
        "cost": 244.2,
        "seconds": 582
      }
    ]
  ]
}