[
  {
    "graph_name": "25_0",
    "n_pass": 2,
    "winning_ride": {
      "driver": {
        "arrive_until": 2400,
        "direct_cost": 428
      },
      "passengers": [
        {
          "bid": 4704,
          "id": 20,
          "price": 3195,
          "cost": 963,
          "direct_dist": 15680,
          "direct_cost": 471,
          "direct_time": 1047
        },
        {
          "bid": 3989,
          "id": 13,
          "price": 3501,
          "cost": 917,
          "direct_dist": 15406,
          "direct_cost": 463,
          "direct_time": 1051
        }
      ],
      "cost": 541,
      "virtual_welfare": 6813
    },
    "profit": 6155,
    "cost_profit": 1339.0,
    "welfare": 8152,
    "virtual_welfare": 6813,
    "running_time": 1
  },
  {
    "graph_name": "25_1",
    "n_pass": 2,
    "winning_ride": {
      "driver": {
        "arrive_until": 2400,
        "direct_cost": 564
      },
      "passengers": [
        {
          "bid": 3864,
          "id": 23,
          "price": 3491,
          "cost": 1150,
          "direct_dist": 17469,
          "direct_cost": 525,
          "direct_time": 1158
        },
        {
          "bid": 4542,
          "id": 2,
          "price": 3374,
          "cost": 1074,
          "direct_dist": 15142,
          "direct_cost": 455,
          "direct_time": 924
        }
      ],
      "cost": 314,
      "virtual_welfare": 6182
    },
    "profit": 6551,
    "cost_profit": 1910.0,
    "welfare": 8092,
    "virtual_welfare": 6182,
    "running_time": 0
  },
  {
    "graph_name": "25_10",
    "n_pass": 2,
    "winning_ride": {
      "driver": {
        "arrive_until": 2400,
        "direct_cost": 438
      },
      "passengers": [
        {
          "bid": 3743,
          "id": 7,
          "price": 1479,
          "cost": 812,
          "direct_dist": 12479,
          "direct_cost": 375,
          "direct_time": 861
        },
        {
          "bid": 3984,
          "id": 3,
          "price": 1600,
          "cost": 933,
          "direct_dist": 15131,
          "direct_cost": 454,
          "direct_time": 996
        }
      ],
      "cost": 375,
      "virtual_welfare": 5982
    },
    "profit": 2704,
    "cost_profit": 1370.0,
    "welfare": 7352,
    "virtual_welfare": 5982,
    "running_time": 0
  },
  {
    "graph_name": "25_11",
    "n_pass": 2,
    "winning_ride": {
      "driver": {
        "arrive_until": 2400,
        "direct_cost": 428
      },
      "passengers": [
        {
          "bid": 4260,
          "id": 19,
          "price": 3755,
          "cost": 877,
          "direct_dist": 14203,
          "direct_cost": 427,
          "direct_time": 971
        },
        {
          "bid": 4409,
          "id": 18,
          "price": 3810,
          "cost": 932,
          "direct_dist": 14697,
          "direct_cost": 441,
          "direct_time": 924
        }
      ],
      "cost": 555,
      "virtual_welfare": 6860
    },
    "profit": 7010,
    "cost_profit": 1254.0,
    "welfare": 8114,
    "virtual_welfare": 6860,
    "running_time": 0
  },
  {
    "graph_name": "25_12",
    "n_pass": 2,
    "winning_ride": {
      "driver": {
        "arrive_until": 2400,
        "direct_cost": 356
      },
      "passengers": [
        {
          "bid": 4034,
          "id": 24,
          "price": 1795,
          "cost": 835,
          "direct_dist": 13449,
          "direct_cost": 404,
          "direct_time": 881
        },
        {
          "bid": 3486,
          "id": 23,
          "price": 1247,
          "cost": 876,
          "direct_dist": 14187,
          "direct_cost": 426,
          "direct_time": 864
        }
      ],
      "cost": 656,
      "virtual_welfare": 5809
    },
    "profit": 2386,
    "cost_profit": 1055.0,
    "welfare": 6864,
    "virtual_welfare": 5809,
    "running_time": 0
  },
  {
    "graph_name": "25_13",
    "n_pass": 2,
    "winning_ride": {
      "driver": {
        "arrive_until": 2400,
        "direct_cost": 433
      },
      "passengers": [
        {
          "bid": 3766,
          "id": 22,
          "price": 3390,
          "cost": 771,
          "direct_dist": 12556,
          "direct_cost": 377,
          "direct_time": 880
        },
        {
          "bid": 2530,
          "id": 1,
          "price": 2154,
          "cost": 628,
          "direct_dist": 8434,
          "direct_cost": 254,
          "direct_time": 604
        }
      ],
      "cost": 334,
      "virtual_welfare": 4897
    },
    "profit": 5210,
    "cost_profit": 1065.0,
    "welfare": 5962,
    "virtual_welfare": 4897,
    "running_time": 0
  },
  {
    "graph_name": "25_14",
    "n_pass": 2,
    "winning_ride": {
      "driver": {
        "arrive_until": 2400,
        "direct_cost": 392
      },
      "passengers": [
        {
          "bid": 4581,
          "id": 11,
          "price": 3609,
          "cost": 1001,
          "direct_dist": 15272,
          "direct_cost": 459,
          "direct_time": 1012
        },
        {
          "bid": 1325,
          "id": 9,
          "price": 1007,
          "cost": 780,
          "direct_dist": 10363,
          "direct_cost": 311,
          "direct_time": 631
        }
      ],
      "cost": 542,
      "virtual_welfare": 4125
    },
    "profit": 4074,
    "cost_profit": 1239.0,
    "welfare": 5364,
    "virtual_welfare": 4125,
    "running_time": 0
  },
  {
    "graph_name": "25_15",
    "n_pass": 2,
    "winning_ride": {
      "driver": {
        "arrive_until": 2400,
        "direct_cost": 481
      },
      "passengers": [
        {
          "bid": 4161,
          "id": 24,
          "price": 3715,
          "cost": 796,
          "direct_dist": 13872,
          "direct_cost": 417,
          "direct_time": 844
        },
        {
          "bid": 4692,
          "id": 2,
          "price": 3982,
          "cost": 1063,
          "direct_dist": 18200,
          "direct_cost": 546,
          "direct_time": 1202
        }
      ],
      "cost": 386,
      "virtual_welfare": 6994
    },
    "profit": 7311,
    "cost_profit": 1473.0,
    "welfare": 8467,
    "virtual_welfare": 6994,
    "running_time": 0
  },
  {
    "graph_name": "25_16",
    "n_pass": 2,
    "winning_ride": {
      "driver": {
        "arrive_until": 2400,
        "direct_cost": 442
      },
      "passengers": [
        {
          "bid": 3922,
          "id": 8,
          "price": 3733,
          "cost": 851,
          "direct_dist": 13076,
          "direct_cost": 393,
          "direct_time": 902
        },
        {
          "bid": 5042,
          "id": 2,
          "price": 3996,
          "cost": 1114,
          "direct_dist": 16808,
          "direct_cost": 505,
          "direct_time": 1122
        }
      ],
      "cost": 533,
      "virtual_welfare": 6999
    },
    "profit": 7196,
    "cost_profit": 1432.0,
    "welfare": 8431,
    "virtual_welfare": 6999,
    "running_time": 1
  },
  {
    "graph_name": "25_17",
    "n_pass": 3,
    "winning_ride": {
      "driver": {
        "arrive_until": 2400,
        "direct_cost": 468
      },
      "passengers": [
        {
          "bid": 3377,
          "id": 22,
          "price": 2083,
          "cost": 819,
          "direct_dist": 11257,
          "direct_cost": 338,
          "direct_time": 683
        },
        {
          "bid": 2208,
          "id": 19,
          "price": 914,
          "cost": 444,
          "direct_dist": 7360,
          "direct_cost": 221,
          "direct_time": 551
        },
        {
          "bid": 4337,
          "id": 2,
          "price": 3441,
          "cost": 917,
          "direct_dist": 14458,
          "direct_cost": 434,
          "direct_time": 874
        }
      ],
      "cost": 491,
      "virtual_welfare": 7742
    },
    "profit": 5947,
    "cost_profit": 1689.0,
    "welfare": 9431,
    "virtual_welfare": 7742,
    "running_time": 1
  },
  {
    "graph_name": "25_18",
    "n_pass": 2,
    "winning_ride": {
      "driver": {
        "arrive_until": 2400,
        "direct_cost": 470
      },
      "passengers": [
        {
          "bid": 1698,
          "id": 15,
          "price": 1430,
          "cost": 488,
          "direct_dist": 5661,
          "direct_cost": 170,
          "direct_time": 441
        },
        {
          "bid": 3373,
          "id": 1,
          "price": 2591,
          "cost": 825,
          "direct_dist": 11244,
          "direct_cost": 338,
          "direct_time": 722
        }
      ],
      "cost": 364,
      "virtual_welfare": 3758
    },
    "profit": 3657,
    "cost_profit": 949.0,
    "welfare": 4707,
    "virtual_welfare": 3758,
    "running_time": 0
  },
  {
    "graph_name": "25_19",
    "n_pass": 2,
    "winning_ride": {
      "driver": {
        "arrive_until": 2400,
        "direct_cost": 423
      },
      "passengers": [
        {
          "bid": 4266,
          "id": 21,
          "price": 3799,
          "cost": 943,
          "direct_dist": 14222,
          "direct_cost": 427,
          "direct_time": 993
        },
        {
          "bid": 2181,
          "id": 5,
          "price": 1144,
          "cost": 664,
          "direct_dist": 7273,
          "direct_cost": 219,
          "direct_time": 563
        }
      ],
      "cost": 438,
      "virtual_welfare": 4840
    },
    "profit": 4505,
    "cost_profit": 1169.0,
    "welfare": 6009,
    "virtual_welfare": 4840,
    "running_time": 0
  },
  {
    "graph_name": "25_2",
    "n_pass": 1,
    "winning_ride": {
      "driver": {
        "arrive_until": 2400,
        "direct_cost": 478
      },
      "passengers": [
        {
          "bid": 5064,
          "id": 7,
          "price": 4784,
          "cost": 1207,
          "direct_dist": 16880,
          "direct_cost": 507,
          "direct_time": 1160
        }
      ],
      "cost": 506,
      "virtual_welfare": 3857
    },
    "profit": 4278,
    "cost_profit": 701.0,
    "welfare": 4558,
    "virtual_welfare": 3857,
    "running_time": 0
  },
  {
    "graph_name": "25_20",
    "n_pass": 2,
    "winning_ride": {
      "driver": {
        "arrive_until": 2400,
        "direct_cost": 499
      },
      "passengers": [
        {
          "bid": 2359,
          "id": 20,
          "price": 1901,
          "cost": 791,
          "direct_dist": 11283,
          "direct_cost": 339,
          "direct_time": 754
        },
        {
          "bid": 2396,
          "id": 13,
          "price": 1938,
          "cost": 640,
          "direct_dist": 7989,
          "direct_cost": 240,
          "direct_time": 580
        }
      ],
      "cost": 431,
      "virtual_welfare": 3324
    },
    "profit": 3408,
    "cost_profit": 1000.0,
    "welfare": 4324,
    "virtual_welfare": 3324,
    "running_time": 0
  },
  {
    "graph_name": "25_21",
    "n_pass": 2,
    "winning_ride": {
      "driver": {
        "arrive_until": 2400,
        "direct_cost": 509
      },
      "passengers": [
        {
          "bid": 2288,
          "id": 7,
          "price": 2246,
          "cost": 813,
          "direct_dist": 7627,
          "direct_cost": 229,
          "direct_time": 506
        },
        {
          "bid": 2556,
          "id": 3,
          "price": 2546,
          "cost": 933,
          "direct_dist": 13874,
          "direct_cost": 417,
          "direct_time": 889
        }
      ],
      "cost": 340,
      "virtual_welfare": 3098
    },
    "profit": 4452,
    "cost_profit": 1406.0,
    "welfare": 4504,
    "virtual_welfare": 3098,
    "running_time": 0
  },
  {
    "graph_name": "25_22",
    "n_pass": 2,
    "winning_ride": {
      "driver": {
        "arrive_until": 2400,
        "direct_cost": 470
      },
      "passengers": [
        {
          "bid": 3916,
          "id": 8,
          "price": 2751,
          "cost": 937,
          "direct_dist": 13054,
          "direct_cost": 392,
          "direct_time": 902
        },
        {
          "bid": 2849,
          "id": 5,
          "price": 2488,
          "cost": 674,
          "direct_dist": 9499,
          "direct_cost": 285,
          "direct_time": 588
        }
      ],
      "cost": 565,
      "virtual_welfare": 5154
    },
    "profit": 4674,
    "cost_profit": 1046.0,
    "welfare": 6200,
    "virtual_welfare": 5154,
    "running_time": 0
  },
  {
    "graph_name": "25_23",
    "n_pass": 2,
    "winning_ride": {
      "driver": {
        "arrive_until": 2400,
        "direct_cost": 442
      },
      "passengers": [
        {
          "bid": 4934,
          "id": 23,
          "price": 2762,
          "cost": 1109,
          "direct_dist": 16448,
          "direct_cost": 494,
          "direct_time": 1064
        },
        {
          "bid": 3239,
          "id": 17,
          "price": 2134,
          "cost": 1118,
          "direct_dist": 16572,
          "direct_cost": 498,
          "direct_time": 1061
        }
      ],
      "cost": 553,
      "virtual_welfare": 5946
    },
    "profit": 4343,
    "cost_profit": 1674.0,
    "welfare": 7620,
    "virtual_welfare": 5946,
    "running_time": 1
  },
  {
    "graph_name": "25_24",
    "n_pass": 2,
    "winning_ride": {
      "driver": {
        "arrive_until": 2400,
        "direct_cost": 431
      },
      "passengers": [
        {
          "bid": 4152,
          "id": 7,
          "price": 3048,
          "cost": 899,
          "direct_dist": 13843,
          "direct_cost": 416,
          "direct_time": 995
        },
        {
          "bid": 1697,
          "id": 3,
          "price": 759,
          "cost": 715,
          "direct_dist": 12640,
          "direct_cost": 380,
          "direct_time": 860
        }
      ],
      "cost": 481,
      "virtual_welfare": 4235
    },
    "profit": 3326,
    "cost_profit": 1133.0,
    "welfare": 5368,
    "virtual_welfare": 4235,
    "running_time": 1
  },
  {
    "graph_name": "25_25",
    "n_pass": 3,
    "winning_ride": {
      "driver": {
        "arrive_until": 2400,
        "direct_cost": 499
      },
      "passengers": [
        {
          "bid": 3531,
          "id": 23,
          "price": 3438,
          "cost": 964,
          "direct_dist": 15265,
          "direct_cost": 458,
          "direct_time": 969
        },
        {
          "bid": 3579,
          "id": 22,
          "price": 3424,
          "cost": 950,
          "direct_dist": 11932,
          "direct_cost": 358,
          "direct_time": 721
        },
        {
          "bid": 541,
          "id": 16,
          "price": 448,
          "cost": 267,
          "direct_dist": 1804,
          "direct_cost": 55,
          "direct_time": 199
        }
      ],
      "cost": 436,
      "virtual_welfare": 5470
    },
    "profit": 6874,
    "cost_profit": 1745.0,
    "welfare": 7215,
    "virtual_welfare": 5470,
    "running_time": 0
  },
  {
    "graph_name": "25_26",
    "n_pass": 2,
    "winning_ride": {
      "driver": {
        "arrive_until": 2400,
        "direct_cost": 529
      },
      "passengers": [
        {
          "bid": 1254,
          "id": 11,
          "price": 1170,
          "cost": 640,
          "direct_dist": 5643,
          "direct_cost": 170,
          "direct_time": 445
        },
        {
          "bid": 4690,
          "id": 7,
          "price": 3407,
          "cost": 946,
          "direct_dist": 15636,
          "direct_cost": 470,
          "direct_time": 977
        }
      ],
      "cost": 381,
      "virtual_welfare": 4358
    },
    "profit": 4196,
    "cost_profit": 1205.0,
    "welfare": 5563,
    "virtual_welfare": 4358,
    "running_time": 0
  },
  {
    "graph_name": "25_27",
    "n_pass": 2,
    "winning_ride": {
      "driver": {
        "arrive_until": 2400,
        "direct_cost": 451
      },
      "passengers": [
        {
          "bid": 1387,
          "id": 24,
          "price": 1034,
          "cost": 433,
          "direct_dist": 4624,
          "direct_cost": 139,
          "direct_time": 452
        },
        {
          "bid": 1132,
          "id": 6,
          "price": 779,
          "cost": 318,
          "direct_dist": 4484,
          "direct_cost": 135,
          "direct_time": 358
        }
      ],
      "cost": 516,
      "virtual_welfare": 1768
    },
    "profit": 1297,
    "cost_profit": 235.0,
    "welfare": 2003,
    "virtual_welfare": 1768,
    "running_time": 0
  },
  {
    "graph_name": "25_28",
    "n_pass": 2,
    "winning_ride": {
      "driver": {
        "arrive_until": 2400,
        "direct_cost": 507
      },
      "passengers": [
        {
          "bid": 4122,
          "id": 21,
          "price": 2719,
          "cost": 1049,
          "direct_dist": 14386,
          "direct_cost": 432,
          "direct_time": 1009
        },
        {
          "bid": 3309,
          "id": 1,
          "price": 2623,
          "cost": 953,
          "direct_dist": 11030,
          "direct_cost": 331,
          "direct_time": 727
        }
      ],
      "cost": 402,
      "virtual_welfare": 5429
    },
    "profit": 4940,
    "cost_profit": 1600.0,
    "welfare": 7029,
    "virtual_welfare": 5429,
    "running_time": 0
  },
  {
    "graph_name": "25_29",
    "n_pass": 2,
    "winning_ride": {
      "driver": {
        "arrive_until": 2400,
        "direct_cost": 545
      },
      "passengers": [
        {
          "bid": 4163,
          "id": 25,
          "price": 2937,
          "cost": 885,
          "direct_dist": 13879,
          "direct_cost": 417,
          "direct_time": 867
        },
        {
          "bid": 3045,
          "id": 20,
          "price": 2737,
          "cost": 685,
          "direct_dist": 10153,
          "direct_cost": 305,
          "direct_time": 614
        }
      ],
      "cost": 423,
      "virtual_welfare": 5638
    },
    "profit": 5251,
    "cost_profit": 1147.0,
    "welfare": 6785,
    "virtual_welfare": 5638,
    "running_time": 0
  },
  {
    "graph_name": "25_3",
    "n_pass": 2,
    "winning_ride": {
      "driver": {
        "arrive_until": 2400,
        "direct_cost": 365
      },
      "passengers": [
        {
          "bid": 2973,
          "id": 5,
          "price": 1103,
          "cost": 801,
          "direct_dist": 9912,
          "direct_cost": 298,
          "direct_time": 712
        },
        {
          "bid": 2579,
          "id": 2,
          "price": 1700,
          "cost": 646,
          "direct_dist": 8599,
          "direct_cost": 258,
          "direct_time": 589
        }
      ],
      "cost": 572,
      "virtual_welfare": 4105
    },
    "profit": 2231,
    "cost_profit": 875.0,
    "welfare": 4980,
    "virtual_welfare": 4105,
    "running_time": 0
  },
  {
    "graph_name": "25_30",
    "n_pass": 2,
    "winning_ride": {
      "driver": {
        "arrive_until": 2400,
        "direct_cost": 464
      },
      "passengers": [
        {
          "bid": 716,
          "id": 11,
          "price": 694,
          "cost": 592,
          "direct_dist": 4982,
          "direct_cost": 150,
          "direct_time": 352
        },
        {
          "bid": 3843,
          "id": 7,
          "price": 3821,
          "cost": 939,
          "direct_dist": 12813,
          "direct_cost": 385,
          "direct_time": 945
        }
      ],
      "cost": 480,
      "virtual_welfare": 3028
    },
    "profit": 4035,
    "cost_profit": 1051.0,
    "welfare": 4079,
    "virtual_welfare": 3028,
    "running_time": 0
  },
  {
    "graph_name": "25_31",
    "n_pass": 2,
    "winning_ride": {
      "driver": {
        "arrive_until": 2400,
        "direct_cost": 398
      },
      "passengers": [
        {
          "bid": 1498,
          "id": 7,
          "price": 1026,
          "cost": 632,
          "direct_dist": 7415,
          "direct_cost": 223,
          "direct_time": 600
        },
        {
          "bid": 2049,
          "id": 5,
          "price": 1577,
          "cost": 452,
          "direct_dist": 6830,
          "direct_cost": 205,
          "direct_time": 512
        }
      ],
      "cost": 326,
      "virtual_welfare": 2463
    },
    "profit": 2277,
    "cost_profit": 758.0,
    "welfare": 3221,
    "virtual_welfare": 2463,
    "running_time": 0
  },
  {
    "graph_name": "25_32",
    "n_pass": 2,
    "winning_ride": {
      "driver": {
        "arrive_until": 2400,
        "direct_cost": 464
      },
      "passengers": [
        {
          "bid": 2155,
          "id": 8,
          "price": 2144,
          "cost": 869,
          "direct_dist": 13638,
          "direct_cost": 410,
          "direct_time": 838
        },
        {
          "bid": 3560,
          "id": 6,
          "price": 3150,
          "cost": 1061,
          "direct_dist": 14861,
          "direct_cost": 446,
          "direct_time": 927
        }
      ],
      "cost": 532,
      "virtual_welfare": 3785
    },
    "profit": 4762,
    "cost_profit": 1398.0,
    "welfare": 5183,
    "virtual_welfare": 3785,
    "running_time": 0
  },
  {
    "graph_name": "25_33",
    "n_pass": 3,
    "winning_ride": {
      "driver": {
        "arrive_until": 2400,
        "direct_cost": 481
      },
      "passengers": [
        {
          "bid": 1455,
          "id": 18,
          "price": 864,
          "cost": 294,
          "direct_dist": 4852,
          "direct_cost": 146,
          "direct_time": 389
        },
        {
          "bid": 1729,
          "id": 14,
          "price": 1138,
          "cost": 605,
          "direct_dist": 8966,
          "direct_cost": 269,
          "direct_time": 575
        },
        {
          "bid": 2741,
          "id": 12,
          "price": 891,
          "cost": 653,
          "direct_dist": 9726,
          "direct_cost": 292,
          "direct_time": 648
        }
      ],
      "cost": 487,
      "virtual_welfare": 4373
    },
    "profit": 2406,
    "cost_profit": 1065.0,
    "welfare": 5438,
    "virtual_welfare": 4373,
    "running_time": 0
  },
  {
    "graph_name": "25_34",
    "n_pass": 2,
    "winning_ride": {
      "driver": {
        "arrive_until": 2400,
        "direct_cost": 435
      },
      "passengers": [
        {
          "bid": 3056,
          "id": 19,
          "price": 2900,
          "cost": 685,
          "direct_dist": 10189,
          "direct_cost": 306,
          "direct_time": 656
        },
        {
          "bid": 3136,
          "id": 13,
          "price": 2727,
          "cost": 714,
          "direct_dist": 11799,
          "direct_cost": 354,
          "direct_time": 777
        }
      ],
      "cost": 495,
      "virtual_welfare": 4793
    },
    "profit": 5132,
    "cost_profit": 904.0,
    "welfare": 5697,
    "virtual_welfare": 4793,
    "running_time": 0
  },
  {
    "graph_name": "25_35",
    "n_pass": 2,
    "winning_ride": {
      "driver": {
        "arrive_until": 2400,
        "direct_cost": 468
      },
      "passengers": [
        {
          "bid": 3567,
          "id": 12,
          "price": 1946,
          "cost": 702,
          "direct_dist": 11891,
          "direct_cost": 357,
          "direct_time": 843
        },
        {
          "bid": 2720,
          "id": 10,
          "price": 2512,
          "cost": 820,
          "direct_dist": 9067,
          "direct_cost": 273,
          "direct_time": 548
        }
      ],
      "cost": 380,
      "virtual_welfare": 4765
    },
    "profit": 4078,
    "cost_profit": 1142.0,
    "welfare": 5907,
    "virtual_welfare": 4765,
    "running_time": 0
  },
  {
    "graph_name": "25_36",
    "n_pass": 2,
    "winning_ride": {
      "driver": {
        "arrive_until": 2400,
        "direct_cost": 620
      },
      "passengers": [
        {
          "bid": 2242,
          "id": 20,
          "price": 1882,
          "cost": 955,
          "direct_dist": 12074,
          "direct_cost": 363,
          "direct_time": 879
        },
        {
          "bid": 3252,
          "id": 14,
          "price": 2107,
          "cost": 1180,
          "direct_dist": 16917,
          "direct_cost": 508,
          "direct_time": 1169
        }
      ],
      "cost": 227,
      "virtual_welfare": 3359
    },
    "profit": 3762,
    "cost_profit": 1908.0,
    "welfare": 5267,
    "virtual_welfare": 3359,
    "running_time": 0
  },
  {
    "graph_name": "25_37",
    "n_pass": 2,
    "winning_ride": {
      "driver": {
        "arrive_until": 2400,
        "direct_cost": 504
      },
      "passengers": [
        {
          "bid": 2578,
          "id": 19,
          "price": 2307,
          "cost": 854,
          "direct_dist": 9194,
          "direct_cost": 276,
          "direct_time": 629
        },
        {
          "bid": 1553,
          "id": 8,
          "price": 1465,
          "cost": 701,
          "direct_dist": 5177,
          "direct_cost": 156,
          "direct_time": 372
        }
      ],
      "cost": 406,
      "virtual_welfare": 2576
    },
    "profit": 3366,
    "cost_profit": 1149.0,
    "welfare": 3725,
    "virtual_welfare": 2576,
    "running_time": 0
  },
  {
    "graph_name": "25_38",
    "n_pass": 2,
    "winning_ride": {
      "driver": {
        "arrive_until": 2400,
        "direct_cost": 628
      },
      "passengers": [
        {
          "bid": 4021,
          "id": 15,
          "price": 2159,
          "cost": 1152,
          "direct_dist": 17821,
          "direct_cost": 535,
          "direct_time": 1124
        },
        {
          "bid": 4126,
          "id": 7,
          "price": 2026,
          "cost": 1019,
          "direct_dist": 13754,
          "direct_cost": 413,
          "direct_time": 956
        }
      ],
      "cost": 256,
      "virtual_welfare": 5976
    },
    "profit": 3929,
    "cost_profit": 1915.0,
    "welfare": 7891,
    "virtual_welfare": 5976,
    "running_time": 0
  },
  {
    "graph_name": "25_39",
    "n_pass": 2,
    "winning_ride": {
      "driver": {
        "arrive_until": 2400,
        "direct_cost": 452
      },
      "passengers": [
        {
          "bid": 3014,
          "id": 13,
          "price": 2992,
          "cost": 961,
          "direct_dist": 14549,
          "direct_cost": 437,
          "direct_time": 877
        },
        {
          "bid": 3528,
          "id": 6,
          "price": 3422,
          "cost": 835,
          "direct_dist": 11760,
          "direct_cost": 353,
          "direct_time": 791
        }
      ],
      "cost": 539,
      "virtual_welfare": 4746
    },
    "profit": 5875,
    "cost_profit": 1257.0,
    "welfare": 6003,
    "virtual_welfare": 4746,
    "running_time": 0
  },
  {
    "graph_name": "25_4",
    "n_pass": 2,
    "winning_ride": {
      "driver": {
        "arrive_until": 2400,
        "direct_cost": 446
      },
      "passengers": [
        {
          "bid": 3617,
          "id": 16,
          "price": 3122,
          "cost": 804,
          "direct_dist": 12057,
          "direct_cost": 362,
          "direct_time": 816
        },
        {
          "bid": 3313,
          "id": 7,
          "price": 3179,
          "cost": 861,
          "direct_dist": 11046,
          "direct_cost": 332,
          "direct_time": 730
        }
      ],
      "cost": 316,
      "virtual_welfare": 5265
    },
    "profit": 5985,
    "cost_profit": 1349.0,
    "welfare": 6614,
    "virtual_welfare": 5265,
    "running_time": 0
  },
  {
    "graph_name": "25_40",
    "n_pass": 2,
    "winning_ride": {
      "driver": {
        "arrive_until": 2400,
        "direct_cost": 440
      },
      "passengers": [
        {
          "bid": 3236,
          "id": 3,
          "price": 2621,
          "cost": 1189,
          "direct_dist": 18159,
          "direct_cost": 545,
          "direct_time": 1169
        },
        {
          "bid": 3013,
          "id": 2,
          "price": 2398,
          "cost": 749,
          "direct_dist": 10688,
          "direct_cost": 321,
          "direct_time": 739
        }
      ],
      "cost": 467,
      "virtual_welfare": 4311
    },
    "profit": 4552,
    "cost_profit": 1471.0,
    "welfare": 5782,
    "virtual_welfare": 4311,
    "running_time": 0
  },
  {
    "graph_name": "25_41",
    "n_pass": 2,
    "winning_ride": {
      "driver": {
        "arrive_until": 2400,
        "direct_cost": 407
      },
      "passengers": [
        {
          "bid": 893,
          "id": 22,
          "price": 649,
          "cost": 570,
          "direct_dist": 5421,
          "direct_cost": 163,
          "direct_time": 359
        },
        {
          "bid": 3000,
          "id": 19,
          "price": 2756,
          "cost": 713,
          "direct_dist": 10024,
          "direct_cost": 301,
          "direct_time": 622
        }
      ],
      "cost": 407,
      "virtual_welfare": 2610
    },
    "profit": 2998,
    "cost_profit": 876.0,
    "welfare": 3486,
    "virtual_welfare": 2610,
    "running_time": 0
  },
  {
    "graph_name": "25_42",
    "n_pass": 2,
    "winning_ride": {
      "driver": {
        "arrive_until": 2400,
        "direct_cost": 356
      },
      "passengers": [
        {
          "bid": 4170,
          "id": 24,
          "price": 2575,
          "cost": 873,
          "direct_dist": 13900,
          "direct_cost": 417,
          "direct_time": 980
        },
        {
          "bid": 3747,
          "id": 23,
          "price": 3340,
          "cost": 884,
          "direct_dist": 15677,
          "direct_cost": 471,
          "direct_time": 1020
        }
      ],
      "cost": 559,
      "virtual_welfare": 6160
    },
    "profit": 5356,
    "cost_profit": 1198.0,
    "welfare": 7358,
    "virtual_welfare": 6160,
    "running_time": 0
  },
  {
    "graph_name": "25_43",
    "n_pass": 2,
    "winning_ride": {
      "driver": {
        "arrive_until": 2400,
        "direct_cost": 417
      },
      "passengers": [
        {
          "bid": 3560,
          "id": 17,
          "price": 3406,
          "cost": 810,
          "direct_dist": 11867,
          "direct_cost": 357,
          "direct_time": 779
        },
        {
          "bid": 3485,
          "id": 1,
          "price": 3290,
          "cost": 694,
          "direct_dist": 11619,
          "direct_cost": 349,
          "direct_time": 754
        }
      ],
      "cost": 515,
      "virtual_welfare": 5541
    },
    "profit": 6181,
    "cost_profit": 989.0,
    "welfare": 6530,
    "virtual_welfare": 5541,
    "running_time": 1
  },
  {
    "graph_name": "25_44",
    "n_pass": 2,
    "winning_ride": {
      "driver": {
        "arrive_until": 2400,
        "direct_cost": 435
      },
      "passengers": [
        {
          "bid": 3024,
          "id": 24,
          "price": 1488,
          "cost": 871,
          "direct_dist": 10080,
          "direct_cost": 303,
          "direct_time": 831
        },
        {
          "bid": 2653,
          "id": 1,
          "price": 1304,
          "cost": 687,
          "direct_dist": 8845,
          "direct_cost": 266,
          "direct_time": 556
        }
      ],
      "cost": 307,
      "virtual_welfare": 4119
    },
    "profit": 2485,
    "cost_profit": 1251.0,
    "welfare": 5370,
    "virtual_welfare": 4119,
    "running_time": 0
  },
  {
    "graph_name": "25_45",
    "n_pass": 2,
    "winning_ride": {
      "driver": {
        "arrive_until": 2400,
        "direct_cost": 455
      },
      "passengers": [
        {
          "bid": 3205,
          "id": 7,
          "price": 2742,
          "cost": 928,
          "direct_dist": 10685,
          "direct_cost": 321,
          "direct_time": 719
        },
        {
          "bid": 4742,
          "id": 3,
          "price": 3671,
          "cost": 1145,
          "direct_dist": 15809,
          "direct_cost": 475,
          "direct_time": 996
        }
      ],
      "cost": 568,
      "virtual_welfare": 5874
    },
    "profit": 5845,
    "cost_profit": 1505.0,
    "welfare": 7379,
    "virtual_welfare": 5874,
    "running_time": 1
  },
  {
    "graph_name": "25_46",
    "n_pass": 2,
    "winning_ride": {
      "driver": {
        "arrive_until": 2400,
        "direct_cost": 476
      },
      "passengers": [
        {
          "bid": 5152,
          "id": 15,
          "price": 2005,
          "cost": 1066,
          "direct_dist": 17175,
          "direct_cost": 516,
          "direct_time": 1156
        },
        {
          "bid": 2464,
          "id": 10,
          "price": 1985,
          "cost": 652,
          "direct_dist": 8216,
          "direct_cost": 247,
          "direct_time": 471
        }
      ],
      "cost": 572,
      "virtual_welfare": 5898
    },
    "profit": 3418,
    "cost_profit": 1146.0,
    "welfare": 7044,
    "virtual_welfare": 5898,
    "running_time": 1
  },
  {
    "graph_name": "25_47",
    "n_pass": 2,
    "winning_ride": {
      "driver": {
        "arrive_until": 2400,
        "direct_cost": 464
      },
      "passengers": [
        {
          "bid": 4242,
          "id": 23,
          "price": 3091,
          "cost": 983,
          "direct_dist": 14143,
          "direct_cost": 425,
          "direct_time": 877
        },
        {
          "bid": 5375,
          "id": 11,
          "price": 3163,
          "cost": 1055,
          "direct_dist": 17918,
          "direct_cost": 538,
          "direct_time": 1149
        }
      ],
      "cost": 531,
      "virtual_welfare": 7579
    },
    "profit": 5723,
    "cost_profit": 1507.0,
    "welfare": 9086,
    "virtual_welfare": 7579,
    "running_time": 0
  },
  {
    "graph_name": "25_48",
    "n_pass": 2,
    "winning_ride": {
      "driver": {
        "arrive_until": 2400,
        "direct_cost": 428
      },
      "passengers": [
        {
          "bid": 3688,
          "id": 5,
          "price": 2532,
          "cost": 897,
          "direct_dist": 12295,
          "direct_cost": 369,
          "direct_time": 835
        },
        {
          "bid": 1836,
          "id": 2,
          "price": 1153,
          "cost": 1153,
          "direct_dist": 17028,
          "direct_cost": 511,
          "direct_time": 1085
        }
      ],
      "cost": 604,
      "virtual_welfare": 3474
    },
    "profit": 3081,
    "cost_profit": 1446.0,
    "welfare": 4920,
    "virtual_welfare": 3474,
    "running_time": 0
  },
  {
    "graph_name": "25_49",
    "n_pass": 2,
    "winning_ride": {
      "driver": {
        "arrive_until": 2400,
        "direct_cost": 530
      },
      "passengers": [
        {
          "bid": 3009,
          "id": 11,
          "price": 2782,
          "cost": 844,
          "direct_dist": 10031,
          "direct_cost": 301,
          "direct_time": 628
        },
        {
          "bid": 3052,
          "id": 5,
          "price": 2594,
          "cost": 899,
          "direct_dist": 10176,
          "direct_cost": 306,
          "direct_time": 678
        }
      ],
      "cost": 436,
      "virtual_welfare": 4318
    },
    "profit": 4940,
    "cost_profit": 1307.0,
    "welfare": 5625,
    "virtual_welfare": 4318,
    "running_time": 0
  },
  {
    "graph_name": "25_5",
    "n_pass": 2,
    "winning_ride": {
      "driver": {
        "arrive_until": 2400,
        "direct_cost": 483
      },
      "passengers": [
        {
          "bid": 3338,
          "id": 16,
          "price": 2700,
          "cost": 847,
          "direct_dist": 11129,
          "direct_cost": 334,
          "direct_time": 733
        },
        {
          "bid": 3443,
          "id": 15,
          "price": 2769,
          "cost": 916,
          "direct_dist": 14386,
          "direct_cost": 432,
          "direct_time": 941
        }
      ],
      "cost": 250,
      "virtual_welfare": 5018
    },
    "profit": 5219,
    "cost_profit": 1513.0,
    "welfare": 6531,
    "virtual_welfare": 5018,
    "running_time": 0
  },
  {
    "graph_name": "25_50",
    "n_pass": 2,
    "winning_ride": {
      "driver": {
        "arrive_until": 2400,
        "direct_cost": 462
      },
      "passengers": [
        {
          "bid": 5398,
          "id": 8,
          "price": 2740,
          "cost": 1150,
          "direct_dist": 17996,
          "direct_cost": 540,
          "direct_time": 1191
        },
        {
          "bid": 3787,
          "id": 2,
          "price": 2472,
          "cost": 882,
          "direct_dist": 12625,
          "direct_cost": 379,
          "direct_time": 823
        }
      ],
      "cost": 442,
      "virtual_welfare": 7153
    },
    "profit": 4770,
    "cost_profit": 1590.0,
    "welfare": 8743,
    "virtual_welfare": 7153,
    "running_time": 1
  },
  {
    "graph_name": "25_51",
    "n_pass": 2,
    "winning_ride": {
      "driver": {
        "arrive_until": 2400,
        "direct_cost": 443
      },
      "passengers": [
        {
          "bid": 4329,
          "id": 24,
          "price": 3415,
          "cost": 950,
          "direct_dist": 14433,
          "direct_cost": 433,
          "direct_time": 1041
        },
        {
          "bid": 3293,
          "id": 10,
          "price": 3265,
          "cost": 800,
          "direct_dist": 11926,
          "direct_cost": 358,
          "direct_time": 827
        }
      ],
      "cost": 214,
      "virtual_welfare": 5872
    },
    "profit": 6466,
    "cost_profit": 1536.0,
    "welfare": 7408,
    "virtual_welfare": 5872,
    "running_time": 0
  },
  {
    "graph_name": "25_52",
    "n_pass": 2,
    "winning_ride": {
      "driver": {
        "arrive_until": 2400,
        "direct_cost": 480
      },
      "passengers": [
        {
          "bid": 2019,
          "id": 22,
          "price": 1143,
          "cost": 589,
          "direct_dist": 6733,
          "direct_cost": 202,
          "direct_time": 533
        },
        {
          "bid": 3926,
          "id": 14,
          "price": 3633,
          "cost": 1109,
          "direct_dist": 17025,
          "direct_cost": 511,
          "direct_time": 1125
        }
      ],
      "cost": 474,
      "virtual_welfare": 4247
    },
    "profit": 4302,
    "cost_profit": 1224.0,
    "welfare": 5471,
    "virtual_welfare": 4247,
    "running_time": 0
  },
  {
    "graph_name": "25_53",
    "n_pass": 2,
    "winning_ride": {
      "driver": {
        "arrive_until": 2400,
        "direct_cost": 343
      },
      "passengers": [
        {
          "bid": 4260,
          "id": 23,
          "price": 993,
          "cost": 810,
          "direct_dist": 14202,
          "direct_cost": 427,
          "direct_time": 964
        },
        {
          "bid": 2621,
          "id": 22,
          "price": 1868,
          "cost": 1069,
          "direct_dist": 14432,
          "direct_cost": 433,
          "direct_time": 880
        }
      ],
      "cost": 658,
      "virtual_welfare": 5002
    },
    "profit": 2203,
    "cost_profit": 1221.0,
    "welfare": 6223,
    "virtual_welfare": 5002,
    "running_time": 0
  },
  {
    "graph_name": "25_54",
    "n_pass": 2,
    "winning_ride": {
      "driver": {
        "arrive_until": 2400,
        "direct_cost": 422
      },
      "passengers": [
        {
          "bid": 3981,
          "id": 13,
          "price": 3568,
          "cost": 950,
          "direct_dist": 13270,
          "direct_cost": 399,
          "direct_time": 882
        },
        {
          "bid": 3733,
          "id": 9,
          "price": 3573,
          "cost": 942,
          "direct_dist": 12964,
          "direct_cost": 389,
          "direct_time": 822
        }
      ],
      "cost": 479,
      "virtual_welfare": 5822
    },
    "profit": 6662,
    "cost_profit": 1413.0,
    "welfare": 7235,
    "virtual_welfare": 5822,
    "running_time": 1
  },
  {
    "graph_name": "25_55",
    "n_pass": 1,
    "winning_ride": {
      "driver": {
        "arrive_until": 2400,
        "direct_cost": 528
      },
      "passengers": [
        {
          "bid": 2234,
          "id": 9,
          "price": 1585,
          "cost": 642,
          "direct_dist": 7447,
          "direct_cost": 224,
          "direct_time": 536
        }
      ],
      "cost": 127,
      "virtual_welfare": 1592
    },
    "profit": 1458,
    "cost_profit": 515.0,
    "welfare": 2107,
    "virtual_welfare": 1592,
    "running_time": 0
  },
  {
    "graph_name": "25_56",
    "n_pass": 1,
    "winning_ride": {
      "driver": {
        "arrive_until": 2400,
        "direct_cost": 545
      },
      "passengers": [
        {
          "bid": 2637,
          "id": 20,
          "price": 2437,
          "cost": 666,
          "direct_dist": 8791,
          "direct_cost": 264,
          "direct_time": 590
        }
      ],
      "cost": 486,
      "virtual_welfare": 1971
    },
    "profit": 1951,
    "cost_profit": 180.0,
    "welfare": 2151,
    "virtual_welfare": 1971,
    "running_time": 0
  },
  {
    "graph_name": "25_57",
    "n_pass": 2,
    "winning_ride": {
      "driver": {
        "arrive_until": 2400,
        "direct_cost": 429
      },
      "passengers": [
        {
          "bid": 2750,
          "id": 13,
          "price": 2495,
          "cost": 652,
          "direct_dist": 10242,
          "direct_cost": 308,
          "direct_time": 652
        },
        {
          "bid": 5392,
          "id": 12,
          "price": 5137,
          "cost": 1132,
          "direct_dist": 17975,
          "direct_cost": 540,
          "direct_time": 1191
        }
      ],
      "cost": 597,
      "virtual_welfare": 6358
    },
    "profit": 7035,
    "cost_profit": 1187.0,
    "welfare": 7545,
    "virtual_welfare": 6358,
    "running_time": 2
  },
  {
    "graph_name": "25_58",
    "n_pass": 2,
    "winning_ride": {
      "driver": {
        "arrive_until": 2400,
        "direct_cost": 461
      },
      "passengers": [
        {
          "bid": 2308,
          "id": 12,
          "price": 1933,
          "cost": 535,
          "direct_dist": 7694,
          "direct_cost": 231,
          "direct_time": 464
        },
        {
          "bid": 2497,
          "id": 1,
          "price": 2122,
          "cost": 831,
          "direct_dist": 13378,
          "direct_cost": 402,
          "direct_time": 874
        }
      ],
      "cost": 199,
      "virtual_welfare": 3439
    },
    "profit": 3856,
    "cost_profit": 1167.0,
    "welfare": 4606,
    "virtual_welfare": 3439,
    "running_time": 0
  },
  {
    "graph_name": "25_59",
    "n_pass": 2,
    "winning_ride": {
      "driver": {
        "arrive_until": 2400,
        "direct_cost": 524
      },
      "passengers": [
        {
          "bid": 1648,
          "id": 22,
          "price": 1339,
          "cost": 465,
          "direct_dist": 5494,
          "direct_cost": 165,
          "direct_time": 446
        },
        {
          "bid": 4734,
          "id": 14,
          "price": 2788,
          "cost": 991,
          "direct_dist": 15781,
          "direct_cost": 474,
          "direct_time": 1077
        }
      ],
      "cost": 436,
      "virtual_welfare": 4926
    },
    "profit": 3691,
    "cost_profit": 1020.0,
    "welfare": 5946,
    "virtual_welfare": 4926,
    "running_time": 0
  },
  {
    "graph_name": "25_6",
    "n_pass": 2,
    "winning_ride": {
      "driver": {
        "arrive_until": 2400,
        "direct_cost": 401
      },
      "passengers": [
        {
          "bid": 2964,
          "id": 22,
          "price": 1994,
          "cost": 738,
          "direct_dist": 9933,
          "direct_cost": 298,
          "direct_time": 689
        },
        {
          "bid": 3211,
          "id": 1,
          "price": 2762,
          "cost": 678,
          "direct_dist": 10705,
          "direct_cost": 322,
          "direct_time": 691
        }
      ],
      "cost": 646,
      "virtual_welfare": 4759
    },
    "profit": 4110,
    "cost_profit": 770.0,
    "welfare": 5529,
    "virtual_welfare": 4759,
    "running_time": 0
  },
  {
    "graph_name": "25_60",
    "n_pass": 2,
    "winning_ride": {
      "driver": {
        "arrive_until": 2400,
        "direct_cost": 472
      },
      "passengers": [
        {
          "bid": 2740,
          "id": 9,
          "price": 2383,
          "cost": 767,
          "direct_dist": 9136,
          "direct_cost": 275,
          "direct_time": 625
        },
        {
          "bid": 4706,
          "id": 1,
          "price": 2613,
          "cost": 997,
          "direct_dist": 15687,
          "direct_cost": 471,
          "direct_time": 1036
        }
      ],
      "cost": 333,
      "virtual_welfare": 5682
    },
    "profit": 4663,
    "cost_profit": 1431.0,
    "welfare": 7113,
    "virtual_welfare": 5682,
    "running_time": 0
  },
  {
    "graph_name": "25_61",
    "n_pass": 2,
    "winning_ride": {
      "driver": {
        "arrive_until": 2400,
        "direct_cost": 359
      },
      "passengers": [
        {
          "bid": 3600,
          "id": 23,
          "price": 2379,
          "cost": 834,
          "direct_dist": 12464,
          "direct_cost": 374,
          "direct_time": 850
        },
        {
          "bid": 2903,
          "id": 22,
          "price": 2062,
          "cost": 677,
          "direct_dist": 9678,
          "direct_cost": 291,
          "direct_time": 610
        }
      ],
      "cost": 433,
      "virtual_welfare": 4992
    },
    "profit": 4008,
    "cost_profit": 1078.0,
    "welfare": 6070,
    "virtual_welfare": 4992,
    "running_time": 0
  },
  {
    "graph_name": "25_62",
    "n_pass": 2,
    "winning_ride": {
      "driver": {
        "arrive_until": 2400,
        "direct_cost": 417
      },
      "passengers": [
        {
          "bid": 3584,
          "id": 14,
          "price": 2542,
          "cost": 823,
          "direct_dist": 11949,
          "direct_cost": 359,
          "direct_time": 787
        },
        {
          "bid": 4491,
          "id": 13,
          "price": 4137,
          "cost": 931,
          "direct_dist": 14973,
          "direct_cost": 450,
          "direct_time": 961
        }
      ],
      "cost": 649,
      "virtual_welfare": 6321
    },
    "profit": 6030,
    "cost_profit": 1105.0,
    "welfare": 7426,
    "virtual_welfare": 6321,
    "running_time": 0
  },
  {
    "graph_name": "25_63",
    "n_pass": 2,
    "winning_ride": {
      "driver": {
        "arrive_until": 2400,
        "direct_cost": 402
      },
      "passengers": [
        {
          "bid": 1605,
          "id": 20,
          "price": 985,
          "cost": 473,
          "direct_dist": 5351,
          "direct_cost": 161,
          "direct_time": 363
        },
        {
          "bid": 4810,
          "id": 12,
          "price": 1538,
          "cost": 996,
          "direct_dist": 16036,
          "direct_cost": 482,
          "direct_time": 1123
        }
      ],
      "cost": 438,
      "virtual_welfare": 4946
    },
    "profit": 2085,
    "cost_profit": 1031.0,
    "welfare": 5977,
    "virtual_welfare": 4946,
    "running_time": 0
  },
  {
    "graph_name": "25_64",
    "n_pass": 3,
    "winning_ride": {
      "driver": {
        "arrive_until": 2400,
        "direct_cost": 486
      },
      "passengers": [
        {
          "bid": 2971,
          "id": 24,
          "price": 1561,
          "cost": 667,
          "direct_dist": 9905,
          "direct_cost": 298,
          "direct_time": 651
        },
        {
          "bid": 1529,
          "id": 15,
          "price": 1289,
          "cost": 404,
          "direct_dist": 5098,
          "direct_cost": 153,
          "direct_time": 369
        },
        {
          "bid": 1322,
          "id": 2,
          "price": 1082,
          "cost": 752,
          "direct_dist": 7495,
          "direct_cost": 225,
          "direct_time": 524
        }
      ],
      "cost": 307,
      "virtual_welfare": 3999
    },
    "profit": 3625,
    "cost_profit": 1516.0,
    "welfare": 5515,
    "virtual_welfare": 3999,
    "running_time": 0
  },
  {
    "graph_name": "25_65",
    "n_pass": 2,
    "winning_ride": {
      "driver": {
        "arrive_until": 2400,
        "direct_cost": 457
      },
      "passengers": [
        {
          "bid": 1967,
          "id": 22,
          "price": 1359,
          "cost": 740,
          "direct_dist": 11012,
          "direct_cost": 331,
          "direct_time": 767
        },
        {
          "bid": 3516,
          "id": 5,
          "price": 2908,
          "cost": 990,
          "direct_dist": 11720,
          "direct_cost": 352,
          "direct_time": 774
        }
      ],
      "cost": 470,
      "virtual_welfare": 3753
    },
    "profit": 3797,
    "cost_profit": 1260.0,
    "welfare": 5013,
    "virtual_welfare": 3753,
    "running_time": 0
  },
  {
    "graph_name": "25_66",
    "n_pass": 2,
    "winning_ride": {
      "driver": {
        "arrive_until": 2400,
        "direct_cost": 475
      },
      "passengers": [
        {
          "bid": 2873,
          "id": 9,
          "price": 2834,
          "cost": 752,
          "direct_dist": 9578,
          "direct_cost": 288,
          "direct_time": 630
        },
        {
          "bid": 2279,
          "id": 4,
          "price": 2240,
          "cost": 644,
          "direct_dist": 8359,
          "direct_cost": 251,
          "direct_time": 513
        }
      ],
      "cost": 507,
      "virtual_welfare": 3756
    },
    "profit": 4567,
    "cost_profit": 889.0,
    "welfare": 4645,
    "virtual_welfare": 3756,
    "running_time": 0
  },
  {
    "graph_name": "25_67",
    "n_pass": 2,
    "winning_ride": {
      "driver": {
        "arrive_until": 2400,
        "direct_cost": 413
      },
      "passengers": [
        {
          "bid": 3565,
          "id": 21,
          "price": 2220,
          "cost": 787,
          "direct_dist": 11884,
          "direct_cost": 357,
          "direct_time": 742
        },
        {
          "bid": 4123,
          "id": 13,
          "price": 3403,
          "cost": 880,
          "direct_dist": 13746,
          "direct_cost": 413,
          "direct_time": 910
        }
      ],
      "cost": 613,
      "virtual_welfare": 6021
    },
    "profit": 5010,
    "cost_profit": 1054.0,
    "welfare": 7075,
    "virtual_welfare": 6021,
    "running_time": 0
  },
  {
    "graph_name": "25_68",
    "n_pass": 2,
    "winning_ride": {
      "driver": {
        "arrive_until": 2400,
        "direct_cost": 510
      },
      "passengers": [
        {
          "bid": 2983,
          "id": 24,
          "price": 1681,
          "cost": 767,
          "direct_dist": 9946,
          "direct_cost": 299,
          "direct_time": 634
        },
        {
          "bid": 2939,
          "id": 9,
          "price": 1762,
          "cost": 848,
          "direct_dist": 13523,
          "direct_cost": 406,
          "direct_time": 922
        }
      ],
      "cost": 379,
      "virtual_welfare": 4307
    },
    "profit": 3064,
    "cost_profit": 1236.0,
    "welfare": 5543,
    "virtual_welfare": 4307,
    "running_time": 0
  },
  {
    "graph_name": "25_69",
    "n_pass": 3,
    "winning_ride": {
      "driver": {
        "arrive_until": 2400,
        "direct_cost": 469
      },
      "passengers": [
        {
          "bid": 2901,
          "id": 25,
          "price": 2703,
          "cost": 674,
          "direct_dist": 10636,
          "direct_cost": 320,
          "direct_time": 835
        },
        {
          "bid": 489,
          "id": 11,
          "price": 344,
          "cost": 344,
          "direct_dist": 5088,
          "direct_cost": 153,
          "direct_time": 393
        },
        {
          "bid": 3613,
          "id": 9,
          "price": 2912,
          "cost": 1028,
          "direct_dist": 15167,
          "direct_cost": 456,
          "direct_time": 973
        }
      ],
      "cost": 334,
      "virtual_welfare": 4957
    },
    "profit": 5625,
    "cost_profit": 1712.0,
    "welfare": 6669,
    "virtual_welfare": 4957,
    "running_time": 0
  },
  {
    "graph_name": "25_7",
    "n_pass": 2,
    "winning_ride": {
      "driver": {
        "arrive_until": 2400,
        "direct_cost": 422
      },
      "passengers": [
        {
          "bid": 3864,
          "id": 23,
          "price": 3224,
          "cost": 830,
          "direct_dist": 13679,
          "direct_cost": 411,
          "direct_time": 869
        },
        {
          "bid": 2820,
          "id": 18,
          "price": 2551,
          "cost": 772,
          "direct_dist": 9403,
          "direct_cost": 283,
          "direct_time": 615
        }
      ],
      "cost": 560,
      "virtual_welfare": 5082
    },
    "profit": 5215,
    "cost_profit": 1042.0,
    "welfare": 6124,
    "virtual_welfare": 5082,
    "running_time": 0
  },
  {
    "graph_name": "25_70",
    "n_pass": 2,
    "winning_ride": {
      "driver": {
        "arrive_until": 2400,
        "direct_cost": 472
      },
      "passengers": [
        {
          "bid": 2828,
          "id": 9,
          "price": 2035,
          "cost": 838,
          "direct_dist": 9427,
          "direct_cost": 283,
          "direct_time": 620
        },
        {
          "bid": 4351,
          "id": 1,
          "price": 3558,
          "cost": 1093,
          "direct_dist": 18766,
          "direct_cost": 563,
          "direct_time": 1124
        }
      ],
      "cost": 624,
      "virtual_welfare": 5248
    },
    "profit": 4969,
    "cost_profit": 1307.0,
    "welfare": 6555,
    "virtual_welfare": 5248,
    "running_time": 0
  },
  {
    "graph_name": "25_71",
    "n_pass": 3,
    "winning_ride": {
      "driver": {
        "arrive_until": 2400,
        "direct_cost": 456
      },
      "passengers": [
        {
          "bid": 3872,
          "id": 24,
          "price": 3116,
          "cost": 873,
          "direct_dist": 12909,
          "direct_cost": 388,
          "direct_time": 818
        },
        {
          "bid": 915,
          "id": 15,
          "price": 748,
          "cost": 286,
          "direct_dist": 3053,
          "direct_cost": 92,
          "direct_time": 221
        },
        {
          "bid": 3171,
          "id": 14,
          "price": 3004,
          "cost": 761,
          "direct_dist": 10571,
          "direct_cost": 318,
          "direct_time": 702
        }
      ],
      "cost": 449,
      "virtual_welfare": 6038
    },
    "profit": 6419,
    "cost_profit": 1471.0,
    "welfare": 7509,
    "virtual_welfare": 6038,
    "running_time": 0
  },
  {
    "graph_name": "25_72",
    "n_pass": 2,
    "winning_ride": {
      "driver": {
        "arrive_until": 2400,
        "direct_cost": 426
      },
      "passengers": [
        {
          "bid": 3202,
          "id": 24,
          "price": 1973,
          "cost": 771,
          "direct_dist": 10675,
          "direct_cost": 321,
          "direct_time": 687
        },
        {
          "bid": 2863,
          "id": 18,
          "price": 2790,
          "cost": 799,
          "direct_dist": 12875,
          "direct_cost": 387,
          "direct_time": 780
        }
      ],
      "cost": 475,
      "virtual_welfare": 4495
    },
    "profit": 4288,
    "cost_profit": 1095.0,
    "welfare": 5590,
    "virtual_welfare": 4495,
    "running_time": 0
  },
  {
    "graph_name": "25_73",
    "n_pass": 2,
    "winning_ride": {
      "driver": {
        "arrive_until": 2400,
        "direct_cost": 423
      },
      "passengers": [
        {
          "bid": 3506,
          "id": 15,
          "price": 1536,
          "cost": 793,
          "direct_dist": 12338,
          "direct_cost": 371,
          "direct_time": 870
        },
        {
          "bid": 4233,
          "id": 4,
          "price": 1430,
          "cost": 882,
          "direct_dist": 14611,
          "direct_cost": 439,
          "direct_time": 1001
        }
      ],
      "cost": 433,
      "virtual_welfare": 6064
    },
    "profit": 2533,
    "cost_profit": 1242.0,
    "welfare": 7306,
    "virtual_welfare": 6064,
    "running_time": 0
  },
  {
    "graph_name": "25_74",
    "n_pass": 2,
    "winning_ride": {
      "driver": {
        "arrive_until": 2400,
        "direct_cost": 429
      },
      "passengers": [
        {
          "bid": 2344,
          "id": 18,
          "price": 1837,
          "cost": 533,
          "direct_dist": 7814,
          "direct_cost": 235,
          "direct_time": 588
        },
        {
          "bid": 3616,
          "id": 2,
          "price": 3109,
          "cost": 875,
          "direct_dist": 12056,
          "direct_cost": 362,
          "direct_time": 750
        }
      ],
      "cost": 398,
      "virtual_welfare": 4552
    },
    "profit": 4548,
    "cost_profit": 1010.0,
    "welfare": 5562,
    "virtual_welfare": 4552,
    "running_time": 0
  },
  {
    "graph_name": "25_75",
    "n_pass": 1,
    "winning_ride": {
      "driver": {
        "arrive_until": 2400,
        "direct_cost": 500
      },
      "passengers": [
        {
          "bid": 4503,
          "id": 18,
          "price": 4375,
          "cost": 1040,
          "direct_dist": 15010,
          "direct_cost": 451,
          "direct_time": 986
        }
      ],
      "cost": 460,
      "virtual_welfare": 3463
    },
    "profit": 3915,
    "cost_profit": 580.0,
    "welfare": 4043,
    "virtual_welfare": 3463,
    "running_time": 0
  },
  {
    "graph_name": "25_76",
    "n_pass": 2,
    "winning_ride": {
      "driver": {
        "arrive_until": 2400,
        "direct_cost": 457
      },
      "passengers": [
        {
          "bid": 4477,
          "id": 16,
          "price": 2810,
          "cost": 968,
          "direct_dist": 15067,
          "direct_cost": 453,
          "direct_time": 968
        },
        {
          "bid": 3596,
          "id": 8,
          "price": 2567,
          "cost": 725,
          "direct_dist": 11989,
          "direct_cost": 360,
          "direct_time": 862
        }
      ],
      "cost": 486,
      "virtual_welfare": 6380
    },
    "profit": 4891,
    "cost_profit": 1207.0,
    "welfare": 7587,
    "virtual_welfare": 6380,
    "running_time": 0
  },
  {
    "graph_name": "25_77",
    "n_pass": 2,
    "winning_ride": {
      "driver": {
        "arrive_until": 2400,
        "direct_cost": 408
      },
      "passengers": [
        {
          "bid": 4135,
          "id": 20,
          "price": 2864,
          "cost": 1024,
          "direct_dist": 13934,
          "direct_cost": 419,
          "direct_time": 856
        },
        {
          "bid": 1969,
          "id": 16,
          "price": 768,
          "cost": 768,
          "direct_dist": 9916,
          "direct_cost": 298,
          "direct_time": 683
        }
      ],
      "cost": 554,
      "virtual_welfare": 4312
    },
    "profit": 3078,
    "cost_profit": 1238.0,
    "welfare": 5550,
    "virtual_welfare": 4312,
    "running_time": 0
  },
  {
    "graph_name": "25_78",
    "n_pass": 2,
    "winning_ride": {
      "driver": {
        "arrive_until": 2400,
        "direct_cost": 511
      },
      "passengers": [
        {
          "bid": 4739,
          "id": 20,
          "price": 4593,
          "cost": 1100,
          "direct_dist": 15797,
          "direct_cost": 474,
          "direct_time": 1023
        },
        {
          "bid": 3389,
          "id": 15,
          "price": 3243,
          "cost": 1129,
          "direct_dist": 18053,
          "direct_cost": 542,
          "direct_time": 1101
        }
      ],
      "cost": 390,
      "virtual_welfare": 5899
    },
    "profit": 7446,
    "cost_profit": 1839.0,
    "welfare": 7738,
    "virtual_welfare": 5899,
    "running_time": 0
  },
  {
    "graph_name": "25_79",
    "n_pass": 2,
    "winning_ride": {
      "driver": {
        "arrive_until": 2400,
        "direct_cost": 562
      },
      "passengers": [
        {
          "bid": 3488,
          "id": 22,
          "price": 2893,
          "cost": 1131,
          "direct_dist": 17978,
          "direct_cost": 540,
          "direct_time": 1180
        },
        {
          "bid": 2683,
          "id": 8,
          "price": 2673,
          "cost": 911,
          "direct_dist": 11998,
          "direct_cost": 360,
          "direct_time": 751
        }
      ],
      "cost": 340,
      "virtual_welfare": 4129
    },
    "profit": 5226,
    "cost_profit": 1702.0,
    "welfare": 5831,
    "virtual_welfare": 4129,
    "running_time": 0
  },
  {
    "graph_name": "25_8",
    "n_pass": 1,
    "winning_ride": {
      "driver": {
        "arrive_until": 2400,
        "direct_cost": 452
      },
      "passengers": [
        {
          "bid": 5325,
          "id": 8,
          "price": 3763,
          "cost": 1091,
          "direct_dist": 17751,
          "direct_cost": 533,
          "direct_time": 1144
        }
      ],
      "cost": 394,
      "virtual_welfare": 4234
    },
    "profit": 3369,
    "cost_profit": 697.0,
    "welfare": 4931,
    "virtual_welfare": 4234,
    "running_time": 0
  },
  {
    "graph_name": "25_80",
    "n_pass": 2,
    "winning_ride": {
      "driver": {
        "arrive_until": 2400,
        "direct_cost": 459
      },
      "passengers": [
        {
          "bid": 4170,
          "id": 25,
          "price": 3720,
          "cost": 1051,
          "direct_dist": 13901,
          "direct_cost": 418,
          "direct_time": 1038
        },
        {
          "bid": 2447,
          "id": 20,
          "price": 2075,
          "cost": 724,
          "direct_dist": 10380,
          "direct_cost": 312,
          "direct_time": 732
        }
      ],
      "cost": 434,
      "virtual_welfare": 4842
    },
    "profit": 5361,
    "cost_profit": 1341.0,
    "welfare": 6183,
    "virtual_welfare": 4842,
    "running_time": 0
  },
  {
    "graph_name": "25_81",
    "n_pass": 2,
    "winning_ride": {
      "driver": {
        "arrive_until": 2400,
        "direct_cost": 481
      },
      "passengers": [
        {
          "bid": 3591,
          "id": 24,
          "price": 2691,
          "cost": 833,
          "direct_dist": 11970,
          "direct_cost": 360,
          "direct_time": 818
        },
        {
          "bid": 814,
          "id": 16,
          "price": 797,
          "cost": 450,
          "direct_dist": 5271,
          "direct_cost": 159,
          "direct_time": 392
        }
      ],
      "cost": 364,
      "virtual_welfare": 3122
    },
    "profit": 3124,
    "cost_profit": 919.0,
    "welfare": 4041,
    "virtual_welfare": 3122,
    "running_time": 0
  },
  {
    "graph_name": "25_82",
    "n_pass": 2,
    "winning_ride": {
      "driver": {
        "arrive_until": 2400,
        "direct_cost": 395
      },
      "passengers": [
        {
          "bid": 1760,
          "id": 20,
          "price": 1759,
          "cost": 570,
          "direct_dist": 5868,
          "direct_cost": 177,
          "direct_time": 358
        },
        {
          "bid": 3398,
          "id": 6,
          "price": 2655,
          "cost": 886,
          "direct_dist": 11329,
          "direct_cost": 340,
          "direct_time": 751
        }
      ],
      "cost": 426,
      "virtual_welfare": 3702
    },
    "profit": 3988,
    "cost_profit": 1030.0,
    "welfare": 4732,
    "virtual_welfare": 3702,
    "running_time": 0
  },
  {
    "graph_name": "25_83",
    "n_pass": 2,
    "winning_ride": {
      "driver": {
        "arrive_until": 2400,
        "direct_cost": 499
      },
      "passengers": [
        {
          "bid": 2697,
          "id": 19,
          "price": 1687,
          "cost": 947,
          "direct_dist": 12990,
          "direct_cost": 390,
          "direct_time": 950
        },
        {
          "bid": 4644,
          "id": 10,
          "price": 1821,
          "cost": 1081,
          "direct_dist": 15481,
          "direct_cost": 465,
          "direct_time": 1014
        }
      ],
      "cost": 267,
      "virtual_welfare": 5313
    },
    "profit": 3241,
    "cost_profit": 1761.0,
    "welfare": 7074,
    "virtual_welfare": 5313,
    "running_time": 0
  },
  {
    "graph_name": "25_84",
    "n_pass": 2,
    "winning_ride": {
      "driver": {
        "arrive_until": 2400,
        "direct_cost": 466
      },
      "passengers": [
        {
          "bid": 1688,
          "id": 7,
          "price": 1512,
          "cost": 530,
          "direct_dist": 5629,
          "direct_cost": 169,
          "direct_time": 402
        },
        {
          "bid": 4956,
          "id": 1,
          "price": 4780,
          "cost": 1120,
          "direct_dist": 16520,
          "direct_cost": 496,
          "direct_time": 1101
        }
      ],
      "cost": 451,
      "virtual_welfare": 4994
    },
    "profit": 5841,
    "cost_profit": 1199.0,
    "welfare": 6193,
    "virtual_welfare": 4994,
    "running_time": 0
  },
  {
    "graph_name": "25_85",
    "n_pass": 2,
    "winning_ride": {
      "driver": {
        "arrive_until": 2400,
        "direct_cost": 352
      },
      "passengers": [
        {
          "bid": 2412,
          "id": 20,
          "price": 1931,
          "cost": 478,
          "direct_dist": 8041,
          "direct_cost": 242,
          "direct_time": 506
        },
        {
          "bid": 2332,
          "id": 1,
          "price": 873,
          "cost": 534,
          "direct_dist": 7776,
          "direct_cost": 234,
          "direct_time": 556
        }
      ],
      "cost": 507,
      "virtual_welfare": 3732
    },
    "profit": 2297,
    "cost_profit": 505.0,
    "welfare": 4237,
    "virtual_welfare": 3732,
    "running_time": 0
  },
  {
    "graph_name": "25_86",
    "n_pass": 2,
    "winning_ride": {
      "driver": {
        "arrive_until": 2400,
        "direct_cost": 514
      },
      "passengers": [
        {
          "bid": 2818,
          "id": 25,
          "price": 1617,
          "cost": 717,
          "direct_dist": 9395,
          "direct_cost": 282,
          "direct_time": 609
        },
        {
          "bid": 2968,
          "id": 2,
          "price": 1716,
          "cost": 816,
          "direct_dist": 9896,
          "direct_cost": 297,
          "direct_time": 668
        }
      ],
      "cost": 256,
      "virtual_welfare": 4253
    },
    "profit": 3077,
    "cost_profit": 1277.0,
    "welfare": 5530,
    "virtual_welfare": 4253,
    "running_time": 0
  },
  {
    "graph_name": "25_87",
    "n_pass": 1,
    "winning_ride": {
      "driver": {
        "arrive_until": 2400,
        "direct_cost": 537
      },
      "passengers": [
        {
          "bid": 4830,
          "id": 20,
          "price": 4633,
          "cost": 1173,
          "direct_dist": 16102,
          "direct_cost": 484,
          "direct_time": 1169
        }
      ],
      "cost": 428,
      "virtual_welfare": 3657
    },
    "profit": 4205,
    "cost_profit": 745.0,
    "welfare": 4402,
    "virtual_welfare": 3657,
    "running_time": 0
  },
  {
    "graph_name": "25_88",
    "n_pass": 2,
    "winning_ride": {
      "driver": {
        "arrive_until": 2400,
        "direct_cost": 435
      },
      "passengers": [
        {
          "bid": 1745,
          "id": 16,
          "price": 1301,
          "cost": 1025,
          "direct_dist": 15955,
          "direct_cost": 479,
          "direct_time": 1008
        },
        {
          "bid": 4550,
          "id": 12,
          "price": 2790,
          "cost": 950,
          "direct_dist": 15167,
          "direct_cost": 456,
          "direct_time": 942
        }
      ],
      "cost": 607,
      "virtual_welfare": 4320
    },
    "profit": 3484,
    "cost_profit": 1368.0,
    "welfare": 5688,
    "virtual_welfare": 4320,
    "running_time": 0
  },
  {
    "graph_name": "25_89",
    "n_pass": 2,
    "winning_ride": {
      "driver": {
        "arrive_until": 2400,
        "direct_cost": 535
      },
      "passengers": [
        {
          "bid": 3201,
          "id": 21,
          "price": 1033,
          "cost": 1033,
          "direct_dist": 14498,
          "direct_cost": 435,
          "direct_time": 916
        },
        {
          "bid": 3683,
          "id": 9,
          "price": 905,
          "cost": 905,
          "direct_dist": 12277,
          "direct_cost": 369,
          "direct_time": 793
        }
      ],
      "cost": 416,
      "virtual_welfare": 4946
    },
    "profit": 1522,
    "cost_profit": 1522.0,
    "welfare": 6468,
    "virtual_welfare": 4946,
    "running_time": 0
  },
  {
    "graph_name": "25_9",
    "n_pass": 2,
    "winning_ride": {
      "driver": {
        "arrive_until": 2400,
        "direct_cost": 609
      },
      "passengers": [
        {
          "bid": 3074,
          "id": 22,
          "price": 2850,
          "cost": 795,
          "direct_dist": 10247,
          "direct_cost": 308,
          "direct_time": 738
        },
        {
          "bid": 3590,
          "id": 14,
          "price": 3068,
          "cost": 1013,
          "direct_dist": 15629,
          "direct_cost": 469,
          "direct_time": 954
        }
      ],
      "cost": 350,
      "virtual_welfare": 4856
    },
    "profit": 5568,
    "cost_profit": 1458.0,
    "welfare": 6314,
    "virtual_welfare": 4856,
    "running_time": 0
  },
  {
    "graph_name": "25_90",
    "n_pass": 2,
    "winning_ride": {
      "driver": {
        "arrive_until": 2400,
        "direct_cost": 475
      },
      "passengers": [
        {
          "bid": 1750,
          "id": 12,
          "price": 1719,
          "cost": 800,
          "direct_dist": 5834,
          "direct_cost": 176,
          "direct_time": 446
        },
        {
          "bid": 3000,
          "id": 2,
          "price": 2969,
          "cost": 773,
          "direct_dist": 10001,
          "direct_cost": 301,
          "direct_time": 655
        }
      ],
      "cost": 236,
      "virtual_welfare": 3177
    },
    "profit": 4452,
    "cost_profit": 1337.0,
    "welfare": 4514,
    "virtual_welfare": 3177,
    "running_time": 0
  },
  {
    "graph_name": "25_91",
    "n_pass": 2,
    "winning_ride": {
      "driver": {
        "arrive_until": 2400,
        "direct_cost": 441
      },
      "passengers": [
        {
          "bid": 2681,
          "id": 21,
          "price": 2159,
          "cost": 762,
          "direct_dist": 8939,
          "direct_cost": 269,
          "direct_time": 612
        },
        {
          "bid": 4286,
          "id": 15,
          "price": 3746,
          "cost": 842,
          "direct_dist": 14287,
          "direct_cost": 429,
          "direct_time": 955
        }
      ],
      "cost": 257,
      "virtual_welfare": 5363
    },
    "profit": 5648,
    "cost_profit": 1347.0,
    "welfare": 6710,
    "virtual_welfare": 5363,
    "running_time": 0
  },
  {
    "graph_name": "25_92",
    "n_pass": 2,
    "winning_ride": {
      "driver": {
        "arrive_until": 2400,
        "direct_cost": 449
      },
      "passengers": [
        {
          "bid": 3559,
          "id": 18,
          "price": 1793,
          "cost": 733,
          "direct_dist": 11866,
          "direct_cost": 356,
          "direct_time": 734
        },
        {
          "bid": 2229,
          "id": 11,
          "price": 1858,
          "cost": 798,
          "direct_dist": 7431,
          "direct_cost": 223,
          "direct_time": 576
        }
      ],
      "cost": 310,
      "virtual_welfare": 4257
    },
    "profit": 3341,
    "cost_profit": 1221.0,
    "welfare": 5478,
    "virtual_welfare": 4257,
    "running_time": 0
  },
  {
    "graph_name": "25_93",
    "n_pass": 2,
    "winning_ride": {
      "driver": {
        "arrive_until": 2400,
        "direct_cost": 475
      },
      "passengers": [
        {
          "bid": 4329,
          "id": 23,
          "price": 3465,
          "cost": 839,
          "direct_dist": 14501,
          "direct_cost": 436,
          "direct_time": 933
        },
        {
          "bid": 3747,
          "id": 8,
          "price": 3545,
          "cost": 919,
          "direct_dist": 14817,
          "direct_cost": 445,
          "direct_time": 977
        }
      ],
      "cost": 288,
      "virtual_welfare": 6318
    },
    "profit": 6722,
    "cost_profit": 1470.0,
    "welfare": 7788,
    "virtual_welfare": 6318,
    "running_time": 0
  },
  {
    "graph_name": "25_94",
    "n_pass": 2,
    "winning_ride": {
      "driver": {
        "arrive_until": 2400,
        "direct_cost": 515
      },
      "passengers": [
        {
          "bid": 4044,
          "id": 18,
          "price": 2064,
          "cost": 790,
          "direct_dist": 13481,
          "direct_cost": 405,
          "direct_time": 931
        },
        {
          "bid": 1890,
          "id": 3,
          "price": 1397,
          "cost": 943,
          "direct_dist": 16671,
          "direct_cost": 501,
          "direct_time": 1049
        }
      ],
      "cost": 414,
      "virtual_welfare": 4201
    },
    "profit": 3047,
    "cost_profit": 1319.0,
    "welfare": 5520,
    "virtual_welfare": 4201,
    "running_time": 0
  },
  {
    "graph_name": "25_95",
    "n_pass": 2,
    "winning_ride": {
      "driver": {
        "arrive_until": 2400,
        "direct_cost": 481
      },
      "passengers": [
        {
          "bid": 4416,
          "id": 20,
          "price": 2367,
          "cost": 1055,
          "direct_dist": 14720,
          "direct_cost": 442,
          "direct_time": 1005
        },
        {
          "bid": 3192,
          "id": 4,
          "price": 1355,
          "cost": 915,
          "direct_dist": 12625,
          "direct_cost": 379,
          "direct_time": 928
        }
      ],
      "cost": 387,
      "virtual_welfare": 5638
    },
    "profit": 3335,
    "cost_profit": 1583.0,
    "welfare": 7221,
    "virtual_welfare": 5638,
    "running_time": 0
  },
  {
    "graph_name": "25_96",
    "n_pass": 2,
    "winning_ride": {
      "driver": {
        "arrive_until": 2400,
        "direct_cost": 348
      },
      "passengers": [
        {
          "bid": 3909,
          "id": 15,
          "price": 1312,
          "cost": 818,
          "direct_dist": 13033,
          "direct_cost": 391,
          "direct_time": 865
        },
        {
          "bid": 3936,
          "id": 1,
          "price": 3854,
          "cost": 1041,
          "direct_dist": 13120,
          "direct_cost": 394,
          "direct_time": 842
        }
      ],
      "cost": 722,
      "virtual_welfare": 5986
    },
    "profit": 4444,
    "cost_profit": 1137.0,
    "welfare": 7123,
    "virtual_welfare": 5986,
    "running_time": 0
  },
  {
    "graph_name": "25_97",
    "n_pass": 2,
    "winning_ride": {
      "driver": {
        "arrive_until": 2400,
        "direct_cost": 393
      },
      "passengers": [
        {
          "bid": 5058,
          "id": 20,
          "price": 3450,
          "cost": 1028,
          "direct_dist": 16997,
          "direct_cost": 510,
          "direct_time": 1132
        },
        {
          "bid": 2456,
          "id": 6,
          "price": 564,
          "cost": 564,
          "direct_dist": 8188,
          "direct_cost": 246,
          "direct_time": 608
        }
      ],
      "cost": 558,
      "virtual_welfare": 5922
    },
    "profit": 3456,
    "cost_profit": 1034.0,
    "welfare": 6956,
    "virtual_welfare": 5922,
    "running_time": 0
  },
  {
    "graph_name": "25_98",
    "n_pass": 2,
    "winning_ride": {
      "driver": {
        "arrive_until": 2400,
        "direct_cost": 429
      },
      "passengers": [
        {
          "bid": 4247,
          "id": 23,
          "price": 4164,
          "cost": 1097,
          "direct_dist": 14700,
          "direct_cost": 441,
          "direct_time": 909
        },
        {
          "bid": 2525,
          "id": 10,
          "price": 736,
          "cost": 627,
          "direct_dist": 8418,
          "direct_cost": 253,
          "direct_time": 598
        }
      ],
      "cost": 555,
      "virtual_welfare": 5048
    },
    "profit": 4345,
    "cost_profit": 1169.0,
    "welfare": 6217,
    "virtual_welfare": 5048,
    "running_time": 0
  },
  {
    "graph_name": "25_99",
    "n_pass": 2,
    "winning_ride": {
      "driver": {
        "arrive_until": 2400,
        "direct_cost": 417
      },
      "passengers": [
        {
          "bid": 2577,
          "id": 10,
          "price": 2158,
          "cost": 1036,
          "direct_dist": 14164,
          "direct_cost": 425,
          "direct_time": 930
        },
        {
          "bid": 3774,
          "id": 8,
          "price": 2542,
          "cost": 847,
          "direct_dist": 12582,
          "direct_cost": 378,
          "direct_time": 793
        }
      ],
      "cost": 500,
      "virtual_welfare": 4468
    },
    "profit": 4200,
    "cost_profit": 1383.0,
    "welfare": 5851,
    "virtual_welfare": 4468,
    "running_time": 0
  }
]