[
  {
    "graph_name": "25_0",
    "n_pass": 3,
    "winning_ride": {
      "driver": {
        "arrive_until": 2400,
        "direct_cost": 428
      },
      "passengers": [
        {
          "bid": 4704,
          "id": 20,
          "price": 3224,
          "cost": 0,
          "direct_dist": 15680,
          "direct_cost": 471,
          "direct_time": 1047
        },
        {
          "bid": 36,
          "id": 15,
          "price": 0,
          "cost": 0,
          "direct_dist": 302,
          "direct_cost": 10,
          "direct_time": 25
        },
        {
          "bid": 3989,
          "id": 13,
          "price": 3387,
          "cost": 0,
          "direct_dist": 15406,
          "direct_cost": 463,
          "direct_time": 1051
        }
      ],
      "cost": 532,
      "virtual_welfare": 8197
    },
    "profit": 6079,
    "cost_profit": 0.0,
    "welfare": 8197,
    "virtual_welfare": 8197,
    "running_time": 0
  },
  {
    "graph_name": "25_1",
    "n_pass": 2,
    "winning_ride": {
      "driver": {
        "arrive_until": 2400,
        "direct_cost": 564
      },
      "passengers": [
        {
          "bid": 3864,
          "id": 23,
          "price": 3123,
          "cost": 0,
          "direct_dist": 17469,
          "direct_cost": 525,
          "direct_time": 1158
        },
        {
          "bid": 4542,
          "id": 2,
          "price": 3069,
          "cost": 0,
          "direct_dist": 15142,
          "direct_cost": 455,
          "direct_time": 924
        }
      ],
      "cost": 314,
      "virtual_welfare": 8092
    },
    "profit": 5878,
    "cost_profit": 0.0,
    "welfare": 8092,
    "virtual_welfare": 8092,
    "running_time": 0
  },
  {
    "graph_name": "25_10",
    "n_pass": 2,
    "winning_ride": {
      "driver": {
        "arrive_until": 2400,
        "direct_cost": 438
      },
      "passengers": [
        {
          "bid": 3743,
          "id": 7,
          "price": 929,
          "cost": 0,
          "direct_dist": 12479,
          "direct_cost": 375,
          "direct_time": 861
        },
        {
          "bid": 3984,
          "id": 3,
          "price": 1177,
          "cost": 0,
          "direct_dist": 15131,
          "direct_cost": 454,
          "direct_time": 996
        }
      ],
      "cost": 375,
      "virtual_welfare": 7352
    },
    "profit": 1731,
    "cost_profit": 0.0,
    "welfare": 7352,
    "virtual_welfare": 7352,
    "running_time": 0
  },
  {
    "graph_name": "25_11",
    "n_pass": 2,
    "winning_ride": {
      "driver": {
        "arrive_until": 2400,
        "direct_cost": 428
      },
      "passengers": [
        {
          "bid": 4260,
          "id": 19,
          "price": 3668,
          "cost": 0,
          "direct_dist": 14203,
          "direct_cost": 427,
          "direct_time": 971
        },
        {
          "bid": 4409,
          "id": 18,
          "price": 3651,
          "cost": 0,
          "direct_dist": 14697,
          "direct_cost": 441,
          "direct_time": 924
        }
      ],
      "cost": 555,
      "virtual_welfare": 8114
    },
    "profit": 6764,
    "cost_profit": 0.0,
    "welfare": 8114,
    "virtual_welfare": 8114,
    "running_time": 0
  },
  {
    "graph_name": "25_12",
    "n_pass": 2,
    "winning_ride": {
      "driver": {
        "arrive_until": 2400,
        "direct_cost": 356
      },
      "passengers": [
        {
          "bid": 4034,
          "id": 24,
          "price": 1746,
          "cost": 0,
          "direct_dist": 13449,
          "direct_cost": 404,
          "direct_time": 881
        },
        {
          "bid": 3486,
          "id": 23,
          "price": 1198,
          "cost": 0,
          "direct_dist": 14187,
          "direct_cost": 426,
          "direct_time": 864
        }
      ],
      "cost": 656,
      "virtual_welfare": 6864
    },
    "profit": 2288,
    "cost_profit": 0.0,
    "welfare": 6864,
    "virtual_welfare": 6864,
    "running_time": 0
  },
  {
    "graph_name": "25_13",
    "n_pass": 2,
    "winning_ride": {
      "driver": {
        "arrive_until": 2400,
        "direct_cost": 433
      },
      "passengers": [
        {
          "bid": 3766,
          "id": 22,
          "price": 3214,
          "cost": 0,
          "direct_dist": 12556,
          "direct_cost": 377,
          "direct_time": 880
        },
        {
          "bid": 2530,
          "id": 1,
          "price": 1978,
          "cost": 0,
          "direct_dist": 8434,
          "direct_cost": 254,
          "direct_time": 604
        }
      ],
      "cost": 334,
      "virtual_welfare": 5962
    },
    "profit": 4858,
    "cost_profit": 0.0,
    "welfare": 5962,
    "virtual_welfare": 5962,
    "running_time": 0
  },
  {
    "graph_name": "25_14",
    "n_pass": 2,
    "winning_ride": {
      "driver": {
        "arrive_until": 2400,
        "direct_cost": 392
      },
      "passengers": [
        {
          "bid": 4581,
          "id": 11,
          "price": 3180,
          "cost": 0,
          "direct_dist": 15272,
          "direct_cost": 459,
          "direct_time": 1012
        },
        {
          "bid": 1325,
          "id": 9,
          "price": 753,
          "cost": 0,
          "direct_dist": 10363,
          "direct_cost": 311,
          "direct_time": 631
        }
      ],
      "cost": 542,
      "virtual_welfare": 5364
    },
    "profit": 3391,
    "cost_profit": 0.0,
    "welfare": 5364,
    "virtual_welfare": 5364,
    "running_time": 1
  },
  {
    "graph_name": "25_15",
    "n_pass": 2,
    "winning_ride": {
      "driver": {
        "arrive_until": 2400,
        "direct_cost": 481
      },
      "passengers": [
        {
          "bid": 4161,
          "id": 24,
          "price": 3924,
          "cost": 0,
          "direct_dist": 13872,
          "direct_cost": 417,
          "direct_time": 844
        },
        {
          "bid": 4692,
          "id": 2,
          "price": 3841,
          "cost": 0,
          "direct_dist": 18200,
          "direct_cost": 546,
          "direct_time": 1202
        }
      ],
      "cost": 386,
      "virtual_welfare": 8467
    },
    "profit": 7379,
    "cost_profit": 0.0,
    "welfare": 8467,
    "virtual_welfare": 8467,
    "running_time": 0
  },
  {
    "graph_name": "25_16",
    "n_pass": 2,
    "winning_ride": {
      "driver": {
        "arrive_until": 2400,
        "direct_cost": 442
      },
      "passengers": [
        {
          "bid": 3922,
          "id": 8,
          "price": 3696,
          "cost": 0,
          "direct_dist": 13076,
          "direct_cost": 393,
          "direct_time": 902
        },
        {
          "bid": 5042,
          "id": 2,
          "price": 3872,
          "cost": 0,
          "direct_dist": 16808,
          "direct_cost": 505,
          "direct_time": 1122
        }
      ],
      "cost": 533,
      "virtual_welfare": 8431
    },
    "profit": 7035,
    "cost_profit": 0.0,
    "welfare": 8431,
    "virtual_welfare": 8431,
    "running_time": 0
  },
  {
    "graph_name": "25_17",
    "n_pass": 3,
    "winning_ride": {
      "driver": {
        "arrive_until": 2400,
        "direct_cost": 468
      },
      "passengers": [
        {
          "bid": 3377,
          "id": 22,
          "price": 2020,
          "cost": 0,
          "direct_dist": 11257,
          "direct_cost": 338,
          "direct_time": 683
        },
        {
          "bid": 2208,
          "id": 19,
          "price": 851,
          "cost": 0,
          "direct_dist": 7360,
          "direct_cost": 221,
          "direct_time": 551
        },
        {
          "bid": 4337,
          "id": 2,
          "price": 3521,
          "cost": 0,
          "direct_dist": 14458,
          "direct_cost": 434,
          "direct_time": 874
        }
      ],
      "cost": 491,
      "virtual_welfare": 9431
    },
    "profit": 5901,
    "cost_profit": 0.0,
    "welfare": 9431,
    "virtual_welfare": 9431,
    "running_time": 0
  },
  {
    "graph_name": "25_18",
    "n_pass": 2,
    "winning_ride": {
      "driver": {
        "arrive_until": 2400,
        "direct_cost": 470
      },
      "passengers": [
        {
          "bid": 1693,
          "id": 12,
          "price": 1668,
          "cost": 0,
          "direct_dist": 5645,
          "direct_cost": 170,
          "direct_time": 423
        },
        {
          "bid": 3373,
          "id": 1,
          "price": 2714,
          "cost": 0,
          "direct_dist": 11244,
          "direct_cost": 338,
          "direct_time": 722
        }
      ],
      "cost": 334,
      "virtual_welfare": 4732
    },
    "profit": 4048,
    "cost_profit": 0.0,
    "welfare": 4732,
    "virtual_welfare": 4732,
    "running_time": 0
  },
  {
    "graph_name": "25_19",
    "n_pass": 2,
    "winning_ride": {
      "driver": {
        "arrive_until": 2400,
        "direct_cost": 423
      },
      "passengers": [
        {
          "bid": 4266,
          "id": 21,
          "price": 3793,
          "cost": 0,
          "direct_dist": 14222,
          "direct_cost": 427,
          "direct_time": 993
        },
        {
          "bid": 2181,
          "id": 5,
          "price": 1211,
          "cost": 0,
          "direct_dist": 7273,
          "direct_cost": 219,
          "direct_time": 563
        }
      ],
      "cost": 438,
      "virtual_welfare": 6009
    },
    "profit": 4566,
    "cost_profit": 0.0,
    "welfare": 6009,
    "virtual_welfare": 6009,
    "running_time": 0
  },
  {
    "graph_name": "25_2",
    "n_pass": 3,
    "winning_ride": {
      "driver": {
        "arrive_until": 2400,
        "direct_cost": 478
      },
      "passengers": [
        {
          "bid": 1634,
          "id": 21,
          "price": 1416,
          "cost": 0,
          "direct_dist": 10589,
          "direct_cost": 318,
          "direct_time": 760
        },
        {
          "bid": 1544,
          "id": 18,
          "price": 1311,
          "cost": 0,
          "direct_dist": 5147,
          "direct_cost": 155,
          "direct_time": 337
        },
        {
          "bid": 2049,
          "id": 1,
          "price": 1816,
          "cost": 0,
          "direct_dist": 10356,
          "direct_cost": 311,
          "direct_time": 698
        }
      ],
      "cost": 436,
      "virtual_welfare": 4791
    },
    "profit": 4107,
    "cost_profit": 0.0,
    "welfare": 4791,
    "virtual_welfare": 4791,
    "running_time": 0
  },
  {
    "graph_name": "25_20",
    "n_pass": 2,
    "winning_ride": {
      "driver": {
        "arrive_until": 2400,
        "direct_cost": 499
      },
      "passengers": [
        {
          "bid": 2359,
          "id": 20,
          "price": 1459,
          "cost": 0,
          "direct_dist": 11283,
          "direct_cost": 339,
          "direct_time": 754
        },
        {
          "bid": 2396,
          "id": 13,
          "price": 1496,
          "cost": 0,
          "direct_dist": 7989,
          "direct_cost": 240,
          "direct_time": 580
        }
      ],
      "cost": 431,
      "virtual_welfare": 4324
    },
    "profit": 2524,
    "cost_profit": 0.0,
    "welfare": 4324,
    "virtual_welfare": 4324,
    "running_time": 0
  },
  {
    "graph_name": "25_21",
    "n_pass": 2,
    "winning_ride": {
      "driver": {
        "arrive_until": 2400,
        "direct_cost": 509
      },
      "passengers": [
        {
          "bid": 2288,
          "id": 7,
          "price": 2016,
          "cost": 0,
          "direct_dist": 7627,
          "direct_cost": 229,
          "direct_time": 506
        },
        {
          "bid": 2556,
          "id": 3,
          "price": 2202,
          "cost": 0,
          "direct_dist": 13874,
          "direct_cost": 417,
          "direct_time": 889
        }
      ],
      "cost": 340,
      "virtual_welfare": 4504
    },
    "profit": 3878,
    "cost_profit": 0.0,
    "welfare": 4504,
    "virtual_welfare": 4504,
    "running_time": 0
  },
  {
    "graph_name": "25_22",
    "n_pass": 2,
    "winning_ride": {
      "driver": {
        "arrive_until": 2400,
        "direct_cost": 470
      },
      "passengers": [
        {
          "bid": 3916,
          "id": 8,
          "price": 2585,
          "cost": 0,
          "direct_dist": 13054,
          "direct_cost": 392,
          "direct_time": 902
        },
        {
          "bid": 2849,
          "id": 5,
          "price": 2551,
          "cost": 0,
          "direct_dist": 9499,
          "direct_cost": 285,
          "direct_time": 588
        }
      ],
      "cost": 565,
      "virtual_welfare": 6200
    },
    "profit": 4571,
    "cost_profit": 0.0,
    "welfare": 6200,
    "virtual_welfare": 6200,
    "running_time": 0
  },
  {
    "graph_name": "25_23",
    "n_pass": 2,
    "winning_ride": {
      "driver": {
        "arrive_until": 2400,
        "direct_cost": 442
      },
      "passengers": [
        {
          "bid": 4934,
          "id": 23,
          "price": 1666,
          "cost": 0,
          "direct_dist": 16448,
          "direct_cost": 494,
          "direct_time": 1064
        },
        {
          "bid": 3239,
          "id": 17,
          "price": 1644,
          "cost": 0,
          "direct_dist": 16572,
          "direct_cost": 498,
          "direct_time": 1061
        }
      ],
      "cost": 553,
      "virtual_welfare": 7620
    },
    "profit": 2757,
    "cost_profit": 0.0,
    "welfare": 7620,
    "virtual_welfare": 7620,
    "running_time": 1
  },
  {
    "graph_name": "25_24",
    "n_pass": 2,
    "winning_ride": {
      "driver": {
        "arrive_until": 2400,
        "direct_cost": 431
      },
      "passengers": [
        {
          "bid": 4152,
          "id": 7,
          "price": 2522,
          "cost": 0,
          "direct_dist": 13843,
          "direct_cost": 416,
          "direct_time": 995
        },
        {
          "bid": 1697,
          "id": 3,
          "price": 268,
          "cost": 0,
          "direct_dist": 12640,
          "direct_cost": 380,
          "direct_time": 860
        }
      ],
      "cost": 481,
      "virtual_welfare": 5368
    },
    "profit": 2309,
    "cost_profit": 0.0,
    "welfare": 5368,
    "virtual_welfare": 5368,
    "running_time": 1
  },
  {
    "graph_name": "25_25",
    "n_pass": 3,
    "winning_ride": {
      "driver": {
        "arrive_until": 2400,
        "direct_cost": 499
      },
      "passengers": [
        {
          "bid": 3531,
          "id": 23,
          "price": 3094,
          "cost": 0,
          "direct_dist": 15265,
          "direct_cost": 458,
          "direct_time": 969
        },
        {
          "bid": 3579,
          "id": 22,
          "price": 3070,
          "cost": 0,
          "direct_dist": 11932,
          "direct_cost": 358,
          "direct_time": 721
        },
        {
          "bid": 541,
          "id": 16,
          "price": 421,
          "cost": 0,
          "direct_dist": 1804,
          "direct_cost": 55,
          "direct_time": 199
        }
      ],
      "cost": 436,
      "virtual_welfare": 7215
    },
    "profit": 6149,
    "cost_profit": 0.0,
    "welfare": 7215,
    "virtual_welfare": 7215,
    "running_time": 0
  },
  {
    "graph_name": "25_26",
    "n_pass": 2,
    "winning_ride": {
      "driver": {
        "arrive_until": 2400,
        "direct_cost": 529
      },
      "passengers": [
        {
          "bid": 1254,
          "id": 11,
          "price": 1171,
          "cost": 0,
          "direct_dist": 5643,
          "direct_cost": 170,
          "direct_time": 445
        },
        {
          "bid": 4690,
          "id": 7,
          "price": 2947,
          "cost": 0,
          "direct_dist": 15636,
          "direct_cost": 470,
          "direct_time": 977
        }
      ],
      "cost": 381,
      "virtual_welfare": 5563
    },
    "profit": 3737,
    "cost_profit": 0.0,
    "welfare": 5563,
    "virtual_welfare": 5563,
    "running_time": 0
  },
  {
    "graph_name": "25_27",
    "n_pass": 2,
    "winning_ride": {
      "driver": {
        "arrive_until": 2400,
        "direct_cost": 451
      },
      "passengers": [
        {
          "bid": 1111,
          "id": 18,
          "price": 682,
          "cost": 0,
          "direct_dist": 3998,
          "direct_cost": 120,
          "direct_time": 298
        },
        {
          "bid": 1942,
          "id": 10,
          "price": 1513,
          "cost": 0,
          "direct_dist": 11496,
          "direct_cost": 345,
          "direct_time": 788
        }
      ],
      "cost": 621,
      "virtual_welfare": 2432
    },
    "profit": 1574,
    "cost_profit": 0.0,
    "welfare": 2432,
    "virtual_welfare": 2432,
    "running_time": 0
  },
  {
    "graph_name": "25_28",
    "n_pass": 2,
    "winning_ride": {
      "driver": {
        "arrive_until": 2400,
        "direct_cost": 507
      },
      "passengers": [
        {
          "bid": 4122,
          "id": 21,
          "price": 2638,
          "cost": 0,
          "direct_dist": 14386,
          "direct_cost": 432,
          "direct_time": 1009
        },
        {
          "bid": 3309,
          "id": 1,
          "price": 2649,
          "cost": 0,
          "direct_dist": 11030,
          "direct_cost": 331,
          "direct_time": 727
        }
      ],
      "cost": 402,
      "virtual_welfare": 7029
    },
    "profit": 4885,
    "cost_profit": 0.0,
    "welfare": 7029,
    "virtual_welfare": 7029,
    "running_time": 0
  },
  {
    "graph_name": "25_29",
    "n_pass": 2,
    "winning_ride": {
      "driver": {
        "arrive_until": 2400,
        "direct_cost": 545
      },
      "passengers": [
        {
          "bid": 4163,
          "id": 25,
          "price": 2947,
          "cost": 0,
          "direct_dist": 13879,
          "direct_cost": 417,
          "direct_time": 867
        },
        {
          "bid": 3044,
          "id": 13,
          "price": 3013,
          "cost": 0,
          "direct_dist": 13257,
          "direct_cost": 398,
          "direct_time": 934
        }
      ],
      "cost": 391,
      "virtual_welfare": 6816
    },
    "profit": 5569,
    "cost_profit": 0.0,
    "welfare": 6816,
    "virtual_welfare": 6816,
    "running_time": 0
  },
  {
    "graph_name": "25_3",
    "n_pass": 2,
    "winning_ride": {
      "driver": {
        "arrive_until": 2400,
        "direct_cost": 365
      },
      "passengers": [
        {
          "bid": 2973,
          "id": 5,
          "price": 1055,
          "cost": 0,
          "direct_dist": 9912,
          "direct_cost": 298,
          "direct_time": 712
        },
        {
          "bid": 2579,
          "id": 2,
          "price": 1812,
          "cost": 0,
          "direct_dist": 8599,
          "direct_cost": 258,
          "direct_time": 589
        }
      ],
      "cost": 572,
      "virtual_welfare": 4980
    },
    "profit": 2295,
    "cost_profit": 0.0,
    "welfare": 4980,
    "virtual_welfare": 4980,
    "running_time": 0
  },
  {
    "graph_name": "25_30",
    "n_pass": 2,
    "winning_ride": {
      "driver": {
        "arrive_until": 2400,
        "direct_cost": 464
      },
      "passengers": [
        {
          "bid": 716,
          "id": 11,
          "price": 430,
          "cost": 0,
          "direct_dist": 4982,
          "direct_cost": 150,
          "direct_time": 352
        },
        {
          "bid": 3843,
          "id": 7,
          "price": 3535,
          "cost": 0,
          "direct_dist": 12813,
          "direct_cost": 385,
          "direct_time": 945
        }
      ],
      "cost": 480,
      "virtual_welfare": 4079
    },
    "profit": 3485,
    "cost_profit": 0.0,
    "welfare": 4079,
    "virtual_welfare": 4079,
    "running_time": 0
  },
  {
    "graph_name": "25_31",
    "n_pass": 2,
    "winning_ride": {
      "driver": {
        "arrive_until": 2400,
        "direct_cost": 398
      },
      "passengers": [
        {
          "bid": 1498,
          "id": 7,
          "price": 642,
          "cost": 0,
          "direct_dist": 7415,
          "direct_cost": 223,
          "direct_time": 600
        },
        {
          "bid": 2049,
          "id": 5,
          "price": 1193,
          "cost": 0,
          "direct_dist": 6830,
          "direct_cost": 205,
          "direct_time": 512
        }
      ],
      "cost": 326,
      "virtual_welfare": 3221
    },
    "profit": 1509,
    "cost_profit": 0.0,
    "welfare": 3221,
    "virtual_welfare": 3221,
    "running_time": 0
  },
  {
    "graph_name": "25_32",
    "n_pass": 2,
    "winning_ride": {
      "driver": {
        "arrive_until": 2400,
        "direct_cost": 464
      },
      "passengers": [
        {
          "bid": 2238,
          "id": 10,
          "price": 2166,
          "cost": 0,
          "direct_dist": 14563,
          "direct_cost": 437,
          "direct_time": 867
        },
        {
          "bid": 3560,
          "id": 6,
          "price": 2985,
          "cost": 0,
          "direct_dist": 14861,
          "direct_cost": 446,
          "direct_time": 927
        }
      ],
      "cost": 543,
      "virtual_welfare": 5255
    },
    "profit": 4608,
    "cost_profit": 0.0,
    "welfare": 5255,
    "virtual_welfare": 5255,
    "running_time": 0
  },
  {
    "graph_name": "25_33",
    "n_pass": 3,
    "winning_ride": {
      "driver": {
        "arrive_until": 2400,
        "direct_cost": 481
      },
      "passengers": [
        {
          "bid": 1455,
          "id": 18,
          "price": 1023,
          "cost": 0,
          "direct_dist": 4852,
          "direct_cost": 146,
          "direct_time": 389
        },
        {
          "bid": 1729,
          "id": 14,
          "price": 1087,
          "cost": 0,
          "direct_dist": 8966,
          "direct_cost": 269,
          "direct_time": 575
        },
        {
          "bid": 2741,
          "id": 12,
          "price": 533,
          "cost": 0,
          "direct_dist": 9726,
          "direct_cost": 292,
          "direct_time": 648
        }
      ],
      "cost": 487,
      "virtual_welfare": 5438
    },
    "profit": 2156,
    "cost_profit": 0.0,
    "welfare": 5438,
    "virtual_welfare": 5438,
    "running_time": 0
  },
  {
    "graph_name": "25_34",
    "n_pass": 2,
    "winning_ride": {
      "driver": {
        "arrive_until": 2400,
        "direct_cost": 435
      },
      "passengers": [
        {
          "bid": 3136,
          "id": 13,
          "price": 2966,
          "cost": 0,
          "direct_dist": 11799,
          "direct_cost": 354,
          "direct_time": 777
        },
        {
          "bid": 3072,
          "id": 5,
          "price": 2969,
          "cost": 0,
          "direct_dist": 10242,
          "direct_cost": 308,
          "direct_time": 772
        }
      ],
      "cost": 408,
      "virtual_welfare": 5800
    },
    "profit": 5527,
    "cost_profit": 0.0,
    "welfare": 5800,
    "virtual_welfare": 5800,
    "running_time": 0
  },
  {
    "graph_name": "25_35",
    "n_pass": 2,
    "winning_ride": {
      "driver": {
        "arrive_until": 2400,
        "direct_cost": 468
      },
      "passengers": [
        {
          "bid": 3567,
          "id": 12,
          "price": 1642,
          "cost": 0,
          "direct_dist": 11891,
          "direct_cost": 357,
          "direct_time": 843
        },
        {
          "bid": 2720,
          "id": 10,
          "price": 2448,
          "cost": 0,
          "direct_dist": 9067,
          "direct_cost": 273,
          "direct_time": 548
        }
      ],
      "cost": 380,
      "virtual_welfare": 5907
    },
    "profit": 3710,
    "cost_profit": 0.0,
    "welfare": 5907,
    "virtual_welfare": 5907,
    "running_time": 0
  },
  {
    "graph_name": "25_36",
    "n_pass": 2,
    "winning_ride": {
      "driver": {
        "arrive_until": 2400,
        "direct_cost": 620
      },
      "passengers": [
        {
          "bid": 2242,
          "id": 20,
          "price": 1870,
          "cost": 0,
          "direct_dist": 12074,
          "direct_cost": 363,
          "direct_time": 879
        },
        {
          "bid": 3252,
          "id": 14,
          "price": 1963,
          "cost": 0,
          "direct_dist": 16917,
          "direct_cost": 508,
          "direct_time": 1169
        }
      ],
      "cost": 227,
      "virtual_welfare": 5267
    },
    "profit": 3606,
    "cost_profit": 0.0,
    "welfare": 5267,
    "virtual_welfare": 5267,
    "running_time": 0
  },
  {
    "graph_name": "25_37",
    "n_pass": 2,
    "winning_ride": {
      "driver": {
        "arrive_until": 2400,
        "direct_cost": 504
      },
      "passengers": [
        {
          "bid": 2578,
          "id": 19,
          "price": 1342,
          "cost": 0,
          "direct_dist": 9194,
          "direct_cost": 276,
          "direct_time": 629
        },
        {
          "bid": 1553,
          "id": 8,
          "price": 1504,
          "cost": 0,
          "direct_dist": 5177,
          "direct_cost": 156,
          "direct_time": 372
        }
      ],
      "cost": 406,
      "virtual_welfare": 3725
    },
    "profit": 2440,
    "cost_profit": 0.0,
    "welfare": 3725,
    "virtual_welfare": 3725,
    "running_time": 0
  },
  {
    "graph_name": "25_38",
    "n_pass": 2,
    "winning_ride": {
      "driver": {
        "arrive_until": 2400,
        "direct_cost": 628
      },
      "passengers": [
        {
          "bid": 4021,
          "id": 15,
          "price": 2213,
          "cost": 0,
          "direct_dist": 17821,
          "direct_cost": 535,
          "direct_time": 1124
        },
        {
          "bid": 4126,
          "id": 7,
          "price": 2222,
          "cost": 0,
          "direct_dist": 13754,
          "direct_cost": 413,
          "direct_time": 956
        }
      ],
      "cost": 256,
      "virtual_welfare": 7891
    },
    "profit": 4179,
    "cost_profit": 0.0,
    "welfare": 7891,
    "virtual_welfare": 7891,
    "running_time": 0
  },
  {
    "graph_name": "25_39",
    "n_pass": 3,
    "winning_ride": {
      "driver": {
        "arrive_until": 2400,
        "direct_cost": 452
      },
      "passengers": [
        {
          "bid": 1028,
          "id": 17,
          "price": 809,
          "cost": 0,
          "direct_dist": 3429,
          "direct_cost": 103,
          "direct_time": 193
        },
        {
          "bid": 2601,
          "id": 14,
          "price": 2382,
          "cost": 0,
          "direct_dist": 9653,
          "direct_cost": 290,
          "direct_time": 625
        },
        {
          "bid": 3014,
          "id": 13,
          "price": 2534,
          "cost": 0,
          "direct_dist": 14549,
          "direct_cost": 437,
          "direct_time": 877
        }
      ],
      "cost": 421,
      "virtual_welfare": 6222
    },
    "profit": 5304,
    "cost_profit": 0.0,
    "welfare": 6222,
    "virtual_welfare": 6222,
    "running_time": 0
  },
  {
    "graph_name": "25_4",
    "n_pass": 2,
    "winning_ride": {
      "driver": {
        "arrive_until": 2400,
        "direct_cost": 446
      },
      "passengers": [
        {
          "bid": 3617,
          "id": 16,
          "price": 2986,
          "cost": 0,
          "direct_dist": 12057,
          "direct_cost": 362,
          "direct_time": 816
        },
        {
          "bid": 3313,
          "id": 7,
          "price": 2952,
          "cost": 0,
          "direct_dist": 11046,
          "direct_cost": 332,
          "direct_time": 730
        }
      ],
      "cost": 316,
      "virtual_welfare": 6614
    },
    "profit": 5622,
    "cost_profit": 0.0,
    "welfare": 6614,
    "virtual_welfare": 6614,
    "running_time": 0
  },
  {
    "graph_name": "25_40",
    "n_pass": 2,
    "winning_ride": {
      "driver": {
        "arrive_until": 2400,
        "direct_cost": 440
      },
      "passengers": [
        {
          "bid": 3236,
          "id": 3,
          "price": 1990,
          "cost": 0,
          "direct_dist": 18159,
          "direct_cost": 545,
          "direct_time": 1169
        },
        {
          "bid": 3013,
          "id": 2,
          "price": 1767,
          "cost": 0,
          "direct_dist": 10688,
          "direct_cost": 321,
          "direct_time": 739
        }
      ],
      "cost": 467,
      "virtual_welfare": 5782
    },
    "profit": 3290,
    "cost_profit": 0.0,
    "welfare": 5782,
    "virtual_welfare": 5782,
    "running_time": 0
  },
  {
    "graph_name": "25_41",
    "n_pass": 2,
    "winning_ride": {
      "driver": {
        "arrive_until": 2400,
        "direct_cost": 407
      },
      "passengers": [
        {
          "bid": 893,
          "id": 22,
          "price": 486,
          "cost": 0,
          "direct_dist": 5421,
          "direct_cost": 163,
          "direct_time": 359
        },
        {
          "bid": 3000,
          "id": 19,
          "price": 2199,
          "cost": 0,
          "direct_dist": 10024,
          "direct_cost": 301,
          "direct_time": 622
        }
      ],
      "cost": 407,
      "virtual_welfare": 3486
    },
    "profit": 2278,
    "cost_profit": 0.0,
    "welfare": 3486,
    "virtual_welfare": 3486,
    "running_time": 0
  },
  {
    "graph_name": "25_42",
    "n_pass": 2,
    "winning_ride": {
      "driver": {
        "arrive_until": 2400,
        "direct_cost": 356
      },
      "passengers": [
        {
          "bid": 4170,
          "id": 24,
          "price": 2205,
          "cost": 0,
          "direct_dist": 13900,
          "direct_cost": 417,
          "direct_time": 980
        },
        {
          "bid": 3747,
          "id": 23,
          "price": 3278,
          "cost": 0,
          "direct_dist": 15677,
          "direct_cost": 471,
          "direct_time": 1020
        }
      ],
      "cost": 559,
      "virtual_welfare": 7358
    },
    "profit": 4924,
    "cost_profit": 0.0,
    "welfare": 7358,
    "virtual_welfare": 7358,
    "running_time": 0
  },
  {
    "graph_name": "25_43",
    "n_pass": 2,
    "winning_ride": {
      "driver": {
        "arrive_until": 2400,
        "direct_cost": 417
      },
      "passengers": [
        {
          "bid": 3560,
          "id": 17,
          "price": 3542,
          "cost": 0,
          "direct_dist": 11867,
          "direct_cost": 357,
          "direct_time": 779
        },
        {
          "bid": 3485,
          "id": 1,
          "price": 3365,
          "cost": 0,
          "direct_dist": 11619,
          "direct_cost": 349,
          "direct_time": 754
        }
      ],
      "cost": 515,
      "virtual_welfare": 6530
    },
    "profit": 6392,
    "cost_profit": 0.0,
    "welfare": 6530,
    "virtual_welfare": 6530,
    "running_time": 0
  },
  {
    "graph_name": "25_44",
    "n_pass": 2,
    "winning_ride": {
      "driver": {
        "arrive_until": 2400,
        "direct_cost": 435
      },
      "passengers": [
        {
          "bid": 3024,
          "id": 24,
          "price": 1243,
          "cost": 0,
          "direct_dist": 10080,
          "direct_cost": 303,
          "direct_time": 831
        },
        {
          "bid": 2653,
          "id": 1,
          "price": 1020,
          "cost": 0,
          "direct_dist": 8845,
          "direct_cost": 266,
          "direct_time": 556
        }
      ],
      "cost": 307,
      "virtual_welfare": 5370
    },
    "profit": 1956,
    "cost_profit": 0.0,
    "welfare": 5370,
    "virtual_welfare": 5370,
    "running_time": 0
  },
  {
    "graph_name": "25_45",
    "n_pass": 2,
    "winning_ride": {
      "driver": {
        "arrive_until": 2400,
        "direct_cost": 455
      },
      "passengers": [
        {
          "bid": 3205,
          "id": 7,
          "price": 2779,
          "cost": 0,
          "direct_dist": 10685,
          "direct_cost": 321,
          "direct_time": 719
        },
        {
          "bid": 4742,
          "id": 3,
          "price": 3862,
          "cost": 0,
          "direct_dist": 15809,
          "direct_cost": 475,
          "direct_time": 996
        }
      ],
      "cost": 568,
      "virtual_welfare": 7379
    },
    "profit": 6073,
    "cost_profit": 0.0,
    "welfare": 7379,
    "virtual_welfare": 7379,
    "running_time": 1
  },
  {
    "graph_name": "25_46",
    "n_pass": 2,
    "winning_ride": {
      "driver": {
        "arrive_until": 2400,
        "direct_cost": 476
      },
      "passengers": [
        {
          "bid": 5152,
          "id": 15,
          "price": 1649,
          "cost": 0,
          "direct_dist": 17175,
          "direct_cost": 516,
          "direct_time": 1156
        },
        {
          "bid": 2464,
          "id": 10,
          "price": 2365,
          "cost": 0,
          "direct_dist": 8216,
          "direct_cost": 247,
          "direct_time": 471
        }
      ],
      "cost": 572,
      "virtual_welfare": 7044
    },
    "profit": 3442,
    "cost_profit": 0.0,
    "welfare": 7044,
    "virtual_welfare": 7044,
    "running_time": 1
  },
  {
    "graph_name": "25_47",
    "n_pass": 2,
    "winning_ride": {
      "driver": {
        "arrive_until": 2400,
        "direct_cost": 464
      },
      "passengers": [
        {
          "bid": 4242,
          "id": 23,
          "price": 3063,
          "cost": 0,
          "direct_dist": 14143,
          "direct_cost": 425,
          "direct_time": 877
        },
        {
          "bid": 5375,
          "id": 11,
          "price": 3080,
          "cost": 0,
          "direct_dist": 17918,
          "direct_cost": 538,
          "direct_time": 1149
        }
      ],
      "cost": 531,
      "virtual_welfare": 9086
    },
    "profit": 5612,
    "cost_profit": 0.0,
    "welfare": 9086,
    "virtual_welfare": 9086,
    "running_time": 0
  },
  {
    "graph_name": "25_48",
    "n_pass": 2,
    "winning_ride": {
      "driver": {
        "arrive_until": 2400,
        "direct_cost": 428
      },
      "passengers": [
        {
          "bid": 3688,
          "id": 5,
          "price": 2090,
          "cost": 0,
          "direct_dist": 12295,
          "direct_cost": 369,
          "direct_time": 835
        },
        {
          "bid": 1836,
          "id": 2,
          "price": 592,
          "cost": 0,
          "direct_dist": 17028,
          "direct_cost": 511,
          "direct_time": 1085
        }
      ],
      "cost": 604,
      "virtual_welfare": 4920
    },
    "profit": 2078,
    "cost_profit": 0.0,
    "welfare": 4920,
    "virtual_welfare": 4920,
    "running_time": 0
  },
  {
    "graph_name": "25_49",
    "n_pass": 3,
    "winning_ride": {
      "driver": {
        "arrive_until": 2400,
        "direct_cost": 530
      },
      "passengers": [
        {
          "bid": 1565,
          "id": 20,
          "price": 1298,
          "cost": 0,
          "direct_dist": 14386,
          "direct_cost": 432,
          "direct_time": 931
        },
        {
          "bid": 1656,
          "id": 10,
          "price": 1389,
          "cost": 0,
          "direct_dist": 5522,
          "direct_cost": 166,
          "direct_time": 418
        },
        {
          "bid": 3052,
          "id": 5,
          "price": 2216,
          "cost": 0,
          "direct_dist": 10176,
          "direct_cost": 306,
          "direct_time": 678
        }
      ],
      "cost": 381,
      "virtual_welfare": 5892
    },
    "profit": 4522,
    "cost_profit": 0.0,
    "welfare": 5892,
    "virtual_welfare": 5892,
    "running_time": 0
  },
  {
    "graph_name": "25_5",
    "n_pass": 2,
    "winning_ride": {
      "driver": {
        "arrive_until": 2400,
        "direct_cost": 483
      },
      "passengers": [
        {
          "bid": 3338,
          "id": 16,
          "price": 2218,
          "cost": 0,
          "direct_dist": 11129,
          "direct_cost": 334,
          "direct_time": 733
        },
        {
          "bid": 3443,
          "id": 15,
          "price": 2239,
          "cost": 0,
          "direct_dist": 14386,
          "direct_cost": 432,
          "direct_time": 941
        }
      ],
      "cost": 250,
      "virtual_welfare": 6531
    },
    "profit": 4207,
    "cost_profit": 0.0,
    "welfare": 6531,
    "virtual_welfare": 6531,
    "running_time": 0
  },
  {
    "graph_name": "25_50",
    "n_pass": 2,
    "winning_ride": {
      "driver": {
        "arrive_until": 2400,
        "direct_cost": 462
      },
      "passengers": [
        {
          "bid": 5398,
          "id": 8,
          "price": 2487,
          "cost": 0,
          "direct_dist": 17996,
          "direct_cost": 540,
          "direct_time": 1191
        },
        {
          "bid": 3787,
          "id": 2,
          "price": 2580,
          "cost": 0,
          "direct_dist": 12625,
          "direct_cost": 379,
          "direct_time": 823
        }
      ],
      "cost": 442,
      "virtual_welfare": 8743
    },
    "profit": 4625,
    "cost_profit": 0.0,
    "welfare": 8743,
    "virtual_welfare": 8743,
    "running_time": 1
  },
  {
    "graph_name": "25_51",
    "n_pass": 2,
    "winning_ride": {
      "driver": {
        "arrive_until": 2400,
        "direct_cost": 443
      },
      "passengers": [
        {
          "bid": 4329,
          "id": 24,
          "price": 3106,
          "cost": 0,
          "direct_dist": 14433,
          "direct_cost": 433,
          "direct_time": 1041
        },
        {
          "bid": 3293,
          "id": 10,
          "price": 3087,
          "cost": 0,
          "direct_dist": 11926,
          "direct_cost": 358,
          "direct_time": 827
        }
      ],
      "cost": 214,
      "virtual_welfare": 7408
    },
    "profit": 5979,
    "cost_profit": 0.0,
    "welfare": 7408,
    "virtual_welfare": 7408,
    "running_time": 0
  },
  {
    "graph_name": "25_52",
    "n_pass": 2,
    "winning_ride": {
      "driver": {
        "arrive_until": 2400,
        "direct_cost": 480
      },
      "passengers": [
        {
          "bid": 2019,
          "id": 22,
          "price": 1226,
          "cost": 0,
          "direct_dist": 6733,
          "direct_cost": 202,
          "direct_time": 533
        },
        {
          "bid": 3926,
          "id": 14,
          "price": 3458,
          "cost": 0,
          "direct_dist": 17025,
          "direct_cost": 511,
          "direct_time": 1125
        }
      ],
      "cost": 474,
      "virtual_welfare": 5471
    },
    "profit": 4210,
    "cost_profit": 0.0,
    "welfare": 5471,
    "virtual_welfare": 5471,
    "running_time": 0
  },
  {
    "graph_name": "25_53",
    "n_pass": 2,
    "winning_ride": {
      "driver": {
        "arrive_until": 2400,
        "direct_cost": 343
      },
      "passengers": [
        {
          "bid": 4260,
          "id": 23,
          "price": 479,
          "cost": 0,
          "direct_dist": 14202,
          "direct_cost": 427,
          "direct_time": 964
        },
        {
          "bid": 2621,
          "id": 22,
          "price": 1650,
          "cost": 0,
          "direct_dist": 14432,
          "direct_cost": 433,
          "direct_time": 880
        }
      ],
      "cost": 658,
      "virtual_welfare": 6223
    },
    "profit": 1471,
    "cost_profit": 0.0,
    "welfare": 6223,
    "virtual_welfare": 6223,
    "running_time": 0
  },
  {
    "graph_name": "25_54",
    "n_pass": 2,
    "winning_ride": {
      "driver": {
        "arrive_until": 2400,
        "direct_cost": 422
      },
      "passengers": [
        {
          "bid": 3981,
          "id": 13,
          "price": 3220,
          "cost": 0,
          "direct_dist": 13270,
          "direct_cost": 399,
          "direct_time": 882
        },
        {
          "bid": 3733,
          "id": 9,
          "price": 3532,
          "cost": 0,
          "direct_dist": 12964,
          "direct_cost": 389,
          "direct_time": 822
        }
      ],
      "cost": 479,
      "virtual_welfare": 7235
    },
    "profit": 6273,
    "cost_profit": 0.0,
    "welfare": 7235,
    "virtual_welfare": 7235,
    "running_time": 1
  },
  {
    "graph_name": "25_55",
    "n_pass": 2,
    "winning_ride": {
      "driver": {
        "arrive_until": 2400,
        "direct_cost": 528
      },
      "passengers": [
        {
          "bid": 1177,
          "id": 13,
          "price": 985,
          "cost": 0,
          "direct_dist": 11130,
          "direct_cost": 334,
          "direct_time": 755
        },
        {
          "bid": 1578,
          "id": 4,
          "price": 1386,
          "cost": 0,
          "direct_dist": 11866,
          "direct_cost": 356,
          "direct_time": 812
        }
      ],
      "cost": 456,
      "virtual_welfare": 2299
    },
    "profit": 1915,
    "cost_profit": 0.0,
    "welfare": 2299,
    "virtual_welfare": 2299,
    "running_time": 0
  },
  {
    "graph_name": "25_56",
    "n_pass": 2,
    "winning_ride": {
      "driver": {
        "arrive_until": 2400,
        "direct_cost": 545
      },
      "passengers": [
        {
          "bid": 1974,
          "id": 11,
          "price": 1549,
          "cost": 0,
          "direct_dist": 6580,
          "direct_cost": 198,
          "direct_time": 500
        },
        {
          "bid": 1211,
          "id": 9,
          "price": 850,
          "cost": 0,
          "direct_dist": 4037,
          "direct_cost": 122,
          "direct_time": 260
        }
      ],
      "cost": 393,
      "virtual_welfare": 2792
    },
    "profit": 2006,
    "cost_profit": 0.0,
    "welfare": 2792,
    "virtual_welfare": 2792,
    "running_time": 0
  },
  {
    "graph_name": "25_57",
    "n_pass": 2,
    "winning_ride": {
      "driver": {
        "arrive_until": 2400,
        "direct_cost": 429
      },
      "passengers": [
        {
          "bid": 2750,
          "id": 13,
          "price": 2584,
          "cost": 0,
          "direct_dist": 10242,
          "direct_cost": 308,
          "direct_time": 652
        },
        {
          "bid": 5392,
          "id": 12,
          "price": 5226,
          "cost": 0,
          "direct_dist": 17975,
          "direct_cost": 540,
          "direct_time": 1191
        }
      ],
      "cost": 597,
      "virtual_welfare": 7545
    },
    "profit": 7213,
    "cost_profit": 0.0,
    "welfare": 7545,
    "virtual_welfare": 7545,
    "running_time": 1
  },
  {
    "graph_name": "25_58",
    "n_pass": 2,
    "winning_ride": {
      "driver": {
        "arrive_until": 2400,
        "direct_cost": 461
      },
      "passengers": [
        {
          "bid": 2308,
          "id": 12,
          "price": 1635,
          "cost": 0,
          "direct_dist": 7694,
          "direct_cost": 231,
          "direct_time": 464
        },
        {
          "bid": 2497,
          "id": 1,
          "price": 1824,
          "cost": 0,
          "direct_dist": 13378,
          "direct_cost": 402,
          "direct_time": 874
        }
      ],
      "cost": 199,
      "virtual_welfare": 4606
    },
    "profit": 3260,
    "cost_profit": 0.0,
    "welfare": 4606,
    "virtual_welfare": 4606,
    "running_time": 0
  },
  {
    "graph_name": "25_59",
    "n_pass": 2,
    "winning_ride": {
      "driver": {
        "arrive_until": 2400,
        "direct_cost": 524
      },
      "passengers": [
        {
          "bid": 1648,
          "id": 22,
          "price": 1639,
          "cost": 0,
          "direct_dist": 5494,
          "direct_cost": 165,
          "direct_time": 446
        },
        {
          "bid": 4734,
          "id": 14,
          "price": 2290,
          "cost": 0,
          "direct_dist": 15781,
          "direct_cost": 474,
          "direct_time": 1077
        }
      ],
      "cost": 436,
      "virtual_welfare": 5946
    },
    "profit": 3493,
    "cost_profit": 0.0,
    "welfare": 5946,
    "virtual_welfare": 5946,
    "running_time": 0
  },
  {
    "graph_name": "25_6",
    "n_pass": 2,
    "winning_ride": {
      "driver": {
        "arrive_until": 2400,
        "direct_cost": 401
      },
      "passengers": [
        {
          "bid": 2964,
          "id": 22,
          "price": 2177,
          "cost": 0,
          "direct_dist": 9933,
          "direct_cost": 298,
          "direct_time": 689
        },
        {
          "bid": 3211,
          "id": 1,
          "price": 2944,
          "cost": 0,
          "direct_dist": 10705,
          "direct_cost": 322,
          "direct_time": 691
        }
      ],
      "cost": 646,
      "virtual_welfare": 5529
    },
    "profit": 4475,
    "cost_profit": 0.0,
    "welfare": 5529,
    "virtual_welfare": 5529,
    "running_time": 0
  },
  {
    "graph_name": "25_60",
    "n_pass": 2,
    "winning_ride": {
      "driver": {
        "arrive_until": 2400,
        "direct_cost": 472
      },
      "passengers": [
        {
          "bid": 2740,
          "id": 9,
          "price": 2376,
          "cost": 0,
          "direct_dist": 9136,
          "direct_cost": 275,
          "direct_time": 625
        },
        {
          "bid": 4706,
          "id": 1,
          "price": 2466,
          "cost": 0,
          "direct_dist": 15687,
          "direct_cost": 471,
          "direct_time": 1036
        }
      ],
      "cost": 333,
      "virtual_welfare": 7113
    },
    "profit": 4509,
    "cost_profit": 0.0,
    "welfare": 7113,
    "virtual_welfare": 7113,
    "running_time": 0
  },
  {
    "graph_name": "25_61",
    "n_pass": 2,
    "winning_ride": {
      "driver": {
        "arrive_until": 2400,
        "direct_cost": 359
      },
      "passengers": [
        {
          "bid": 3600,
          "id": 23,
          "price": 1995,
          "cost": 0,
          "direct_dist": 12464,
          "direct_cost": 374,
          "direct_time": 850
        },
        {
          "bid": 2903,
          "id": 22,
          "price": 1991,
          "cost": 0,
          "direct_dist": 9678,
          "direct_cost": 291,
          "direct_time": 610
        }
      ],
      "cost": 433,
      "virtual_welfare": 6070
    },
    "profit": 3553,
    "cost_profit": 0.0,
    "welfare": 6070,
    "virtual_welfare": 6070,
    "running_time": 0
  },
  {
    "graph_name": "25_62",
    "n_pass": 2,
    "winning_ride": {
      "driver": {
        "arrive_until": 2400,
        "direct_cost": 417
      },
      "passengers": [
        {
          "bid": 3584,
          "id": 14,
          "price": 2795,
          "cost": 0,
          "direct_dist": 11949,
          "direct_cost": 359,
          "direct_time": 787
        },
        {
          "bid": 4491,
          "id": 13,
          "price": 4326,
          "cost": 0,
          "direct_dist": 14973,
          "direct_cost": 450,
          "direct_time": 961
        }
      ],
      "cost": 649,
      "virtual_welfare": 7426
    },
    "profit": 6472,
    "cost_profit": 0.0,
    "welfare": 7426,
    "virtual_welfare": 7426,
    "running_time": 0
  },
  {
    "graph_name": "25_63",
    "n_pass": 2,
    "winning_ride": {
      "driver": {
        "arrive_until": 2400,
        "direct_cost": 402
      },
      "passengers": [
        {
          "bid": 1605,
          "id": 20,
          "price": 1457,
          "cost": 0,
          "direct_dist": 5351,
          "direct_cost": 161,
          "direct_time": 363
        },
        {
          "bid": 4810,
          "id": 12,
          "price": 1569,
          "cost": 0,
          "direct_dist": 16036,
          "direct_cost": 482,
          "direct_time": 1123
        }
      ],
      "cost": 438,
      "virtual_welfare": 5977
    },
    "profit": 2588,
    "cost_profit": 0.0,
    "welfare": 5977,
    "virtual_welfare": 5977,
    "running_time": 0
  },
  {
    "graph_name": "25_64",
    "n_pass": 3,
    "winning_ride": {
      "driver": {
        "arrive_until": 2400,
        "direct_cost": 486
      },
      "passengers": [
        {
          "bid": 2971,
          "id": 24,
          "price": 1777,
          "cost": 0,
          "direct_dist": 9905,
          "direct_cost": 298,
          "direct_time": 651
        },
        {
          "bid": 1529,
          "id": 15,
          "price": 1263,
          "cost": 0,
          "direct_dist": 5098,
          "direct_cost": 153,
          "direct_time": 369
        },
        {
          "bid": 1322,
          "id": 2,
          "price": 1056,
          "cost": 0,
          "direct_dist": 7495,
          "direct_cost": 225,
          "direct_time": 524
        }
      ],
      "cost": 307,
      "virtual_welfare": 5515
    },
    "profit": 3789,
    "cost_profit": 0.0,
    "welfare": 5515,
    "virtual_welfare": 5515,
    "running_time": 0
  },
  {
    "graph_name": "25_65",
    "n_pass": 2,
    "winning_ride": {
      "driver": {
        "arrive_until": 2400,
        "direct_cost": 457
      },
      "passengers": [
        {
          "bid": 1967,
          "id": 22,
          "price": 1285,
          "cost": 0,
          "direct_dist": 11012,
          "direct_cost": 331,
          "direct_time": 767
        },
        {
          "bid": 3516,
          "id": 5,
          "price": 2834,
          "cost": 0,
          "direct_dist": 11720,
          "direct_cost": 352,
          "direct_time": 774
        }
      ],
      "cost": 470,
      "virtual_welfare": 5013
    },
    "profit": 3649,
    "cost_profit": 0.0,
    "welfare": 5013,
    "virtual_welfare": 5013,
    "running_time": 0
  },
  {
    "graph_name": "25_66",
    "n_pass": 2,
    "winning_ride": {
      "driver": {
        "arrive_until": 2400,
        "direct_cost": 475
      },
      "passengers": [
        {
          "bid": 2306,
          "id": 13,
          "price": 2048,
          "cost": 0,
          "direct_dist": 11100,
          "direct_cost": 333,
          "direct_time": 750
        },
        {
          "bid": 2873,
          "id": 9,
          "price": 2520,
          "cost": 0,
          "direct_dist": 9578,
          "direct_cost": 288,
          "direct_time": 630
        }
      ],
      "cost": 276,
      "virtual_welfare": 4903
    },
    "profit": 4292,
    "cost_profit": 0.0,
    "welfare": 4903,
    "virtual_welfare": 4903,
    "running_time": 0
  },
  {
    "graph_name": "25_67",
    "n_pass": 2,
    "winning_ride": {
      "driver": {
        "arrive_until": 2400,
        "direct_cost": 413
      },
      "passengers": [
        {
          "bid": 3565,
          "id": 21,
          "price": 2581,
          "cost": 0,
          "direct_dist": 11884,
          "direct_cost": 357,
          "direct_time": 742
        },
        {
          "bid": 4123,
          "id": 13,
          "price": 3524,
          "cost": 0,
          "direct_dist": 13746,
          "direct_cost": 413,
          "direct_time": 910
        }
      ],
      "cost": 613,
      "virtual_welfare": 7075
    },
    "profit": 5492,
    "cost_profit": 0.0,
    "welfare": 7075,
    "virtual_welfare": 7075,
    "running_time": 0
  },
  {
    "graph_name": "25_68",
    "n_pass": 2,
    "winning_ride": {
      "driver": {
        "arrive_until": 2400,
        "direct_cost": 510
      },
      "passengers": [
        {
          "bid": 2983,
          "id": 24,
          "price": 1829,
          "cost": 0,
          "direct_dist": 9946,
          "direct_cost": 299,
          "direct_time": 634
        },
        {
          "bid": 2939,
          "id": 9,
          "price": 1830,
          "cost": 0,
          "direct_dist": 13523,
          "direct_cost": 406,
          "direct_time": 922
        }
      ],
      "cost": 379,
      "virtual_welfare": 5543
    },
    "profit": 3280,
    "cost_profit": 0.0,
    "welfare": 5543,
    "virtual_welfare": 5543,
    "running_time": 0
  },
  {
    "graph_name": "25_69",
    "n_pass": 3,
    "winning_ride": {
      "driver": {
        "arrive_until": 2400,
        "direct_cost": 469
      },
      "passengers": [
        {
          "bid": 2901,
          "id": 25,
          "price": 2589,
          "cost": 0,
          "direct_dist": 10636,
          "direct_cost": 320,
          "direct_time": 835
        },
        {
          "bid": 489,
          "id": 11,
          "price": 52,
          "cost": 0,
          "direct_dist": 5088,
          "direct_cost": 153,
          "direct_time": 393
        },
        {
          "bid": 3613,
          "id": 9,
          "price": 2230,
          "cost": 0,
          "direct_dist": 15167,
          "direct_cost": 456,
          "direct_time": 973
        }
      ],
      "cost": 334,
      "virtual_welfare": 6669
    },
    "profit": 4537,
    "cost_profit": 0.0,
    "welfare": 6669,
    "virtual_welfare": 6669,
    "running_time": 0
  },
  {
    "graph_name": "25_7",
    "n_pass": 2,
    "winning_ride": {
      "driver": {
        "arrive_until": 2400,
        "direct_cost": 422
      },
      "passengers": [
        {
          "bid": 3864,
          "id": 23,
          "price": 2981,
          "cost": 0,
          "direct_dist": 13679,
          "direct_cost": 411,
          "direct_time": 869
        },
        {
          "bid": 2820,
          "id": 18,
          "price": 2646,
          "cost": 0,
          "direct_dist": 9403,
          "direct_cost": 283,
          "direct_time": 615
        }
      ],
      "cost": 560,
      "virtual_welfare": 6124
    },
    "profit": 5067,
    "cost_profit": 0.0,
    "welfare": 6124,
    "virtual_welfare": 6124,
    "running_time": 0
  },
  {
    "graph_name": "25_70",
    "n_pass": 2,
    "winning_ride": {
      "driver": {
        "arrive_until": 2400,
        "direct_cost": 472
      },
      "passengers": [
        {
          "bid": 2828,
          "id": 9,
          "price": 2178,
          "cost": 0,
          "direct_dist": 9427,
          "direct_cost": 283,
          "direct_time": 620
        },
        {
          "bid": 4351,
          "id": 1,
          "price": 3701,
          "cost": 0,
          "direct_dist": 18766,
          "direct_cost": 563,
          "direct_time": 1124
        }
      ],
      "cost": 624,
      "virtual_welfare": 6555
    },
    "profit": 5255,
    "cost_profit": 0.0,
    "welfare": 6555,
    "virtual_welfare": 6555,
    "running_time": 1
  },
  {
    "graph_name": "25_71",
    "n_pass": 3,
    "winning_ride": {
      "driver": {
        "arrive_until": 2400,
        "direct_cost": 456
      },
      "passengers": [
        {
          "bid": 3872,
          "id": 24,
          "price": 3060,
          "cost": 0,
          "direct_dist": 12909,
          "direct_cost": 388,
          "direct_time": 818
        },
        {
          "bid": 915,
          "id": 15,
          "price": 839,
          "cost": 0,
          "direct_dist": 3053,
          "direct_cost": 92,
          "direct_time": 221
        },
        {
          "bid": 3171,
          "id": 14,
          "price": 3095,
          "cost": 0,
          "direct_dist": 10571,
          "direct_cost": 318,
          "direct_time": 702
        }
      ],
      "cost": 449,
      "virtual_welfare": 7509
    },
    "profit": 6545,
    "cost_profit": 0.0,
    "welfare": 7509,
    "virtual_welfare": 7509,
    "running_time": 1
  },
  {
    "graph_name": "25_72",
    "n_pass": 3,
    "winning_ride": {
      "driver": {
        "arrive_until": 2400,
        "direct_cost": 426
      },
      "passengers": [
        {
          "bid": 3202,
          "id": 24,
          "price": 1699,
          "cost": 0,
          "direct_dist": 10675,
          "direct_cost": 321,
          "direct_time": 687
        },
        {
          "bid": 1961,
          "id": 19,
          "price": 1820,
          "cost": 0,
          "direct_dist": 10694,
          "direct_cost": 321,
          "direct_time": 729
        },
        {
          "bid": 1029,
          "id": 17,
          "price": 888,
          "cost": 0,
          "direct_dist": 3430,
          "direct_cost": 103,
          "direct_time": 244
        }
      ],
      "cost": 461,
      "virtual_welfare": 5731
    },
    "profit": 3946,
    "cost_profit": 0.0,
    "welfare": 5731,
    "virtual_welfare": 5731,
    "running_time": 0
  },
  {
    "graph_name": "25_73",
    "n_pass": 2,
    "winning_ride": {
      "driver": {
        "arrive_until": 2400,
        "direct_cost": 423
      },
      "passengers": [
        {
          "bid": 3506,
          "id": 15,
          "price": 1390,
          "cost": 0,
          "direct_dist": 12338,
          "direct_cost": 371,
          "direct_time": 870
        },
        {
          "bid": 4233,
          "id": 4,
          "price": 1028,
          "cost": 0,
          "direct_dist": 14611,
          "direct_cost": 439,
          "direct_time": 1001
        }
      ],
      "cost": 433,
      "virtual_welfare": 7306
    },
    "profit": 1985,
    "cost_profit": 0.0,
    "welfare": 7306,
    "virtual_welfare": 7306,
    "running_time": 0
  },
  {
    "graph_name": "25_74",
    "n_pass": 2,
    "winning_ride": {
      "driver": {
        "arrive_until": 2400,
        "direct_cost": 429
      },
      "passengers": [
        {
          "bid": 2344,
          "id": 18,
          "price": 1881,
          "cost": 0,
          "direct_dist": 7814,
          "direct_cost": 235,
          "direct_time": 588
        },
        {
          "bid": 3616,
          "id": 2,
          "price": 3153,
          "cost": 0,
          "direct_dist": 12056,
          "direct_cost": 362,
          "direct_time": 750
        }
      ],
      "cost": 398,
      "virtual_welfare": 5562
    },
    "profit": 4636,
    "cost_profit": 0.0,
    "welfare": 5562,
    "virtual_welfare": 5562,
    "running_time": 0
  },
  {
    "graph_name": "25_75",
    "n_pass": 2,
    "winning_ride": {
      "driver": {
        "arrive_until": 2400,
        "direct_cost": 500
      },
      "passengers": [
        {
          "bid": 4503,
          "id": 18,
          "price": 4405,
          "cost": 0,
          "direct_dist": 15010,
          "direct_cost": 451,
          "direct_time": 986
        },
        {
          "bid": 328,
          "id": 1,
          "price": 230,
          "cost": 0,
          "direct_dist": 6261,
          "direct_cost": 188,
          "direct_time": 458
        }
      ],
      "cost": 418,
      "virtual_welfare": 4413
    },
    "profit": 4217,
    "cost_profit": 0.0,
    "welfare": 4413,
    "virtual_welfare": 4413,
    "running_time": 0
  },
  {
    "graph_name": "25_76",
    "n_pass": 2,
    "winning_ride": {
      "driver": {
        "arrive_until": 2400,
        "direct_cost": 457
      },
      "passengers": [
        {
          "bid": 4477,
          "id": 16,
          "price": 2445,
          "cost": 0,
          "direct_dist": 15067,
          "direct_cost": 453,
          "direct_time": 968
        },
        {
          "bid": 3596,
          "id": 8,
          "price": 2809,
          "cost": 0,
          "direct_dist": 11989,
          "direct_cost": 360,
          "direct_time": 862
        }
      ],
      "cost": 486,
      "virtual_welfare": 7587
    },
    "profit": 4768,
    "cost_profit": 0.0,
    "welfare": 7587,
    "virtual_welfare": 7587,
    "running_time": 1
  },
  {
    "graph_name": "25_77",
    "n_pass": 2,
    "winning_ride": {
      "driver": {
        "arrive_until": 2400,
        "direct_cost": 408
      },
      "passengers": [
        {
          "bid": 4135,
          "id": 20,
          "price": 1950,
          "cost": 0,
          "direct_dist": 13934,
          "direct_cost": 419,
          "direct_time": 856
        },
        {
          "bid": 1969,
          "id": 16,
          "price": 741,
          "cost": 0,
          "direct_dist": 9916,
          "direct_cost": 298,
          "direct_time": 683
        }
      ],
      "cost": 554,
      "virtual_welfare": 5550
    },
    "profit": 2137,
    "cost_profit": 0.0,
    "welfare": 5550,
    "virtual_welfare": 5550,
    "running_time": 0
  },
  {
    "graph_name": "25_78",
    "n_pass": 2,
    "winning_ride": {
      "driver": {
        "arrive_until": 2400,
        "direct_cost": 511
      },
      "passengers": [
        {
          "bid": 4739,
          "id": 20,
          "price": 3905,
          "cost": 0,
          "direct_dist": 15797,
          "direct_cost": 474,
          "direct_time": 1023
        },
        {
          "bid": 3389,
          "id": 15,
          "price": 2616,
          "cost": 0,
          "direct_dist": 18053,
          "direct_cost": 542,
          "direct_time": 1101
        }
      ],
      "cost": 390,
      "virtual_welfare": 7738
    },
    "profit": 6131,
    "cost_profit": 0.0,
    "welfare": 7738,
    "virtual_welfare": 7738,
    "running_time": 0
  },
  {
    "graph_name": "25_79",
    "n_pass": 2,
    "winning_ride": {
      "driver": {
        "arrive_until": 2400,
        "direct_cost": 562
      },
      "passengers": [
        {
          "bid": 3488,
          "id": 22,
          "price": 2424,
          "cost": 0,
          "direct_dist": 17978,
          "direct_cost": 540,
          "direct_time": 1180
        },
        {
          "bid": 2683,
          "id": 8,
          "price": 2424,
          "cost": 0,
          "direct_dist": 11998,
          "direct_cost": 360,
          "direct_time": 751
        }
      ],
      "cost": 340,
      "virtual_welfare": 5831
    },
    "profit": 4508,
    "cost_profit": 0.0,
    "welfare": 5831,
    "virtual_welfare": 5831,
    "running_time": 0
  },
  {
    "graph_name": "25_8",
    "n_pass": 2,
    "winning_ride": {
      "driver": {
        "arrive_until": 2400,
        "direct_cost": 452
      },
      "passengers": [
        {
          "bid": 5325,
          "id": 8,
          "price": 3235,
          "cost": 0,
          "direct_dist": 17751,
          "direct_cost": 533,
          "direct_time": 1144
        },
        {
          "bid": 519,
          "id": 4,
          "price": 188,
          "cost": 0,
          "direct_dist": 5908,
          "direct_cost": 178,
          "direct_time": 387
        }
      ],
      "cost": 547,
      "virtual_welfare": 5297
    },
    "profit": 2876,
    "cost_profit": 0.0,
    "welfare": 5297,
    "virtual_welfare": 5297,
    "running_time": 0
  },
  {
    "graph_name": "25_80",
    "n_pass": 2,
    "winning_ride": {
      "driver": {
        "arrive_until": 2400,
        "direct_cost": 459
      },
      "passengers": [
        {
          "bid": 4170,
          "id": 25,
          "price": 3536,
          "cost": 0,
          "direct_dist": 13901,
          "direct_cost": 418,
          "direct_time": 1038
        },
        {
          "bid": 2447,
          "id": 20,
          "price": 2032,
          "cost": 0,
          "direct_dist": 10380,
          "direct_cost": 312,
          "direct_time": 732
        }
      ],
      "cost": 434,
      "virtual_welfare": 6183
    },
    "profit": 5134,
    "cost_profit": 0.0,
    "welfare": 6183,
    "virtual_welfare": 6183,
    "running_time": 0
  },
  {
    "graph_name": "25_81",
    "n_pass": 2,
    "winning_ride": {
      "driver": {
        "arrive_until": 2400,
        "direct_cost": 481
      },
      "passengers": [
        {
          "bid": 3591,
          "id": 24,
          "price": 2083,
          "cost": 0,
          "direct_dist": 11970,
          "direct_cost": 360,
          "direct_time": 818
        },
        {
          "bid": 836,
          "id": 3,
          "price": 707,
          "cost": 0,
          "direct_dist": 6525,
          "direct_cost": 196,
          "direct_time": 506
        }
      ],
      "cost": 257,
      "virtual_welfare": 4170
    },
    "profit": 2533,
    "cost_profit": 0.0,
    "welfare": 4170,
    "virtual_welfare": 4170,
    "running_time": 0
  },
  {
    "graph_name": "25_82",
    "n_pass": 2,
    "winning_ride": {
      "driver": {
        "arrive_until": 2400,
        "direct_cost": 395
      },
      "passengers": [
        {
          "bid": 2148,
          "id": 14,
          "price": 1925,
          "cost": 0,
          "direct_dist": 16470,
          "direct_cost": 495,
          "direct_time": 1057
        },
        {
          "bid": 3398,
          "id": 6,
          "price": 1814,
          "cost": 0,
          "direct_dist": 11329,
          "direct_cost": 340,
          "direct_time": 751
        }
      ],
      "cost": 591,
      "virtual_welfare": 4955
    },
    "profit": 3148,
    "cost_profit": 0.0,
    "welfare": 4955,
    "virtual_welfare": 4955,
    "running_time": 0
  },
  {
    "graph_name": "25_83",
    "n_pass": 2,
    "winning_ride": {
      "driver": {
        "arrive_until": 2400,
        "direct_cost": 499
      },
      "passengers": [
        {
          "bid": 2697,
          "id": 19,
          "price": 1059,
          "cost": 0,
          "direct_dist": 12990,
          "direct_cost": 390,
          "direct_time": 950
        },
        {
          "bid": 4644,
          "id": 10,
          "price": 1274,
          "cost": 0,
          "direct_dist": 15481,
          "direct_cost": 465,
          "direct_time": 1014
        }
      ],
      "cost": 267,
      "virtual_welfare": 7074
    },
    "profit": 2066,
    "cost_profit": 0.0,
    "welfare": 7074,
    "virtual_welfare": 7074,
    "running_time": 0
  },
  {
    "graph_name": "25_84",
    "n_pass": 2,
    "winning_ride": {
      "driver": {
        "arrive_until": 2400,
        "direct_cost": 466
      },
      "passengers": [
        {
          "bid": 1688,
          "id": 7,
          "price": 1579,
          "cost": 0,
          "direct_dist": 5629,
          "direct_cost": 169,
          "direct_time": 402
        },
        {
          "bid": 4956,
          "id": 1,
          "price": 4847,
          "cost": 0,
          "direct_dist": 16520,
          "direct_cost": 496,
          "direct_time": 1101
        }
      ],
      "cost": 451,
      "virtual_welfare": 6193
    },
    "profit": 5975,
    "cost_profit": 0.0,
    "welfare": 6193,
    "virtual_welfare": 6193,
    "running_time": 0
  },
  {
    "graph_name": "25_85",
    "n_pass": 2,
    "winning_ride": {
      "driver": {
        "arrive_until": 2400,
        "direct_cost": 352
      },
      "passengers": [
        {
          "bid": 2412,
          "id": 20,
          "price": 2089,
          "cost": 0,
          "direct_dist": 8041,
          "direct_cost": 242,
          "direct_time": 506
        },
        {
          "bid": 2332,
          "id": 1,
          "price": 1343,
          "cost": 0,
          "direct_dist": 7776,
          "direct_cost": 234,
          "direct_time": 556
        }
      ],
      "cost": 507,
      "virtual_welfare": 4237
    },
    "profit": 2925,
    "cost_profit": 0.0,
    "welfare": 4237,
    "virtual_welfare": 4237,
    "running_time": 0
  },
  {
    "graph_name": "25_86",
    "n_pass": 2,
    "winning_ride": {
      "driver": {
        "arrive_until": 2400,
        "direct_cost": 514
      },
      "passengers": [
        {
          "bid": 2818,
          "id": 25,
          "price": 1559,
          "cost": 0,
          "direct_dist": 9395,
          "direct_cost": 282,
          "direct_time": 609
        },
        {
          "bid": 2968,
          "id": 2,
          "price": 1557,
          "cost": 0,
          "direct_dist": 9896,
          "direct_cost": 297,
          "direct_time": 668
        }
      ],
      "cost": 256,
      "virtual_welfare": 5530
    },
    "profit": 2860,
    "cost_profit": 0.0,
    "welfare": 5530,
    "virtual_welfare": 5530,
    "running_time": 0
  },
  {
    "graph_name": "25_87",
    "n_pass": 2,
    "winning_ride": {
      "driver": {
        "arrive_until": 2400,
        "direct_cost": 537
      },
      "passengers": [
        {
          "bid": 997,
          "id": 19,
          "price": 799,
          "cost": 0,
          "direct_dist": 3829,
          "direct_cost": 115,
          "direct_time": 322
        },
        {
          "bid": 4049,
          "id": 14,
          "price": 3851,
          "cost": 0,
          "direct_dist": 13498,
          "direct_cost": 405,
          "direct_time": 928
        }
      ],
      "cost": 446,
      "virtual_welfare": 4600
    },
    "profit": 4204,
    "cost_profit": 0.0,
    "welfare": 4600,
    "virtual_welfare": 4600,
    "running_time": 0
  },
  {
    "graph_name": "25_88",
    "n_pass": 2,
    "winning_ride": {
      "driver": {
        "arrive_until": 2400,
        "direct_cost": 435
      },
      "passengers": [
        {
          "bid": 1745,
          "id": 16,
          "price": 927,
          "cost": 0,
          "direct_dist": 15955,
          "direct_cost": 479,
          "direct_time": 1008
        },
        {
          "bid": 4550,
          "id": 12,
          "price": 2281,
          "cost": 0,
          "direct_dist": 15167,
          "direct_cost": 456,
          "direct_time": 942
        }
      ],
      "cost": 607,
      "virtual_welfare": 5688
    },
    "profit": 2601,
    "cost_profit": 0.0,
    "welfare": 5688,
    "virtual_welfare": 5688,
    "running_time": 0
  },
  {
    "graph_name": "25_89",
    "n_pass": 2,
    "winning_ride": {
      "driver": {
        "arrive_until": 2400,
        "direct_cost": 535
      },
      "passengers": [
        {
          "bid": 3201,
          "id": 21,
          "price": 506,
          "cost": 0,
          "direct_dist": 14498,
          "direct_cost": 435,
          "direct_time": 916
        },
        {
          "bid": 3683,
          "id": 9,
          "price": 494,
          "cost": 0,
          "direct_dist": 12277,
          "direct_cost": 369,
          "direct_time": 793
        }
      ],
      "cost": 416,
      "virtual_welfare": 6468
    },
    "profit": 584,
    "cost_profit": 0.0,
    "welfare": 6468,
    "virtual_welfare": 6468,
    "running_time": 0
  },
  {
    "graph_name": "25_9",
    "n_pass": 2,
    "winning_ride": {
      "driver": {
        "arrive_until": 2400,
        "direct_cost": 609
      },
      "passengers": [
        {
          "bid": 3074,
          "id": 22,
          "price": 2899,
          "cost": 0,
          "direct_dist": 10247,
          "direct_cost": 308,
          "direct_time": 738
        },
        {
          "bid": 3590,
          "id": 14,
          "price": 3136,
          "cost": 0,
          "direct_dist": 15629,
          "direct_cost": 469,
          "direct_time": 954
        }
      ],
      "cost": 350,
      "virtual_welfare": 6314
    },
    "profit": 5685,
    "cost_profit": 0.0,
    "welfare": 6314,
    "virtual_welfare": 6314,
    "running_time": 0
  },
  {
    "graph_name": "25_90",
    "n_pass": 2,
    "winning_ride": {
      "driver": {
        "arrive_until": 2400,
        "direct_cost": 475
      },
      "passengers": [
        {
          "bid": 1750,
          "id": 12,
          "price": 1381,
          "cost": 0,
          "direct_dist": 5834,
          "direct_cost": 176,
          "direct_time": 446
        },
        {
          "bid": 3000,
          "id": 2,
          "price": 2631,
          "cost": 0,
          "direct_dist": 10001,
          "direct_cost": 301,
          "direct_time": 655
        }
      ],
      "cost": 236,
      "virtual_welfare": 4514
    },
    "profit": 3776,
    "cost_profit": 0.0,
    "welfare": 4514,
    "virtual_welfare": 4514,
    "running_time": 0
  },
  {
    "graph_name": "25_91",
    "n_pass": 2,
    "winning_ride": {
      "driver": {
        "arrive_until": 2400,
        "direct_cost": 441
      },
      "passengers": [
        {
          "bid": 2681,
          "id": 21,
          "price": 2254,
          "cost": 0,
          "direct_dist": 8939,
          "direct_cost": 269,
          "direct_time": 612
        },
        {
          "bid": 4286,
          "id": 15,
          "price": 3413,
          "cost": 0,
          "direct_dist": 14287,
          "direct_cost": 429,
          "direct_time": 955
        }
      ],
      "cost": 257,
      "virtual_welfare": 6710
    },
    "profit": 5410,
    "cost_profit": 0.0,
    "welfare": 6710,
    "virtual_welfare": 6710,
    "running_time": 0
  },
  {
    "graph_name": "25_92",
    "n_pass": 2,
    "winning_ride": {
      "driver": {
        "arrive_until": 2400,
        "direct_cost": 449
      },
      "passengers": [
        {
          "bid": 3559,
          "id": 18,
          "price": 1756,
          "cost": 0,
          "direct_dist": 11866,
          "direct_cost": 356,
          "direct_time": 734
        },
        {
          "bid": 2229,
          "id": 11,
          "price": 1770,
          "cost": 0,
          "direct_dist": 7431,
          "direct_cost": 223,
          "direct_time": 576
        }
      ],
      "cost": 310,
      "virtual_welfare": 5478
    },
    "profit": 3216,
    "cost_profit": 0.0,
    "welfare": 5478,
    "virtual_welfare": 5478,
    "running_time": 0
  },
  {
    "graph_name": "25_93",
    "n_pass": 2,
    "winning_ride": {
      "driver": {
        "arrive_until": 2400,
        "direct_cost": 475
      },
      "passengers": [
        {
          "bid": 4329,
          "id": 23,
          "price": 3416,
          "cost": 0,
          "direct_dist": 14501,
          "direct_cost": 436,
          "direct_time": 933
        },
        {
          "bid": 3747,
          "id": 8,
          "price": 3298,
          "cost": 0,
          "direct_dist": 14817,
          "direct_cost": 445,
          "direct_time": 977
        }
      ],
      "cost": 288,
      "virtual_welfare": 7788
    },
    "profit": 6426,
    "cost_profit": 0.0,
    "welfare": 7788,
    "virtual_welfare": 7788,
    "running_time": 0
  },
  {
    "graph_name": "25_94",
    "n_pass": 2,
    "winning_ride": {
      "driver": {
        "arrive_until": 2400,
        "direct_cost": 515
      },
      "passengers": [
        {
          "bid": 4044,
          "id": 18,
          "price": 1617,
          "cost": 0,
          "direct_dist": 13481,
          "direct_cost": 405,
          "direct_time": 931
        },
        {
          "bid": 1890,
          "id": 3,
          "price": 1116,
          "cost": 0,
          "direct_dist": 16671,
          "direct_cost": 501,
          "direct_time": 1049
        }
      ],
      "cost": 414,
      "virtual_welfare": 5520
    },
    "profit": 2319,
    "cost_profit": 0.0,
    "welfare": 5520,
    "virtual_welfare": 5520,
    "running_time": 1
  },
  {
    "graph_name": "25_95",
    "n_pass": 2,
    "winning_ride": {
      "driver": {
        "arrive_until": 2400,
        "direct_cost": 481
      },
      "passengers": [
        {
          "bid": 4416,
          "id": 20,
          "price": 1767,
          "cost": 0,
          "direct_dist": 14720,
          "direct_cost": 442,
          "direct_time": 1005
        },
        {
          "bid": 3192,
          "id": 4,
          "price": 1008,
          "cost": 0,
          "direct_dist": 12625,
          "direct_cost": 379,
          "direct_time": 928
        }
      ],
      "cost": 387,
      "virtual_welfare": 7221
    },
    "profit": 2388,
    "cost_profit": 0.0,
    "welfare": 7221,
    "virtual_welfare": 7221,
    "running_time": 0
  },
  {
    "graph_name": "25_96",
    "n_pass": 2,
    "winning_ride": {
      "driver": {
        "arrive_until": 2400,
        "direct_cost": 348
      },
      "passengers": [
        {
          "bid": 3909,
          "id": 15,
          "price": 1472,
          "cost": 0,
          "direct_dist": 13033,
          "direct_cost": 391,
          "direct_time": 865
        },
        {
          "bid": 3936,
          "id": 1,
          "price": 3869,
          "cost": 0,
          "direct_dist": 13120,
          "direct_cost": 394,
          "direct_time": 842
        }
      ],
      "cost": 722,
      "virtual_welfare": 7123
    },
    "profit": 4619,
    "cost_profit": 0.0,
    "welfare": 7123,
    "virtual_welfare": 7123,
    "running_time": 0
  },
  {
    "graph_name": "25_97",
    "n_pass": 2,
    "winning_ride": {
      "driver": {
        "arrive_until": 2400,
        "direct_cost": 393
      },
      "passengers": [
        {
          "bid": 5058,
          "id": 20,
          "price": 3458,
          "cost": 0,
          "direct_dist": 16997,
          "direct_cost": 510,
          "direct_time": 1132
        },
        {
          "bid": 2456,
          "id": 6,
          "price": 68,
          "cost": 0,
          "direct_dist": 8188,
          "direct_cost": 246,
          "direct_time": 608
        }
      ],
      "cost": 558,
      "virtual_welfare": 6956
    },
    "profit": 2968,
    "cost_profit": 0.0,
    "welfare": 6956,
    "virtual_welfare": 6956,
    "running_time": 0
  },
  {
    "graph_name": "25_98",
    "n_pass": 2,
    "winning_ride": {
      "driver": {
        "arrive_until": 2400,
        "direct_cost": 429
      },
      "passengers": [
        {
          "bid": 4247,
          "id": 23,
          "price": 4174,
          "cost": 0,
          "direct_dist": 14700,
          "direct_cost": 441,
          "direct_time": 909
        },
        {
          "bid": 2525,
          "id": 10,
          "price": 663,
          "cost": 0,
          "direct_dist": 8418,
          "direct_cost": 253,
          "direct_time": 598
        }
      ],
      "cost": 555,
      "virtual_welfare": 6217
    },
    "profit": 4282,
    "cost_profit": 0.0,
    "welfare": 6217,
    "virtual_welfare": 6217,
    "running_time": 0
  },
  {
    "graph_name": "25_99",
    "n_pass": 2,
    "winning_ride": {
      "driver": {
        "arrive_until": 2400,
        "direct_cost": 417
      },
      "passengers": [
        {
          "bid": 2577,
          "id": 10,
          "price": 1725,
          "cost": 0,
          "direct_dist": 14164,
          "direct_cost": 425,
          "direct_time": 930
        },
        {
          "bid": 3774,
          "id": 8,
          "price": 1830,
          "cost": 0,
          "direct_dist": 12582,
          "direct_cost": 378,
          "direct_time": 793
        }
      ],
      "cost": 500,
      "virtual_welfare": 5851
    },
    "profit": 3055,
    "cost_profit": 0.0,
    "welfare": 5851,
    "virtual_welfare": 5851,
    "running_time": 1
  }
]