[
  {
    "graph_name": "25_0",
    "n_pass": 3,
    "winning_ride": {
      "driver": {
        "arrive_until": 2400,
        "direct_cost": 428
      },
      "passengers": [
        {
          "bid": 4704,
          "id": 20,
          "price": 3197,
          "cost": 471,
          "direct_dist": 15680,
          "direct_cost": 471,
          "direct_time": 1047
        },
        {
          "bid": 36,
          "id": 15,
          "price": 10,
          "cost": 10,
          "direct_dist": 302,
          "direct_cost": 10,
          "direct_time": 25
        },
        {
          "bid": 3989,
          "id": 13,
          "price": 3496,
          "cost": 463,
          "direct_dist": 15406,
          "direct_cost": 463,
          "direct_time": 1051
        }
      ],
      "cost": 532,
      "virtual_welfare": 7785
    },
    "profit": 6171,
    "cost_profit": 412.0,
    "welfare": 8197,
    "virtual_welfare": 7785,
    "running_time": 1
  },
  {
    "graph_name": "25_1",
    "n_pass": 2,
    "winning_ride": {
      "driver": {
        "arrive_until": 2400,
        "direct_cost": 564
      },
      "passengers": [
        {
          "bid": 3864,
          "id": 23,
          "price": 3382,
          "cost": 525,
          "direct_dist": 17469,
          "direct_cost": 525,
          "direct_time": 1158
        },
        {
          "bid": 4542,
          "id": 2,
          "price": 3322,
          "cost": 455,
          "direct_dist": 15142,
          "direct_cost": 455,
          "direct_time": 924
        }
      ],
      "cost": 314,
      "virtual_welfare": 7426
    },
    "profit": 6390,
    "cost_profit": 666.0,
    "welfare": 8092,
    "virtual_welfare": 7426,
    "running_time": 0
  },
  {
    "graph_name": "25_10",
    "n_pass": 2,
    "winning_ride": {
      "driver": {
        "arrive_until": 2400,
        "direct_cost": 438
      },
      "passengers": [
        {
          "bid": 3743,
          "id": 7,
          "price": 1328,
          "cost": 375,
          "direct_dist": 12479,
          "direct_cost": 375,
          "direct_time": 861
        },
        {
          "bid": 3984,
          "id": 3,
          "price": 1457,
          "cost": 454,
          "direct_dist": 15131,
          "direct_cost": 454,
          "direct_time": 996
        }
      ],
      "cost": 375,
      "virtual_welfare": 6898
    },
    "profit": 2410,
    "cost_profit": 454.0,
    "welfare": 7352,
    "virtual_welfare": 6898,
    "running_time": 1
  },
  {
    "graph_name": "25_11",
    "n_pass": 2,
    "winning_ride": {
      "driver": {
        "arrive_until": 2400,
        "direct_cost": 428
      },
      "passengers": [
        {
          "bid": 4260,
          "id": 19,
          "price": 3678,
          "cost": 427,
          "direct_dist": 14203,
          "direct_cost": 427,
          "direct_time": 971
        },
        {
          "bid": 4409,
          "id": 18,
          "price": 3692,
          "cost": 441,
          "direct_dist": 14697,
          "direct_cost": 441,
          "direct_time": 924
        }
      ],
      "cost": 555,
      "virtual_welfare": 7801
    },
    "profit": 6815,
    "cost_profit": 313.0,
    "welfare": 8114,
    "virtual_welfare": 7801,
    "running_time": 0
  },
  {
    "graph_name": "25_12",
    "n_pass": 2,
    "winning_ride": {
      "driver": {
        "arrive_until": 2400,
        "direct_cost": 356
      },
      "passengers": [
        {
          "bid": 4034,
          "id": 24,
          "price": 1786,
          "cost": 404,
          "direct_dist": 13449,
          "direct_cost": 404,
          "direct_time": 881
        },
        {
          "bid": 3486,
          "id": 23,
          "price": 1238,
          "cost": 426,
          "direct_dist": 14187,
          "direct_cost": 426,
          "direct_time": 864
        }
      ],
      "cost": 656,
      "virtual_welfare": 6690
    },
    "profit": 2368,
    "cost_profit": 174.0,
    "welfare": 6864,
    "virtual_welfare": 6690,
    "running_time": 1
  },
  {
    "graph_name": "25_13",
    "n_pass": 2,
    "winning_ride": {
      "driver": {
        "arrive_until": 2400,
        "direct_cost": 433
      },
      "passengers": [
        {
          "bid": 3766,
          "id": 22,
          "price": 3294,
          "cost": 377,
          "direct_dist": 12556,
          "direct_cost": 377,
          "direct_time": 880
        },
        {
          "bid": 2530,
          "id": 1,
          "price": 2058,
          "cost": 254,
          "direct_dist": 8434,
          "direct_cost": 254,
          "direct_time": 604
        }
      ],
      "cost": 334,
      "virtual_welfare": 5665
    },
    "profit": 5018,
    "cost_profit": 297.0,
    "welfare": 5962,
    "virtual_welfare": 5665,
    "running_time": 4
  },
  {
    "graph_name": "25_14",
    "n_pass": 2,
    "winning_ride": {
      "driver": {
        "arrive_until": 2400,
        "direct_cost": 392
      },
      "passengers": [
        {
          "bid": 4581,
          "id": 11,
          "price": 3136,
          "cost": 459,
          "direct_dist": 15272,
          "direct_cost": 459,
          "direct_time": 1012
        },
        {
          "bid": 1325,
          "id": 9,
          "price": 962,
          "cost": 311,
          "direct_dist": 10363,
          "direct_cost": 311,
          "direct_time": 631
        }
      ],
      "cost": 542,
      "virtual_welfare": 5136
    },
    "profit": 3556,
    "cost_profit": 228.0,
    "welfare": 5364,
    "virtual_welfare": 5136,
    "running_time": 2
  },
  {
    "graph_name": "25_15",
    "n_pass": 2,
    "winning_ride": {
      "driver": {
        "arrive_until": 2400,
        "direct_cost": 481
      },
      "passengers": [
        {
          "bid": 4161,
          "id": 24,
          "price": 3853,
          "cost": 417,
          "direct_dist": 13872,
          "direct_cost": 417,
          "direct_time": 844
        },
        {
          "bid": 4692,
          "id": 2,
          "price": 3982,
          "cost": 546,
          "direct_dist": 18200,
          "direct_cost": 546,
          "direct_time": 1202
        }
      ],
      "cost": 386,
      "virtual_welfare": 7890
    },
    "profit": 7449,
    "cost_profit": 577.0,
    "welfare": 8467,
    "virtual_welfare": 7890,
    "running_time": 3
  },
  {
    "graph_name": "25_16",
    "n_pass": 2,
    "winning_ride": {
      "driver": {
        "arrive_until": 2400,
        "direct_cost": 442
      },
      "passengers": [
        {
          "bid": 3922,
          "id": 8,
          "price": 3739,
          "cost": 393,
          "direct_dist": 13076,
          "direct_cost": 393,
          "direct_time": 902
        },
        {
          "bid": 5042,
          "id": 2,
          "price": 3851,
          "cost": 505,
          "direct_dist": 16808,
          "direct_cost": 505,
          "direct_time": 1122
        }
      ],
      "cost": 533,
      "virtual_welfare": 8066
    },
    "profit": 7057,
    "cost_profit": 365.0,
    "welfare": 8431,
    "virtual_welfare": 8066,
    "running_time": 2
  },
  {
    "graph_name": "25_17",
    "n_pass": 3,
    "winning_ride": {
      "driver": {
        "arrive_until": 2400,
        "direct_cost": 468
      },
      "passengers": [
        {
          "bid": 3377,
          "id": 22,
          "price": 2004,
          "cost": 338,
          "direct_dist": 11257,
          "direct_cost": 338,
          "direct_time": 683
        },
        {
          "bid": 2208,
          "id": 19,
          "price": 835,
          "cost": 221,
          "direct_dist": 7360,
          "direct_cost": 221,
          "direct_time": 551
        },
        {
          "bid": 4337,
          "id": 2,
          "price": 3460,
          "cost": 434,
          "direct_dist": 14458,
          "direct_cost": 434,
          "direct_time": 874
        }
      ],
      "cost": 491,
      "virtual_welfare": 8929
    },
    "profit": 5808,
    "cost_profit": 502.0,
    "welfare": 9431,
    "virtual_welfare": 8929,
    "running_time": 6
  },
  {
    "graph_name": "25_18",
    "n_pass": 2,
    "winning_ride": {
      "driver": {
        "arrive_until": 2400,
        "direct_cost": 470
      },
      "passengers": [
        {
          "bid": 1698,
          "id": 15,
          "price": 1693,
          "cost": 170,
          "direct_dist": 5661,
          "direct_cost": 170,
          "direct_time": 441
        },
        {
          "bid": 3373,
          "id": 1,
          "price": 2872,
          "cost": 338,
          "direct_dist": 11244,
          "direct_cost": 338,
          "direct_time": 722
        }
      ],
      "cost": 364,
      "virtual_welfare": 4563
    },
    "profit": 4201,
    "cost_profit": 144.0,
    "welfare": 4707,
    "virtual_welfare": 4563,
    "running_time": 7
  },
  {
    "graph_name": "25_19",
    "n_pass": 2,
    "winning_ride": {
      "driver": {
        "arrive_until": 2400,
        "direct_cost": 423
      },
      "passengers": [
        {
          "bid": 4266,
          "id": 21,
          "price": 3687,
          "cost": 427,
          "direct_dist": 14222,
          "direct_cost": 427,
          "direct_time": 993
        },
        {
          "bid": 2181,
          "id": 5,
          "price": 1243,
          "cost": 219,
          "direct_dist": 7273,
          "direct_cost": 219,
          "direct_time": 563
        }
      ],
      "cost": 438,
      "virtual_welfare": 5801
    },
    "profit": 4492,
    "cost_profit": 208.0,
    "welfare": 6009,
    "virtual_welfare": 5801,
    "running_time": 0
  },
  {
    "graph_name": "25_2",
    "n_pass": 1,
    "winning_ride": {
      "driver": {
        "arrive_until": 2400,
        "direct_cost": 478
      },
      "passengers": [
        {
          "bid": 5064,
          "id": 7,
          "price": 4957,
          "cost": 507,
          "direct_dist": 16880,
          "direct_cost": 507,
          "direct_time": 1160
        }
      ],
      "cost": 506,
      "virtual_welfare": 4557
    },
    "profit": 4451,
    "cost_profit": 1.0,
    "welfare": 4558,
    "virtual_welfare": 4557,
    "running_time": 2
  },
  {
    "graph_name": "25_20",
    "n_pass": 2,
    "winning_ride": {
      "driver": {
        "arrive_until": 2400,
        "direct_cost": 499
      },
      "passengers": [
        {
          "bid": 2359,
          "id": 20,
          "price": 1532,
          "cost": 339,
          "direct_dist": 11283,
          "direct_cost": 339,
          "direct_time": 754
        },
        {
          "bid": 2396,
          "id": 13,
          "price": 1569,
          "cost": 240,
          "direct_dist": 7989,
          "direct_cost": 240,
          "direct_time": 580
        }
      ],
      "cost": 431,
      "virtual_welfare": 4176
    },
    "profit": 2670,
    "cost_profit": 148.0,
    "welfare": 4324,
    "virtual_welfare": 4176,
    "running_time": 2
  },
  {
    "graph_name": "25_21",
    "n_pass": 2,
    "winning_ride": {
      "driver": {
        "arrive_until": 2400,
        "direct_cost": 509
      },
      "passengers": [
        {
          "bid": 2288,
          "id": 7,
          "price": 2162,
          "cost": 229,
          "direct_dist": 7627,
          "direct_cost": 229,
          "direct_time": 506
        },
        {
          "bid": 2556,
          "id": 3,
          "price": 1868,
          "cost": 417,
          "direct_dist": 13874,
          "direct_cost": 417,
          "direct_time": 889
        }
      ],
      "cost": 340,
      "virtual_welfare": 4198
    },
    "profit": 3690,
    "cost_profit": 306.0,
    "welfare": 4504,
    "virtual_welfare": 4198,
    "running_time": 4
  },
  {
    "graph_name": "25_22",
    "n_pass": 2,
    "winning_ride": {
      "driver": {
        "arrive_until": 2400,
        "direct_cost": 470
      },
      "passengers": [
        {
          "bid": 3916,
          "id": 8,
          "price": 2613,
          "cost": 392,
          "direct_dist": 13054,
          "direct_cost": 392,
          "direct_time": 902
        },
        {
          "bid": 2849,
          "id": 5,
          "price": 2506,
          "cost": 285,
          "direct_dist": 9499,
          "direct_cost": 285,
          "direct_time": 588
        }
      ],
      "cost": 565,
      "virtual_welfare": 6088
    },
    "profit": 4554,
    "cost_profit": 112.0,
    "welfare": 6200,
    "virtual_welfare": 6088,
    "running_time": 3
  },
  {
    "graph_name": "25_23",
    "n_pass": 2,
    "winning_ride": {
      "driver": {
        "arrive_until": 2400,
        "direct_cost": 442
      },
      "passengers": [
        {
          "bid": 4934,
          "id": 23,
          "price": 1861,
          "cost": 494,
          "direct_dist": 16448,
          "direct_cost": 494,
          "direct_time": 1064
        },
        {
          "bid": 3239,
          "id": 17,
          "price": 1823,
          "cost": 498,
          "direct_dist": 16572,
          "direct_cost": 498,
          "direct_time": 1061
        }
      ],
      "cost": 553,
      "virtual_welfare": 7181
    },
    "profit": 3131,
    "cost_profit": 439.0,
    "welfare": 7620,
    "virtual_welfare": 7181,
    "running_time": 6
  },
  {
    "graph_name": "25_24",
    "n_pass": 2,
    "winning_ride": {
      "driver": {
        "arrive_until": 2400,
        "direct_cost": 431
      },
      "passengers": [
        {
          "bid": 4152,
          "id": 7,
          "price": 2762,
          "cost": 416,
          "direct_dist": 13843,
          "direct_cost": 416,
          "direct_time": 995
        },
        {
          "bid": 1697,
          "id": 3,
          "price": 557,
          "cost": 380,
          "direct_dist": 12640,
          "direct_cost": 380,
          "direct_time": 860
        }
      ],
      "cost": 481,
      "virtual_welfare": 5053
    },
    "profit": 2838,
    "cost_profit": 315.0,
    "welfare": 5368,
    "virtual_welfare": 5053,
    "running_time": 7
  },
  {
    "graph_name": "25_25",
    "n_pass": 3,
    "winning_ride": {
      "driver": {
        "arrive_until": 2400,
        "direct_cost": 499
      },
      "passengers": [
        {
          "bid": 3531,
          "id": 23,
          "price": 3253,
          "cost": 458,
          "direct_dist": 15265,
          "direct_cost": 458,
          "direct_time": 969
        },
        {
          "bid": 3579,
          "id": 22,
          "price": 3153,
          "cost": 358,
          "direct_dist": 11932,
          "direct_cost": 358,
          "direct_time": 721
        },
        {
          "bid": 541,
          "id": 16,
          "price": 466,
          "cost": 55,
          "direct_dist": 1804,
          "direct_cost": 55,
          "direct_time": 199
        }
      ],
      "cost": 436,
      "virtual_welfare": 6780
    },
    "profit": 6436,
    "cost_profit": 435.0,
    "welfare": 7215,
    "virtual_welfare": 6780,
    "running_time": 3
  },
  {
    "graph_name": "25_26",
    "n_pass": 2,
    "winning_ride": {
      "driver": {
        "arrive_until": 2400,
        "direct_cost": 529
      },
      "passengers": [
        {
          "bid": 1254,
          "id": 11,
          "price": 1132,
          "cost": 170,
          "direct_dist": 5643,
          "direct_cost": 170,
          "direct_time": 445
        },
        {
          "bid": 4690,
          "id": 7,
          "price": 3202,
          "cost": 470,
          "direct_dist": 15636,
          "direct_cost": 470,
          "direct_time": 977
        }
      ],
      "cost": 381,
      "virtual_welfare": 5304
    },
    "profit": 3953,
    "cost_profit": 259.0,
    "welfare": 5563,
    "virtual_welfare": 5304,
    "running_time": 1
  },
  {
    "graph_name": "25_27",
    "n_pass": 3,
    "winning_ride": {
      "driver": {
        "arrive_until": 2400,
        "direct_cost": 451
      },
      "passengers": [
        {
          "bid": 160,
          "id": 17,
          "price": 138,
          "cost": 138,
          "direct_dist": 4595,
          "direct_cost": 138,
          "direct_time": 337
        },
        {
          "bid": 328,
          "id": 13,
          "price": 244,
          "cost": 244,
          "direct_dist": 8102,
          "direct_cost": 244,
          "direct_time": 569
        },
        {
          "bid": 1942,
          "id": 10,
          "price": 1614,
          "cost": 345,
          "direct_dist": 11496,
          "direct_cost": 345,
          "direct_time": 788
        }
      ],
      "cost": 522,
      "virtual_welfare": 1703
    },
    "profit": 1474,
    "cost_profit": 205.0,
    "welfare": 1908,
    "virtual_welfare": 1703,
    "running_time": 2
  },
  {
    "graph_name": "25_28",
    "n_pass": 2,
    "winning_ride": {
      "driver": {
        "arrive_until": 2400,
        "direct_cost": 507
      },
      "passengers": [
        {
          "bid": 4122,
          "id": 21,
          "price": 2769,
          "cost": 432,
          "direct_dist": 14386,
          "direct_cost": 432,
          "direct_time": 1009
        },
        {
          "bid": 3309,
          "id": 1,
          "price": 2668,
          "cost": 331,
          "direct_dist": 11030,
          "direct_cost": 331,
          "direct_time": 727
        }
      ],
      "cost": 402,
      "virtual_welfare": 6668
    },
    "profit": 5035,
    "cost_profit": 361.0,
    "welfare": 7029,
    "virtual_welfare": 6668,
    "running_time": 2
  },
  {
    "graph_name": "25_29",
    "n_pass": 2,
    "winning_ride": {
      "driver": {
        "arrive_until": 2400,
        "direct_cost": 545
      },
      "passengers": [
        {
          "bid": 4163,
          "id": 25,
          "price": 3063,
          "cost": 417,
          "direct_dist": 13879,
          "direct_cost": 417,
          "direct_time": 867
        },
        {
          "bid": 3045,
          "id": 20,
          "price": 2951,
          "cost": 305,
          "direct_dist": 10153,
          "direct_cost": 305,
          "direct_time": 614
        }
      ],
      "cost": 423,
      "virtual_welfare": 6486
    },
    "profit": 5591,
    "cost_profit": 299.0,
    "welfare": 6785,
    "virtual_welfare": 6486,
    "running_time": 1
  },
  {
    "graph_name": "25_3",
    "n_pass": 1,
    "winning_ride": {
      "driver": {
        "arrive_until": 2400,
        "direct_cost": 365
      },
      "passengers": [
        {
          "bid": 461,
          "id": 17,
          "price": 97,
          "cost": 97,
          "direct_dist": 3212,
          "direct_cost": 97,
          "direct_time": 312
        }
      ],
      "cost": 59,
      "virtual_welfare": 364
    },
    "profit": 38,
    "cost_profit": 38.0,
    "welfare": 402,
    "virtual_welfare": 364,
    "running_time": 1
  },
  {
    "graph_name": "25_30",
    "n_pass": 2,
    "winning_ride": {
      "driver": {
        "arrive_until": 2400,
        "direct_cost": 464
      },
      "passengers": [
        {
          "bid": 716,
          "id": 11,
          "price": 366,
          "cost": 150,
          "direct_dist": 4982,
          "direct_cost": 150,
          "direct_time": 352
        },
        {
          "bid": 3843,
          "id": 7,
          "price": 3493,
          "cost": 385,
          "direct_dist": 12813,
          "direct_cost": 385,
          "direct_time": 945
        }
      ],
      "cost": 480,
      "virtual_welfare": 4024
    },
    "profit": 3379,
    "cost_profit": 55.0,
    "welfare": 4079,
    "virtual_welfare": 4024,
    "running_time": 1
  },
  {
    "graph_name": "25_31",
    "n_pass": 2,
    "winning_ride": {
      "driver": {
        "arrive_until": 2400,
        "direct_cost": 398
      },
      "passengers": [
        {
          "bid": 1498,
          "id": 7,
          "price": 627,
          "cost": 223,
          "direct_dist": 7415,
          "direct_cost": 223,
          "direct_time": 600
        },
        {
          "bid": 2049,
          "id": 5,
          "price": 729,
          "cost": 205,
          "direct_dist": 6830,
          "direct_cost": 205,
          "direct_time": 512
        }
      ],
      "cost": 326,
      "virtual_welfare": 3119
    },
    "profit": 1030,
    "cost_profit": 102.0,
    "welfare": 3221,
    "virtual_welfare": 3119,
    "running_time": 1
  },
  {
    "graph_name": "25_32",
    "n_pass": 2,
    "winning_ride": {
      "driver": {
        "arrive_until": 2400,
        "direct_cost": 464
      },
      "passengers": [
        {
          "bid": 2238,
          "id": 10,
          "price": 2182,
          "cost": 437,
          "direct_dist": 14563,
          "direct_cost": 437,
          "direct_time": 867
        },
        {
          "bid": 3560,
          "id": 6,
          "price": 2956,
          "cost": 446,
          "direct_dist": 14861,
          "direct_cost": 446,
          "direct_time": 927
        }
      ],
      "cost": 543,
      "virtual_welfare": 4915
    },
    "profit": 4595,
    "cost_profit": 340.0,
    "welfare": 5255,
    "virtual_welfare": 4915,
    "running_time": 3
  },
  {
    "graph_name": "25_33",
    "n_pass": 3,
    "winning_ride": {
      "driver": {
        "arrive_until": 2400,
        "direct_cost": 481
      },
      "passengers": [
        {
          "bid": 1455,
          "id": 18,
          "price": 868,
          "cost": 146,
          "direct_dist": 4852,
          "direct_cost": 146,
          "direct_time": 389
        },
        {
          "bid": 1729,
          "id": 14,
          "price": 1120,
          "cost": 269,
          "direct_dist": 8966,
          "direct_cost": 269,
          "direct_time": 575
        },
        {
          "bid": 2741,
          "id": 12,
          "price": 705,
          "cost": 292,
          "direct_dist": 9726,
          "direct_cost": 292,
          "direct_time": 648
        }
      ],
      "cost": 487,
      "virtual_welfare": 5218
    },
    "profit": 2206,
    "cost_profit": 220.0,
    "welfare": 5438,
    "virtual_welfare": 5218,
    "running_time": 3
  },
  {
    "graph_name": "25_34",
    "n_pass": 2,
    "winning_ride": {
      "driver": {
        "arrive_until": 2400,
        "direct_cost": 435
      },
      "passengers": [
        {
          "bid": 3136,
          "id": 13,
          "price": 2876,
          "cost": 354,
          "direct_dist": 11799,
          "direct_cost": 354,
          "direct_time": 777
        },
        {
          "bid": 3072,
          "id": 5,
          "price": 3058,
          "cost": 308,
          "direct_dist": 10242,
          "direct_cost": 308,
          "direct_time": 772
        }
      ],
      "cost": 408,
      "virtual_welfare": 5546
    },
    "profit": 5526,
    "cost_profit": 254.0,
    "welfare": 5800,
    "virtual_welfare": 5546,
    "running_time": 3
  },
  {
    "graph_name": "25_35",
    "n_pass": 2,
    "winning_ride": {
      "driver": {
        "arrive_until": 2400,
        "direct_cost": 468
      },
      "passengers": [
        {
          "bid": 3567,
          "id": 12,
          "price": 1709,
          "cost": 357,
          "direct_dist": 11891,
          "direct_cost": 357,
          "direct_time": 843
        },
        {
          "bid": 2720,
          "id": 10,
          "price": 2414,
          "cost": 273,
          "direct_dist": 9067,
          "direct_cost": 273,
          "direct_time": 548
        }
      ],
      "cost": 380,
      "virtual_welfare": 5657
    },
    "profit": 3743,
    "cost_profit": 250.0,
    "welfare": 5907,
    "virtual_welfare": 5657,
    "running_time": 0
  },
  {
    "graph_name": "25_36",
    "n_pass": 2,
    "winning_ride": {
      "driver": {
        "arrive_until": 2400,
        "direct_cost": 620
      },
      "passengers": [
        {
          "bid": 2242,
          "id": 20,
          "price": 1889,
          "cost": 363,
          "direct_dist": 12074,
          "direct_cost": 363,
          "direct_time": 879
        },
        {
          "bid": 3252,
          "id": 14,
          "price": 2034,
          "cost": 508,
          "direct_dist": 16917,
          "direct_cost": 508,
          "direct_time": 1169
        }
      ],
      "cost": 227,
      "virtual_welfare": 4623
    },
    "profit": 3696,
    "cost_profit": 644.0,
    "welfare": 5267,
    "virtual_welfare": 4623,
    "running_time": 0
  },
  {
    "graph_name": "25_37",
    "n_pass": 2,
    "winning_ride": {
      "driver": {
        "arrive_until": 2400,
        "direct_cost": 504
      },
      "passengers": [
        {
          "bid": 2578,
          "id": 19,
          "price": 1146,
          "cost": 276,
          "direct_dist": 9194,
          "direct_cost": 276,
          "direct_time": 629
        },
        {
          "bid": 1553,
          "id": 8,
          "price": 156,
          "cost": 156,
          "direct_dist": 5177,
          "direct_cost": 156,
          "direct_time": 372
        }
      ],
      "cost": 406,
      "virtual_welfare": 3699
    },
    "profit": 896,
    "cost_profit": 26.0,
    "welfare": 3725,
    "virtual_welfare": 3699,
    "running_time": 0
  },
  {
    "graph_name": "25_38",
    "n_pass": 2,
    "winning_ride": {
      "driver": {
        "arrive_until": 2400,
        "direct_cost": 628
      },
      "passengers": [
        {
          "bid": 4021,
          "id": 15,
          "price": 2239,
          "cost": 535,
          "direct_dist": 17821,
          "direct_cost": 535,
          "direct_time": 1124
        },
        {
          "bid": 4126,
          "id": 7,
          "price": 2117,
          "cost": 413,
          "direct_dist": 13754,
          "direct_cost": 413,
          "direct_time": 956
        }
      ],
      "cost": 256,
      "virtual_welfare": 7199
    },
    "profit": 4100,
    "cost_profit": 692.0,
    "welfare": 7891,
    "virtual_welfare": 7199,
    "running_time": 0
  },
  {
    "graph_name": "25_39",
    "n_pass": 3,
    "winning_ride": {
      "driver": {
        "arrive_until": 2400,
        "direct_cost": 452
      },
      "passengers": [
        {
          "bid": 1028,
          "id": 17,
          "price": 967,
          "cost": 103,
          "direct_dist": 3429,
          "direct_cost": 103,
          "direct_time": 193
        },
        {
          "bid": 2601,
          "id": 14,
          "price": 2540,
          "cost": 290,
          "direct_dist": 9653,
          "direct_cost": 290,
          "direct_time": 625
        },
        {
          "bid": 3014,
          "id": 13,
          "price": 2687,
          "cost": 437,
          "direct_dist": 14549,
          "direct_cost": 437,
          "direct_time": 877
        }
      ],
      "cost": 421,
      "virtual_welfare": 5813
    },
    "profit": 5773,
    "cost_profit": 409.0,
    "welfare": 6222,
    "virtual_welfare": 5813,
    "running_time": 5
  },
  {
    "graph_name": "25_4",
    "n_pass": 2,
    "winning_ride": {
      "driver": {
        "arrive_until": 2400,
        "direct_cost": 446
      },
      "passengers": [
        {
          "bid": 3617,
          "id": 16,
          "price": 3043,
          "cost": 362,
          "direct_dist": 12057,
          "direct_cost": 362,
          "direct_time": 816
        },
        {
          "bid": 3313,
          "id": 7,
          "price": 3013,
          "cost": 332,
          "direct_dist": 11046,
          "direct_cost": 332,
          "direct_time": 730
        }
      ],
      "cost": 316,
      "virtual_welfare": 6236
    },
    "profit": 5740,
    "cost_profit": 378.0,
    "welfare": 6614,
    "virtual_welfare": 6236,
    "running_time": 1
  },
  {
    "graph_name": "25_40",
    "n_pass": 2,
    "winning_ride": {
      "driver": {
        "arrive_until": 2400,
        "direct_cost": 440
      },
      "passengers": [
        {
          "bid": 3236,
          "id": 3,
          "price": 2388,
          "cost": 545,
          "direct_dist": 18159,
          "direct_cost": 545,
          "direct_time": 1169
        },
        {
          "bid": 3013,
          "id": 2,
          "price": 2165,
          "cost": 321,
          "direct_dist": 10688,
          "direct_cost": 321,
          "direct_time": 739
        }
      ],
      "cost": 467,
      "virtual_welfare": 5383
    },
    "profit": 4086,
    "cost_profit": 399.0,
    "welfare": 5782,
    "virtual_welfare": 5383,
    "running_time": 1
  },
  {
    "graph_name": "25_41",
    "n_pass": 2,
    "winning_ride": {
      "driver": {
        "arrive_until": 2400,
        "direct_cost": 407
      },
      "passengers": [
        {
          "bid": 893,
          "id": 22,
          "price": 446,
          "cost": 163,
          "direct_dist": 5421,
          "direct_cost": 163,
          "direct_time": 359
        },
        {
          "bid": 3000,
          "id": 19,
          "price": 1914,
          "cost": 301,
          "direct_dist": 10024,
          "direct_cost": 301,
          "direct_time": 622
        }
      ],
      "cost": 407,
      "virtual_welfare": 3429
    },
    "profit": 1953,
    "cost_profit": 57.0,
    "welfare": 3486,
    "virtual_welfare": 3429,
    "running_time": 2
  },
  {
    "graph_name": "25_42",
    "n_pass": 2,
    "winning_ride": {
      "driver": {
        "arrive_until": 2400,
        "direct_cost": 356
      },
      "passengers": [
        {
          "bid": 4170,
          "id": 24,
          "price": 2327,
          "cost": 417,
          "direct_dist": 13900,
          "direct_cost": 417,
          "direct_time": 980
        },
        {
          "bid": 3747,
          "id": 23,
          "price": 3261,
          "cost": 471,
          "direct_dist": 15677,
          "direct_cost": 471,
          "direct_time": 1020
        }
      ],
      "cost": 559,
      "virtual_welfare": 7029
    },
    "profit": 5029,
    "cost_profit": 329.0,
    "welfare": 7358,
    "virtual_welfare": 7029,
    "running_time": 1
  },
  {
    "graph_name": "25_43",
    "n_pass": 2,
    "winning_ride": {
      "driver": {
        "arrive_until": 2400,
        "direct_cost": 417
      },
      "passengers": [
        {
          "bid": 3560,
          "id": 17,
          "price": 3374,
          "cost": 357,
          "direct_dist": 11867,
          "direct_cost": 357,
          "direct_time": 779
        },
        {
          "bid": 3485,
          "id": 1,
          "price": 3366,
          "cost": 349,
          "direct_dist": 11619,
          "direct_cost": 349,
          "direct_time": 754
        }
      ],
      "cost": 515,
      "virtual_welfare": 6339
    },
    "profit": 6225,
    "cost_profit": 191.0,
    "welfare": 6530,
    "virtual_welfare": 6339,
    "running_time": 2
  },
  {
    "graph_name": "25_44",
    "n_pass": 2,
    "winning_ride": {
      "driver": {
        "arrive_until": 2400,
        "direct_cost": 435
      },
      "passengers": [
        {
          "bid": 3024,
          "id": 24,
          "price": 1388,
          "cost": 303,
          "direct_dist": 10080,
          "direct_cost": 303,
          "direct_time": 831
        },
        {
          "bid": 2653,
          "id": 1,
          "price": 1179,
          "cost": 266,
          "direct_dist": 8845,
          "direct_cost": 266,
          "direct_time": 556
        }
      ],
      "cost": 307,
      "virtual_welfare": 5108
    },
    "profit": 2260,
    "cost_profit": 262.0,
    "welfare": 5370,
    "virtual_welfare": 5108,
    "running_time": 2
  },
  {
    "graph_name": "25_45",
    "n_pass": 2,
    "winning_ride": {
      "driver": {
        "arrive_until": 2400,
        "direct_cost": 455
      },
      "passengers": [
        {
          "bid": 3205,
          "id": 7,
          "price": 2684,
          "cost": 321,
          "direct_dist": 10685,
          "direct_cost": 321,
          "direct_time": 719
        },
        {
          "bid": 4742,
          "id": 3,
          "price": 3784,
          "cost": 475,
          "direct_dist": 15809,
          "direct_cost": 475,
          "direct_time": 996
        }
      ],
      "cost": 568,
      "virtual_welfare": 7151
    },
    "profit": 5900,
    "cost_profit": 228.0,
    "welfare": 7379,
    "virtual_welfare": 7151,
    "running_time": 3
  },
  {
    "graph_name": "25_46",
    "n_pass": 2,
    "winning_ride": {
      "driver": {
        "arrive_until": 2400,
        "direct_cost": 476
      },
      "passengers": [
        {
          "bid": 5152,
          "id": 15,
          "price": 1770,
          "cost": 516,
          "direct_dist": 17175,
          "direct_cost": 516,
          "direct_time": 1156
        },
        {
          "bid": 2464,
          "id": 10,
          "price": 2082,
          "cost": 247,
          "direct_dist": 8216,
          "direct_cost": 247,
          "direct_time": 471
        }
      ],
      "cost": 572,
      "virtual_welfare": 6853
    },
    "profit": 3280,
    "cost_profit": 191.0,
    "welfare": 7044,
    "virtual_welfare": 6853,
    "running_time": 6
  },
  {
    "graph_name": "25_47",
    "n_pass": 2,
    "winning_ride": {
      "driver": {
        "arrive_until": 2400,
        "direct_cost": 464
      },
      "passengers": [
        {
          "bid": 4242,
          "id": 23,
          "price": 2972,
          "cost": 425,
          "direct_dist": 14143,
          "direct_cost": 425,
          "direct_time": 877
        },
        {
          "bid": 5375,
          "id": 11,
          "price": 3085,
          "cost": 538,
          "direct_dist": 17918,
          "direct_cost": 538,
          "direct_time": 1149
        }
      ],
      "cost": 531,
      "virtual_welfare": 8654
    },
    "profit": 5526,
    "cost_profit": 432.0,
    "welfare": 9086,
    "virtual_welfare": 8654,
    "running_time": 0
  },
  {
    "graph_name": "25_48",
    "n_pass": 2,
    "winning_ride": {
      "driver": {
        "arrive_until": 2400,
        "direct_cost": 428
      },
      "passengers": [
        {
          "bid": 3688,
          "id": 5,
          "price": 1827,
          "cost": 369,
          "direct_dist": 12295,
          "direct_cost": 369,
          "direct_time": 835
        },
        {
          "bid": 1836,
          "id": 2,
          "price": 712,
          "cost": 511,
          "direct_dist": 17028,
          "direct_cost": 511,
          "direct_time": 1085
        }
      ],
      "cost": 604,
      "virtual_welfare": 4644
    },
    "profit": 1935,
    "cost_profit": 276.0,
    "welfare": 4920,
    "virtual_welfare": 4644,
    "running_time": 0
  },
  {
    "graph_name": "25_49",
    "n_pass": 2,
    "winning_ride": {
      "driver": {
        "arrive_until": 2400,
        "direct_cost": 530
      },
      "passengers": [
        {
          "bid": 3009,
          "id": 11,
          "price": 2924,
          "cost": 301,
          "direct_dist": 10031,
          "direct_cost": 301,
          "direct_time": 628
        },
        {
          "bid": 3052,
          "id": 5,
          "price": 2266,
          "cost": 306,
          "direct_dist": 10176,
          "direct_cost": 306,
          "direct_time": 678
        }
      ],
      "cost": 436,
      "virtual_welfare": 5454
    },
    "profit": 4754,
    "cost_profit": 171.0,
    "welfare": 5625,
    "virtual_welfare": 5454,
    "running_time": 1
  },
  {
    "graph_name": "25_5",
    "n_pass": 2,
    "winning_ride": {
      "driver": {
        "arrive_until": 2400,
        "direct_cost": 483
      },
      "passengers": [
        {
          "bid": 3338,
          "id": 16,
          "price": 2479,
          "cost": 334,
          "direct_dist": 11129,
          "direct_cost": 334,
          "direct_time": 733
        },
        {
          "bid": 3443,
          "id": 15,
          "price": 2577,
          "cost": 432,
          "direct_dist": 14386,
          "direct_cost": 432,
          "direct_time": 941
        }
      ],
      "cost": 250,
      "virtual_welfare": 6015
    },
    "profit": 4806,
    "cost_profit": 516.0,
    "welfare": 6531,
    "virtual_welfare": 6015,
    "running_time": 1
  },
  {
    "graph_name": "25_50",
    "n_pass": 2,
    "winning_ride": {
      "driver": {
        "arrive_until": 2400,
        "direct_cost": 462
      },
      "passengers": [
        {
          "bid": 5398,
          "id": 8,
          "price": 2698,
          "cost": 540,
          "direct_dist": 17996,
          "direct_cost": 540,
          "direct_time": 1191
        },
        {
          "bid": 3787,
          "id": 2,
          "price": 2537,
          "cost": 379,
          "direct_dist": 12625,
          "direct_cost": 379,
          "direct_time": 823
        }
      ],
      "cost": 442,
      "virtual_welfare": 8266
    },
    "profit": 4793,
    "cost_profit": 477.0,
    "welfare": 8743,
    "virtual_welfare": 8266,
    "running_time": 5
  },
  {
    "graph_name": "25_51",
    "n_pass": 2,
    "winning_ride": {
      "driver": {
        "arrive_until": 2400,
        "direct_cost": 443
      },
      "passengers": [
        {
          "bid": 4329,
          "id": 24,
          "price": 3368,
          "cost": 433,
          "direct_dist": 14433,
          "direct_cost": 433,
          "direct_time": 1041
        },
        {
          "bid": 3336,
          "id": 11,
          "price": 3271,
          "cost": 336,
          "direct_dist": 11170,
          "direct_cost": 336,
          "direct_time": 763
        }
      ],
      "cost": 463,
      "virtual_welfare": 6896
    },
    "profit": 6176,
    "cost_profit": 306.0,
    "welfare": 7202,
    "virtual_welfare": 6896,
    "running_time": 1
  },
  {
    "graph_name": "25_52",
    "n_pass": 2,
    "winning_ride": {
      "driver": {
        "arrive_until": 2400,
        "direct_cost": 480
      },
      "passengers": [
        {
          "bid": 2019,
          "id": 22,
          "price": 1160,
          "cost": 202,
          "direct_dist": 6733,
          "direct_cost": 202,
          "direct_time": 533
        },
        {
          "bid": 3926,
          "id": 14,
          "price": 3496,
          "cost": 511,
          "direct_dist": 17025,
          "direct_cost": 511,
          "direct_time": 1125
        }
      ],
      "cost": 474,
      "virtual_welfare": 5232
    },
    "profit": 4182,
    "cost_profit": 239.0,
    "welfare": 5471,
    "virtual_welfare": 5232,
    "running_time": 1
  },
  {
    "graph_name": "25_53",
    "n_pass": 2,
    "winning_ride": {
      "driver": {
        "arrive_until": 2400,
        "direct_cost": 343
      },
      "passengers": [
        {
          "bid": 4260,
          "id": 23,
          "price": 604,
          "cost": 427,
          "direct_dist": 14202,
          "direct_cost": 427,
          "direct_time": 964
        },
        {
          "bid": 2621,
          "id": 22,
          "price": 1579,
          "cost": 433,
          "direct_dist": 14432,
          "direct_cost": 433,
          "direct_time": 880
        }
      ],
      "cost": 658,
      "virtual_welfare": 6021
    },
    "profit": 1525,
    "cost_profit": 202.0,
    "welfare": 6223,
    "virtual_welfare": 6021,
    "running_time": 5
  },
  {
    "graph_name": "25_54",
    "n_pass": 2,
    "winning_ride": {
      "driver": {
        "arrive_until": 2400,
        "direct_cost": 422
      },
      "passengers": [
        {
          "bid": 3981,
          "id": 13,
          "price": 3329,
          "cost": 399,
          "direct_dist": 13270,
          "direct_cost": 399,
          "direct_time": 882
        },
        {
          "bid": 3733,
          "id": 9,
          "price": 3507,
          "cost": 389,
          "direct_dist": 12964,
          "direct_cost": 389,
          "direct_time": 822
        }
      ],
      "cost": 479,
      "virtual_welfare": 6926
    },
    "profit": 6357,
    "cost_profit": 309.0,
    "welfare": 7235,
    "virtual_welfare": 6926,
    "running_time": 6
  },
  {
    "graph_name": "25_55",
    "n_pass": 2,
    "winning_ride": {
      "driver": {
        "arrive_until": 2400,
        "direct_cost": 528
      },
      "passengers": [
        {
          "bid": 1177,
          "id": 13,
          "price": 1122,
          "cost": 334,
          "direct_dist": 11130,
          "direct_cost": 334,
          "direct_time": 755
        },
        {
          "bid": 1578,
          "id": 4,
          "price": 1523,
          "cost": 356,
          "direct_dist": 11866,
          "direct_cost": 356,
          "direct_time": 812
        }
      ],
      "cost": 456,
      "virtual_welfare": 2065
    },
    "profit": 2189,
    "cost_profit": 234.0,
    "welfare": 2299,
    "virtual_welfare": 2065,
    "running_time": 0
  },
  {
    "graph_name": "25_56",
    "n_pass": 2,
    "winning_ride": {
      "driver": {
        "arrive_until": 2400,
        "direct_cost": 545
      },
      "passengers": [
        {
          "bid": 1974,
          "id": 11,
          "price": 1940,
          "cost": 198,
          "direct_dist": 6580,
          "direct_cost": 198,
          "direct_time": 500
        },
        {
          "bid": 851,
          "id": 6,
          "price": 408,
          "cost": 408,
          "direct_dist": 13585,
          "direct_cost": 408,
          "direct_time": 862
        }
      ],
      "cost": 394,
      "virtual_welfare": 2219
    },
    "profit": 1954,
    "cost_profit": 212.0,
    "welfare": 2431,
    "virtual_welfare": 2219,
    "running_time": 0
  },
  {
    "graph_name": "25_57",
    "n_pass": 2,
    "winning_ride": {
      "driver": {
        "arrive_until": 2400,
        "direct_cost": 429
      },
      "passengers": [
        {
          "bid": 2750,
          "id": 13,
          "price": 2553,
          "cost": 308,
          "direct_dist": 10242,
          "direct_cost": 308,
          "direct_time": 652
        },
        {
          "bid": 5392,
          "id": 12,
          "price": 5195,
          "cost": 540,
          "direct_dist": 17975,
          "direct_cost": 540,
          "direct_time": 1191
        }
      ],
      "cost": 597,
      "virtual_welfare": 7294
    },
    "profit": 7151,
    "cost_profit": 251.0,
    "welfare": 7545,
    "virtual_welfare": 7294,
    "running_time": 5
  },
  {
    "graph_name": "25_58",
    "n_pass": 2,
    "winning_ride": {
      "driver": {
        "arrive_until": 2400,
        "direct_cost": 461
      },
      "passengers": [
        {
          "bid": 2308,
          "id": 12,
          "price": 1809,
          "cost": 231,
          "direct_dist": 7694,
          "direct_cost": 231,
          "direct_time": 464
        },
        {
          "bid": 2497,
          "id": 1,
          "price": 1998,
          "cost": 402,
          "direct_dist": 13378,
          "direct_cost": 402,
          "direct_time": 874
        }
      ],
      "cost": 199,
      "virtual_welfare": 4172
    },
    "profit": 3608,
    "cost_profit": 434.0,
    "welfare": 4606,
    "virtual_welfare": 4172,
    "running_time": 9
  },
  {
    "graph_name": "25_59",
    "n_pass": 2,
    "winning_ride": {
      "driver": {
        "arrive_until": 2400,
        "direct_cost": 524
      },
      "passengers": [
        {
          "bid": 1648,
          "id": 22,
          "price": 1585,
          "cost": 165,
          "direct_dist": 5494,
          "direct_cost": 165,
          "direct_time": 446
        },
        {
          "bid": 4734,
          "id": 14,
          "price": 2492,
          "cost": 474,
          "direct_dist": 15781,
          "direct_cost": 474,
          "direct_time": 1077
        }
      ],
      "cost": 436,
      "virtual_welfare": 5743
    },
    "profit": 3641,
    "cost_profit": 203.0,
    "welfare": 5946,
    "virtual_welfare": 5743,
    "running_time": 0
  },
  {
    "graph_name": "25_6",
    "n_pass": 2,
    "winning_ride": {
      "driver": {
        "arrive_until": 2400,
        "direct_cost": 401
      },
      "passengers": [
        {
          "bid": 2932,
          "id": 23,
          "price": 2445,
          "cost": 390,
          "direct_dist": 12982,
          "direct_cost": 390,
          "direct_time": 814
        },
        {
          "bid": 2964,
          "id": 22,
          "price": 2381,
          "cost": 298,
          "direct_dist": 9933,
          "direct_cost": 298,
          "direct_time": 689
        }
      ],
      "cost": 634,
      "virtual_welfare": 5208
    },
    "profit": 4192,
    "cost_profit": 54.0,
    "welfare": 5262,
    "virtual_welfare": 5208,
    "running_time": 4
  },
  {
    "graph_name": "25_60",
    "n_pass": 2,
    "winning_ride": {
      "driver": {
        "arrive_until": 2400,
        "direct_cost": 472
      },
      "passengers": [
        {
          "bid": 2740,
          "id": 9,
          "price": 2398,
          "cost": 275,
          "direct_dist": 9136,
          "direct_cost": 275,
          "direct_time": 625
        },
        {
          "bid": 4706,
          "id": 1,
          "price": 2594,
          "cost": 471,
          "direct_dist": 15687,
          "direct_cost": 471,
          "direct_time": 1036
        }
      ],
      "cost": 333,
      "virtual_welfare": 6700
    },
    "profit": 4659,
    "cost_profit": 413.0,
    "welfare": 7113,
    "virtual_welfare": 6700,
    "running_time": 2
  },
  {
    "graph_name": "25_61",
    "n_pass": 2,
    "winning_ride": {
      "driver": {
        "arrive_until": 2400,
        "direct_cost": 359
      },
      "passengers": [
        {
          "bid": 3600,
          "id": 23,
          "price": 2186,
          "cost": 374,
          "direct_dist": 12464,
          "direct_cost": 374,
          "direct_time": 850
        },
        {
          "bid": 2903,
          "id": 22,
          "price": 1950,
          "cost": 291,
          "direct_dist": 9678,
          "direct_cost": 291,
          "direct_time": 610
        }
      ],
      "cost": 433,
      "virtual_welfare": 5838
    },
    "profit": 3703,
    "cost_profit": 232.0,
    "welfare": 6070,
    "virtual_welfare": 5838,
    "running_time": 4
  },
  {
    "graph_name": "25_62",
    "n_pass": 2,
    "winning_ride": {
      "driver": {
        "arrive_until": 2400,
        "direct_cost": 417
      },
      "passengers": [
        {
          "bid": 3584,
          "id": 14,
          "price": 2715,
          "cost": 359,
          "direct_dist": 11949,
          "direct_cost": 359,
          "direct_time": 787
        },
        {
          "bid": 4491,
          "id": 13,
          "price": 4206,
          "cost": 450,
          "direct_dist": 14973,
          "direct_cost": 450,
          "direct_time": 961
        }
      ],
      "cost": 649,
      "virtual_welfare": 7266
    },
    "profit": 6272,
    "cost_profit": 160.0,
    "welfare": 7426,
    "virtual_welfare": 7266,
    "running_time": 2
  },
  {
    "graph_name": "25_63",
    "n_pass": 2,
    "winning_ride": {
      "driver": {
        "arrive_until": 2400,
        "direct_cost": 402
      },
      "passengers": [
        {
          "bid": 1605,
          "id": 20,
          "price": 1312,
          "cost": 161,
          "direct_dist": 5351,
          "direct_cost": 161,
          "direct_time": 363
        },
        {
          "bid": 4810,
          "id": 12,
          "price": 1633,
          "cost": 482,
          "direct_dist": 16036,
          "direct_cost": 482,
          "direct_time": 1123
        }
      ],
      "cost": 438,
      "virtual_welfare": 5772
    },
    "profit": 2507,
    "cost_profit": 205.0,
    "welfare": 5977,
    "virtual_welfare": 5772,
    "running_time": 2
  },
  {
    "graph_name": "25_64",
    "n_pass": 3,
    "winning_ride": {
      "driver": {
        "arrive_until": 2400,
        "direct_cost": 486
      },
      "passengers": [
        {
          "bid": 2971,
          "id": 24,
          "price": 1689,
          "cost": 298,
          "direct_dist": 9905,
          "direct_cost": 298,
          "direct_time": 651
        },
        {
          "bid": 1529,
          "id": 15,
          "price": 1220,
          "cost": 153,
          "direct_dist": 5098,
          "direct_cost": 153,
          "direct_time": 369
        },
        {
          "bid": 1322,
          "id": 2,
          "price": 1013,
          "cost": 225,
          "direct_dist": 7495,
          "direct_cost": 225,
          "direct_time": 524
        }
      ],
      "cost": 307,
      "virtual_welfare": 5146
    },
    "profit": 3615,
    "cost_profit": 369.0,
    "welfare": 5515,
    "virtual_welfare": 5146,
    "running_time": 5
  },
  {
    "graph_name": "25_65",
    "n_pass": 2,
    "winning_ride": {
      "driver": {
        "arrive_until": 2400,
        "direct_cost": 457
      },
      "passengers": [
        {
          "bid": 1967,
          "id": 22,
          "price": 1415,
          "cost": 331,
          "direct_dist": 11012,
          "direct_cost": 331,
          "direct_time": 767
        },
        {
          "bid": 3516,
          "id": 5,
          "price": 2964,
          "cost": 352,
          "direct_dist": 11720,
          "direct_cost": 352,
          "direct_time": 774
        }
      ],
      "cost": 470,
      "virtual_welfare": 4800
    },
    "profit": 3909,
    "cost_profit": 213.0,
    "welfare": 5013,
    "virtual_welfare": 4800,
    "running_time": 0
  },
  {
    "graph_name": "25_66",
    "n_pass": 2,
    "winning_ride": {
      "driver": {
        "arrive_until": 2400,
        "direct_cost": 475
      },
      "passengers": [
        {
          "bid": 2873,
          "id": 9,
          "price": 2703,
          "cost": 288,
          "direct_dist": 9578,
          "direct_cost": 288,
          "direct_time": 630
        },
        {
          "bid": 2279,
          "id": 4,
          "price": 2224,
          "cost": 251,
          "direct_dist": 8359,
          "direct_cost": 251,
          "direct_time": 513
        }
      ],
      "cost": 507,
      "virtual_welfare": 4613
    },
    "profit": 4420,
    "cost_profit": 32.0,
    "welfare": 4645,
    "virtual_welfare": 4613,
    "running_time": 2
  },
  {
    "graph_name": "25_67",
    "n_pass": 2,
    "winning_ride": {
      "driver": {
        "arrive_until": 2400,
        "direct_cost": 413
      },
      "passengers": [
        {
          "bid": 3565,
          "id": 21,
          "price": 2365,
          "cost": 357,
          "direct_dist": 11884,
          "direct_cost": 357,
          "direct_time": 742
        },
        {
          "bid": 4123,
          "id": 13,
          "price": 3455,
          "cost": 413,
          "direct_dist": 13746,
          "direct_cost": 413,
          "direct_time": 910
        }
      ],
      "cost": 613,
      "virtual_welfare": 6918
    },
    "profit": 5207,
    "cost_profit": 157.0,
    "welfare": 7075,
    "virtual_welfare": 6918,
    "running_time": 4
  },
  {
    "graph_name": "25_68",
    "n_pass": 2,
    "winning_ride": {
      "driver": {
        "arrive_until": 2400,
        "direct_cost": 510
      },
      "passengers": [
        {
          "bid": 2983,
          "id": 24,
          "price": 1610,
          "cost": 299,
          "direct_dist": 9946,
          "direct_cost": 299,
          "direct_time": 634
        },
        {
          "bid": 2939,
          "id": 9,
          "price": 1717,
          "cost": 406,
          "direct_dist": 13523,
          "direct_cost": 406,
          "direct_time": 922
        }
      ],
      "cost": 379,
      "virtual_welfare": 5217
    },
    "profit": 2948,
    "cost_profit": 326.0,
    "welfare": 5543,
    "virtual_welfare": 5217,
    "running_time": 0
  },
  {
    "graph_name": "25_69",
    "n_pass": 3,
    "winning_ride": {
      "driver": {
        "arrive_until": 2400,
        "direct_cost": 469
      },
      "passengers": [
        {
          "bid": 2901,
          "id": 25,
          "price": 2817,
          "cost": 320,
          "direct_dist": 10636,
          "direct_cost": 320,
          "direct_time": 835
        },
        {
          "bid": 489,
          "id": 11,
          "price": 153,
          "cost": 153,
          "direct_dist": 5088,
          "direct_cost": 153,
          "direct_time": 393
        },
        {
          "bid": 3613,
          "id": 9,
          "price": 2617,
          "cost": 456,
          "direct_dist": 15167,
          "direct_cost": 456,
          "direct_time": 973
        }
      ],
      "cost": 334,
      "virtual_welfare": 6074
    },
    "profit": 5253,
    "cost_profit": 595.0,
    "welfare": 6669,
    "virtual_welfare": 6074,
    "running_time": 3
  },
  {
    "graph_name": "25_7",
    "n_pass": 2,
    "winning_ride": {
      "driver": {
        "arrive_until": 2400,
        "direct_cost": 422
      },
      "passengers": [
        {
          "bid": 3864,
          "id": 23,
          "price": 2554,
          "cost": 411,
          "direct_dist": 13679,
          "direct_cost": 411,
          "direct_time": 869
        },
        {
          "bid": 2820,
          "id": 18,
          "price": 2426,
          "cost": 283,
          "direct_dist": 9403,
          "direct_cost": 283,
          "direct_time": 615
        }
      ],
      "cost": 560,
      "virtual_welfare": 5990
    },
    "profit": 4420,
    "cost_profit": 134.0,
    "welfare": 6124,
    "virtual_welfare": 5990,
    "running_time": 5
  },
  {
    "graph_name": "25_70",
    "n_pass": 2,
    "winning_ride": {
      "driver": {
        "arrive_until": 2400,
        "direct_cost": 472
      },
      "passengers": [
        {
          "bid": 2828,
          "id": 9,
          "price": 1968,
          "cost": 283,
          "direct_dist": 9427,
          "direct_cost": 283,
          "direct_time": 620
        },
        {
          "bid": 4351,
          "id": 1,
          "price": 3491,
          "cost": 563,
          "direct_dist": 18766,
          "direct_cost": 563,
          "direct_time": 1124
        }
      ],
      "cost": 624,
      "virtual_welfare": 6333
    },
    "profit": 4835,
    "cost_profit": 222.0,
    "welfare": 6555,
    "virtual_welfare": 6333,
    "running_time": 2
  },
  {
    "graph_name": "25_71",
    "n_pass": 3,
    "winning_ride": {
      "driver": {
        "arrive_until": 2400,
        "direct_cost": 456
      },
      "passengers": [
        {
          "bid": 3872,
          "id": 24,
          "price": 3104,
          "cost": 388,
          "direct_dist": 12909,
          "direct_cost": 388,
          "direct_time": 818
        },
        {
          "bid": 915,
          "id": 15,
          "price": 778,
          "cost": 92,
          "direct_dist": 3053,
          "direct_cost": 92,
          "direct_time": 221
        },
        {
          "bid": 3171,
          "id": 14,
          "price": 3034,
          "cost": 318,
          "direct_dist": 10571,
          "direct_cost": 318,
          "direct_time": 702
        }
      ],
      "cost": 449,
      "virtual_welfare": 7160
    },
    "profit": 6467,
    "cost_profit": 349.0,
    "welfare": 7509,
    "virtual_welfare": 7160,
    "running_time": 1
  },
  {
    "graph_name": "25_72",
    "n_pass": 3,
    "winning_ride": {
      "driver": {
        "arrive_until": 2400,
        "direct_cost": 426
      },
      "passengers": [
        {
          "bid": 3202,
          "id": 24,
          "price": 1871,
          "cost": 321,
          "direct_dist": 10675,
          "direct_cost": 321,
          "direct_time": 687
        },
        {
          "bid": 1961,
          "id": 19,
          "price": 1871,
          "cost": 321,
          "direct_dist": 10694,
          "direct_cost": 321,
          "direct_time": 729
        },
        {
          "bid": 1029,
          "id": 17,
          "price": 939,
          "cost": 103,
          "direct_dist": 3430,
          "direct_cost": 103,
          "direct_time": 244
        }
      ],
      "cost": 461,
      "virtual_welfare": 5447
    },
    "profit": 4220,
    "cost_profit": 284.0,
    "welfare": 5731,
    "virtual_welfare": 5447,
    "running_time": 1
  },
  {
    "graph_name": "25_73",
    "n_pass": 2,
    "winning_ride": {
      "driver": {
        "arrive_until": 2400,
        "direct_cost": 423
      },
      "passengers": [
        {
          "bid": 3506,
          "id": 15,
          "price": 1415,
          "cost": 371,
          "direct_dist": 12338,
          "direct_cost": 371,
          "direct_time": 870
        },
        {
          "bid": 4233,
          "id": 4,
          "price": 1213,
          "cost": 439,
          "direct_dist": 14611,
          "direct_cost": 439,
          "direct_time": 1001
        }
      ],
      "cost": 433,
      "virtual_welfare": 6929
    },
    "profit": 2195,
    "cost_profit": 377.0,
    "welfare": 7306,
    "virtual_welfare": 6929,
    "running_time": 1
  },
  {
    "graph_name": "25_74",
    "n_pass": 2,
    "winning_ride": {
      "driver": {
        "arrive_until": 2400,
        "direct_cost": 429
      },
      "passengers": [
        {
          "bid": 2344,
          "id": 18,
          "price": 1840,
          "cost": 235,
          "direct_dist": 7814,
          "direct_cost": 235,
          "direct_time": 588
        },
        {
          "bid": 3616,
          "id": 2,
          "price": 3112,
          "cost": 362,
          "direct_dist": 12056,
          "direct_cost": 362,
          "direct_time": 750
        }
      ],
      "cost": 398,
      "virtual_welfare": 5363
    },
    "profit": 4554,
    "cost_profit": 199.0,
    "welfare": 5562,
    "virtual_welfare": 5363,
    "running_time": 2
  },
  {
    "graph_name": "25_75",
    "n_pass": 2,
    "winning_ride": {
      "driver": {
        "arrive_until": 2400,
        "direct_cost": 500
      },
      "passengers": [
        {
          "bid": 505,
          "id": 23,
          "price": 386,
          "cost": 90,
          "direct_dist": 3000,
          "direct_cost": 90,
          "direct_time": 206
        },
        {
          "bid": 4329,
          "id": 19,
          "price": 4210,
          "cost": 433,
          "direct_dist": 14431,
          "direct_cost": 433,
          "direct_time": 930
        }
      ],
      "cost": 519,
      "virtual_welfare": 4311
    },
    "profit": 4077,
    "cost_profit": 4.0,
    "welfare": 4315,
    "virtual_welfare": 4311,
    "running_time": 0
  },
  {
    "graph_name": "25_76",
    "n_pass": 2,
    "winning_ride": {
      "driver": {
        "arrive_until": 2400,
        "direct_cost": 457
      },
      "passengers": [
        {
          "bid": 4477,
          "id": 16,
          "price": 2635,
          "cost": 453,
          "direct_dist": 15067,
          "direct_cost": 453,
          "direct_time": 968
        },
        {
          "bid": 3596,
          "id": 8,
          "price": 2672,
          "cost": 360,
          "direct_dist": 11989,
          "direct_cost": 360,
          "direct_time": 862
        }
      ],
      "cost": 486,
      "virtual_welfare": 7260
    },
    "profit": 4821,
    "cost_profit": 327.0,
    "welfare": 7587,
    "virtual_welfare": 7260,
    "running_time": 1
  },
  {
    "graph_name": "25_77",
    "n_pass": 2,
    "winning_ride": {
      "driver": {
        "arrive_until": 2400,
        "direct_cost": 408
      },
      "passengers": [
        {
          "bid": 4135,
          "id": 20,
          "price": 919,
          "cost": 419,
          "direct_dist": 13934,
          "direct_cost": 419,
          "direct_time": 856
        },
        {
          "bid": 1969,
          "id": 16,
          "price": 798,
          "cost": 298,
          "direct_dist": 9916,
          "direct_cost": 298,
          "direct_time": 683
        }
      ],
      "cost": 554,
      "virtual_welfare": 5387
    },
    "profit": 1163,
    "cost_profit": 163.0,
    "welfare": 5550,
    "virtual_welfare": 5387,
    "running_time": 5
  },
  {
    "graph_name": "25_78",
    "n_pass": 2,
    "winning_ride": {
      "driver": {
        "arrive_until": 2400,
        "direct_cost": 511
      },
      "passengers": [
        {
          "bid": 4739,
          "id": 20,
          "price": 4298,
          "cost": 474,
          "direct_dist": 15797,
          "direct_cost": 474,
          "direct_time": 1023
        },
        {
          "bid": 3389,
          "id": 15,
          "price": 2799,
          "cost": 542,
          "direct_dist": 18053,
          "direct_cost": 542,
          "direct_time": 1101
        }
      ],
      "cost": 390,
      "virtual_welfare": 7112
    },
    "profit": 6707,
    "cost_profit": 626.0,
    "welfare": 7738,
    "virtual_welfare": 7112,
    "running_time": 2
  },
  {
    "graph_name": "25_79",
    "n_pass": 2,
    "winning_ride": {
      "driver": {
        "arrive_until": 2400,
        "direct_cost": 562
      },
      "passengers": [
        {
          "bid": 3488,
          "id": 22,
          "price": 2751,
          "cost": 540,
          "direct_dist": 17978,
          "direct_cost": 540,
          "direct_time": 1180
        },
        {
          "bid": 2683,
          "id": 8,
          "price": 2571,
          "cost": 360,
          "direct_dist": 11998,
          "direct_cost": 360,
          "direct_time": 751
        }
      ],
      "cost": 340,
      "virtual_welfare": 5271
    },
    "profit": 4982,
    "cost_profit": 560.0,
    "welfare": 5831,
    "virtual_welfare": 5271,
    "running_time": 0
  },
  {
    "graph_name": "25_8",
    "n_pass": 2,
    "winning_ride": {
      "driver": {
        "arrive_until": 2400,
        "direct_cost": 452
      },
      "passengers": [
        {
          "bid": 5325,
          "id": 8,
          "price": 3262,
          "cost": 533,
          "direct_dist": 17751,
          "direct_cost": 533,
          "direct_time": 1144
        },
        {
          "bid": 519,
          "id": 4,
          "price": 191,
          "cost": 178,
          "direct_dist": 5908,
          "direct_cost": 178,
          "direct_time": 387
        }
      ],
      "cost": 547,
      "virtual_welfare": 5133
    },
    "profit": 2906,
    "cost_profit": 164.0,
    "welfare": 5297,
    "virtual_welfare": 5133,
    "running_time": 3
  },
  {
    "graph_name": "25_80",
    "n_pass": 2,
    "winning_ride": {
      "driver": {
        "arrive_until": 2400,
        "direct_cost": 459
      },
      "passengers": [
        {
          "bid": 4170,
          "id": 25,
          "price": 3576,
          "cost": 418,
          "direct_dist": 13901,
          "direct_cost": 418,
          "direct_time": 1038
        },
        {
          "bid": 2447,
          "id": 20,
          "price": 2041,
          "cost": 312,
          "direct_dist": 10380,
          "direct_cost": 312,
          "direct_time": 732
        }
      ],
      "cost": 434,
      "virtual_welfare": 5887
    },
    "profit": 5183,
    "cost_profit": 296.0,
    "welfare": 6183,
    "virtual_welfare": 5887,
    "running_time": 2
  },
  {
    "graph_name": "25_81",
    "n_pass": 2,
    "winning_ride": {
      "driver": {
        "arrive_until": 2400,
        "direct_cost": 481
      },
      "passengers": [
        {
          "bid": 3591,
          "id": 24,
          "price": 2367,
          "cost": 360,
          "direct_dist": 11970,
          "direct_cost": 360,
          "direct_time": 818
        },
        {
          "bid": 814,
          "id": 16,
          "price": 799,
          "cost": 159,
          "direct_dist": 5271,
          "direct_cost": 159,
          "direct_time": 392
        }
      ],
      "cost": 364,
      "virtual_welfare": 3886
    },
    "profit": 2802,
    "cost_profit": 155.0,
    "welfare": 4041,
    "virtual_welfare": 3886,
    "running_time": 0
  },
  {
    "graph_name": "25_82",
    "n_pass": 2,
    "winning_ride": {
      "driver": {
        "arrive_until": 2400,
        "direct_cost": 395
      },
      "passengers": [
        {
          "bid": 2148,
          "id": 14,
          "price": 2078,
          "cost": 495,
          "direct_dist": 16470,
          "direct_cost": 495,
          "direct_time": 1057
        },
        {
          "bid": 3398,
          "id": 6,
          "price": 1923,
          "cost": 340,
          "direct_dist": 11329,
          "direct_cost": 340,
          "direct_time": 751
        }
      ],
      "cost": 591,
      "virtual_welfare": 4711
    },
    "profit": 3410,
    "cost_profit": 244.0,
    "welfare": 4955,
    "virtual_welfare": 4711,
    "running_time": 2
  },
  {
    "graph_name": "25_83",
    "n_pass": 2,
    "winning_ride": {
      "driver": {
        "arrive_until": 2400,
        "direct_cost": 499
      },
      "passengers": [
        {
          "bid": 2697,
          "id": 19,
          "price": 1270,
          "cost": 390,
          "direct_dist": 12990,
          "direct_cost": 390,
          "direct_time": 950
        },
        {
          "bid": 4644,
          "id": 10,
          "price": 1412,
          "cost": 465,
          "direct_dist": 15481,
          "direct_cost": 465,
          "direct_time": 1014
        }
      ],
      "cost": 267,
      "virtual_welfare": 6486
    },
    "profit": 2415,
    "cost_profit": 588.0,
    "welfare": 7074,
    "virtual_welfare": 6486,
    "running_time": 0
  },
  {
    "graph_name": "25_84",
    "n_pass": 2,
    "winning_ride": {
      "driver": {
        "arrive_until": 2400,
        "direct_cost": 466
      },
      "passengers": [
        {
          "bid": 1688,
          "id": 7,
          "price": 1472,
          "cost": 169,
          "direct_dist": 5629,
          "direct_cost": 169,
          "direct_time": 402
        },
        {
          "bid": 4956,
          "id": 1,
          "price": 4740,
          "cost": 496,
          "direct_dist": 16520,
          "direct_cost": 496,
          "direct_time": 1101
        }
      ],
      "cost": 451,
      "virtual_welfare": 5979
    },
    "profit": 5761,
    "cost_profit": 214.0,
    "welfare": 6193,
    "virtual_welfare": 5979,
    "running_time": 2
  },
  {
    "graph_name": "25_85",
    "n_pass": 2,
    "winning_ride": {
      "driver": {
        "arrive_until": 2400,
        "direct_cost": 352
      },
      "passengers": [
        {
          "bid": 1612,
          "id": 14,
          "price": 1016,
          "cost": 268,
          "direct_dist": 8909,
          "direct_cost": 268,
          "direct_time": 611
        },
        {
          "bid": 2095,
          "id": 4,
          "price": 276,
          "cost": 276,
          "direct_dist": 9190,
          "direct_cost": 276,
          "direct_time": 569
        }
      ],
      "cost": 459,
      "virtual_welfare": 3163
    },
    "profit": 833,
    "cost_profit": 85.0,
    "welfare": 3248,
    "virtual_welfare": 3163,
    "running_time": 2
  },
  {
    "graph_name": "25_86",
    "n_pass": 2,
    "winning_ride": {
      "driver": {
        "arrive_until": 2400,
        "direct_cost": 514
      },
      "passengers": [
        {
          "bid": 2818,
          "id": 25,
          "price": 1568,
          "cost": 282,
          "direct_dist": 9395,
          "direct_cost": 282,
          "direct_time": 609
        },
        {
          "bid": 2968,
          "id": 2,
          "price": 1583,
          "cost": 297,
          "direct_dist": 9896,
          "direct_cost": 297,
          "direct_time": 668
        }
      ],
      "cost": 256,
      "virtual_welfare": 5207
    },
    "profit": 2895,
    "cost_profit": 323.0,
    "welfare": 5530,
    "virtual_welfare": 5207,
    "running_time": 5
  },
  {
    "graph_name": "25_87",
    "n_pass": 2,
    "winning_ride": {
      "driver": {
        "arrive_until": 2400,
        "direct_cost": 537
      },
      "passengers": [
        {
          "bid": 997,
          "id": 19,
          "price": 817,
          "cost": 115,
          "direct_dist": 3829,
          "direct_cost": 115,
          "direct_time": 322
        },
        {
          "bid": 4049,
          "id": 14,
          "price": 3869,
          "cost": 405,
          "direct_dist": 13498,
          "direct_cost": 405,
          "direct_time": 928
        }
      ],
      "cost": 446,
      "virtual_welfare": 4526
    },
    "profit": 4240,
    "cost_profit": 74.0,
    "welfare": 4600,
    "virtual_welfare": 4526,
    "running_time": 0
  },
  {
    "graph_name": "25_88",
    "n_pass": 2,
    "winning_ride": {
      "driver": {
        "arrive_until": 2400,
        "direct_cost": 435
      },
      "passengers": [
        {
          "bid": 1745,
          "id": 16,
          "price": 1109,
          "cost": 479,
          "direct_dist": 15955,
          "direct_cost": 479,
          "direct_time": 1008
        },
        {
          "bid": 4550,
          "id": 12,
          "price": 1794,
          "cost": 456,
          "direct_dist": 15167,
          "direct_cost": 456,
          "direct_time": 942
        }
      ],
      "cost": 607,
      "virtual_welfare": 5360
    },
    "profit": 2296,
    "cost_profit": 328.0,
    "welfare": 5688,
    "virtual_welfare": 5360,
    "running_time": 2
  },
  {
    "graph_name": "25_89",
    "n_pass": 2,
    "winning_ride": {
      "driver": {
        "arrive_until": 2400,
        "direct_cost": 535
      },
      "passengers": [
        {
          "bid": 3201,
          "id": 21,
          "price": 719,
          "cost": 435,
          "direct_dist": 14498,
          "direct_cost": 435,
          "direct_time": 916
        },
        {
          "bid": 3683,
          "id": 9,
          "price": 653,
          "cost": 369,
          "direct_dist": 12277,
          "direct_cost": 369,
          "direct_time": 793
        }
      ],
      "cost": 416,
      "virtual_welfare": 6080
    },
    "profit": 956,
    "cost_profit": 388.0,
    "welfare": 6468,
    "virtual_welfare": 6080,
    "running_time": 0
  },
  {
    "graph_name": "25_9",
    "n_pass": 2,
    "winning_ride": {
      "driver": {
        "arrive_until": 2400,
        "direct_cost": 609
      },
      "passengers": [
        {
          "bid": 3074,
          "id": 22,
          "price": 2936,
          "cost": 308,
          "direct_dist": 10247,
          "direct_cost": 308,
          "direct_time": 738
        },
        {
          "bid": 3590,
          "id": 14,
          "price": 3097,
          "cost": 469,
          "direct_dist": 15629,
          "direct_cost": 469,
          "direct_time": 954
        }
      ],
      "cost": 350,
      "virtual_welfare": 5887
    },
    "profit": 5683,
    "cost_profit": 427.0,
    "welfare": 6314,
    "virtual_welfare": 5887,
    "running_time": 0
  },
  {
    "graph_name": "25_90",
    "n_pass": 2,
    "winning_ride": {
      "driver": {
        "arrive_until": 2400,
        "direct_cost": 475
      },
      "passengers": [
        {
          "bid": 1750,
          "id": 12,
          "price": 1560,
          "cost": 176,
          "direct_dist": 5834,
          "direct_cost": 176,
          "direct_time": 446
        },
        {
          "bid": 3000,
          "id": 2,
          "price": 2810,
          "cost": 301,
          "direct_dist": 10001,
          "direct_cost": 301,
          "direct_time": 655
        }
      ],
      "cost": 236,
      "virtual_welfare": 4273
    },
    "profit": 4134,
    "cost_profit": 241.0,
    "welfare": 4514,
    "virtual_welfare": 4273,
    "running_time": 1
  },
  {
    "graph_name": "25_91",
    "n_pass": 2,
    "winning_ride": {
      "driver": {
        "arrive_until": 2400,
        "direct_cost": 441
      },
      "passengers": [
        {
          "bid": 2681,
          "id": 21,
          "price": 2210,
          "cost": 269,
          "direct_dist": 8939,
          "direct_cost": 269,
          "direct_time": 612
        },
        {
          "bid": 4286,
          "id": 15,
          "price": 3787,
          "cost": 429,
          "direct_dist": 14287,
          "direct_cost": 429,
          "direct_time": 955
        }
      ],
      "cost": 257,
      "virtual_welfare": 6269
    },
    "profit": 5740,
    "cost_profit": 441.0,
    "welfare": 6710,
    "virtual_welfare": 6269,
    "running_time": 2
  },
  {
    "graph_name": "25_92",
    "n_pass": 2,
    "winning_ride": {
      "driver": {
        "arrive_until": 2400,
        "direct_cost": 449
      },
      "passengers": [
        {
          "bid": 3559,
          "id": 18,
          "price": 1794,
          "cost": 356,
          "direct_dist": 11866,
          "direct_cost": 356,
          "direct_time": 734
        },
        {
          "bid": 2229,
          "id": 11,
          "price": 1661,
          "cost": 223,
          "direct_dist": 7431,
          "direct_cost": 223,
          "direct_time": 576
        }
      ],
      "cost": 310,
      "virtual_welfare": 5209
    },
    "profit": 3145,
    "cost_profit": 269.0,
    "welfare": 5478,
    "virtual_welfare": 5209,
    "running_time": 1
  },
  {
    "graph_name": "25_93",
    "n_pass": 2,
    "winning_ride": {
      "driver": {
        "arrive_until": 2400,
        "direct_cost": 475
      },
      "passengers": [
        {
          "bid": 4329,
          "id": 23,
          "price": 3603,
          "cost": 436,
          "direct_dist": 14501,
          "direct_cost": 436,
          "direct_time": 933
        },
        {
          "bid": 3747,
          "id": 8,
          "price": 3612,
          "cost": 445,
          "direct_dist": 14817,
          "direct_cost": 445,
          "direct_time": 977
        }
      ],
      "cost": 288,
      "virtual_welfare": 7195
    },
    "profit": 6927,
    "cost_profit": 593.0,
    "welfare": 7788,
    "virtual_welfare": 7195,
    "running_time": 0
  },
  {
    "graph_name": "25_94",
    "n_pass": 2,
    "winning_ride": {
      "driver": {
        "arrive_until": 2400,
        "direct_cost": 515
      },
      "passengers": [
        {
          "bid": 4044,
          "id": 18,
          "price": 2024,
          "cost": 405,
          "direct_dist": 13481,
          "direct_cost": 405,
          "direct_time": 931
        },
        {
          "bid": 1890,
          "id": 3,
          "price": 1366,
          "cost": 501,
          "direct_dist": 16671,
          "direct_cost": 501,
          "direct_time": 1049
        }
      ],
      "cost": 414,
      "virtual_welfare": 5028
    },
    "profit": 2976,
    "cost_profit": 492.0,
    "welfare": 5520,
    "virtual_welfare": 5028,
    "running_time": 1
  },
  {
    "graph_name": "25_95",
    "n_pass": 2,
    "winning_ride": {
      "driver": {
        "arrive_until": 2400,
        "direct_cost": 481
      },
      "passengers": [
        {
          "bid": 4416,
          "id": 20,
          "price": 2131,
          "cost": 442,
          "direct_dist": 14720,
          "direct_cost": 442,
          "direct_time": 1005
        },
        {
          "bid": 3192,
          "id": 4,
          "price": 1229,
          "cost": 379,
          "direct_dist": 12625,
          "direct_cost": 379,
          "direct_time": 928
        }
      ],
      "cost": 387,
      "virtual_welfare": 6787
    },
    "profit": 2973,
    "cost_profit": 434.0,
    "welfare": 7221,
    "virtual_welfare": 6787,
    "running_time": 2
  },
  {
    "graph_name": "25_96",
    "n_pass": 2,
    "winning_ride": {
      "driver": {
        "arrive_until": 2400,
        "direct_cost": 348
      },
      "passengers": [
        {
          "bid": 3909,
          "id": 15,
          "price": 1141,
          "cost": 391,
          "direct_dist": 13033,
          "direct_cost": 391,
          "direct_time": 865
        },
        {
          "bid": 3936,
          "id": 1,
          "price": 3608,
          "cost": 394,
          "direct_dist": 13120,
          "direct_cost": 394,
          "direct_time": 842
        }
      ],
      "cost": 722,
      "virtual_welfare": 7060
    },
    "profit": 4027,
    "cost_profit": 63.0,
    "welfare": 7123,
    "virtual_welfare": 7060,
    "running_time": 1
  },
  {
    "graph_name": "25_97",
    "n_pass": 2,
    "winning_ride": {
      "driver": {
        "arrive_until": 2400,
        "direct_cost": 393
      },
      "passengers": [
        {
          "bid": 5058,
          "id": 20,
          "price": 3489,
          "cost": 510,
          "direct_dist": 16997,
          "direct_cost": 510,
          "direct_time": 1132
        },
        {
          "bid": 2456,
          "id": 6,
          "price": 246,
          "cost": 246,
          "direct_dist": 8188,
          "direct_cost": 246,
          "direct_time": 608
        }
      ],
      "cost": 558,
      "virtual_welfare": 6758
    },
    "profit": 3177,
    "cost_profit": 198.0,
    "welfare": 6956,
    "virtual_welfare": 6758,
    "running_time": 0
  },
  {
    "graph_name": "25_98",
    "n_pass": 2,
    "winning_ride": {
      "driver": {
        "arrive_until": 2400,
        "direct_cost": 429
      },
      "passengers": [
        {
          "bid": 4247,
          "id": 23,
          "price": 4102,
          "cost": 441,
          "direct_dist": 14700,
          "direct_cost": 441,
          "direct_time": 909
        },
        {
          "bid": 2525,
          "id": 10,
          "price": 778,
          "cost": 253,
          "direct_dist": 8418,
          "direct_cost": 253,
          "direct_time": 598
        }
      ],
      "cost": 555,
      "virtual_welfare": 6078
    },
    "profit": 4325,
    "cost_profit": 139.0,
    "welfare": 6217,
    "virtual_welfare": 6078,
    "running_time": 5
  },
  {
    "graph_name": "25_99",
    "n_pass": 2,
    "winning_ride": {
      "driver": {
        "arrive_until": 2400,
        "direct_cost": 417
      },
      "passengers": [
        {
          "bid": 2577,
          "id": 10,
          "price": 1669,
          "cost": 425,
          "direct_dist": 14164,
          "direct_cost": 425,
          "direct_time": 930
        },
        {
          "bid": 3774,
          "id": 8,
          "price": 2113,
          "cost": 378,
          "direct_dist": 12582,
          "direct_cost": 378,
          "direct_time": 793
        }
      ],
      "cost": 500,
      "virtual_welfare": 5548
    },
    "profit": 3282,
    "cost_profit": 303.0,
    "welfare": 5851,
    "virtual_welfare": 5548,
    "running_time": 5
  }
]