{
  "nodes": [
    {
      "Delivery": {
        "bid": 1648,
        "id": 8,
        "price": null,
        "cost": null,
        "direct_dist": 8728,
        "direct_cost": 262,
        "direct_time": 564
      }
    },
    {
      "Pickup": {
        "bid": 1648,
        "id": 8,
        "price": null,
        "cost": null,
        "direct_dist": 8728,
        "direct_cost": 262,
        "direct_time": 564
      }
    },
    {
      "Delivery": {
        "bid": 2460,
        "id": 7,
        "price": null,
        "cost": null,
        "direct_dist": 8202,
        "direct_cost": 247,
        "direct_time": 555
      }
    },
    {
      "Pickup": {
        "bid": 2460,
        "id": 7,
        "price": null,
        "cost": null,
        "direct_dist": 8202,
        "direct_cost": 247,
        "direct_time": 555
      }
    },
    {
      "Delivery": {
        "bid": 3773,
        "id": 6,
        "price": null,
        "cost": null,
        "direct_dist": 12579,
        "direct_cost": 378,
        "direct_time": 785
      }
    },
    {
      "Pickup": {
        "bid": 3773,
        "id": 6,
        "price": null,
        "cost": null,
        "direct_dist": 12579,
        "direct_cost": 378,
        "direct_time": 785
      }
    },
    {
      "Delivery": {
        "bid": 2644,
        "id": 5,
        "price": null,
        "cost": null,
        "direct_dist": 8816,
        "direct_cost": 265,
        "direct_time": 590
      }
    },
    {
      "Pickup": {
        "bid": 2644,
        "id": 5,
        "price": null,
        "cost": null,
        "direct_dist": 8816,
        "direct_cost": 265,
        "direct_time": 590
      }
    },
    {
      "Delivery": {
        "bid": 2156,
        "id": 3,
        "price": null,
        "cost": null,
        "direct_dist": 7188,
        "direct_cost": 216,
        "direct_time": 475
      }
    },
    {
      "Pickup": {
        "bid": 2156,
        "id": 3,
        "price": null,
        "cost": null,
        "direct_dist": 7188,
        "direct_cost": 216,
        "direct_time": 475
      }
    },
    {
      "Delivery": {
        "bid": 188,
        "id": 2,
        "price": null,
        "cost": null,
        "direct_dist": 5819,
        "direct_cost": 175,
        "direct_time": 381
      }
    },
    {
      "Pickup": {
        "bid": 188,
        "id": 2,
        "price": null,
        "cost": null,
        "direct_dist": 5819,
        "direct_cost": 175,
        "direct_time": 381
      }
    },
    {
      "Delivery": {
        "bid": 4807,
        "id": 1,
        "price": null,
        "cost": null,
        "direct_dist": 16024,
        "direct_cost": 481,
        "direct_time": 1053
      }
    },
    {
      "Pickup": {
        "bid": 4807,
        "id": 1,
        "price": null,
        "cost": null,
        "direct_dist": 16024,
        "direct_cost": 481,
        "direct_time": 1053
      }
    },
    {
      "DriverStart": {
        "arrive_until": 2400,
        "direct_cost": 486
      }
    },
    {
      "DriverEnd": {
        "arrive_until": 2400,
        "direct_cost": 486
      }
    }
  ],
  "node_holes": [],
  "edge_property": "directed",
  "edges": [
    [
      0,
      12,
      {
        "cost": 273.96,
        "seconds": 656
      }
    ],
    [
      0,
      2,
      {
        "cost": 308.43,
        "seconds": 661
      }
    ],
    [
      0,
      8,
      {
        "cost": 132.84,
        "seconds": 340
      }
    ],
    [
      0,
      10,
      {
        "cost": 178.2,
        "seconds": 424
      }
    ],
    [
      0,
      4,
      {
        "cost": 225.0,
        "seconds": 512
      }
    ],
    [
      0,
      6,
      {
        "cost": 266.58,
        "seconds": 580
      }
    ],
    [
      0,
      3,
      {
        "cost": 106.38,
        "seconds": 266
      }
    ],
    [
      0,
      11,
      {
        "cost": 89.42999999999999,
        "seconds": 231
      }
    ],
    [
      0,
      9,
      {
        "cost": 110.03999999999999,
        "seconds": 272
      }
    ],
    [
      0,
      7,
      {
        "cost": 110.13,
        "seconds": 276
      }
    ],
    [
      1,
      2,
      {
        "cost": 190.26,
        "seconds": 389
      }
    ],
    [
      1,
      8,
      {
        "cost": 307.14,
        "seconds": 676
      }
    ],
    [
      1,
      4,
      {
        "cost": 413.66999999999998,
        "seconds": 882
      }
    ],
    [
      1,
      10,
      {
        "cost": 108.24,
        "seconds": 265
      }
    ],
    [
      1,
      6,
      {
        "cost": 318.81,
        "seconds": 667
      }
    ],
    [
      1,
      13,
      {
        "cost": 307.65,
        "seconds": 677
      }
    ],
    [
      1,
      9,
      {
        "cost": 154.10999999999999,
        "seconds": 349
      }
    ],
    [
      1,
      3,
      {
        "cost": 186.93,
        "seconds": 407
      }
    ],
    [
      1,
      11,
      {
        "cost": 261.12,
        "seconds": 577
      }
    ],
    [
      1,
      5,
      {
        "cost": 210.17999999999999,
        "seconds": 489
      }
    ],
    [
      1,
      7,
      {
        "cost": 274.5,
        "seconds": 599
      }
    ],
    [
      1,
      0,
      {
        "cost": 261.84,
        "seconds": 564
      }
    ],
    [
      2,
      0,
      {
        "cost": 294.81,
        "seconds": 592
      }
    ],
    [
      2,
      8,
      {
        "cost": 301.28999999999999,
        "seconds": 694
      }
    ],
    [
      2,
      12,
      {
        "cost": 485.78999999999999,
        "seconds": 1043
      }
    ],
    [
      2,
      10,
      {
        "cost": 124.47,
        "seconds": 285
      }
    ],
    [
      2,
      4,
      {
        "cost": 438.75,
        "seconds": 896
      }
    ],
    [
      2,
      6,
      {
        "cost": 251.1,
        "seconds": 576
      }
    ],
    [
      2,
      5,
      {
        "cost": 85.95,
        "seconds": 205
      }
    ],
    [
      3,
      1,
      {
        "cost": 208.2,
        "seconds": 474
      }
    ],
    [
      3,
      0,
      {
        "cost": 156.03,
        "seconds": 330
      }
    ],
    [
      3,
      8,
      {
        "cost": 199.53,
        "seconds": 419
      }
    ],
    [
      3,
      10,
      {
        "cost": 124.47,
        "seconds": 286
      }
    ],
    [
      3,
      6,
      {
        "cost": 263.09999999999999,
        "seconds": 537
      }
    ],
    [
      3,
      13,
      {
        "cost": 251.97,
        "seconds": 548
      }
    ],
    [
      3,
      9,
      {
        "cost": 31.38,
        "seconds": 78
      }
    ],
    [
      3,
      5,
      {
        "cost": 232.98,
        "seconds": 500
      }
    ],
    [
      3,
      11,
      {
        "cost": 155.34,
        "seconds": 343
      }
    ],
    [
      3,
      7,
      {
        "cost": 168.57,
        "seconds": 349
      }
    ],
    [
      3,
      2,
      {
        "cost": 246.06,
        "seconds": 555
      }
    ],
    [
      4,
      0,
      {
        "cost": 227.79,
        "seconds": 528
      }
    ],
    [
      4,
      12,
      {
        "cost": 164.64,
        "seconds": 447
      }
    ],
    [
      4,
      8,
      {
        "cost": 179.25,
        "seconds": 383
      }
    ],
    [
      5,
      1,
      {
        "cost": 175.82999999999999,
        "seconds": 403
      }
    ],
    [
      5,
      0,
      {
        "cost": 225.54,
        "seconds": 466
      }
    ],
    [
      5,
      3,
      {
        "cost": 187.35,
        "seconds": 406
      }
    ],
    [
      5,
      2,
      {
        "cost": 139.76999999999999,
        "seconds": 380
      }
    ],
    [
      5,
      12,
      {
        "cost": 424.44,
        "seconds": 931
      }
    ],
    [
      5,
      10,
      {
        "cost": 102.86999999999999,
        "seconds": 259
      }
    ],
    [
      5,
      8,
      {
        "cost": 269.7,
        "seconds": 593
      }
    ],
    [
      5,
      6,
      {
        "cost": 181.79999999999999,
        "seconds": 451
      }
    ],
    [
      5,
      13,
      {
        "cost": 170.67,
        "seconds": 461
      }
    ],
    [
      5,
      11,
      {
        "cost": 224.85,
        "seconds": 480
      }
    ],
    [
      5,
      9,
      {
        "cost": 162.06,
        "seconds": 329
      }
    ],
    [
      5,
      7,
      {
        "cost": 238.23,
        "seconds": 501
      }
    ],
    [
      5,
      4,
      {
        "cost": 377.37,
        "seconds": 785
      }
    ],
    [
      6,
      0,
      {
        "cost": 321.57,
        "seconds": 668
      }
    ],
    [
      6,
      2,
      {
        "cost": 299.55,
        "seconds": 717
      }
    ],
    [
      6,
      4,
      {
        "cost": 381.21,
        "seconds": 829
      }
    ],
    [
      6,
      12,
      {
        "cost": 412.02,
        "seconds": 985
      }
    ],
    [
      6,
      10,
      {
        "cost": 236.76,
        "seconds": 516
      }
    ],
    [
      6,
      8,
      {
        "cost": 228.69,
        "seconds": 553
      }
    ],
    [
      6,
      13,
      {
        "cost": 61.89,
        "seconds": 175
      }
    ],
    [
      7,
      1,
      {
        "cost": 303.24,
        "seconds": 662
      }
    ],
    [
      7,
      0,
      {
        "cost": 140.22,
        "seconds": 280
      }
    ],
    [
      7,
      3,
      {
        "cost": 164.67,
        "seconds": 412
      }
    ],
    [
      7,
      2,
      {
        "cost": 304.74,
        "seconds": 663
      }
    ],
    [
      7,
      5,
      {
        "cost": 239.22,
        "seconds": 536
      }
    ],
    [
      7,
      10,
      {
        "cost": 198.06,
        "seconds": 440
      }
    ],
    [
      7,
      8,
      {
        "cost": 23.07,
        "seconds": 64
      }
    ],
    [
      7,
      13,
      {
        "cost": 253.35,
        "seconds": 601
      }
    ],
    [
      7,
      11,
      {
        "cost": 40.35,
        "seconds": 97
      }
    ],
    [
      7,
      9,
      {
        "cost": 172.53,
        "seconds": 349
      }
    ],
    [
      7,
      6,
      {
        "cost": 264.48,
        "seconds": 590
      }
    ],
    [
      8,
      0,
      {
        "cost": 170.34,
        "seconds": 355
      }
    ],
    [
      8,
      2,
      {
        "cost": 318.21,
        "seconds": 690
      }
    ],
    [
      8,
      4,
      {
        "cost": 193.79999999999999,
        "seconds": 399
      }
    ],
    [
      8,
      6,
      {
        "cost": 257.21999999999999,
        "seconds": 598
      }
    ],
    [
      8,
      7,
      {
        "cost": 30.119999999999999,
        "seconds": 75
      }
    ],
    [
      8,
      12,
      {
        "cost": 228.23999999999999,
        "seconds": 535
      }
    ],
    [
      8,
      10,
      {
        "cost": 211.53,
        "seconds": 467
      }
    ],
    [
      8,
      11,
      {
        "cost": 70.47,
        "seconds": 172
      }
    ],
    [
      9,
      1,
      {
        "cost": 184.89,
        "seconds": 437
      }
    ],
    [
      9,
      0,
      {
        "cost": 175.82999999999999,
        "seconds": 372
      }
    ],
    [
      9,
      3,
      {
        "cost": 68.03999999999999,
        "seconds": 186
      }
    ],
    [
      9,
      2,
      {
        "cost": 204.72,
        "seconds": 482
      }
    ],
    [
      9,
      5,
      {
        "cost": 202.67999999999999,
        "seconds": 437
      }
    ],
    [
      9,
      4,
      {
        "cost": 327.65999999999999,
        "seconds": 690
      }
    ],
    [
      9,
      7,
      {
        "cost": 184.68,
        "seconds": 405
      }
    ],
    [
      9,
      6,
      {
        "cost": 232.79999999999999,
        "seconds": 475
      }
    ],
    [
      9,
      10,
      {
        "cost": 83.1,
        "seconds": 213
      }
    ],
    [
      9,
      13,
      {
        "cost": 221.67,
        "seconds": 485
      }
    ],
    [
      9,
      11,
      {
        "cost": 175.14,
        "seconds": 385
      }
    ],
    [
      9,
      8,
      {
        "cost": 215.64,
        "seconds": 475
      }
    ],
    [
      10,
      0,
      {
        "cost": 203.04,
        "seconds": 459
      }
    ],
    [
      10,
      1,
      {
        "cost": 120.08999999999999,
        "seconds": 268
      }
    ],
    [
      10,
      2,
      {
        "cost": 121.58999999999999,
        "seconds": 269
      }
    ],
    [
      10,
      3,
      {
        "cost": 120.42,
        "seconds": 316
      }
    ],
    [
      10,
      4,
      {
        "cost": 354.9,
        "seconds": 778
      }
    ],
    [
      10,
      5,
      {
        "cost": 101.07,
        "seconds": 250
      }
    ],
    [
      10,
      6,
      {
        "cost": 243.14999999999999,
        "seconds": 527
      }
    ],
    [
      10,
      8,
      {
        "cost": 253.38,
        "seconds": 584
      }
    ],
    [
      10,
      9,
      {
        "cost": 100.35,
        "seconds": 257
      }
    ],
    [
      10,
      12,
      {
        "cost": 401.94,
        "seconds": 924
      }
    ],
    [
      11,
      1,
      {
        "cost": 279.75,
        "seconds": 603
      }
    ],
    [
      11,
      0,
      {
        "cost": 119.16,
        "seconds": 279
      }
    ],
    [
      11,
      3,
      {
        "cost": 130.32,
        "seconds": 328
      }
    ],
    [
      11,
      2,
      {
        "cost": 281.25,
        "seconds": 604
      }
    ],
    [
      11,
      5,
      {
        "cost": 218.54999999999999,
        "seconds": 464
      }
    ],
    [
      11,
      7,
      {
        "cost": 74.52,
        "seconds": 183
      }
    ],
    [
      11,
      6,
      {
        "cost": 244.44,
        "seconds": 522
      }
    ],
    [
      11,
      9,
      {
        "cost": 141.6,
        "seconds": 297
      }
    ],
    [
      11,
      8,
      {
        "cost": 89.82,
        "seconds": 284
      }
    ],
    [
      11,
      13,
      {
        "cost": 233.31,
        "seconds": 533
      }
    ],
    [
      11,
      10,
      {
        "cost": 174.57,
        "seconds": 381
      }
    ],
    [
      12,
      4,
      {
        "cost": 180.63,
        "seconds": 442
      }
    ],
    [
      13,
      1,
      {
        "cost": 279.09,
        "seconds": 643
      }
    ],
    [
      13,
      0,
      {
        "cost": 283.38,
        "seconds": 588
      }
    ],
    [
      13,
      3,
      {
        "cost": 247.2,
        "seconds": 530
      }
    ],
    [
      13,
      2,
      {
        "cost": 260.09999999999999,
        "seconds": 634
      }
    ],
    [
      13,
      5,
      {
        "cost": 171.20999999999999,
        "seconds": 437
      }
    ],
    [
      13,
      4,
      {
        "cost": 433.65,
        "seconds": 907
      }
    ],
    [
      13,
      7,
      {
        "cost": 296.07,
        "seconds": 623
      }
    ],
    [
      13,
      6,
      {
        "cost": 43.71,
        "seconds": 111
      }
    ],
    [
      13,
      9,
      {
        "cost": 219.81,
        "seconds": 452
      }
    ],
    [
      13,
      8,
      {
        "cost": 223.17,
        "seconds": 654
      }
    ],
    [
      13,
      11,
      {
        "cost": 282.69,
        "seconds": 602
      }
    ],
    [
      13,
      10,
      {
        "cost": 196.98,
        "seconds": 436
      }
    ],
    [
      13,
      12,
      {
        "cost": 480.71999999999999,
        "seconds": 1053
      }
    ],
    [
      12,
      15,
      {
        "cost": 84.84,
        "seconds": 235
      }
    ],
    [
      14,
      13,
      {
        "cost": 279.51,
        "seconds": 688
      }
    ],
    [
      12,
      14,
      {
        "cost": 504.93,
        "seconds": 1147
      }
    ],
    [
      15,
      13,
      {
        "cost": 425.21999999999999,
        "seconds": 976
      }
    ],
    [
      10,
      15,
      {
        "cost": 362.52,
        "seconds": 827
      }
    ],
    [
      14,
      11,
      {
        "cost": 325.77,
        "seconds": 692
      }
    ],
    [
      10,
      14,
      {
        "cost": 126.83999999999999,
        "seconds": 302
      }
    ],
    [
      15,
      11,
      {
        "cost": 198.84,
        "seconds": 453
      }
    ],
    [
      8,
      15,
      {
        "cost": 192.18,
        "seconds": 452
      }
    ],
    [
      14,
      9,
      {
        "cost": 270.9,
        "seconds": 555
      }
    ],
    [
      8,
      14,
      {
        "cost": 323.46,
        "seconds": 723
      }
    ],
    [
      15,
      9,
      {
        "cost": 340.44,
        "seconds": 750
      }
    ],
    [
      6,
      15,
      {
        "cost": 389.25,
        "seconds": 897
      }
    ],
    [
      14,
      7,
      {
        "cost": 347.07,
        "seconds": 727
      }
    ],
    [
      6,
      14,
      {
        "cost": 302.37,
        "seconds": 712
      }
    ],
    [
      15,
      7,
      {
        "cost": 181.89,
        "seconds": 413
      }
    ],
    [
      4,
      15,
      {
        "cost": 115.19999999999999,
        "seconds": 276
      }
    ],
    [
      14,
      5,
      {
        "cost": 125.49,
        "seconds": 306
      }
    ],
    [
      4,
      14,
      {
        "cost": 460.02,
        "seconds": 996
      }
    ],
    [
      15,
      5,
      {
        "cost": 417.39,
        "seconds": 917
      }
    ],
    [
      2,
      15,
      {
        "cost": 446.4,
        "seconds": 945
      }
    ],
    [
      14,
      3,
      {
        "cost": 296.21999999999999,
        "seconds": 632
      }
    ],
    [
      2,
      14,
      {
        "cost": 109.67999999999999,
        "seconds": 276
      }
    ],
    [
      15,
      3,
      {
        "cost": 329.15999999999999,
        "seconds": 781
      }
    ],
    [
      0,
      15,
      {
        "cost": 234.54,
        "seconds": 559
      }
    ],
    [
      14,
      1,
      {
        "cost": 122.1,
        "seconds": 259
      }
    ],
    [
      0,
      14,
      {
        "cost": 313.68,
        "seconds": 694
      }
    ],
    [
      15,
      1,
      {
        "cost": 478.59,
        "seconds": 1056
      }
    ]
  ]
}