{
  "nodes": [
    {
      "Delivery": {
        "bid": 2836,
        "id": 10,
        "price": null,
        "cost": null,
        "direct_dist": 9456,
        "direct_cost": 284,
        "direct_time": 691
      }
    },
    {
      "Pickup": {
        "bid": 2836,
        "id": 10,
        "price": null,
        "cost": null,
        "direct_dist": 9456,
        "direct_cost": 284,
        "direct_time": 691
      }
    },
    {
      "Delivery": {
        "bid": 3861,
        "id": 9,
        "price": null,
        "cost": null,
        "direct_dist": 12872,
        "direct_cost": 387,
        "direct_time": 1029
      }
    },
    {
      "Pickup": {
        "bid": 3861,
        "id": 9,
        "price": null,
        "cost": null,
        "direct_dist": 12872,
        "direct_cost": 387,
        "direct_time": 1029
      }
    },
    {
      "Delivery": {
        "bid": 852,
        "id": 8,
        "price": null,
        "cost": null,
        "direct_dist": 7275,
        "direct_cost": 219,
        "direct_time": 465
      }
    },
    {
      "Pickup": {
        "bid": 852,
        "id": 8,
        "price": null,
        "cost": null,
        "direct_dist": 7275,
        "direct_cost": 219,
        "direct_time": 465
      }
    },
    {
      "Delivery": {
        "bid": 2341,
        "id": 7,
        "price": null,
        "cost": null,
        "direct_dist": 7805,
        "direct_cost": 235,
        "direct_time": 540
      }
    },
    {
      "Pickup": {
        "bid": 2341,
        "id": 7,
        "price": null,
        "cost": null,
        "direct_dist": 7805,
        "direct_cost": 235,
        "direct_time": 540
      }
    },
    {
      "Delivery": {
        "bid": 2695,
        "id": 6,
        "price": null,
        "cost": null,
        "direct_dist": 9642,
        "direct_cost": 290,
        "direct_time": 611
      }
    },
    {
      "Pickup": {
        "bid": 2695,
        "id": 6,
        "price": null,
        "cost": null,
        "direct_dist": 9642,
        "direct_cost": 290,
        "direct_time": 611
      }
    },
    {
      "Delivery": {
        "bid": 1053,
        "id": 4,
        "price": null,
        "cost": null,
        "direct_dist": 11189,
        "direct_cost": 336,
        "direct_time": 713
      }
    },
    {
      "Pickup": {
        "bid": 1053,
        "id": 4,
        "price": null,
        "cost": null,
        "direct_dist": 11189,
        "direct_cost": 336,
        "direct_time": 713
      }
    },
    {
      "Delivery": {
        "bid": 1019,
        "id": 3,
        "price": null,
        "cost": null,
        "direct_dist": 4087,
        "direct_cost": 123,
        "direct_time": 312
      }
    },
    {
      "Pickup": {
        "bid": 1019,
        "id": 3,
        "price": null,
        "cost": null,
        "direct_dist": 4087,
        "direct_cost": 123,
        "direct_time": 312
      }
    },
    {
      "Delivery": {
        "bid": 1425,
        "id": 1,
        "price": null,
        "cost": null,
        "direct_dist": 4753,
        "direct_cost": 143,
        "direct_time": 328
      }
    },
    {
      "Pickup": {
        "bid": 1425,
        "id": 1,
        "price": null,
        "cost": null,
        "direct_dist": 4753,
        "direct_cost": 143,
        "direct_time": 328
      }
    },
    {
      "DriverStart": {
        "arrive_until": 2400,
        "direct_cost": 475
      }
    },
    {
      "DriverEnd": {
        "arrive_until": 2400,
        "direct_cost": 475
      }
    }
  ],
  "node_holes": [],
  "edge_property": "directed",
  "edges": [
    [
      0,
      2,
      {
        "cost": 550.26,
        "seconds": 1182
      }
    ],
    [
      0,
      6,
      {
        "cost": 209.54999999999999,
        "seconds": 526
      }
    ],
    [
      0,
      10,
      {
        "cost": 411.35999999999998,
        "seconds": 859
      }
    ],
    [
      1,
      12,
      {
        "cost": 175.23,
        "seconds": 398
      }
    ],
    [
      1,
      6,
      {
        "cost": 155.43,
        "seconds": 344
      }
    ],
    [
      1,
      14,
      {
        "cost": 193.32,
        "seconds": 451
      }
    ],
    [
      1,
      10,
      {
        "cost": 321.71999999999999,
        "seconds": 651
      }
    ],
    [
      1,
      3,
      {
        "cost": 47.46,
        "seconds": 139
      }
    ],
    [
      1,
      13,
      {
        "cost": 196.79999999999999,
        "seconds": 495
      }
    ],
    [
      1,
      7,
      {
        "cost": 138.66,
        "seconds": 321
      }
    ],
    [
      1,
      15,
      {
        "cost": 189.6,
        "seconds": 410
      }
    ],
    [
      1,
      11,
      {
        "cost": 231.32999999999999,
        "seconds": 551
      }
    ],
    [
      1,
      5,
      {
        "cost": 234.0,
        "seconds": 529
      }
    ],
    [
      1,
      0,
      {
        "cost": 283.68,
        "seconds": 691
      }
    ],
    [
      2,
      10,
      {
        "cost": 176.88,
        "seconds": 375
      }
    ],
    [
      2,
      8,
      {
        "cost": 11.969999999999999,
        "seconds": 30
      }
    ],
    [
      3,
      1,
      {
        "cost": 44.91,
        "seconds": 166
      }
    ],
    [
      3,
      0,
      {
        "cost": 291.63,
        "seconds": 652
      }
    ],
    [
      3,
      10,
      {
        "cost": 336.9,
        "seconds": 749
      }
    ],
    [
      3,
      6,
      {
        "cost": 120.06,
        "seconds": 290
      }
    ],
    [
      3,
      8,
      {
        "cost": 396.24,
        "seconds": 1051
      }
    ],
    [
      3,
      14,
      {
        "cost": 205.41,
        "seconds": 496
      }
    ],
    [
      3,
      12,
      {
        "cost": 139.89,
        "seconds": 344
      }
    ],
    [
      3,
      11,
      {
        "cost": 270.69,
        "seconds": 616
      }
    ],
    [
      3,
      4,
      {
        "cost": 386.34,
        "seconds": 823
      }
    ],
    [
      3,
      7,
      {
        "cost": 158.51999999999999,
        "seconds": 387
      }
    ],
    [
      3,
      9,
      {
        "cost": 306.51,
        "seconds": 696
      }
    ],
    [
      3,
      13,
      {
        "cost": 161.46,
        "seconds": 441
      }
    ],
    [
      3,
      15,
      {
        "cost": 200.42999999999999,
        "seconds": 457
      }
    ],
    [
      3,
      5,
      {
        "cost": 246.09,
        "seconds": 574
      }
    ],
    [
      3,
      2,
      {
        "cost": 386.15999999999999,
        "seconds": 1029
      }
    ],
    [
      4,
      0,
      {
        "cost": 456.84,
        "seconds": 991
      }
    ],
    [
      4,
      2,
      {
        "cost": 152.79,
        "seconds": 330
      }
    ],
    [
      4,
      14,
      {
        "cost": 198.32999999999999,
        "seconds": 493
      }
    ],
    [
      4,
      6,
      {
        "cost": 412.22999999999998,
        "seconds": 927
      }
    ],
    [
      4,
      10,
      {
        "cost": 37.65,
        "seconds": 98
      }
    ],
    [
      4,
      8,
      {
        "cost": 162.9,
        "seconds": 353
      }
    ],
    [
      5,
      3,
      {
        "cost": 245.45999999999999,
        "seconds": 557
      }
    ],
    [
      5,
      14,
      {
        "cost": 71.91,
        "seconds": 184
      }
    ],
    [
      5,
      10,
      {
        "cost": 168.81,
        "seconds": 391
      }
    ],
    [
      5,
      8,
      {
        "cost": 321.09,
        "seconds": 711
      }
    ],
    [
      5,
      13,
      {
        "cost": 344.46,
        "seconds": 787
      }
    ],
    [
      5,
      15,
      {
        "cost": 142.35,
        "seconds": 325
      }
    ],
    [
      5,
      11,
      {
        "cost": 212.60999999999999,
        "seconds": 484
      }
    ],
    [
      5,
      9,
      {
        "cost": 83.39999999999999,
        "seconds": 201
      }
    ],
    [
      5,
      4,
      {
        "cost": 218.25,
        "seconds": 465
      }
    ],
    [
      6,
      1,
      {
        "cost": 139.32,
        "seconds": 340
      }
    ],
    [
      6,
      0,
      {
        "cost": 184.98,
        "seconds": 419
      }
    ],
    [
      6,
      2,
      {
        "cost": 500.88,
        "seconds": 1109
      }
    ],
    [
      6,
      3,
      {
        "cost": 107.55,
        "seconds": 293
      }
    ],
    [
      6,
      12,
      {
        "cost": 115.53,
        "seconds": 267
      }
    ],
    [
      6,
      10,
      {
        "cost": 361.95,
        "seconds": 786
      }
    ],
    [
      6,
      14,
      {
        "cost": 222.66,
        "seconds": 526
      }
    ],
    [
      6,
      15,
      {
        "cost": 144.48,
        "seconds": 338
      }
    ],
    [
      7,
      1,
      {
        "cost": 95.19,
        "seconds": 249
      }
    ],
    [
      7,
      0,
      {
        "cost": 327.84,
        "seconds": 784
      }
    ],
    [
      7,
      3,
      {
        "cost": 108.0,
        "seconds": 272
      }
    ],
    [
      7,
      5,
      {
        "cost": 268.34999999999999,
        "seconds": 517
      }
    ],
    [
      7,
      12,
      {
        "cost": 253.98,
        "seconds": 594
      }
    ],
    [
      7,
      14,
      {
        "cost": 203.4,
        "seconds": 446
      }
    ],
    [
      7,
      11,
      {
        "cost": 275.49,
        "seconds": 643
      }
    ],
    [
      7,
      13,
      {
        "cost": 275.55,
        "seconds": 691
      }
    ],
    [
      7,
      15,
      {
        "cost": 226.98,
        "seconds": 498
      }
    ],
    [
      7,
      6,
      {
        "cost": 234.14999999999999,
        "seconds": 540
      }
    ],
    [
      8,
      2,
      {
        "cost": 11.969999999999999,
        "seconds": 30
      }
    ],
    [
      8,
      4,
      {
        "cost": 156.78,
        "seconds": 329
      }
    ],
    [
      8,
      10,
      {
        "cost": 186.95999999999999,
        "seconds": 398
      }
    ],
    [
      9,
      3,
      {
        "cost": 315.9,
        "seconds": 698
      }
    ],
    [
      9,
      2,
      {
        "cost": 279.18,
        "seconds": 588
      }
    ],
    [
      9,
      5,
      {
        "cost": 100.47,
        "seconds": 230
      }
    ],
    [
      9,
      4,
      {
        "cost": 152.54999999999999,
        "seconds": 328
      }
    ],
    [
      9,
      10,
      {
        "cost": 122.42999999999999,
        "seconds": 321
      }
    ],
    [
      9,
      14,
      {
        "cost": 139.62,
        "seconds": 323
      }
    ],
    [
      9,
      11,
      {
        "cost": 280.34999999999999,
        "seconds": 623
      }
    ],
    [
      9,
      15,
      {
        "cost": 210.09,
        "seconds": 464
      }
    ],
    [
      9,
      8,
      {
        "cost": 289.26,
        "seconds": 611
      }
    ],
    [
      10,
      0,
      {
        "cost": 419.21999999999999,
        "seconds": 893
      }
    ],
    [
      10,
      2,
      {
        "cost": 187.56,
        "seconds": 414
      }
    ],
    [
      10,
      4,
      {
        "cost": 44.339999999999999,
        "seconds": 136
      }
    ],
    [
      10,
      8,
      {
        "cost": 197.67,
        "seconds": 437
      }
    ],
    [
      10,
      14,
      {
        "cost": 156.21,
        "seconds": 398
      }
    ],
    [
      11,
      1,
      {
        "cost": 222.12,
        "seconds": 556
      }
    ],
    [
      11,
      0,
      {
        "cost": 121.02,
        "seconds": 346
      }
    ],
    [
      11,
      3,
      {
        "cost": 228.51,
        "seconds": 561
      }
    ],
    [
      11,
      2,
      {
        "cost": 474.57,
        "seconds": 1036
      }
    ],
    [
      11,
      5,
      {
        "cost": 218.88,
        "seconds": 472
      }
    ],
    [
      11,
      4,
      {
        "cost": 385.11,
        "seconds": 788
      }
    ],
    [
      11,
      7,
      {
        "cost": 282.75,
        "seconds": 697
      }
    ],
    [
      11,
      6,
      {
        "cost": 179.04,
        "seconds": 474
      }
    ],
    [
      11,
      9,
      {
        "cost": 269.78999999999999,
        "seconds": 577
      }
    ],
    [
      11,
      8,
      {
        "cost": 484.68,
        "seconds": 1059
      }
    ],
    [
      11,
      12,
      {
        "cost": 259.28999999999999,
        "seconds": 609
      }
    ],
    [
      11,
      14,
      {
        "cost": 196.38,
        "seconds": 453
      }
    ],
    [
      11,
      13,
      {
        "cost": 271.77,
        "seconds": 719
      }
    ],
    [
      11,
      15,
      {
        "cost": 78.09,
        "seconds": 197
      }
    ],
    [
      11,
      10,
      {
        "cost": 335.67,
        "seconds": 713
      }
    ],
    [
      12,
      0,
      {
        "cost": 260.21999999999999,
        "seconds": 557
      }
    ],
    [
      12,
      1,
      {
        "cost": 117.44999999999999,
        "seconds": 277
      }
    ],
    [
      12,
      3,
      {
        "cost": 85.67999999999999,
        "seconds": 231
      }
    ],
    [
      12,
      2,
      {
        "cost": 439.85999999999998,
        "seconds": 1137
      }
    ],
    [
      12,
      4,
      {
        "cost": 441.71999999999999,
        "seconds": 929
      }
    ],
    [
      12,
      6,
      {
        "cost": 88.64999999999999,
        "seconds": 195
      }
    ],
    [
      12,
      7,
      {
        "cost": 212.22,
        "seconds": 496
      }
    ],
    [
      12,
      10,
      {
        "cost": 392.28,
        "seconds": 855
      }
    ],
    [
      12,
      14,
      {
        "cost": 260.78999999999999,
        "seconds": 602
      }
    ],
    [
      12,
      15,
      {
        "cost": 226.47,
        "seconds": 485
      }
    ],
    [
      13,
      1,
      {
        "cost": 208.41,
        "seconds": 500
      }
    ],
    [
      13,
      3,
      {
        "cost": 176.60999999999999,
        "seconds": 453
      }
    ],
    [
      13,
      7,
      {
        "cost": 303.18,
        "seconds": 718
      }
    ],
    [
      13,
      6,
      {
        "cost": 150.78,
        "seconds": 363
      }
    ],
    [
      13,
      11,
      {
        "cost": 259.77,
        "seconds": 694
      }
    ],
    [
      13,
      15,
      {
        "cost": 203.73,
        "seconds": 562
      }
    ],
    [
      13,
      12,
      {
        "cost": 122.61,
        "seconds": 312
      }
    ],
    [
      14,
      0,
      {
        "cost": 274.5,
        "seconds": 603
      }
    ],
    [
      14,
      1,
      {
        "cost": 231.87,
        "seconds": 493
      }
    ],
    [
      14,
      2,
      {
        "cost": 297.21,
        "seconds": 671
      }
    ],
    [
      14,
      3,
      {
        "cost": 210.32999999999999,
        "seconds": 511
      }
    ],
    [
      14,
      4,
      {
        "cost": 203.48999999999999,
        "seconds": 443
      }
    ],
    [
      14,
      5,
      {
        "cost": 88.05,
        "seconds": 220
      }
    ],
    [
      14,
      6,
      {
        "cost": 229.76999999999999,
        "seconds": 556
      }
    ],
    [
      14,
      7,
      {
        "cost": 225.6,
        "seconds": 515
      }
    ],
    [
      14,
      8,
      {
        "cost": 307.32,
        "seconds": 693
      }
    ],
    [
      14,
      9,
      {
        "cost": 134.57999999999999,
        "seconds": 312
      }
    ],
    [
      14,
      10,
      {
        "cost": 154.04999999999999,
        "seconds": 368
      }
    ],
    [
      14,
      11,
      {
        "cost": 196.53,
        "seconds": 438
      }
    ],
    [
      14,
      12,
      {
        "cost": 265.77,
        "seconds": 606
      }
    ],
    [
      15,
      1,
      {
        "cost": 174.69,
        "seconds": 423
      }
    ],
    [
      15,
      3,
      {
        "cost": 181.07999999999999,
        "seconds": 429
      }
    ],
    [
      15,
      5,
      {
        "cost": 157.85999999999999,
        "seconds": 354
      }
    ],
    [
      15,
      4,
      {
        "cost": 331.32,
        "seconds": 663
      }
    ],
    [
      15,
      7,
      {
        "cost": 235.32,
        "seconds": 565
      }
    ],
    [
      15,
      6,
      {
        "cost": 131.60999999999999,
        "seconds": 341
      }
    ],
    [
      15,
      9,
      {
        "cost": 241.23,
        "seconds": 555
      }
    ],
    [
      15,
      11,
      {
        "cost": 70.25999999999999,
        "seconds": 159
      }
    ],
    [
      15,
      10,
      {
        "cost": 281.88,
        "seconds": 588
      }
    ],
    [
      15,
      13,
      {
        "cost": 224.34,
        "seconds": 586
      }
    ],
    [
      15,
      12,
      {
        "cost": 211.85999999999999,
        "seconds": 477
      }
    ],
    [
      15,
      14,
      {
        "cost": 142.59,
        "seconds": 328
      }
    ],
    [
      14,
      17,
      {
        "cost": 227.67,
        "seconds": 560
      }
    ],
    [
      16,
      15,
      {
        "cost": 152.48999999999999,
        "seconds": 381
      }
    ],
    [
      14,
      16,
      {
        "cost": 273.81,
        "seconds": 619
      }
    ],
    [
      17,
      15,
      {
        "cost": 328.26,
        "seconds": 740
      }
    ],
    [
      12,
      17,
      {
        "cost": 465.9,
        "seconds": 1047
      }
    ],
    [
      16,
      13,
      {
        "cost": 93.09,
        "seconds": 270
      }
    ],
    [
      12,
      16,
      {
        "cost": 136.95,
        "seconds": 296
      }
    ],
    [
      17,
      13,
      {
        "cost": 547.38,
        "seconds": 1218
      }
    ],
    [
      10,
      17,
      {
        "cost": 123.96,
        "seconds": 364
      }
    ],
    [
      16,
      11,
      {
        "cost": 208.53,
        "seconds": 512
      }
    ],
    [
      10,
      16,
      {
        "cost": 418.62,
        "seconds": 891
      }
    ],
    [
      17,
      11,
      {
        "cost": 398.52,
        "seconds": 898
      }
    ],
    [
      8,
      17,
      {
        "cost": 125.03999999999999,
        "seconds": 342
      }
    ],
    [
      16,
      9,
      {
        "cost": 360.53999999999999,
        "seconds": 820
      }
    ],
    [
      8,
      16,
      {
        "cost": 581.88,
        "seconds": 1240
      }
    ],
    [
      17,
      9,
      {
        "cost": 192.48,
        "seconds": 466
      }
    ],
    [
      6,
      17,
      {
        "cost": 435.57,
        "seconds": 978
      }
    ],
    [
      16,
      7,
      {
        "cost": 292.65,
        "seconds": 660
      }
    ],
    [
      6,
      16,
      {
        "cost": 88.86,
        "seconds": 204
      }
    ],
    [
      17,
      7,
      {
        "cost": 344.96999999999999,
        "seconds": 876
      }
    ],
    [
      4,
      17,
      {
        "cost": 86.55,
        "seconds": 255
      }
    ],
    [
      16,
      5,
      {
        "cost": 277.14,
        "seconds": 619
      }
    ],
    [
      4,
      16,
      {
        "cost": 456.27,
        "seconds": 990
      }
    ],
    [
      17,
      5,
      {
        "cost": 238.29,
        "seconds": 518
      }
    ],
    [
      2,
      17,
      {
        "cost": 130.04999999999999,
        "seconds": 349
      }
    ],
    [
      16,
      3,
      {
        "cost": 166.10999999999999,
        "seconds": 395
      }
    ],
    [
      2,
      16,
      {
        "cost": 571.77,
        "seconds": 1218
      }
    ],
    [
      17,
      3,
      {
        "cost": 417.12,
        "seconds": 936
      }
    ],
    [
      0,
      17,
      {
        "cost": 484.97999999999998,
        "seconds": 1051
      }
    ],
    [
      16,
      1,
      {
        "cost": 197.88,
        "seconds": 442
      }
    ],
    [
      0,
      16,
      {
        "cost": 188.67,
        "seconds": 497
      }
    ],
    [
      17,
      1,
      {
        "cost": 396.21,
        "seconds": 863
      }
    ]
  ]
}