{
  "nodes": [
    {
      "Delivery": {
        "bid": 3581,
        "id": 10,
        "price": null,
        "cost": null,
        "direct_dist": 11939,
        "direct_cost": 359,
        "direct_time": 745
      }
    },
    {
      "Pickup": {
        "bid": 3581,
        "id": 10,
        "price": null,
        "cost": null,
        "direct_dist": 11939,
        "direct_cost": 359,
        "direct_time": 745
      }
    },
    {
      "Delivery": {
        "bid": 1770,
        "id": 9,
        "price": null,
        "cost": null,
        "direct_dist": 5902,
        "direct_cost": 178,
        "direct_time": 440
      }
    },
    {
      "Pickup": {
        "bid": 1770,
        "id": 9,
        "price": null,
        "cost": null,
        "direct_dist": 5902,
        "direct_cost": 178,
        "direct_time": 440
      }
    },
    {
      "Delivery": {
        "bid": 1500,
        "id": 8,
        "price": null,
        "cost": null,
        "direct_dist": 5002,
        "direct_cost": 151,
        "direct_time": 387
      }
    },
    {
      "Pickup": {
        "bid": 1500,
        "id": 8,
        "price": null,
        "cost": null,
        "direct_dist": 5002,
        "direct_cost": 151,
        "direct_time": 387
      }
    },
    {
      "Delivery": {
        "bid": 4003,
        "id": 7,
        "price": null,
        "cost": null,
        "direct_dist": 13344,
        "direct_cost": 401,
        "direct_time": 926
      }
    },
    {
      "Pickup": {
        "bid": 4003,
        "id": 7,
        "price": null,
        "cost": null,
        "direct_dist": 13344,
        "direct_cost": 401,
        "direct_time": 926
      }
    },
    {
      "Delivery": {
        "bid": 1629,
        "id": 5,
        "price": null,
        "cost": null,
        "direct_dist": 5431,
        "direct_cost": 163,
        "direct_time": 426
      }
    },
    {
      "Pickup": {
        "bid": 1629,
        "id": 5,
        "price": null,
        "cost": null,
        "direct_dist": 5431,
        "direct_cost": 163,
        "direct_time": 426
      }
    },
    {
      "Delivery": {
        "bid": 657,
        "id": 4,
        "price": null,
        "cost": null,
        "direct_dist": 11725,
        "direct_cost": 352,
        "direct_time": 781
      }
    },
    {
      "Pickup": {
        "bid": 657,
        "id": 4,
        "price": null,
        "cost": null,
        "direct_dist": 11725,
        "direct_cost": 352,
        "direct_time": 781
      }
    },
    {
      "Delivery": {
        "bid": 1251,
        "id": 3,
        "price": null,
        "cost": null,
        "direct_dist": 5715,
        "direct_cost": 172,
        "direct_time": 494
      }
    },
    {
      "Pickup": {
        "bid": 1251,
        "id": 3,
        "price": null,
        "cost": null,
        "direct_dist": 5715,
        "direct_cost": 172,
        "direct_time": 494
      }
    },
    {
      "Delivery": {
        "bid": 2400,
        "id": 2,
        "price": null,
        "cost": null,
        "direct_dist": 11280,
        "direct_cost": 339,
        "direct_time": 771
      }
    },
    {
      "Pickup": {
        "bid": 2400,
        "id": 2,
        "price": null,
        "cost": null,
        "direct_dist": 11280,
        "direct_cost": 339,
        "direct_time": 771
      }
    },
    {
      "Delivery": {
        "bid": 841,
        "id": 1,
        "price": null,
        "cost": null,
        "direct_dist": 2806,
        "direct_cost": 85,
        "direct_time": 279
      }
    },
    {
      "Pickup": {
        "bid": 841,
        "id": 1,
        "price": null,
        "cost": null,
        "direct_dist": 2806,
        "direct_cost": 85,
        "direct_time": 279
      }
    },
    {
      "DriverStart": {
        "arrive_until": 2400,
        "direct_cost": 475
      }
    },
    {
      "DriverEnd": {
        "arrive_until": 2400,
        "direct_cost": 475
      }
    }
  ],
  "node_holes": [],
  "edge_property": "directed",
  "edges": [
    [
      0,
      10,
      {
        "cost": 159.63,
        "seconds": 324
      }
    ],
    [
      0,
      8,
      {
        "cost": 261.93,
        "seconds": 577
      }
    ],
    [
      0,
      14,
      {
        "cost": 270.93,
        "seconds": 526
      }
    ],
    [
      0,
      6,
      {
        "cost": 238.26,
        "seconds": 505
      }
    ],
    [
      0,
      12,
      {
        "cost": 65.07,
        "seconds": 124
      }
    ],
    [
      1,
      16,
      {
        "cost": 107.85,
        "seconds": 277
      }
    ],
    [
      1,
      17,
      {
        "cost": 127.5,
        "seconds": 319
      }
    ],
    [
      1,
      10,
      {
        "cost": 400.71,
        "seconds": 901
      }
    ],
    [
      1,
      8,
      {
        "cost": 186.93,
        "seconds": 387
      }
    ],
    [
      1,
      4,
      {
        "cost": 128.88,
        "seconds": 336
      }
    ],
    [
      1,
      2,
      {
        "cost": 280.22999999999998,
        "seconds": 680
      }
    ],
    [
      1,
      14,
      {
        "cost": 467.49,
        "seconds": 1048
      }
    ],
    [
      1,
      6,
      {
        "cost": 343.59,
        "seconds": 880
      }
    ],
    [
      1,
      12,
      {
        "cost": 337.8,
        "seconds": 723
      }
    ],
    [
      1,
      11,
      {
        "cost": 103.2,
        "seconds": 280
      }
    ],
    [
      1,
      9,
      {
        "cost": 106.28999999999999,
        "seconds": 289
      }
    ],
    [
      1,
      15,
      {
        "cost": 129.63,
        "seconds": 316
      }
    ],
    [
      1,
      3,
      {
        "cost": 165.45,
        "seconds": 393
      }
    ],
    [
      1,
      7,
      {
        "cost": 77.75999999999999,
        "seconds": 202
      }
    ],
    [
      1,
      13,
      {
        "cost": 311.07,
        "seconds": 743
      }
    ],
    [
      1,
      5,
      {
        "cost": 59.97,
        "seconds": 147
      }
    ],
    [
      1,
      0,
      {
        "cost": 358.16999999999998,
        "seconds": 745
      }
    ],
    [
      2,
      0,
      {
        "cost": 234.89999999999999,
        "seconds": 591
      }
    ],
    [
      2,
      10,
      {
        "cost": 182.19,
        "seconds": 487
      }
    ],
    [
      2,
      8,
      {
        "cost": 294.47999999999998,
        "seconds": 637
      }
    ],
    [
      2,
      6,
      {
        "cost": 83.03999999999999,
        "seconds": 271
      }
    ],
    [
      2,
      4,
      {
        "cost": 264.87,
        "seconds": 638
      }
    ],
    [
      2,
      16,
      {
        "cost": 184.95,
        "seconds": 501
      }
    ],
    [
      2,
      14,
      {
        "cost": 167.31,
        "seconds": 585
      }
    ],
    [
      2,
      12,
      {
        "cost": 207.09,
        "seconds": 562
      }
    ],
    [
      2,
      13,
      {
        "cost": 119.33999999999999,
        "seconds": 409
      }
    ],
    [
      3,
      1,
      {
        "cost": 179.88,
        "seconds": 458
      }
    ],
    [
      3,
      10,
      {
        "cost": 387.75,
        "seconds": 841
      }
    ],
    [
      3,
      6,
      {
        "cost": 240.42,
        "seconds": 640
      }
    ],
    [
      3,
      8,
      {
        "cost": 284.76,
        "seconds": 609
      }
    ],
    [
      3,
      4,
      {
        "cost": 123.33,
        "seconds": 307
      }
    ],
    [
      3,
      11,
      {
        "cost": 129.72,
        "seconds": 339
      }
    ],
    [
      3,
      16,
      {
        "cost": 111.81,
        "seconds": 303
      }
    ],
    [
      3,
      12,
      {
        "cost": 324.84,
        "seconds": 663
      }
    ],
    [
      3,
      7,
      {
        "cost": 220.44,
        "seconds": 502
      }
    ],
    [
      3,
      9,
      {
        "cost": 259.95,
        "seconds": 654
      }
    ],
    [
      3,
      17,
      {
        "cost": 37.35,
        "seconds": 149
      }
    ],
    [
      3,
      5,
      {
        "cost": 235.04999999999999,
        "seconds": 498
      }
    ],
    [
      3,
      15,
      {
        "cost": 173.54999999999999,
        "seconds": 436
      }
    ],
    [
      3,
      13,
      {
        "cost": 250.04999999999999,
        "seconds": 682
      }
    ],
    [
      3,
      2,
      {
        "cost": 177.06,
        "seconds": 440
      }
    ],
    [
      4,
      0,
      {
        "cost": 403.28999999999999,
        "seconds": 837
      }
    ],
    [
      4,
      1,
      {
        "cost": 158.43,
        "seconds": 330
      }
    ],
    [
      4,
      2,
      {
        "cost": 251.25,
        "seconds": 577
      }
    ],
    [
      4,
      3,
      {
        "cost": 108.47999999999999,
        "seconds": 246
      }
    ],
    [
      4,
      8,
      {
        "cost": 309.21,
        "seconds": 628
      }
    ],
    [
      4,
      6,
      {
        "cost": 314.58,
        "seconds": 778
      }
    ],
    [
      4,
      14,
      {
        "cost": 384.71999999999999,
        "seconds": 1034
      }
    ],
    [
      4,
      16,
      {
        "cost": 142.62,
        "seconds": 326
      }
    ],
    [
      4,
      10,
      {
        "cost": 445.85999999999998,
        "seconds": 993
      }
    ],
    [
      4,
      7,
      {
        "cost": 141.21,
        "seconds": 300
      }
    ],
    [
      4,
      15,
      {
        "cost": 207.69,
        "seconds": 466
      }
    ],
    [
      4,
      17,
      {
        "cost": 70.5,
        "seconds": 172
      }
    ],
    [
      4,
      11,
      {
        "cost": 154.17,
        "seconds": 358
      }
    ],
    [
      5,
      1,
      {
        "cost": 51.15,
        "seconds": 138
      }
    ],
    [
      5,
      3,
      {
        "cost": 186.63,
        "seconds": 443
      }
    ],
    [
      5,
      8,
      {
        "cost": 196.53,
        "seconds": 424
      }
    ],
    [
      5,
      16,
      {
        "cost": 131.64,
        "seconds": 326
      }
    ],
    [
      5,
      7,
      {
        "cost": 75.99,
        "seconds": 239
      }
    ],
    [
      5,
      15,
      {
        "cost": 153.45,
        "seconds": 365
      }
    ],
    [
      5,
      9,
      {
        "cost": 86.31,
        "seconds": 233
      }
    ],
    [
      5,
      11,
      {
        "cost": 127.02,
        "seconds": 329
      }
    ],
    [
      5,
      17,
      {
        "cost": 148.65,
        "seconds": 369
      }
    ],
    [
      5,
      4,
      {
        "cost": 150.06,
        "seconds": 387
      }
    ],
    [
      6,
      0,
      {
        "cost": 199.82999999999999,
        "seconds": 520
      }
    ],
    [
      6,
      2,
      {
        "cost": 84.42,
        "seconds": 276
      }
    ],
    [
      6,
      14,
      {
        "cost": 89.64,
        "seconds": 332
      }
    ],
    [
      6,
      10,
      {
        "cost": 109.05,
        "seconds": 327
      }
    ],
    [
      7,
      1,
      {
        "cost": 62.309999999999998,
        "seconds": 155
      }
    ],
    [
      7,
      0,
      {
        "cost": 394.08,
        "seconds": 799
      }
    ],
    [
      7,
      3,
      {
        "cost": 194.19,
        "seconds": 394
      }
    ],
    [
      7,
      2,
      {
        "cost": 336.96,
        "seconds": 726
      }
    ],
    [
      7,
      5,
      {
        "cost": 80.03999999999999,
        "seconds": 165
      }
    ],
    [
      7,
      4,
      {
        "cost": 133.10999999999999,
        "seconds": 259
      }
    ],
    [
      7,
      8,
      {
        "cost": 231.35999999999999,
        "seconds": 481
      }
    ],
    [
      7,
      12,
      {
        "cost": 373.71,
        "seconds": 776
      }
    ],
    [
      7,
      16,
      {
        "cost": 139.76999999999999,
        "seconds": 320
      }
    ],
    [
      7,
      14,
      {
        "cost": 503.4,
        "seconds": 1101
      }
    ],
    [
      7,
      10,
      {
        "cost": 436.62,
        "seconds": 955
      }
    ],
    [
      7,
      13,
      {
        "cost": 346.95,
        "seconds": 797
      }
    ],
    [
      7,
      9,
      {
        "cost": 143.25,
        "seconds": 350
      }
    ],
    [
      7,
      17,
      {
        "cost": 156.21,
        "seconds": 320
      }
    ],
    [
      7,
      15,
      {
        "cost": 165.54,
        "seconds": 370
      }
    ],
    [
      7,
      11,
      {
        "cost": 135.12,
        "seconds": 323
      }
    ],
    [
      7,
      6,
      {
        "cost": 400.32,
        "seconds": 926
      }
    ],
    [
      8,
      0,
      {
        "cost": 320.52,
        "seconds": 611
      }
    ],
    [
      8,
      1,
      {
        "cost": 186.03,
        "seconds": 393
      }
    ],
    [
      8,
      2,
      {
        "cost": 318.69,
        "seconds": 694
      }
    ],
    [
      8,
      4,
      {
        "cost": 296.01,
        "seconds": 649
      }
    ],
    [
      8,
      6,
      {
        "cost": 357.33,
        "seconds": 756
      }
    ],
    [
      8,
      16,
      {
        "cost": 201.35999999999999,
        "seconds": 423
      }
    ],
    [
      8,
      12,
      {
        "cost": 300.15,
        "seconds": 588
      }
    ],
    [
      8,
      10,
      {
        "cost": 363.06,
        "seconds": 766
      }
    ],
    [
      8,
      14,
      {
        "cost": 429.84,
        "seconds": 913
      }
    ],
    [
      8,
      15,
      {
        "cost": 159.18,
        "seconds": 324
      }
    ],
    [
      9,
      1,
      {
        "cost": 115.8,
        "seconds": 324
      }
    ],
    [
      9,
      0,
      {
        "cost": 390.03,
        "seconds": 775
      }
    ],
    [
      9,
      3,
      {
        "cost": 235.79999999999999,
        "seconds": 592
      }
    ],
    [
      9,
      5,
      {
        "cost": 95.28,
        "seconds": 274
      }
    ],
    [
      9,
      4,
      {
        "cost": 250.98,
        "seconds": 521
      }
    ],
    [
      9,
      7,
      {
        "cost": 121.74,
        "seconds": 327
      }
    ],
    [
      9,
      12,
      {
        "cost": 369.65999999999999,
        "seconds": 753
      }
    ],
    [
      9,
      16,
      {
        "cost": 165.29999999999999,
        "seconds": 444
      }
    ],
    [
      9,
      11,
      {
        "cost": 156.66,
        "seconds": 410
      }
    ],
    [
      9,
      15,
      {
        "cost": 161.48999999999999,
        "seconds": 346
      }
    ],
    [
      9,
      17,
      {
        "cost": 224.07,
        "seconds": 567
      }
    ],
    [
      9,
      13,
      {
        "cost": 342.93,
        "seconds": 773
      }
    ],
    [
      9,
      8,
      {
        "cost": 162.93,
        "seconds": 426
      }
    ],
    [
      10,
      0,
      {
        "cost": 126.50999999999999,
        "seconds": 309
      }
    ],
    [
      10,
      2,
      {
        "cost": 182.67,
        "seconds": 487
      }
    ],
    [
      10,
      6,
      {
        "cost": 106.67999999999999,
        "seconds": 313
      }
    ],
    [
      10,
      12,
      {
        "cost": 98.7,
        "seconds": 281
      }
    ],
    [
      10,
      14,
      {
        "cost": 131.37,
        "seconds": 341
      }
    ],
    [
      11,
      1,
      {
        "cost": 78.0,
        "seconds": 236
      }
    ],
    [
      11,
      0,
      {
        "cost": 309.21,
        "seconds": 626
      }
    ],
    [
      11,
      3,
      {
        "cost": 102.86999999999999,
        "seconds": 256
      }
    ],
    [
      11,
      2,
      {
        "cost": 211.47,
        "seconds": 510
      }
    ],
    [
      11,
      5,
      {
        "cost": 139.89,
        "seconds": 343
      }
    ],
    [
      11,
      4,
      {
        "cost": 130.35,
        "seconds": 337
      }
    ],
    [
      11,
      7,
      {
        "cost": 132.03,
        "seconds": 323
      }
    ],
    [
      11,
      6,
      {
        "cost": 274.83,
        "seconds": 711
      }
    ],
    [
      11,
      9,
      {
        "cost": 146.82,
        "seconds": 378
      }
    ],
    [
      11,
      8,
      {
        "cost": 171.66,
        "seconds": 333
      }
    ],
    [
      11,
      12,
      {
        "cost": 288.84,
        "seconds": 603
      }
    ],
    [
      11,
      16,
      {
        "cost": 32.339999999999999,
        "seconds": 108
      }
    ],
    [
      11,
      14,
      {
        "cost": 418.53,
        "seconds": 928
      }
    ],
    [
      11,
      17,
      {
        "cost": 99.0,
        "seconds": 255
      }
    ],
    [
      11,
      13,
      {
        "cost": 262.11,
        "seconds": 624
      }
    ],
    [
      11,
      15,
      {
        "cost": 80.67,
        "seconds": 196
      }
    ],
    [
      11,
      10,
      {
        "cost": 351.75,
        "seconds": 781
      }
    ],
    [
      12,
      0,
      {
        "cost": 43.8,
        "seconds": 90
      }
    ],
    [
      12,
      2,
      {
        "cost": 220.79999999999999,
        "seconds": 555
      }
    ],
    [
      12,
      6,
      {
        "cost": 181.10999999999999,
        "seconds": 434
      }
    ],
    [
      12,
      8,
      {
        "cost": 278.96999999999999,
        "seconds": 588
      }
    ],
    [
      12,
      10,
      {
        "cost": 100.5,
        "seconds": 257
      }
    ],
    [
      12,
      16,
      {
        "cost": 300.57,
        "seconds": 657
      }
    ],
    [
      12,
      14,
      {
        "cost": 230.13,
        "seconds": 479
      }
    ],
    [
      13,
      1,
      {
        "cost": 303.96,
        "seconds": 817
      }
    ],
    [
      13,
      0,
      {
        "cost": 191.82,
        "seconds": 517
      }
    ],
    [
      13,
      3,
      {
        "cost": 235.95,
        "seconds": 668
      }
    ],
    [
      13,
      2,
      {
        "cost": 96.89999999999999,
        "seconds": 348
      }
    ],
    [
      13,
      7,
      {
        "cost": 345.3,
        "seconds": 899
      }
    ],
    [
      13,
      9,
      {
        "cost": 332.19,
        "seconds": 838
      }
    ],
    [
      13,
      8,
      {
        "cost": 302.31,
        "seconds": 763
      }
    ],
    [
      13,
      11,
      {
        "cost": 245.64,
        "seconds": 675
      }
    ],
    [
      13,
      10,
      {
        "cost": 137.16,
        "seconds": 430
      }
    ],
    [
      13,
      16,
      {
        "cost": 240.66,
        "seconds": 670
      }
    ],
    [
      13,
      14,
      {
        "cost": 210.12,
        "seconds": 567
      }
    ],
    [
      13,
      17,
      {
        "cost": 245.85,
        "seconds": 712
      }
    ],
    [
      13,
      15,
      {
        "cost": 195.72,
        "seconds": 562
      }
    ],
    [
      13,
      12,
      {
        "cost": 171.45,
        "seconds": 494
      }
    ],
    [
      14,
      0,
      {
        "cost": 231.45,
        "seconds": 528
      }
    ],
    [
      14,
      2,
      {
        "cost": 208.2,
        "seconds": 551
      }
    ],
    [
      14,
      6,
      {
        "cost": 98.49,
        "seconds": 342
      }
    ],
    [
      14,
      10,
      {
        "cost": 131.04,
        "seconds": 331
      }
    ],
    [
      14,
      12,
      {
        "cost": 203.64,
        "seconds": 500
      }
    ],
    [
      15,
      1,
      {
        "cost": 153.18,
        "seconds": 367
      }
    ],
    [
      15,
      0,
      {
        "cost": 234.14999999999999,
        "seconds": 484
      }
    ],
    [
      15,
      3,
      {
        "cost": 162.78,
        "seconds": 394
      }
    ],
    [
      15,
      2,
      {
        "cost": 196.47,
        "seconds": 546
      }
    ],
    [
      15,
      5,
      {
        "cost": 199.89,
        "seconds": 461
      }
    ],
    [
      15,
      4,
      {
        "cost": 190.79999999999999,
        "seconds": 473
      }
    ],
    [
      15,
      7,
      {
        "cost": 186.69,
        "seconds": 436
      }
    ],
    [
      15,
      6,
      {
        "cost": 265.86,
        "seconds": 614
      }
    ],
    [
      15,
      9,
      {
        "cost": 181.41,
        "seconds": 388
      }
    ],
    [
      15,
      8,
      {
        "cost": 200.42999999999999,
        "seconds": 404
      }
    ],
    [
      15,
      11,
      {
        "cost": 83.58,
        "seconds": 210
      }
    ],
    [
      15,
      10,
      {
        "cost": 265.40999999999999,
        "seconds": 635
      }
    ],
    [
      15,
      13,
      {
        "cost": 187.04999999999999,
        "seconds": 482
      }
    ],
    [
      15,
      12,
      {
        "cost": 213.78,
        "seconds": 461
      }
    ],
    [
      15,
      16,
      {
        "cost": 78.63,
        "seconds": 205
      }
    ],
    [
      15,
      17,
      {
        "cost": 159.45,
        "seconds": 391
      }
    ],
    [
      15,
      14,
      {
        "cost": 338.4,
        "seconds": 771
      }
    ],
    [
      16,
      0,
      {
        "cost": 279.39,
        "seconds": 598
      }
    ],
    [
      16,
      1,
      {
        "cost": 93.06,
        "seconds": 266
      }
    ],
    [
      16,
      2,
      {
        "cost": 209.7,
        "seconds": 499
      }
    ],
    [
      16,
      3,
      {
        "cost": 101.07,
        "seconds": 244
      }
    ],
    [
      16,
      4,
      {
        "cost": 128.57999999999999,
        "seconds": 325
      }
    ],
    [
      16,
      5,
      {
        "cost": 154.95,
        "seconds": 374
      }
    ],
    [
      16,
      6,
      {
        "cost": 273.06,
        "seconds": 699
      }
    ],
    [
      16,
      7,
      {
        "cost": 147.06,
        "seconds": 353
      }
    ],
    [
      16,
      8,
      {
        "cost": 186.69,
        "seconds": 363
      }
    ],
    [
      16,
      9,
      {
        "cost": 161.88,
        "seconds": 409
      }
    ],
    [
      16,
      10,
      {
        "cost": 321.93,
        "seconds": 753
      }
    ],
    [
      16,
      11,
      {
        "cost": 31.65,
        "seconds": 94
      }
    ],
    [
      16,
      12,
      {
        "cost": 259.02,
        "seconds": 575
      }
    ],
    [
      16,
      13,
      {
        "cost": 232.29,
        "seconds": 596
      }
    ],
    [
      16,
      14,
      {
        "cost": 388.71,
        "seconds": 900
      }
    ],
    [
      16,
      15,
      {
        "cost": 85.17,
        "seconds": 201
      }
    ],
    [
      17,
      1,
      {
        "cost": 126.92999999999999,
        "seconds": 329
      }
    ],
    [
      17,
      3,
      {
        "cost": 41.01,
        "seconds": 99
      }
    ],
    [
      17,
      2,
      {
        "cost": 183.78,
        "seconds": 431
      }
    ],
    [
      17,
      5,
      {
        "cost": 182.1,
        "seconds": 369
      }
    ],
    [
      17,
      4,
      {
        "cost": 70.38,
        "seconds": 178
      }
    ],
    [
      17,
      7,
      {
        "cost": 167.48999999999999,
        "seconds": 373
      }
    ],
    [
      17,
      9,
      {
        "cost": 245.31,
        "seconds": 553
      }
    ],
    [
      17,
      8,
      {
        "cost": 250.79999999999999,
        "seconds": 580
      }
    ],
    [
      17,
      11,
      {
        "cost": 95.72999999999999,
        "seconds": 311
      }
    ],
    [
      17,
      13,
      {
        "cost": 256.77,
        "seconds": 673
      }
    ],
    [
      17,
      15,
      {
        "cost": 173.60999999999999,
        "seconds": 412
      }
    ],
    [
      17,
      16,
      {
        "cost": 84.17999999999999,
        "seconds": 279
      }
    ],
    [
      16,
      19,
      {
        "cost": 337.5,
        "seconds": 802
      }
    ],
    [
      18,
      17,
      {
        "cost": 278.28,
        "seconds": 554
      }
    ],
    [
      16,
      18,
      {
        "cost": 188.73,
        "seconds": 468
      }
    ],
    [
      19,
      17,
      {
        "cost": 325.32,
        "seconds": 824
      }
    ],
    [
      14,
      19,
      {
        "cost": 78.21,
        "seconds": 261
      }
    ],
    [
      18,
      15,
      {
        "cost": 188.37,
        "seconds": 405
      }
    ],
    [
      14,
      18,
      {
        "cost": 548.55,
        "seconds": 1165
      }
    ],
    [
      19,
      15,
      {
        "cost": 314.78999999999999,
        "seconds": 731
      }
    ],
    [
      12,
      19,
      {
        "cost": 196.73999999999999,
        "seconds": 425
      }
    ],
    [
      18,
      13,
      {
        "cost": 369.78,
        "seconds": 832
      }
    ],
    [
      12,
      18,
      {
        "cost": 395.37,
        "seconds": 874
      }
    ],
    [
      19,
      13,
      {
        "cost": 118.5,
        "seconds": 364
      }
    ],
    [
      10,
      19,
      {
        "cost": 85.67999999999999,
        "seconds": 239
      }
    ],
    [
      18,
      11,
      {
        "cost": 183.51,
        "seconds": 469
      }
    ],
    [
      10,
      18,
      {
        "cost": 470.37,
        "seconds": 1030
      }
    ],
    [
      19,
      11,
      {
        "cost": 313.77,
        "seconds": 835
      }
    ],
    [
      8,
      19,
      {
        "cost": 378.63,
        "seconds": 815
      }
    ],
    [
      18,
      9,
      {
        "cost": 39.18,
        "seconds": 134
      }
    ],
    [
      8,
      18,
      {
        "cost": 181.76999999999999,
        "seconds": 466
      }
    ],
    [
      19,
      9,
      {
        "cost": 423.03,
        "seconds": 1009
      }
    ],
    [
      6,
      19,
      {
        "cost": 34.47,
        "seconds": 140
      }
    ],
    [
      18,
      7,
      {
        "cost": 125.94,
        "seconds": 299
      }
    ],
    [
      6,
      18,
      {
        "cost": 439.44,
        "seconds": 1017
      }
    ],
    [
      19,
      7,
      {
        "cost": 436.14,
        "seconds": 1070
      }
    ],
    [
      4,
      19,
      {
        "cost": 339.96,
        "seconds": 896
      }
    ],
    [
      18,
      5,
      {
        "cost": 105.72,
        "seconds": 248
      }
    ],
    [
      4,
      18,
      {
        "cost": 226.79999999999999,
        "seconds": 462
      }
    ],
    [
      19,
      5,
      {
        "cost": 441.53999999999999,
        "seconds": 1081
      }
    ],
    [
      2,
      19,
      {
        "cost": 111.57,
        "seconds": 402
      }
    ],
    [
      18,
      3,
      {
        "cost": 260.94,
        "seconds": 626
      }
    ],
    [
      2,
      18,
      {
        "cost": 339.0,
        "seconds": 770
      }
    ],
    [
      19,
      3,
      {
        "cost": 282.3,
        "seconds": 737
      }
    ],
    [
      0,
      19,
      {
        "cost": 237.57,
        "seconds": 473
      }
    ],
    [
      18,
      1,
      {
        "cost": 126.92999999999999,
        "seconds": 318
      }
    ],
    [
      0,
      18,
      {
        "cost": 398.01,
        "seconds": 876
      }
    ],
    [
      19,
      1,
      {
        "cost": 394.8,
        "seconds": 988
      }
    ]
  ]
}