{
  "nodes": [
    {
      "Delivery": {
        "bid": 2079,
        "id": 10,
        "price": null,
        "cost": null,
        "direct_dist": 8481,
        "direct_cost": 255,
        "direct_time": 566
      }
    },
    {
      "Pickup": {
        "bid": 2079,
        "id": 10,
        "price": null,
        "cost": null,
        "direct_dist": 8481,
        "direct_cost": 255,
        "direct_time": 566
      }
    },
    {
      "Delivery": {
        "bid": 21,
        "id": 9,
        "price": null,
        "cost": null,
        "direct_dist": 1796,
        "direct_cost": 54,
        "direct_time": 158
      }
    },
    {
      "Pickup": {
        "bid": 21,
        "id": 9,
        "price": null,
        "cost": null,
        "direct_dist": 1796,
        "direct_cost": 54,
        "direct_time": 158
      }
    },
    {
      "Delivery": {
        "bid": 118,
        "id": 8,
        "price": null,
        "cost": null,
        "direct_dist": 10483,
        "direct_cost": 315,
        "direct_time": 740
      }
    },
    {
      "Pickup": {
        "bid": 118,
        "id": 8,
        "price": null,
        "cost": null,
        "direct_dist": 10483,
        "direct_cost": 315,
        "direct_time": 740
      }
    },
    {
      "Delivery": {
        "bid": 665,
        "id": 7,
        "price": null,
        "cost": null,
        "direct_dist": 2551,
        "direct_cost": 77,
        "direct_time": 241
      }
    },
    {
      "Pickup": {
        "bid": 665,
        "id": 7,
        "price": null,
        "cost": null,
        "direct_dist": 2551,
        "direct_cost": 77,
        "direct_time": 241
      }
    },
    {
      "Delivery": {
        "bid": 3524,
        "id": 5,
        "price": null,
        "cost": null,
        "direct_dist": 14944,
        "direct_cost": 449,
        "direct_time": 960
      }
    },
    {
      "Pickup": {
        "bid": 3524,
        "id": 5,
        "price": null,
        "cost": null,
        "direct_dist": 14944,
        "direct_cost": 449,
        "direct_time": 960
      }
    },
    {
      "Delivery": {
        "bid": 209,
        "id": 4,
        "price": null,
        "cost": null,
        "direct_dist": 7291,
        "direct_cost": 219,
        "direct_time": 517
      }
    },
    {
      "Pickup": {
        "bid": 209,
        "id": 4,
        "price": null,
        "cost": null,
        "direct_dist": 7291,
        "direct_cost": 219,
        "direct_time": 517
      }
    },
    {
      "Delivery": {
        "bid": 3425,
        "id": 3,
        "price": null,
        "cost": null,
        "direct_dist": 11419,
        "direct_cost": 343,
        "direct_time": 708
      }
    },
    {
      "Pickup": {
        "bid": 3425,
        "id": 3,
        "price": null,
        "cost": null,
        "direct_dist": 11419,
        "direct_cost": 343,
        "direct_time": 708
      }
    },
    {
      "Delivery": {
        "bid": 1070,
        "id": 2,
        "price": null,
        "cost": null,
        "direct_dist": 4398,
        "direct_cost": 132,
        "direct_time": 393
      }
    },
    {
      "Pickup": {
        "bid": 1070,
        "id": 2,
        "price": null,
        "cost": null,
        "direct_dist": 4398,
        "direct_cost": 132,
        "direct_time": 393
      }
    },
    {
      "Delivery": {
        "bid": 1760,
        "id": 1,
        "price": null,
        "cost": null,
        "direct_dist": 5867,
        "direct_cost": 177,
        "direct_time": 402
      }
    },
    {
      "Pickup": {
        "bid": 1760,
        "id": 1,
        "price": null,
        "cost": null,
        "direct_dist": 5867,
        "direct_cost": 177,
        "direct_time": 402
      }
    },
    {
      "DriverStart": {
        "arrive_until": 2400,
        "direct_cost": 491
      }
    },
    {
      "DriverEnd": {
        "arrive_until": 2400,
        "direct_cost": 491
      }
    }
  ],
  "node_holes": [],
  "edge_property": "directed",
  "edges": [
    [
      0,
      16,
      {
        "cost": 141.39,
        "seconds": 316
      }
    ],
    [
      0,
      17,
      {
        "cost": 81.21,
        "seconds": 225
      }
    ],
    [
      0,
      14,
      {
        "cost": 104.03999999999999,
        "seconds": 249
      }
    ],
    [
      0,
      10,
      {
        "cost": 204.35999999999999,
        "seconds": 447
      }
    ],
    [
      0,
      12,
      {
        "cost": 175.14,
        "seconds": 431
      }
    ],
    [
      0,
      8,
      {
        "cost": 465.69,
        "seconds": 1059
      }
    ],
    [
      0,
      4,
      {
        "cost": 223.41,
        "seconds": 488
      }
    ],
    [
      0,
      2,
      {
        "cost": 119.16,
        "seconds": 295
      }
    ],
    [
      0,
      3,
      {
        "cost": 96.42,
        "seconds": 222
      }
    ],
    [
      1,
      16,
      {
        "cost": 334.62,
        "seconds": 789
      }
    ],
    [
      1,
      12,
      {
        "cost": 338.19,
        "seconds": 758
      }
    ],
    [
      1,
      17,
      {
        "cost": 217.67999999999999,
        "seconds": 485
      }
    ],
    [
      1,
      14,
      {
        "cost": 193.38,
        "seconds": 482
      }
    ],
    [
      1,
      4,
      {
        "cost": 48.629999999999998,
        "seconds": 150
      }
    ],
    [
      1,
      10,
      {
        "cost": 115.92,
        "seconds": 307
      }
    ],
    [
      1,
      2,
      {
        "cost": 285.03,
        "seconds": 636
      }
    ],
    [
      1,
      6,
      {
        "cost": 370.62,
        "seconds": 838
      }
    ],
    [
      1,
      9,
      {
        "cost": 66.3,
        "seconds": 207
      }
    ],
    [
      1,
      15,
      {
        "cost": 38.01,
        "seconds": 134
      }
    ],
    [
      1,
      11,
      {
        "cost": 327.71999999999999,
        "seconds": 649
      }
    ],
    [
      1,
      5,
      {
        "cost": 366.93,
        "seconds": 790
      }
    ],
    [
      1,
      3,
      {
        "cost": 285.71999999999999,
        "seconds": 638
      }
    ],
    [
      1,
      13,
      {
        "cost": 74.88,
        "seconds": 214
      }
    ],
    [
      1,
      7,
      {
        "cost": 396.21,
        "seconds": 849
      }
    ],
    [
      1,
      0,
      {
        "cost": 254.42999999999999,
        "seconds": 566
      }
    ],
    [
      2,
      0,
      {
        "cost": 119.07,
        "seconds": 270
      }
    ],
    [
      2,
      1,
      {
        "cost": 296.55,
        "seconds": 611
      }
    ],
    [
      2,
      14,
      {
        "cost": 221.91,
        "seconds": 512
      }
    ],
    [
      2,
      16,
      {
        "cost": 195.45,
        "seconds": 457
      }
    ],
    [
      2,
      8,
      {
        "cost": 445.95,
        "seconds": 946
      }
    ],
    [
      2,
      4,
      {
        "cost": 282.42,
        "seconds": 584
      }
    ],
    [
      2,
      12,
      {
        "cost": 72.39,
        "seconds": 182
      }
    ],
    [
      2,
      6,
      {
        "cost": 166.41,
        "seconds": 405
      }
    ],
    [
      2,
      17,
      {
        "cost": 116.19,
        "seconds": 261
      }
    ],
    [
      2,
      10,
      {
        "cost": 259.23,
        "seconds": 535
      }
    ],
    [
      2,
      7,
      {
        "cost": 215.19,
        "seconds": 545
      }
    ],
    [
      2,
      9,
      {
        "cost": 249.39,
        "seconds": 534
      }
    ],
    [
      2,
      5,
      {
        "cost": 122.46,
        "seconds": 275
      }
    ],
    [
      2,
      13,
      {
        "cost": 276.21,
        "seconds": 594
      }
    ],
    [
      2,
      15,
      {
        "cost": 275.09999999999999,
        "seconds": 681
      }
    ],
    [
      2,
      11,
      {
        "cost": 308.84999999999999,
        "seconds": 590
      }
    ],
    [
      3,
      1,
      {
        "cost": 308.09999999999999,
        "seconds": 639
      }
    ],
    [
      3,
      0,
      {
        "cost": 130.62,
        "seconds": 297
      }
    ],
    [
      3,
      14,
      {
        "cost": 233.42999999999999,
        "seconds": 539
      }
    ],
    [
      3,
      16,
      {
        "cost": 207.0,
        "seconds": 484
      }
    ],
    [
      3,
      12,
      {
        "cost": 83.94,
        "seconds": 210
      }
    ],
    [
      3,
      15,
      {
        "cost": 286.62,
        "seconds": 708
      }
    ],
    [
      3,
      6,
      {
        "cost": 177.93,
        "seconds": 432
      }
    ],
    [
      3,
      9,
      {
        "cost": 260.94,
        "seconds": 561
      }
    ],
    [
      3,
      17,
      {
        "cost": 127.74,
        "seconds": 288
      }
    ],
    [
      3,
      5,
      {
        "cost": 133.98,
        "seconds": 302
      }
    ],
    [
      3,
      10,
      {
        "cost": 270.78,
        "seconds": 563
      }
    ],
    [
      3,
      7,
      {
        "cost": 226.73999999999999,
        "seconds": 573
      }
    ],
    [
      3,
      13,
      {
        "cost": 287.76,
        "seconds": 621
      }
    ],
    [
      3,
      11,
      {
        "cost": 320.4,
        "seconds": 617
      }
    ],
    [
      3,
      2,
      {
        "cost": 53.879999999999998,
        "seconds": 158
      }
    ],
    [
      4,
      0,
      {
        "cost": 214.95,
        "seconds": 449
      }
    ],
    [
      4,
      1,
      {
        "cost": 38.43,
        "seconds": 114
      }
    ],
    [
      4,
      14,
      {
        "cost": 202.14,
        "seconds": 417
      }
    ],
    [
      4,
      12,
      {
        "cost": 298.71,
        "seconds": 641
      }
    ],
    [
      4,
      10,
      {
        "cost": 75.03,
        "seconds": 214
      }
    ],
    [
      4,
      8,
      {
        "cost": 438.35999999999998,
        "seconds": 944
      }
    ],
    [
      4,
      9,
      {
        "cost": 29.13,
        "seconds": 97
      }
    ],
    [
      5,
      1,
      {
        "cost": 348.81,
        "seconds": 753
      }
    ],
    [
      5,
      0,
      {
        "cost": 209.7,
        "seconds": 538
      }
    ],
    [
      5,
      3,
      {
        "cost": 157.10999999999999,
        "seconds": 424
      }
    ],
    [
      5,
      2,
      {
        "cost": 133.07999999999999,
        "seconds": 389
      }
    ],
    [
      5,
      16,
      {
        "cost": 285.51,
        "seconds": 724
      }
    ],
    [
      5,
      14,
      {
        "cost": 298.8,
        "seconds": 730
      }
    ],
    [
      5,
      10,
      {
        "cost": 275.15999999999999,
        "seconds": 612
      }
    ],
    [
      5,
      12,
      {
        "cost": 65.88,
        "seconds": 212
      }
    ],
    [
      5,
      17,
      {
        "cost": 171.66,
        "seconds": 424
      }
    ],
    [
      5,
      6,
      {
        "cost": 66.3,
        "seconds": 230
      }
    ],
    [
      5,
      15,
      {
        "cost": 334.17,
        "seconds": 785
      }
    ],
    [
      5,
      9,
      {
        "cost": 304.86,
        "seconds": 697
      }
    ],
    [
      5,
      13,
      {
        "cost": 333.18,
        "seconds": 742
      }
    ],
    [
      5,
      11,
      {
        "cost": 249.87,
        "seconds": 558
      }
    ],
    [
      5,
      7,
      {
        "cost": 124.89,
        "seconds": 386
      }
    ],
    [
      5,
      4,
      {
        "cost": 314.49,
        "seconds": 740
      }
    ],
    [
      6,
      0,
      {
        "cost": 233.91,
        "seconds": 615
      }
    ],
    [
      6,
      2,
      {
        "cost": 199.5,
        "seconds": 501
      }
    ],
    [
      6,
      3,
      {
        "cost": 221.01,
        "seconds": 527
      }
    ],
    [
      6,
      5,
      {
        "cost": 62.61,
        "seconds": 220
      }
    ],
    [
      6,
      4,
      {
        "cost": 297.75,
        "seconds": 715
      }
    ],
    [
      6,
      16,
      {
        "cost": 338.13,
        "seconds": 824
      }
    ],
    [
      6,
      10,
      {
        "cost": 258.42,
        "seconds": 586
      }
    ],
    [
      6,
      12,
      {
        "cost": 118.22999999999999,
        "seconds": 342
      }
    ],
    [
      6,
      8,
      {
        "cost": 305.58,
        "seconds": 817
      }
    ],
    [
      6,
      14,
      {
        "cost": 322.11,
        "seconds": 767
      }
    ],
    [
      6,
      17,
      {
        "cost": 190.5,
        "seconds": 494
      }
    ],
    [
      6,
      11,
      {
        "cost": 233.13,
        "seconds": 532
      }
    ],
    [
      7,
      1,
      {
        "cost": 392.07,
        "seconds": 864
      }
    ],
    [
      7,
      3,
      {
        "cost": 303.39,
        "seconds": 722
      }
    ],
    [
      7,
      2,
      {
        "cost": 281.90999999999999,
        "seconds": 696
      }
    ],
    [
      7,
      5,
      {
        "cost": 136.56,
        "seconds": 403
      }
    ],
    [
      7,
      12,
      {
        "cost": 200.60999999999999,
        "seconds": 537
      }
    ],
    [
      7,
      11,
      {
        "cost": 214.07999999999999,
        "seconds": 494
      }
    ],
    [
      7,
      9,
      {
        "cost": 379.34999999999999,
        "seconds": 882
      }
    ],
    [
      7,
      13,
      {
        "cost": 376.44,
        "seconds": 852
      }
    ],
    [
      7,
      6,
      {
        "cost": 76.53,
        "seconds": 241
      }
    ],
    [
      9,
      1,
      {
        "cost": 60.3,
        "seconds": 164
      }
    ],
    [
      9,
      0,
      {
        "cost": 212.4,
        "seconds": 446
      }
    ],
    [
      9,
      3,
      {
        "cost": 243.69,
        "seconds": 517
      }
    ],
    [
      9,
      2,
      {
        "cost": 243.0,
        "seconds": 516
      }
    ],
    [
      9,
      5,
      {
        "cost": 315.39,
        "seconds": 676
      }
    ],
    [
      9,
      4,
      {
        "cost": 13.32,
        "seconds": 52
      }
    ],
    [
      9,
      7,
      {
        "cost": 379.71,
        "seconds": 804
      }
    ],
    [
      9,
      6,
      {
        "cost": 354.12,
        "seconds": 792
      }
    ],
    [
      9,
      12,
      {
        "cost": 296.15999999999999,
        "seconds": 638
      }
    ],
    [
      9,
      10,
      {
        "cost": 78.36,
        "seconds": 221
      }
    ],
    [
      9,
      14,
      {
        "cost": 199.56,
        "seconds": 414
      }
    ],
    [
      9,
      17,
      {
        "cost": 175.62,
        "seconds": 365
      }
    ],
    [
      9,
      11,
      {
        "cost": 288.93,
        "seconds": 580
      }
    ],
    [
      9,
      15,
      {
        "cost": 50.28,
        "seconds": 159
      }
    ],
    [
      9,
      13,
      {
        "cost": 51.39,
        "seconds": 149
      }
    ],
    [
      9,
      8,
      {
        "cost": 448.32,
        "seconds": 960
      }
    ],
    [
      10,
      0,
      {
        "cost": 211.07999999999999,
        "seconds": 449
      }
    ],
    [
      10,
      1,
      {
        "cost": 113.91,
        "seconds": 279
      }
    ],
    [
      10,
      2,
      {
        "cost": 233.76,
        "seconds": 512
      }
    ],
    [
      10,
      4,
      {
        "cost": 91.11,
        "seconds": 268
      }
    ],
    [
      10,
      9,
      {
        "cost": 79.67999999999999,
        "seconds": 262
      }
    ],
    [
      10,
      8,
      {
        "cost": 380.46,
        "seconds": 828
      }
    ],
    [
      10,
      12,
      {
        "cost": 283.28999999999999,
        "seconds": 625
      }
    ],
    [
      10,
      16,
      {
        "cost": 312.3,
        "seconds": 667
      }
    ],
    [
      10,
      14,
      {
        "cost": 201.12,
        "seconds": 460
      }
    ],
    [
      10,
      13,
      {
        "cost": 75.84,
        "seconds": 243
      }
    ],
    [
      10,
      17,
      {
        "cost": 149.13,
        "seconds": 315
      }
    ],
    [
      11,
      1,
      {
        "cost": 279.53999999999999,
        "seconds": 626
      }
    ],
    [
      11,
      0,
      {
        "cost": 324.65999999999999,
        "seconds": 733
      }
    ],
    [
      11,
      3,
      {
        "cost": 334.95,
        "seconds": 751
      }
    ],
    [
      11,
      2,
      {
        "cost": 334.26,
        "seconds": 749
      }
    ],
    [
      11,
      5,
      {
        "cost": 329.90999999999999,
        "seconds": 764
      }
    ],
    [
      11,
      4,
      {
        "cost": 281.90999999999999,
        "seconds": 647
      }
    ],
    [
      11,
      7,
      {
        "cost": 251.04,
        "seconds": 551
      }
    ],
    [
      11,
      6,
      {
        "cost": 304.40999999999999,
        "seconds": 693
      }
    ],
    [
      11,
      9,
      {
        "cost": 282.63,
        "seconds": 650
      }
    ],
    [
      11,
      12,
      {
        "cost": 342.81,
        "seconds": 733
      }
    ],
    [
      11,
      14,
      {
        "cost": 361.08,
        "seconds": 831
      }
    ],
    [
      11,
      13,
      {
        "cost": 263.90999999999999,
        "seconds": 614
      }
    ],
    [
      11,
      17,
      {
        "cost": 262.71,
        "seconds": 600
      }
    ],
    [
      11,
      15,
      {
        "cost": 314.4,
        "seconds": 738
      }
    ],
    [
      11,
      10,
      {
        "cost": 218.73,
        "seconds": 517
      }
    ],
    [
      12,
      0,
      {
        "cost": 147.93,
        "seconds": 369
      }
    ],
    [
      12,
      2,
      {
        "cost": 71.31,
        "seconds": 220
      }
    ],
    [
      12,
      4,
      {
        "cost": 317.25,
        "seconds": 664
      }
    ],
    [
      12,
      6,
      {
        "cost": 129.0,
        "seconds": 377
      }
    ],
    [
      12,
      8,
      {
        "cost": 414.15,
        "seconds": 907
      }
    ],
    [
      12,
      10,
      {
        "cost": 294.03,
        "seconds": 615
      }
    ],
    [
      12,
      16,
      {
        "cost": 223.73999999999999,
        "seconds": 555
      }
    ],
    [
      13,
      1,
      {
        "cost": 62.22,
        "seconds": 173
      }
    ],
    [
      13,
      0,
      {
        "cost": 251.19,
        "seconds": 549
      }
    ],
    [
      13,
      3,
      {
        "cost": 282.45,
        "seconds": 621
      }
    ],
    [
      13,
      2,
      {
        "cost": 281.76,
        "seconds": 619
      }
    ],
    [
      13,
      5,
      {
        "cost": 316.38,
        "seconds": 676
      }
    ],
    [
      13,
      4,
      {
        "cost": 64.62,
        "seconds": 195
      }
    ],
    [
      13,
      7,
      {
        "cost": 345.65999999999999,
        "seconds": 735
      }
    ],
    [
      13,
      6,
      {
        "cost": 320.07,
        "seconds": 723
      }
    ],
    [
      13,
      9,
      {
        "cost": 65.34,
        "seconds": 197
      }
    ],
    [
      13,
      11,
      {
        "cost": 277.17,
        "seconds": 535
      }
    ],
    [
      13,
      10,
      {
        "cost": 65.37,
        "seconds": 192
      }
    ],
    [
      13,
      16,
      {
        "cost": 331.34999999999999,
        "seconds": 772
      }
    ],
    [
      13,
      14,
      {
        "cost": 238.35,
        "seconds": 518
      }
    ],
    [
      13,
      17,
      {
        "cost": 200.22,
        "seconds": 429
      }
    ],
    [
      13,
      15,
      {
        "cost": 97.11,
        "seconds": 285
      }
    ],
    [
      13,
      12,
      {
        "cost": 342.57,
        "seconds": 708
      }
    ],
    [
      14,
      1,
      {
        "cost": 198.23999999999999,
        "seconds": 470
      }
    ],
    [
      14,
      0,
      {
        "cost": 105.78,
        "seconds": 256
      }
    ],
    [
      14,
      2,
      {
        "cost": 191.01,
        "seconds": 458
      }
    ],
    [
      14,
      3,
      {
        "cost": 175.59,
        "seconds": 413
      }
    ],
    [
      14,
      4,
      {
        "cost": 157.07999999999999,
        "seconds": 426
      }
    ],
    [
      14,
      8,
      {
        "cost": 495.65999999999999,
        "seconds": 1118
      }
    ],
    [
      14,
      9,
      {
        "cost": 174.09,
        "seconds": 413
      }
    ],
    [
      14,
      10,
      {
        "cost": 190.68,
        "seconds": 465
      }
    ],
    [
      14,
      12,
      {
        "cost": 239.73,
        "seconds": 593
      }
    ],
    [
      14,
      13,
      {
        "cost": 200.94,
        "seconds": 472
      }
    ],
    [
      14,
      16,
      {
        "cost": 184.70999999999999,
        "seconds": 474
      }
    ],
    [
      14,
      17,
      {
        "cost": 126.44999999999999,
        "seconds": 314
      }
    ],
    [
      15,
      1,
      {
        "cost": 33.36,
        "seconds": 121
      }
    ],
    [
      15,
      0,
      {
        "cost": 227.01,
        "seconds": 558
      }
    ],
    [
      15,
      3,
      {
        "cost": 258.27,
        "seconds": 629
      }
    ],
    [
      15,
      2,
      {
        "cost": 257.61,
        "seconds": 627
      }
    ],
    [
      15,
      5,
      {
        "cost": 330.0,
        "seconds": 787
      }
    ],
    [
      15,
      4,
      {
        "cost": 46.199999999999999,
        "seconds": 125
      }
    ],
    [
      15,
      7,
      {
        "cost": 410.64,
        "seconds": 881
      }
    ],
    [
      15,
      9,
      {
        "cost": 53.879999999999998,
        "seconds": 175
      }
    ],
    [
      15,
      11,
      {
        "cost": 342.15,
        "seconds": 680
      }
    ],
    [
      15,
      10,
      {
        "cost": 120.53999999999999,
        "seconds": 331
      }
    ],
    [
      15,
      13,
      {
        "cost": 89.31,
        "seconds": 245
      }
    ],
    [
      15,
      16,
      {
        "cost": 307.17,
        "seconds": 780
      }
    ],
    [
      15,
      17,
      {
        "cost": 190.23,
        "seconds": 477
      }
    ],
    [
      15,
      14,
      {
        "cost": 131.94,
        "seconds": 393
      }
    ],
    [
      16,
      0,
      {
        "cost": 123.47999999999999,
        "seconds": 291
      }
    ],
    [
      16,
      2,
      {
        "cost": 185.28,
        "seconds": 446
      }
    ],
    [
      16,
      3,
      {
        "cost": 162.57,
        "seconds": 373
      }
    ],
    [
      16,
      4,
      {
        "cost": 302.72999999999998,
        "seconds": 701
      }
    ],
    [
      16,
      8,
      {
        "cost": 545.28,
        "seconds": 1231
      }
    ],
    [
      16,
      10,
      {
        "cost": 296.84999999999999,
        "seconds": 689
      }
    ],
    [
      16,
      12,
      {
        "cost": 241.29,
        "seconds": 582
      }
    ],
    [
      16,
      14,
      {
        "cost": 182.60999999999999,
        "seconds": 443
      }
    ],
    [
      17,
      1,
      {
        "cost": 206.22,
        "seconds": 420
      }
    ],
    [
      17,
      0,
      {
        "cost": 74.82,
        "seconds": 183
      }
    ],
    [
      17,
      3,
      {
        "cost": 98.19,
        "seconds": 248
      }
    ],
    [
      17,
      2,
      {
        "cost": 97.5,
        "seconds": 246
      }
    ],
    [
      17,
      5,
      {
        "cost": 166.26,
        "seconds": 397
      }
    ],
    [
      17,
      7,
      {
        "cost": 259.02,
        "seconds": 667
      }
    ],
    [
      17,
      11,
      {
        "cost": 231.06,
        "seconds": 516
      }
    ],
    [
      17,
      10,
      {
        "cost": 143.19,
        "seconds": 310
      }
    ],
    [
      17,
      13,
      {
        "cost": 185.88,
        "seconds": 402
      }
    ],
    [
      17,
      12,
      {
        "cost": 147.03,
        "seconds": 359
      }
    ],
    [
      17,
      15,
      {
        "cost": 201.81,
        "seconds": 480
      }
    ],
    [
      17,
      14,
      {
        "cost": 155.37,
        "seconds": 369
      }
    ],
    [
      17,
      16,
      {
        "cost": 176.01,
        "seconds": 402
      }
    ],
    [
      16,
      19,
      {
        "cost": 539.5799999999999,
        "seconds": 1170
      }
    ],
    [
      18,
      17,
      {
        "cost": 132.54,
        "seconds": 299
      }
    ],
    [
      16,
      18,
      {
        "cost": 65.7,
        "seconds": 215
      }
    ],
    [
      19,
      17,
      {
        "cost": 324.53999999999999,
        "seconds": 731
      }
    ],
    [
      14,
      19,
      {
        "cost": 465.81,
        "seconds": 1046
      }
    ],
    [
      18,
      15,
      {
        "cost": 264.21,
        "seconds": 711
      }
    ],
    [
      14,
      18,
      {
        "cost": 167.34,
        "seconds": 382
      }
    ],
    [
      19,
      15,
      {
        "cost": 388.86,
        "seconds": 867
      }
    ],
    [
      12,
      19,
      {
        "cost": 408.41999999999998,
        "seconds": 845
      }
    ],
    [
      18,
      13,
      {
        "cost": 274.89,
        "seconds": 625
      }
    ],
    [
      12,
      18,
      {
        "cost": 195.32999999999999,
        "seconds": 458
      }
    ],
    [
      19,
      13,
      {
        "cost": 325.74,
        "seconds": 746
      }
    ],
    [
      10,
      19,
      {
        "cost": 324.51,
        "seconds": 673
      }
    ],
    [
      18,
      11,
      {
        "cost": 358.86,
        "seconds": 760
      }
    ],
    [
      10,
      18,
      {
        "cost": 260.7,
        "seconds": 543
      }
    ],
    [
      19,
      11,
      {
        "cost": 131.22,
        "seconds": 344
      }
    ],
    [
      8,
      19,
      {
        "cost": 211.67999999999999,
        "seconds": 427
      }
    ],
    [
      18,
      9,
      {
        "cost": 248.07,
        "seconds": 565
      }
    ],
    [
      8,
      18,
      {
        "cost": 519.06,
        "seconds": 1168
      }
    ],
    [
      19,
      9,
      {
        "cost": 350.31,
        "seconds": 772
      }
    ],
    [
      6,
      19,
      {
        "cost": 364.53,
        "seconds": 827
      }
    ],
    [
      18,
      7,
      {
        "cost": 339.96,
        "seconds": 831
      }
    ],
    [
      6,
      18,
      {
        "cost": 283.53,
        "seconds": 709
      }
    ],
    [
      19,
      7,
      {
        "cost": 327.93,
        "seconds": 712
      }
    ],
    [
      4,
      19,
      {
        "cost": 357.9,
        "seconds": 746
      }
    ],
    [
      18,
      5,
      {
        "cost": 247.2,
        "seconds": 560
      }
    ],
    [
      4,
      18,
      {
        "cost": 272.49,
        "seconds": 550
      }
    ],
    [
      19,
      5,
      {
        "cost": 386.72999999999998,
        "seconds": 883
      }
    ],
    [
      2,
      19,
      {
        "cost": 440.21999999999999,
        "seconds": 885
      }
    ],
    [
      18,
      3,
      {
        "cost": 113.22,
        "seconds": 258
      }
    ],
    [
      2,
      18,
      {
        "cost": 167.04,
        "seconds": 361
      }
    ],
    [
      19,
      3,
      {
        "cost": 391.74,
        "seconds": 870
      }
    ],
    [
      0,
      19,
      {
        "cost": 446.13,
        "seconds": 990
      }
    ],
    [
      18,
      1,
      {
        "cost": 295.2,
        "seconds": 643
      }
    ],
    [
      0,
      18,
      {
        "cost": 89.82,
        "seconds": 192
      }
    ],
    [
      19,
      1,
      {
        "cost": 341.37,
        "seconds": 757
      }
    ]
  ]
}