{
  "nodes": [
    {
      "Delivery": {
        "bid": 1088,
        "id": 10,
        "price": null,
        "cost": null,
        "direct_dist": 6049,
        "direct_cost": 182,
        "direct_time": 454
      }
    },
    {
      "Pickup": {
        "bid": 1088,
        "id": 10,
        "price": null,
        "cost": null,
        "direct_dist": 6049,
        "direct_cost": 182,
        "direct_time": 454
      }
    },
    {
      "Delivery": {
        "bid": 745,
        "id": 9,
        "price": null,
        "cost": null,
        "direct_dist": 2486,
        "direct_cost": 75,
        "direct_time": 269
      }
    },
    {
      "Pickup": {
        "bid": 745,
        "id": 9,
        "price": null,
        "cost": null,
        "direct_dist": 2486,
        "direct_cost": 75,
        "direct_time": 269
      }
    },
    {
      "Delivery": {
        "bid": 1778,
        "id": 8,
        "price": null,
        "cost": null,
        "direct_dist": 5928,
        "direct_cost": 178,
        "direct_time": 420
      }
    },
    {
      "Pickup": {
        "bid": 1778,
        "id": 8,
        "price": null,
        "cost": null,
        "direct_dist": 5928,
        "direct_cost": 178,
        "direct_time": 420
      }
    },
    {
      "Delivery": {
        "bid": 1349,
        "id": 5,
        "price": null,
        "cost": null,
        "direct_dist": 4499,
        "direct_cost": 135,
        "direct_time": 389
      }
    },
    {
      "Pickup": {
        "bid": 1349,
        "id": 5,
        "price": null,
        "cost": null,
        "direct_dist": 4499,
        "direct_cost": 135,
        "direct_time": 389
      }
    },
    {
      "DriverStart": {
        "arrive_until": 2400,
        "direct_cost": 578
      }
    },
    {
      "DriverEnd": {
        "arrive_until": 2400,
        "direct_cost": 578
      }
    }
  ],
  "node_holes": [],
  "edge_property": "directed",
  "edges": [
    [
      0,
      2,
      {
        "cost": 62.129999999999998,
        "seconds": 240
      }
    ],
    [
      0,
      6,
      {
        "cost": 197.60999999999999,
        "seconds": 525
      }
    ],
    [
      0,
      4,
      {
        "cost": 117.69,
        "seconds": 433
      }
    ],
    [
      0,
      3,
      {
        "cost": 51.87,
        "seconds": 205
      }
    ],
    [
      0,
      7,
      {
        "cost": 88.11,
        "seconds": 344
      }
    ],
    [
      0,
      5,
      {
        "cost": 81.03,
        "seconds": 297
      }
    ],
    [
      1,
      2,
      {
        "cost": 215.4,
        "seconds": 487
      }
    ],
    [
      1,
      6,
      {
        "cost": 22.23,
        "seconds": 57
      }
    ],
    [
      1,
      4,
      {
        "cost": 84.45,
        "seconds": 197
      }
    ],
    [
      1,
      3,
      {
        "cost": 153.35999999999999,
        "seconds": 368
      }
    ],
    [
      1,
      7,
      {
        "cost": 105.39,
        "seconds": 243
      }
    ],
    [
      1,
      5,
      {
        "cost": 227.60999999999999,
        "seconds": 502
      }
    ],
    [
      1,
      0,
      {
        "cost": 181.47,
        "seconds": 454
      }
    ],
    [
      2,
      0,
      {
        "cost": 50.76,
        "seconds": 190
      }
    ],
    [
      2,
      1,
      {
        "cost": 179.37,
        "seconds": 465
      }
    ],
    [
      2,
      4,
      {
        "cost": 145.17,
        "seconds": 440
      }
    ],
    [
      2,
      6,
      {
        "cost": 197.04,
        "seconds": 514
      }
    ],
    [
      2,
      5,
      {
        "cost": 34.44,
        "seconds": 90
      }
    ],
    [
      2,
      7,
      {
        "cost": 120.96,
        "seconds": 389
      }
    ],
    [
      3,
      1,
      {
        "cost": 144.51,
        "seconds": 335
      }
    ],
    [
      3,
      0,
      {
        "cost": 49.559999999999998,
        "seconds": 198
      }
    ],
    [
      3,
      4,
      {
        "cost": 81.99,
        "seconds": 291
      }
    ],
    [
      3,
      6,
      {
        "cost": 162.15,
        "seconds": 384
      }
    ],
    [
      3,
      5,
      {
        "cost": 90.50999999999999,
        "seconds": 320
      }
    ],
    [
      3,
      7,
      {
        "cost": 54.0,
        "seconds": 203
      }
    ],
    [
      3,
      2,
      {
        "cost": 74.58,
        "seconds": 269
      }
    ],
    [
      4,
      0,
      {
        "cost": 119.28,
        "seconds": 388
      }
    ],
    [
      4,
      1,
      {
        "cost": 55.14,
        "seconds": 119
      }
    ],
    [
      4,
      2,
      {
        "cost": 144.26999999999999,
        "seconds": 463
      }
    ],
    [
      4,
      3,
      {
        "cost": 79.14,
        "seconds": 288
      }
    ],
    [
      4,
      6,
      {
        "cost": 72.78,
        "seconds": 168
      }
    ],
    [
      4,
      7,
      {
        "cost": 91.35,
        "seconds": 232
      }
    ],
    [
      5,
      1,
      {
        "cost": 209.73,
        "seconds": 434
      }
    ],
    [
      5,
      0,
      {
        "cost": 72.6,
        "seconds": 281
      }
    ],
    [
      5,
      3,
      {
        "cost": 94.86,
        "seconds": 342
      }
    ],
    [
      5,
      2,
      {
        "cost": 45.269999999999999,
        "seconds": 142
      }
    ],
    [
      5,
      6,
      {
        "cost": 227.4,
        "seconds": 483
      }
    ],
    [
      5,
      7,
      {
        "cost": 156.32999999999999,
        "seconds": 451
      }
    ],
    [
      5,
      4,
      {
        "cost": 177.84,
        "seconds": 420
      }
    ],
    [
      6,
      0,
      {
        "cost": 159.75,
        "seconds": 421
      }
    ],
    [
      6,
      1,
      {
        "cost": 28.47,
        "seconds": 64
      }
    ],
    [
      6,
      2,
      {
        "cost": 219.98999999999999,
        "seconds": 497
      }
    ],
    [
      6,
      3,
      {
        "cost": 131.64,
        "seconds": 335
      }
    ],
    [
      6,
      4,
      {
        "cost": 78.99,
        "seconds": 188
      }
    ],
    [
      7,
      1,
      {
        "cost": 117.33,
        "seconds": 340
      }
    ],
    [
      7,
      0,
      {
        "cost": 79.53,
        "seconds": 237
      }
    ],
    [
      7,
      3,
      {
        "cost": 42.39,
        "seconds": 163
      }
    ],
    [
      7,
      2,
      {
        "cost": 112.89,
        "seconds": 256
      }
    ],
    [
      7,
      5,
      {
        "cost": 125.13,
        "seconds": 271
      }
    ],
    [
      7,
      4,
      {
        "cost": 87.42,
        "seconds": 288
      }
    ],
    [
      7,
      6,
      {
        "cost": 134.97,
        "seconds": 389
      }
    ],
    [
      6,
      9,
      {
        "cost": 228.26999999999999,
        "seconds": 460
      }
    ],
    [
      8,
      7,
      {
        "cost": 303.27,
        "seconds": 658
      }
    ],
    [
      6,
      8,
      {
        "cost": 334.59,
        "seconds": 739
      }
    ],
    [
      9,
      7,
      {
        "cost": 331.02,
        "seconds": 696
      }
    ],
    [
      4,
      9,
      {
        "cost": 265.56,
        "seconds": 593
      }
    ],
    [
      8,
      5,
      {
        "cost": 200.28,
        "seconds": 505
      }
    ],
    [
      4,
      8,
      {
        "cost": 315.93,
        "seconds": 718
      }
    ],
    [
      9,
      5,
      {
        "cost": 387.71999999999999,
        "seconds": 908
      }
    ],
    [
      2,
      9,
      {
        "cost": 358.83,
        "seconds": 874
      }
    ],
    [
      8,
      3,
      {
        "cost": 256.44,
        "seconds": 695
      }
    ],
    [
      2,
      8,
      {
        "cost": 206.97,
        "seconds": 500
      }
    ],
    [
      9,
      3,
      {
        "cost": 352.68,
        "seconds": 779
      }
    ],
    [
      0,
      9,
      {
        "cost": 359.43,
        "seconds": 885
      }
    ],
    [
      8,
      1,
      {
        "cost": 346.46999999999999,
        "seconds": 770
      }
    ],
    [
      0,
      8,
      {
        "cost": 235.32,
        "seconds": 639
      }
    ],
    [
      9,
      1,
      {
        "cost": 252.63,
        "seconds": 529
      }
    ]
  ]
}