{
  "nodes": [
    {
      "Delivery": {
        "bid": 305,
        "id": 10,
        "price": null,
        "cost": null,
        "direct_dist": 4408,
        "direct_cost": 133,
        "direct_time": 315
      }
    },
    {
      "Pickup": {
        "bid": 305,
        "id": 10,
        "price": null,
        "cost": null,
        "direct_dist": 4408,
        "direct_cost": 133,
        "direct_time": 315
      }
    },
    {
      "Delivery": {
        "bid": 2863,
        "id": 9,
        "price": null,
        "cost": null,
        "direct_dist": 9544,
        "direct_cost": 287,
        "direct_time": 587
      }
    },
    {
      "Pickup": {
        "bid": 2863,
        "id": 9,
        "price": null,
        "cost": null,
        "direct_dist": 9544,
        "direct_cost": 287,
        "direct_time": 587
      }
    },
    {
      "Delivery": {
        "bid": 3192,
        "id": 8,
        "price": null,
        "cost": null,
        "direct_dist": 10643,
        "direct_cost": 320,
        "direct_time": 809
      }
    },
    {
      "Pickup": {
        "bid": 3192,
        "id": 8,
        "price": null,
        "cost": null,
        "direct_dist": 10643,
        "direct_cost": 320,
        "direct_time": 809
      }
    },
    {
      "Delivery": {
        "bid": 3351,
        "id": 6,
        "price": null,
        "cost": null,
        "direct_dist": 11171,
        "direct_cost": 336,
        "direct_time": 746
      }
    },
    {
      "Pickup": {
        "bid": 3351,
        "id": 6,
        "price": null,
        "cost": null,
        "direct_dist": 11171,
        "direct_cost": 336,
        "direct_time": 746
      }
    },
    {
      "Delivery": {
        "bid": 2616,
        "id": 5,
        "price": null,
        "cost": null,
        "direct_dist": 8721,
        "direct_cost": 262,
        "direct_time": 596
      }
    },
    {
      "Pickup": {
        "bid": 2616,
        "id": 5,
        "price": null,
        "cost": null,
        "direct_dist": 8721,
        "direct_cost": 262,
        "direct_time": 596
      }
    },
    {
      "Delivery": {
        "bid": 1587,
        "id": 4,
        "price": null,
        "cost": null,
        "direct_dist": 5290,
        "direct_cost": 159,
        "direct_time": 353
      }
    },
    {
      "Pickup": {
        "bid": 1587,
        "id": 4,
        "price": null,
        "cost": null,
        "direct_dist": 5290,
        "direct_cost": 159,
        "direct_time": 353
      }
    },
    {
      "Delivery": {
        "bid": 2106,
        "id": 3,
        "price": null,
        "cost": null,
        "direct_dist": 11648,
        "direct_cost": 350,
        "direct_time": 733
      }
    },
    {
      "Pickup": {
        "bid": 2106,
        "id": 3,
        "price": null,
        "cost": null,
        "direct_dist": 11648,
        "direct_cost": 350,
        "direct_time": 733
      }
    },
    {
      "Delivery": {
        "bid": 3050,
        "id": 1,
        "price": null,
        "cost": null,
        "direct_dist": 10168,
        "direct_cost": 306,
        "direct_time": 660
      }
    },
    {
      "Pickup": {
        "bid": 3050,
        "id": 1,
        "price": null,
        "cost": null,
        "direct_dist": 10168,
        "direct_cost": 306,
        "direct_time": 660
      }
    },
    {
      "DriverStart": {
        "arrive_until": 2400,
        "direct_cost": 450
      }
    },
    {
      "DriverEnd": {
        "arrive_until": 2400,
        "direct_cost": 450
      }
    }
  ],
  "node_holes": [],
  "edge_property": "directed",
  "edges": [
    [
      0,
      10,
      {
        "cost": 158.97,
        "seconds": 441
      }
    ],
    [
      0,
      6,
      {
        "cost": 380.78999999999999,
        "seconds": 895
      }
    ],
    [
      0,
      8,
      {
        "cost": 171.32999999999999,
        "seconds": 376
      }
    ],
    [
      0,
      12,
      {
        "cost": 216.66,
        "seconds": 493
      }
    ],
    [
      0,
      14,
      {
        "cost": 194.54999999999999,
        "seconds": 458
      }
    ],
    [
      0,
      9,
      {
        "cost": 92.31,
        "seconds": 263
      }
    ],
    [
      0,
      2,
      {
        "cost": 144.18,
        "seconds": 319
      }
    ],
    [
      0,
      4,
      {
        "cost": 492.21,
        "seconds": 1136
      }
    ],
    [
      0,
      15,
      {
        "cost": 184.10999999999999,
        "seconds": 386
      }
    ],
    [
      1,
      10,
      {
        "cost": 69.89999999999999,
        "seconds": 185
      }
    ],
    [
      1,
      8,
      {
        "cost": 210.81,
        "seconds": 394
      }
    ],
    [
      1,
      11,
      {
        "cost": 225.84,
        "seconds": 525
      }
    ],
    [
      1,
      12,
      {
        "cost": 90.63,
        "seconds": 240
      }
    ],
    [
      1,
      7,
      {
        "cost": 253.53,
        "seconds": 549
      }
    ],
    [
      1,
      2,
      {
        "cost": 27.99,
        "seconds": 60
      }
    ],
    [
      1,
      14,
      {
        "cost": 169.82999999999999,
        "seconds": 372
      }
    ],
    [
      1,
      9,
      {
        "cost": 214.38,
        "seconds": 500
      }
    ],
    [
      1,
      5,
      {
        "cost": 232.26,
        "seconds": 431
      }
    ],
    [
      1,
      15,
      {
        "cost": 312.87,
        "seconds": 649
      }
    ],
    [
      1,
      3,
      {
        "cost": 285.03,
        "seconds": 590
      }
    ],
    [
      1,
      13,
      {
        "cost": 348.39,
        "seconds": 697
      }
    ],
    [
      1,
      0,
      {
        "cost": 132.24,
        "seconds": 315
      }
    ],
    [
      2,
      0,
      {
        "cost": 104.25,
        "seconds": 255
      }
    ],
    [
      2,
      1,
      {
        "cost": 36.059999999999998,
        "seconds": 61
      }
    ],
    [
      2,
      14,
      {
        "cost": 141.84,
        "seconds": 312
      }
    ],
    [
      2,
      4,
      {
        "cost": 437.7,
        "seconds": 967
      }
    ],
    [
      2,
      10,
      {
        "cost": 75.99,
        "seconds": 189
      }
    ],
    [
      2,
      6,
      {
        "cost": 309.33,
        "seconds": 708
      }
    ],
    [
      2,
      8,
      {
        "cost": 182.82,
        "seconds": 334
      }
    ],
    [
      2,
      12,
      {
        "cost": 96.72,
        "seconds": 244
      }
    ],
    [
      3,
      1,
      {
        "cost": 258.33,
        "seconds": 527
      }
    ],
    [
      3,
      0,
      {
        "cost": 305.15999999999999,
        "seconds": 665
      }
    ],
    [
      3,
      8,
      {
        "cost": 255.84,
        "seconds": 579
      }
    ],
    [
      3,
      10,
      {
        "cost": 306.96,
        "seconds": 633
      }
    ],
    [
      3,
      15,
      {
        "cost": 393.96,
        "seconds": 814
      }
    ],
    [
      3,
      6,
      {
        "cost": 284.21999999999999,
        "seconds": 683
      }
    ],
    [
      3,
      12,
      {
        "cost": 264.39,
        "seconds": 633
      }
    ],
    [
      3,
      5,
      {
        "cost": 122.19,
        "seconds": 327
      }
    ],
    [
      3,
      11,
      {
        "cost": 162.78,
        "seconds": 399
      }
    ],
    [
      3,
      7,
      {
        "cost": 105.45,
        "seconds": 274
      }
    ],
    [
      3,
      9,
      {
        "cost": 383.90999999999999,
        "seconds": 845
      }
    ],
    [
      3,
      13,
      {
        "cost": 284.13,
        "seconds": 784
      }
    ],
    [
      3,
      2,
      {
        "cost": 286.32,
        "seconds": 587
      }
    ],
    [
      4,
      6,
      {
        "cost": 322.17,
        "seconds": 774
      }
    ],
    [
      5,
      1,
      {
        "cost": 210.23999999999999,
        "seconds": 415
      }
    ],
    [
      5,
      0,
      {
        "cost": 208.38,
        "seconds": 496
      }
    ],
    [
      5,
      3,
      {
        "cost": 120.86999999999999,
        "seconds": 352
      }
    ],
    [
      5,
      2,
      {
        "cost": 238.23,
        "seconds": 475
      }
    ],
    [
      5,
      12,
      {
        "cost": 200.64,
        "seconds": 473
      }
    ],
    [
      5,
      14,
      {
        "cost": 116.25,
        "seconds": 262
      }
    ],
    [
      5,
      8,
      {
        "cost": 187.85999999999999,
        "seconds": 416
      }
    ],
    [
      5,
      10,
      {
        "cost": 211.10999999999999,
        "seconds": 474
      }
    ],
    [
      5,
      6,
      {
        "cost": 294.33,
        "seconds": 620
      }
    ],
    [
      5,
      9,
      {
        "cost": 287.09999999999999,
        "seconds": 676
      }
    ],
    [
      5,
      11,
      {
        "cost": 131.13,
        "seconds": 308
      }
    ],
    [
      5,
      15,
      {
        "cost": 325.97999999999998,
        "seconds": 650
      }
    ],
    [
      5,
      7,
      {
        "cost": 81.09,
        "seconds": 254
      }
    ],
    [
      5,
      13,
      {
        "cost": 325.44,
        "seconds": 719
      }
    ],
    [
      5,
      4,
      {
        "cost": 319.28999999999999,
        "seconds": 809
      }
    ],
    [
      6,
      2,
      {
        "cost": 267.96,
        "seconds": 578
      }
    ],
    [
      6,
      4,
      {
        "cost": 305.49,
        "seconds": 781
      }
    ],
    [
      6,
      14,
      {
        "cost": 273.06,
        "seconds": 617
      }
    ],
    [
      6,
      12,
      {
        "cost": 261.33,
        "seconds": 577
      }
    ],
    [
      7,
      1,
      {
        "cost": 210.42,
        "seconds": 388
      }
    ],
    [
      7,
      0,
      {
        "cost": 227.4,
        "seconds": 472
      }
    ],
    [
      7,
      3,
      {
        "cost": 109.11,
        "seconds": 338
      }
    ],
    [
      7,
      2,
      {
        "cost": 238.41,
        "seconds": 448
      }
    ],
    [
      7,
      5,
      {
        "cost": 40.769999999999999,
        "seconds": 126
      }
    ],
    [
      7,
      4,
      {
        "cost": 314.09999999999999,
        "seconds": 820
      }
    ],
    [
      7,
      10,
      {
        "cost": 258.96,
        "seconds": 509
      }
    ],
    [
      7,
      14,
      {
        "cost": 149.67,
        "seconds": 333
      }
    ],
    [
      7,
      8,
      {
        "cost": 178.07999999999999,
        "seconds": 387
      }
    ],
    [
      7,
      12,
      {
        "cost": 248.48999999999999,
        "seconds": 509
      }
    ],
    [
      7,
      11,
      {
        "cost": 171.93,
        "seconds": 434
      }
    ],
    [
      7,
      9,
      {
        "cost": 306.12,
        "seconds": 652
      }
    ],
    [
      7,
      15,
      {
        "cost": 316.2,
        "seconds": 621
      }
    ],
    [
      7,
      13,
      {
        "cost": 315.65999999999999,
        "seconds": 690
      }
    ],
    [
      7,
      6,
      {
        "cost": 335.13,
        "seconds": 746
      }
    ],
    [
      8,
      0,
      {
        "cost": 161.7,
        "seconds": 365
      }
    ],
    [
      8,
      2,
      {
        "cost": 201.45,
        "seconds": 387
      }
    ],
    [
      8,
      4,
      {
        "cost": 492.63,
        "seconds": 1109
      }
    ],
    [
      8,
      6,
      {
        "cost": 386.61,
        "seconds": 865
      }
    ],
    [
      8,
      10,
      {
        "cost": 232.95,
        "seconds": 465
      }
    ],
    [
      8,
      14,
      {
        "cost": 200.34,
        "seconds": 429
      }
    ],
    [
      8,
      12,
      {
        "cost": 222.48,
        "seconds": 464
      }
    ],
    [
      9,
      1,
      {
        "cost": 188.73,
        "seconds": 408
      }
    ],
    [
      9,
      0,
      {
        "cost": 103.41,
        "seconds": 263
      }
    ],
    [
      9,
      3,
      {
        "cost": 400.32,
        "seconds": 878
      }
    ],
    [
      9,
      2,
      {
        "cost": 216.72,
        "seconds": 468
      }
    ],
    [
      9,
      5,
      {
        "cost": 347.55,
        "seconds": 719
      }
    ],
    [
      9,
      7,
      {
        "cost": 368.82,
        "seconds": 837
      }
    ],
    [
      9,
      10,
      {
        "cost": 258.59999999999999,
        "seconds": 593
      }
    ],
    [
      9,
      14,
      {
        "cost": 283.32,
        "seconds": 636
      }
    ],
    [
      9,
      12,
      {
        "cost": 279.36,
        "seconds": 648
      }
    ],
    [
      9,
      11,
      {
        "cost": 366.75,
        "seconds": 833
      }
    ],
    [
      9,
      15,
      {
        "cost": 274.40999999999999,
        "seconds": 605
      }
    ],
    [
      9,
      13,
      {
        "cost": 370.26,
        "seconds": 809
      }
    ],
    [
      9,
      8,
      {
        "cost": 261.63,
        "seconds": 596
      }
    ],
    [
      10,
      0,
      {
        "cost": 134.49,
        "seconds": 324
      }
    ],
    [
      10,
      1,
      {
        "cost": 66.3,
        "seconds": 131
      }
    ],
    [
      10,
      2,
      {
        "cost": 30.27,
        "seconds": 69
      }
    ],
    [
      10,
      4,
      {
        "cost": 469.2,
        "seconds": 1032
      }
    ],
    [
      10,
      5,
      {
        "cost": 234.54,
        "seconds": 440
      }
    ],
    [
      10,
      6,
      {
        "cost": 254.25,
        "seconds": 600
      }
    ],
    [
      10,
      8,
      {
        "cost": 213.06,
        "seconds": 404
      }
    ],
    [
      10,
      9,
      {
        "cost": 216.63,
        "seconds": 509
      }
    ],
    [
      10,
      14,
      {
        "cost": 149.7,
        "seconds": 380
      }
    ],
    [
      10,
      12,
      {
        "cost": 41.64,
        "seconds": 136
      }
    ],
    [
      11,
      1,
      {
        "cost": 222.57,
        "seconds": 446
      }
    ],
    [
      11,
      0,
      {
        "cost": 268.65,
        "seconds": 626
      }
    ],
    [
      11,
      3,
      {
        "cost": 147.26999999999999,
        "seconds": 355
      }
    ],
    [
      11,
      2,
      {
        "cost": 186.51,
        "seconds": 384
      }
    ],
    [
      11,
      5,
      {
        "cost": 143.16,
        "seconds": 344
      }
    ],
    [
      11,
      7,
      {
        "cost": 168.21,
        "seconds": 440
      }
    ],
    [
      11,
      9,
      {
        "cost": 347.37,
        "seconds": 806
      }
    ],
    [
      11,
      8,
      {
        "cost": 243.48,
        "seconds": 551
      }
    ],
    [
      11,
      14,
      {
        "cost": 76.98,
        "seconds": 250
      }
    ],
    [
      11,
      12,
      {
        "cost": 179.88,
        "seconds": 384
      }
    ],
    [
      11,
      15,
      {
        "cost": 381.63,
        "seconds": 785
      }
    ],
    [
      11,
      13,
      {
        "cost": 381.09,
        "seconds": 854
      }
    ],
    [
      11,
      10,
      {
        "cost": 158.7,
        "seconds": 353
      }
    ],
    [
      12,
      0,
      {
        "cost": 151.65,
        "seconds": 352
      }
    ],
    [
      12,
      2,
      {
        "cost": 47.4,
        "seconds": 97
      }
    ],
    [
      12,
      4,
      {
        "cost": 445.08,
        "seconds": 953
      }
    ],
    [
      12,
      6,
      {
        "cost": 230.1,
        "seconds": 521
      }
    ],
    [
      12,
      8,
      {
        "cost": 230.22,
        "seconds": 431
      }
    ],
    [
      12,
      10,
      {
        "cost": 19.59,
        "seconds": 66
      }
    ],
    [
      12,
      14,
      {
        "cost": 125.55,
        "seconds": 301
      }
    ],
    [
      13,
      1,
      {
        "cost": 300.45,
        "seconds": 596
      }
    ],
    [
      13,
      0,
      {
        "cost": 283.08,
        "seconds": 557
      }
    ],
    [
      13,
      3,
      {
        "cost": 312.06,
        "seconds": 867
      }
    ],
    [
      13,
      2,
      {
        "cost": 328.44,
        "seconds": 656
      }
    ],
    [
      13,
      5,
      {
        "cost": 235.5,
        "seconds": 658
      }
    ],
    [
      13,
      7,
      {
        "cost": 240.48,
        "seconds": 732
      }
    ],
    [
      13,
      9,
      {
        "cost": 361.11,
        "seconds": 751
      }
    ],
    [
      13,
      8,
      {
        "cost": 130.59,
        "seconds": 293
      }
    ],
    [
      13,
      11,
      {
        "cost": 410.72999999999998,
        "seconds": 894
      }
    ],
    [
      13,
      10,
      {
        "cost": 359.90999999999999,
        "seconds": 734
      }
    ],
    [
      13,
      14,
      {
        "cost": 327.3,
        "seconds": 698
      }
    ],
    [
      13,
      15,
      {
        "cost": 114.0,
        "seconds": 268
      }
    ],
    [
      13,
      12,
      {
        "cost": 349.44,
        "seconds": 733
      }
    ],
    [
      14,
      0,
      {
        "cost": 205.98,
        "seconds": 479
      }
    ],
    [
      14,
      2,
      {
        "cost": 163.59,
        "seconds": 368
      }
    ],
    [
      14,
      4,
      {
        "cost": 315.47999999999998,
        "seconds": 748
      }
    ],
    [
      14,
      5,
      {
        "cost": 119.75999999999999,
        "seconds": 228
      }
    ],
    [
      14,
      6,
      {
        "cost": 262.5,
        "seconds": 564
      }
    ],
    [
      14,
      8,
      {
        "cost": 180.84,
        "seconds": 404
      }
    ],
    [
      14,
      10,
      {
        "cost": 135.78,
        "seconds": 337
      }
    ],
    [
      14,
      12,
      {
        "cost": 125.31,
        "seconds": 336
      }
    ],
    [
      15,
      1,
      {
        "cost": 297.84,
        "seconds": 571
      }
    ],
    [
      15,
      0,
      {
        "cost": 188.51999999999999,
        "seconds": 368
      }
    ],
    [
      15,
      2,
      {
        "cost": 325.83,
        "seconds": 631
      }
    ],
    [
      15,
      5,
      {
        "cost": 309.18,
        "seconds": 669
      }
    ],
    [
      15,
      7,
      {
        "cost": 337.5,
        "seconds": 772
      }
    ],
    [
      15,
      9,
      {
        "cost": 266.58,
        "seconds": 562
      }
    ],
    [
      15,
      8,
      {
        "cost": 130.65,
        "seconds": 289
      }
    ],
    [
      15,
      11,
      {
        "cost": 388.46999999999999,
        "seconds": 856
      }
    ],
    [
      15,
      10,
      {
        "cost": 357.3,
        "seconds": 709
      }
    ],
    [
      15,
      13,
      {
        "cost": 114.17999999999999,
        "seconds": 298
      }
    ],
    [
      15,
      12,
      {
        "cost": 346.83,
        "seconds": 708
      }
    ],
    [
      15,
      14,
      {
        "cost": 305.03999999999999,
        "seconds": 660
      }
    ],
    [
      14,
      17,
      {
        "cost": 232.04999999999999,
        "seconds": 526
      }
    ],
    [
      16,
      15,
      {
        "cost": 284.21999999999999,
        "seconds": 610
      }
    ],
    [
      14,
      16,
      {
        "cost": 308.28,
        "seconds": 688
      }
    ],
    [
      17,
      15,
      {
        "cost": 536.5799999999999,
        "seconds": 1142
      }
    ],
    [
      12,
      17,
      {
        "cost": 361.65,
        "seconds": 731
      }
    ],
    [
      16,
      13,
      {
        "cost": 380.07,
        "seconds": 814
      }
    ],
    [
      12,
      16,
      {
        "cost": 257.34,
        "seconds": 566
      }
    ],
    [
      17,
      13,
      {
        "cost": 451.40999999999999,
        "seconds": 1168
      }
    ],
    [
      10,
      17,
      {
        "cost": 385.77,
        "seconds": 810
      }
    ],
    [
      16,
      11,
      {
        "cost": 316.71,
        "seconds": 739
      }
    ],
    [
      10,
      16,
      {
        "cost": 240.20999999999999,
        "seconds": 538
      }
    ],
    [
      17,
      11,
      {
        "cost": 207.95999999999999,
        "seconds": 540
      }
    ],
    [
      8,
      17,
      {
        "cost": 416.49,
        "seconds": 899
      }
    ],
    [
      16,
      9,
      {
        "cost": 142.07999999999999,
        "seconds": 339
      }
    ],
    [
      8,
      16,
      {
        "cost": 265.34999999999999,
        "seconds": 574
      }
    ],
    [
      17,
      9,
      {
        "cost": 502.32,
        "seconds": 1163
      }
    ],
    [
      6,
      17,
      {
        "cost": 222.06,
        "seconds": 559
      }
    ],
    [
      16,
      7,
      {
        "cost": 318.75,
        "seconds": 743
      }
    ],
    [
      6,
      16,
      {
        "cost": 477.93,
        "seconds": 1046
      }
    ],
    [
      17,
      7,
      {
        "cost": 282.03,
        "seconds": 678
      }
    ],
    [
      4,
      17,
      {
        "cost": 93.81,
        "seconds": 269
      }
    ],
    [
      16,
      5,
      {
        "cost": 297.51,
        "seconds": 625
      }
    ],
    [
      4,
      16,
      {
        "cost": 589.1999999999999,
        "seconds": 1328
      }
    ],
    [
      17,
      5,
      {
        "cost": 298.11,
        "seconds": 701
      }
    ],
    [
      2,
      17,
      {
        "cost": 358.02,
        "seconds": 782
      }
    ],
    [
      16,
      3,
      {
        "cost": 350.28,
        "seconds": 784
      }
    ],
    [
      2,
      16,
      {
        "cost": 209.94,
        "seconds": 468
      }
    ],
    [
      17,
      3,
      {
        "cost": 176.67,
        "seconds": 422
      }
    ],
    [
      0,
      17,
      {
        "cost": 410.7,
        "seconds": 929
      }
    ],
    [
      16,
      1,
      {
        "cost": 138.69,
        "seconds": 314
      }
    ],
    [
      0,
      16,
      {
        "cost": 115.89,
        "seconds": 292
      }
    ],
    [
      17,
      1,
      {
        "cost": 407.90999999999999,
        "seconds": 872
      }
    ]
  ]
}