{
  "nodes": [
    {
      "Delivery": {
        "bid": 4687,
        "id": 10,
        "price": null,
        "cost": null,
        "direct_dist": 15625,
        "direct_cost": 469,
        "direct_time": 972
      }
    },
    {
      "Pickup": {
        "bid": 4687,
        "id": 10,
        "price": null,
        "cost": null,
        "direct_dist": 15625,
        "direct_cost": 469,
        "direct_time": 972
      }
    },
    {
      "Delivery": {
        "bid": 676,
        "id": 9,
        "price": null,
        "cost": null,
        "direct_dist": 3073,
        "direct_cost": 93,
        "direct_time": 207
      }
    },
    {
      "Pickup": {
        "bid": 676,
        "id": 9,
        "price": null,
        "cost": null,
        "direct_dist": 3073,
        "direct_cost": 93,
        "direct_time": 207
      }
    },
    {
      "Delivery": {
        "bid": 2760,
        "id": 8,
        "price": null,
        "cost": null,
        "direct_dist": 9200,
        "direct_cost": 276,
        "direct_time": 594
      }
    },
    {
      "Pickup": {
        "bid": 2760,
        "id": 8,
        "price": null,
        "cost": null,
        "direct_dist": 9200,
        "direct_cost": 276,
        "direct_time": 594
      }
    },
    {
      "Delivery": {
        "bid": 1401,
        "id": 7,
        "price": null,
        "cost": null,
        "direct_dist": 4993,
        "direct_cost": 150,
        "direct_time": 342
      }
    },
    {
      "Pickup": {
        "bid": 1401,
        "id": 7,
        "price": null,
        "cost": null,
        "direct_dist": 4993,
        "direct_cost": 150,
        "direct_time": 342
      }
    },
    {
      "Delivery": {
        "bid": 3919,
        "id": 5,
        "price": null,
        "cost": null,
        "direct_dist": 13065,
        "direct_cost": 392,
        "direct_time": 850
      }
    },
    {
      "Pickup": {
        "bid": 3919,
        "id": 5,
        "price": null,
        "cost": null,
        "direct_dist": 13065,
        "direct_cost": 392,
        "direct_time": 850
      }
    },
    {
      "Delivery": {
        "bid": 5055,
        "id": 3,
        "price": null,
        "cost": null,
        "direct_dist": 16850,
        "direct_cost": 506,
        "direct_time": 1226
      }
    },
    {
      "Pickup": {
        "bid": 5055,
        "id": 3,
        "price": null,
        "cost": null,
        "direct_dist": 16850,
        "direct_cost": 506,
        "direct_time": 1226
      }
    },
    {
      "Delivery": {
        "bid": 24,
        "id": 1,
        "price": null,
        "cost": null,
        "direct_dist": 7100,
        "direct_cost": 213,
        "direct_time": 442
      }
    },
    {
      "Pickup": {
        "bid": 24,
        "id": 1,
        "price": null,
        "cost": null,
        "direct_dist": 7100,
        "direct_cost": 213,
        "direct_time": 442
      }
    },
    {
      "DriverStart": {
        "arrive_until": 2400,
        "direct_cost": 580
      }
    },
    {
      "DriverEnd": {
        "arrive_until": 2400,
        "direct_cost": 580
      }
    }
  ],
  "node_holes": [],
  "edge_property": "directed",
  "edges": [
    [
      0,
      10,
      {
        "cost": 146.82,
        "seconds": 373
      }
    ],
    [
      0,
      4,
      {
        "cost": 58.08,
        "seconds": 170
      }
    ],
    [
      0,
      8,
      {
        "cost": 150.63,
        "seconds": 345
      }
    ],
    [
      1,
      10,
      {
        "cost": 599.1899999999999,
        "seconds": 1250
      }
    ],
    [
      1,
      12,
      {
        "cost": 285.21,
        "seconds": 583
      }
    ],
    [
      1,
      2,
      {
        "cost": 295.11,
        "seconds": 623
      }
    ],
    [
      1,
      4,
      {
        "cost": 511.91999999999998,
        "seconds": 1094
      }
    ],
    [
      1,
      6,
      {
        "cost": 125.78999999999999,
        "seconds": 296
      }
    ],
    [
      1,
      8,
      {
        "cost": 400.02,
        "seconds": 853
      }
    ],
    [
      1,
      13,
      {
        "cost": 88.95,
        "seconds": 214
      }
    ],
    [
      1,
      11,
      {
        "cost": 122.13,
        "seconds": 330
      }
    ],
    [
      1,
      3,
      {
        "cost": 262.74,
        "seconds": 593
      }
    ],
    [
      1,
      7,
      {
        "cost": 159.03,
        "seconds": 522
      }
    ],
    [
      1,
      5,
      {
        "cost": 380.31,
        "seconds": 762
      }
    ],
    [
      1,
      9,
      {
        "cost": 138.0,
        "seconds": 349
      }
    ],
    [
      1,
      0,
      {
        "cost": 468.75,
        "seconds": 972
      }
    ],
    [
      2,
      0,
      {
        "cost": 226.10999999999999,
        "seconds": 478
      }
    ],
    [
      2,
      12,
      {
        "cost": 31.65,
        "seconds": 112
      }
    ],
    [
      2,
      6,
      {
        "cost": 269.73,
        "seconds": 578
      }
    ],
    [
      2,
      13,
      {
        "cost": 269.09999999999999,
        "seconds": 600
      }
    ],
    [
      2,
      4,
      {
        "cost": 269.28,
        "seconds": 599
      }
    ],
    [
      2,
      8,
      {
        "cost": 137.73,
        "seconds": 345
      }
    ],
    [
      2,
      10,
      {
        "cost": 356.55,
        "seconds": 755
      }
    ],
    [
      2,
      5,
      {
        "cost": 86.82,
        "seconds": 237
      }
    ],
    [
      3,
      1,
      {
        "cost": 275.15999999999999,
        "seconds": 552
      }
    ],
    [
      3,
      12,
      {
        "cost": 82.25999999999999,
        "seconds": 167
      }
    ],
    [
      3,
      6,
      {
        "cost": 193.32,
        "seconds": 404
      }
    ],
    [
      3,
      13,
      {
        "cost": 191.73,
        "seconds": 422
      }
    ],
    [
      3,
      8,
      {
        "cost": 176.54999999999999,
        "seconds": 436
      }
    ],
    [
      3,
      7,
      {
        "cost": 209.48999999999999,
        "seconds": 508
      }
    ],
    [
      3,
      5,
      {
        "cost": 177.35999999999999,
        "seconds": 347
      }
    ],
    [
      3,
      11,
      {
        "cost": 224.19,
        "seconds": 493
      }
    ],
    [
      3,
      9,
      {
        "cost": 245.79,
        "seconds": 532
      }
    ],
    [
      3,
      2,
      {
        "cost": 92.19,
        "seconds": 207
      }
    ],
    [
      4,
      0,
      {
        "cost": 61.86,
        "seconds": 192
      }
    ],
    [
      4,
      8,
      {
        "cost": 193.38,
        "seconds": 462
      }
    ],
    [
      4,
      12,
      {
        "cost": 263.31,
        "seconds": 581
      }
    ],
    [
      4,
      10,
      {
        "cost": 124.38,
        "seconds": 333
      }
    ],
    [
      5,
      1,
      {
        "cost": 403.85999999999998,
        "seconds": 815
      }
    ],
    [
      5,
      0,
      {
        "cost": 205.41,
        "seconds": 449
      }
    ],
    [
      5,
      3,
      {
        "cost": 142.44,
        "seconds": 297
      }
    ],
    [
      5,
      2,
      {
        "cost": 72.66,
        "seconds": 148
      }
    ],
    [
      5,
      8,
      {
        "cost": 84.69,
        "seconds": 244
      }
    ],
    [
      5,
      7,
      {
        "cost": 336.45,
        "seconds": 760
      }
    ],
    [
      5,
      12,
      {
        "cost": 86.13,
        "seconds": 173
      }
    ],
    [
      5,
      9,
      {
        "cost": 374.52,
        "seconds": 796
      }
    ],
    [
      5,
      11,
      {
        "cost": 352.91999999999998,
        "seconds": 756
      }
    ],
    [
      5,
      13,
      {
        "cost": 320.46,
        "seconds": 685
      }
    ],
    [
      5,
      4,
      {
        "cost": 276.0,
        "seconds": 594
      }
    ],
    [
      6,
      0,
      {
        "cost": 480.06,
        "seconds": 975
      }
    ],
    [
      6,
      1,
      {
        "cost": 73.59,
        "seconds": 181
      }
    ],
    [
      6,
      2,
      {
        "cost": 286.8,
        "seconds": 613
      }
    ],
    [
      6,
      4,
      {
        "cost": 523.23,
        "seconds": 1097
      }
    ],
    [
      6,
      12,
      {
        "cost": 276.87,
        "seconds": 572
      }
    ],
    [
      6,
      8,
      {
        "cost": 391.68,
        "seconds": 843
      }
    ],
    [
      6,
      10,
      {
        "cost": 610.5,
        "seconds": 1253
      }
    ],
    [
      6,
      13,
      {
        "cost": 104.64,
        "seconds": 228
      }
    ],
    [
      6,
      11,
      {
        "cost": 98.61,
        "seconds": 250
      }
    ],
    [
      6,
      9,
      {
        "cost": 114.47999999999999,
        "seconds": 268
      }
    ],
    [
      7,
      1,
      {
        "cost": 223.38,
        "seconds": 522
      }
    ],
    [
      7,
      3,
      {
        "cost": 232.53,
        "seconds": 529
      }
    ],
    [
      7,
      2,
      {
        "cost": 249.45,
        "seconds": 543
      }
    ],
    [
      7,
      12,
      {
        "cost": 239.51999999999999,
        "seconds": 502
      }
    ],
    [
      7,
      9,
      {
        "cost": 198.9,
        "seconds": 478
      }
    ],
    [
      7,
      11,
      {
        "cost": 108.42,
        "seconds": 350
      }
    ],
    [
      7,
      13,
      {
        "cost": 176.51999999999999,
        "seconds": 446
      }
    ],
    [
      7,
      6,
      {
        "cost": 149.79,
        "seconds": 342
      }
    ],
    [
      8,
      0,
      {
        "cost": 158.79,
        "seconds": 338
      }
    ],
    [
      8,
      2,
      {
        "cost": 98.03999999999999,
        "seconds": 228
      }
    ],
    [
      8,
      4,
      {
        "cost": 201.95999999999999,
        "seconds": 460
      }
    ],
    [
      8,
      10,
      {
        "cost": 284.09999999999999,
        "seconds": 601
      }
    ],
    [
      8,
      12,
      {
        "cost": 111.50999999999999,
        "seconds": 253
      }
    ],
    [
      9,
      1,
      {
        "cost": 150.23999999999999,
        "seconds": 379
      }
    ],
    [
      9,
      0,
      {
        "cost": 480.33,
        "seconds": 983
      }
    ],
    [
      9,
      3,
      {
        "cost": 258.18,
        "seconds": 622
      }
    ],
    [
      9,
      2,
      {
        "cost": 287.03999999999999,
        "seconds": 620
      }
    ],
    [
      9,
      5,
      {
        "cost": 372.24,
        "seconds": 760
      }
    ],
    [
      9,
      4,
      {
        "cost": 523.5,
        "seconds": 1105
      }
    ],
    [
      9,
      7,
      {
        "cost": 133.85999999999999,
        "seconds": 474
      }
    ],
    [
      9,
      6,
      {
        "cost": 76.64999999999999,
        "seconds": 198
      }
    ],
    [
      9,
      12,
      {
        "cost": 277.14,
        "seconds": 580
      }
    ],
    [
      9,
      11,
      {
        "cost": 56.58,
        "seconds": 212
      }
    ],
    [
      9,
      13,
      {
        "cost": 181.29,
        "seconds": 426
      }
    ],
    [
      9,
      8,
      {
        "cost": 391.95,
        "seconds": 850
      }
    ],
    [
      10,
      0,
      {
        "cost": 190.53,
        "seconds": 499
      }
    ],
    [
      11,
      1,
      {
        "cost": 133.35,
        "seconds": 340
      }
    ],
    [
      11,
      0,
      {
        "cost": 389.88,
        "seconds": 948
      }
    ],
    [
      11,
      3,
      {
        "cost": 250.32,
        "seconds": 632
      }
    ],
    [
      11,
      2,
      {
        "cost": 279.18,
        "seconds": 631
      }
    ],
    [
      11,
      5,
      {
        "cost": 364.38,
        "seconds": 771
      }
    ],
    [
      11,
      4,
      {
        "cost": 433.05,
        "seconds": 1070
      }
    ],
    [
      11,
      7,
      {
        "cost": 90.47999999999999,
        "seconds": 310
      }
    ],
    [
      11,
      6,
      {
        "cost": 59.79,
        "seconds": 159
      }
    ],
    [
      11,
      9,
      {
        "cost": 52.47,
        "seconds": 193
      }
    ],
    [
      11,
      8,
      {
        "cost": 384.09,
        "seconds": 861
      }
    ],
    [
      11,
      12,
      {
        "cost": 269.28,
        "seconds": 591
      }
    ],
    [
      11,
      13,
      {
        "cost": 164.43,
        "seconds": 387
      }
    ],
    [
      11,
      10,
      {
        "cost": 505.5,
        "seconds": 1226
      }
    ],
    [
      12,
      0,
      {
        "cost": 210.57,
        "seconds": 439
      }
    ],
    [
      12,
      2,
      {
        "cost": 22.95,
        "seconds": 86
      }
    ],
    [
      12,
      3,
      {
        "cost": 75.27,
        "seconds": 188
      }
    ],
    [
      12,
      4,
      {
        "cost": 253.73999999999999,
        "seconds": 561
      }
    ],
    [
      12,
      5,
      {
        "cost": 102.89999999999999,
        "seconds": 221
      }
    ],
    [
      12,
      6,
      {
        "cost": 254.88,
        "seconds": 559
      }
    ],
    [
      12,
      8,
      {
        "cost": 122.61,
        "seconds": 311
      }
    ],
    [
      12,
      10,
      {
        "cost": 341.01,
        "seconds": 717
      }
    ],
    [
      13,
      1,
      {
        "cost": 62.25,
        "seconds": 242
      }
    ],
    [
      13,
      3,
      {
        "cost": 190.53,
        "seconds": 451
      }
    ],
    [
      13,
      2,
      {
        "cost": 222.9,
        "seconds": 482
      }
    ],
    [
      13,
      5,
      {
        "cost": 308.09999999999999,
        "seconds": 621
      }
    ],
    [
      13,
      7,
      {
        "cost": 191.79,
        "seconds": 548
      }
    ],
    [
      13,
      6,
      {
        "cost": 159.21,
        "seconds": 323
      }
    ],
    [
      13,
      9,
      {
        "cost": 171.39,
        "seconds": 377
      }
    ],
    [
      13,
      8,
      {
        "cost": 327.81,
        "seconds": 712
      }
    ],
    [
      13,
      11,
      {
        "cost": 155.54999999999999,
        "seconds": 358
      }
    ],
    [
      13,
      12,
      {
        "cost": 213.0,
        "seconds": 442
      }
    ],
    [
      12,
      15,
      {
        "cost": 278.7,
        "seconds": 602
      }
    ],
    [
      14,
      13,
      {
        "cost": 113.72999999999999,
        "seconds": 277
      }
    ],
    [
      12,
      14,
      {
        "cost": 355.2,
        "seconds": 738
      }
    ],
    [
      15,
      13,
      {
        "cost": 436.10999999999998,
        "seconds": 939
      }
    ],
    [
      10,
      15,
      {
        "cost": 114.63,
        "seconds": 199
      }
    ],
    [
      14,
      11,
      {
        "cost": 141.87,
        "seconds": 366
      }
    ],
    [
      10,
      14,
      {
        "cost": 595.65,
        "seconds": 1195
      }
    ],
    [
      15,
      11,
      {
        "cost": 357.53999999999999,
        "seconds": 915
      }
    ],
    [
      8,
      15,
      {
        "cost": 281.52,
        "seconds": 581
      }
    ],
    [
      14,
      9,
      {
        "cost": 157.73999999999999,
        "seconds": 384
      }
    ],
    [
      8,
      14,
      {
        "cost": 438.21,
        "seconds": 850
      }
    ],
    [
      15,
      9,
      {
        "cost": 485.94,
        "seconds": 1070
      }
    ],
    [
      6,
      15,
      {
        "cost": 546.6899999999999,
        "seconds": 1146
      }
    ],
    [
      14,
      7,
      {
        "cost": 183.81,
        "seconds": 584
      }
    ],
    [
      6,
      14,
      {
        "cost": 82.86,
        "seconds": 197
      }
    ],
    [
      15,
      7,
      {
        "cost": 298.53,
        "seconds": 684
      }
    ],
    [
      4,
      15,
      {
        "cost": 239.01,
        "seconds": 532
      }
    ],
    [
      14,
      5,
      {
        "cost": 405.09,
        "seconds": 825
      }
    ],
    [
      4,
      14,
      {
        "cost": 553.23,
        "seconds": 1107
      }
    ],
    [
      15,
      5,
      {
        "cost": 331.68,
        "seconds": 659
      }
    ],
    [
      2,
      15,
      {
        "cost": 292.74,
        "seconds": 649
      }
    ],
    [
      14,
      3,
      {
        "cost": 287.52,
        "seconds": 655
      }
    ],
    [
      2,
      14,
      {
        "cost": 371.01,
        "seconds": 762
      }
    ],
    [
      15,
      3,
      {
        "cost": 254.51999999999999,
        "seconds": 585
      }
    ],
    [
      0,
      15,
      {
        "cost": 219.03,
        "seconds": 506
      }
    ],
    [
      14,
      1,
      {
        "cost": 24.779999999999999,
        "seconds": 62
      }
    ],
    [
      0,
      14,
      {
        "cost": 510.47999999999998,
        "seconds": 990
      }
    ],
    [
      15,
      1,
      {
        "cost": 519.54,
        "seconds": 1069
      }
    ]
  ]
}