{
  "nodes": [
    {
      "Delivery": {
        "bid": 2459,
        "id": 10,
        "price": null,
        "cost": null,
        "direct_dist": 8199,
        "direct_cost": 246,
        "direct_time": 600
      }
    },
    {
      "Pickup": {
        "bid": 2459,
        "id": 10,
        "price": null,
        "cost": null,
        "direct_dist": 8199,
        "direct_cost": 246,
        "direct_time": 600
      }
    },
    {
      "Delivery": {
        "bid": 3604,
        "id": 9,
        "price": null,
        "cost": null,
        "direct_dist": 12015,
        "direct_cost": 361,
        "direct_time": 792
      }
    },
    {
      "Pickup": {
        "bid": 3604,
        "id": 9,
        "price": null,
        "cost": null,
        "direct_dist": 12015,
        "direct_cost": 361,
        "direct_time": 792
      }
    },
    {
      "Delivery": {
        "bid": 251,
        "id": 7,
        "price": null,
        "cost": null,
        "direct_dist": 8016,
        "direct_cost": 241,
        "direct_time": 487
      }
    },
    {
      "Pickup": {
        "bid": 251,
        "id": 7,
        "price": null,
        "cost": null,
        "direct_dist": 8016,
        "direct_cost": 241,
        "direct_time": 487
      }
    },
    {
      "Delivery": {
        "bid": 783,
        "id": 6,
        "price": null,
        "cost": null,
        "direct_dist": 2611,
        "direct_cost": 79,
        "direct_time": 223
      }
    },
    {
      "Pickup": {
        "bid": 783,
        "id": 6,
        "price": null,
        "cost": null,
        "direct_dist": 2611,
        "direct_cost": 79,
        "direct_time": 223
      }
    },
    {
      "Delivery": {
        "bid": 612,
        "id": 5,
        "price": null,
        "cost": null,
        "direct_dist": 11439,
        "direct_cost": 344,
        "direct_time": 790
      }
    },
    {
      "Pickup": {
        "bid": 612,
        "id": 5,
        "price": null,
        "cost": null,
        "direct_dist": 11439,
        "direct_cost": 344,
        "direct_time": 790
      }
    },
    {
      "Delivery": {
        "bid": 4104,
        "id": 4,
        "price": null,
        "cost": null,
        "direct_dist": 13680,
        "direct_cost": 411,
        "direct_time": 889
      }
    },
    {
      "Pickup": {
        "bid": 4104,
        "id": 4,
        "price": null,
        "cost": null,
        "direct_dist": 13680,
        "direct_cost": 411,
        "direct_time": 889
      }
    },
    {
      "Delivery": {
        "bid": 1648,
        "id": 2,
        "price": null,
        "cost": null,
        "direct_dist": 5494,
        "direct_cost": 165,
        "direct_time": 430
      }
    },
    {
      "Pickup": {
        "bid": 1648,
        "id": 2,
        "price": null,
        "cost": null,
        "direct_dist": 5494,
        "direct_cost": 165,
        "direct_time": 430
      }
    },
    {
      "Delivery": {
        "bid": 930,
        "id": 1,
        "price": null,
        "cost": null,
        "direct_dist": 10536,
        "direct_cost": 317,
        "direct_time": 716
      }
    },
    {
      "Pickup": {
        "bid": 930,
        "id": 1,
        "price": null,
        "cost": null,
        "direct_dist": 10536,
        "direct_cost": 317,
        "direct_time": 716
      }
    },
    {
      "DriverStart": {
        "arrive_until": 2400,
        "direct_cost": 400
      }
    },
    {
      "DriverEnd": {
        "arrive_until": 2400,
        "direct_cost": 400
      }
    }
  ],
  "node_holes": [],
  "edge_property": "directed",
  "edges": [
    [
      0,
      6,
      {
        "cost": 125.00999999999999,
        "seconds": 336
      }
    ],
    [
      0,
      10,
      {
        "cost": 250.47,
        "seconds": 572
      }
    ],
    [
      0,
      8,
      {
        "cost": 326.07,
        "seconds": 746
      }
    ],
    [
      0,
      4,
      {
        "cost": 253.26,
        "seconds": 569
      }
    ],
    [
      0,
      12,
      {
        "cost": 201.32999999999999,
        "seconds": 566
      }
    ],
    [
      0,
      2,
      {
        "cost": 351.47999999999998,
        "seconds": 787
      }
    ],
    [
      0,
      9,
      {
        "cost": 50.07,
        "seconds": 173
      }
    ],
    [
      0,
      3,
      {
        "cost": 20.13,
        "seconds": 59
      }
    ],
    [
      1,
      6,
      {
        "cost": 178.70999999999999,
        "seconds": 447
      }
    ],
    [
      1,
      11,
      {
        "cost": 92.82,
        "seconds": 260
      }
    ],
    [
      1,
      7,
      {
        "cost": 226.5,
        "seconds": 588
      }
    ],
    [
      1,
      12,
      {
        "cost": 328.71,
        "seconds": 861
      }
    ],
    [
      1,
      9,
      {
        "cost": 209.64,
        "seconds": 558
      }
    ],
    [
      1,
      3,
      {
        "cost": 222.63,
        "seconds": 577
      }
    ],
    [
      1,
      5,
      {
        "cost": 355.77,
        "seconds": 803
      }
    ],
    [
      1,
      0,
      {
        "cost": 245.97,
        "seconds": 600
      }
    ],
    [
      2,
      14,
      {
        "cost": 292.59,
        "seconds": 711
      }
    ],
    [
      2,
      8,
      {
        "cost": 245.13,
        "seconds": 499
      }
    ],
    [
      2,
      4,
      {
        "cost": 168.23999999999999,
        "seconds": 414
      }
    ],
    [
      2,
      10,
      {
        "cost": 125.52,
        "seconds": 327
      }
    ],
    [
      3,
      1,
      {
        "cost": 165.81,
        "seconds": 384
      }
    ],
    [
      3,
      0,
      {
        "cost": 50.339999999999999,
        "seconds": 153
      }
    ],
    [
      3,
      14,
      {
        "cost": 146.43,
        "seconds": 376
      }
    ],
    [
      3,
      8,
      {
        "cost": 338.96999999999999,
        "seconds": 759
      }
    ],
    [
      3,
      12,
      {
        "cost": 201.54,
        "seconds": 561
      }
    ],
    [
      3,
      6,
      {
        "cost": 123.92999999999999,
        "seconds": 327
      }
    ],
    [
      3,
      4,
      {
        "cost": 262.2,
        "seconds": 574
      }
    ],
    [
      3,
      10,
      {
        "cost": 259.44,
        "seconds": 577
      }
    ],
    [
      3,
      15,
      {
        "cost": 303.9,
        "seconds": 672
      }
    ],
    [
      3,
      13,
      {
        "cost": 337.46999999999999,
        "seconds": 735
      }
    ],
    [
      3,
      7,
      {
        "cost": 103.74,
        "seconds": 294
      }
    ],
    [
      3,
      9,
      {
        "cost": 49.019999999999999,
        "seconds": 164
      }
    ],
    [
      3,
      5,
      {
        "cost": 223.44,
        "seconds": 485
      }
    ],
    [
      3,
      11,
      {
        "cost": 182.25,
        "seconds": 423
      }
    ],
    [
      3,
      2,
      {
        "cost": 360.45,
        "seconds": 792
      }
    ],
    [
      4,
      0,
      {
        "cost": 273.18,
        "seconds": 564
      }
    ],
    [
      4,
      2,
      {
        "cost": 157.79999999999999,
        "seconds": 422
      }
    ],
    [
      4,
      12,
      {
        "cost": 318.78,
        "seconds": 685
      }
    ],
    [
      4,
      8,
      {
        "cost": 288.27,
        "seconds": 639
      }
    ],
    [
      4,
      10,
      {
        "cost": 147.09,
        "seconds": 365
      }
    ],
    [
      4,
      14,
      {
        "cost": 264.21,
        "seconds": 595
      }
    ],
    [
      4,
      15,
      {
        "cost": 51.72,
        "seconds": 137
      }
    ],
    [
      5,
      1,
      {
        "cost": 283.34999999999999,
        "seconds": 607
      }
    ],
    [
      5,
      0,
      {
        "cost": 180.51,
        "seconds": 393
      }
    ],
    [
      5,
      3,
      {
        "cost": 163.23,
        "seconds": 360
      }
    ],
    [
      5,
      2,
      {
        "cost": 254.64,
        "seconds": 550
      }
    ],
    [
      5,
      12,
      {
        "cost": 74.78999999999999,
        "seconds": 213
      }
    ],
    [
      5,
      6,
      {
        "cost": 188.22,
        "seconds": 397
      }
    ],
    [
      5,
      10,
      {
        "cost": 153.63,
        "seconds": 335
      }
    ],
    [
      5,
      14,
      {
        "cost": 55.589999999999999,
        "seconds": 153
      }
    ],
    [
      5,
      9,
      {
        "cost": 175.35,
        "seconds": 408
      }
    ],
    [
      5,
      13,
      {
        "cost": 134.16,
        "seconds": 360
      }
    ],
    [
      5,
      7,
      {
        "cost": 168.23999999999999,
        "seconds": 376
      }
    ],
    [
      5,
      15,
      {
        "cost": 282.18,
        "seconds": 585
      }
    ],
    [
      5,
      11,
      {
        "cost": 299.82,
        "seconds": 647
      }
    ],
    [
      5,
      4,
      {
        "cost": 240.48,
        "seconds": 487
      }
    ],
    [
      6,
      0,
      {
        "cost": 122.33999999999999,
        "seconds": 245
      }
    ],
    [
      6,
      1,
      {
        "cost": 188.91,
        "seconds": 417
      }
    ],
    [
      6,
      2,
      {
        "cost": 373.83,
        "seconds": 781
      }
    ],
    [
      6,
      3,
      {
        "cost": 104.22,
        "seconds": 212
      }
    ],
    [
      6,
      4,
      {
        "cost": 275.61,
        "seconds": 563
      }
    ],
    [
      6,
      5,
      {
        "cost": 180.03,
        "seconds": 397
      }
    ],
    [
      6,
      12,
      {
        "cost": 156.9,
        "seconds": 479
      }
    ],
    [
      6,
      8,
      {
        "cost": 328.74,
        "seconds": 701
      }
    ],
    [
      6,
      14,
      {
        "cost": 101.82,
        "seconds": 293
      }
    ],
    [
      6,
      10,
      {
        "cost": 272.82,
        "seconds": 566
      }
    ],
    [
      6,
      11,
      {
        "cost": 207.84,
        "seconds": 457
      }
    ],
    [
      6,
      9,
      {
        "cost": 116.33999999999999,
        "seconds": 260
      }
    ],
    [
      7,
      1,
      {
        "cost": 213.98999999999999,
        "seconds": 457
      }
    ],
    [
      7,
      0,
      {
        "cost": 113.88,
        "seconds": 241
      }
    ],
    [
      7,
      3,
      {
        "cost": 93.84,
        "seconds": 209
      }
    ],
    [
      7,
      5,
      {
        "cost": 139.5,
        "seconds": 371
      }
    ],
    [
      7,
      12,
      {
        "cost": 133.17,
        "seconds": 425
      }
    ],
    [
      7,
      14,
      {
        "cost": 78.09,
        "seconds": 239
      }
    ],
    [
      7,
      9,
      {
        "cost": 105.96,
        "seconds": 258
      }
    ],
    [
      7,
      11,
      {
        "cost": 230.42999999999999,
        "seconds": 497
      }
    ],
    [
      7,
      13,
      {
        "cost": 272.52,
        "seconds": 624
      }
    ],
    [
      7,
      15,
      {
        "cost": 306.84,
        "seconds": 656
      }
    ],
    [
      7,
      6,
      {
        "cost": 78.33,
        "seconds": 223
      }
    ],
    [
      8,
      2,
      {
        "cost": 222.32999999999999,
        "seconds": 483
      }
    ],
    [
      8,
      12,
      {
        "cost": 207.39,
        "seconds": 504
      }
    ],
    [
      8,
      10,
      {
        "cost": 161.34,
        "seconds": 395
      }
    ],
    [
      8,
      14,
      {
        "cost": 248.79,
        "seconds": 539
      }
    ],
    [
      9,
      1,
      {
        "cost": 147.96,
        "seconds": 350
      }
    ],
    [
      9,
      0,
      {
        "cost": 55.199999999999999,
        "seconds": 182
      }
    ],
    [
      9,
      3,
      {
        "cost": 35.339999999999999,
        "seconds": 118
      }
    ],
    [
      9,
      2,
      {
        "cost": 364.65,
        "seconds": 823
      }
    ],
    [
      9,
      5,
      {
        "cost": 227.64,
        "seconds": 516
      }
    ],
    [
      9,
      4,
      {
        "cost": 266.43,
        "seconds": 605
      }
    ],
    [
      9,
      7,
      {
        "cost": 107.97,
        "seconds": 325
      }
    ],
    [
      9,
      6,
      {
        "cost": 104.42999999999999,
        "seconds": 258
      }
    ],
    [
      9,
      12,
      {
        "cost": 205.73999999999999,
        "seconds": 592
      }
    ],
    [
      9,
      10,
      {
        "cost": 263.64,
        "seconds": 608
      }
    ],
    [
      9,
      14,
      {
        "cost": 150.66,
        "seconds": 406
      }
    ],
    [
      9,
      13,
      {
        "cost": 341.7,
        "seconds": 766
      }
    ],
    [
      9,
      11,
      {
        "cost": 164.43,
        "seconds": 390
      }
    ],
    [
      9,
      15,
      {
        "cost": 308.09999999999999,
        "seconds": 703
      }
    ],
    [
      9,
      8,
      {
        "cost": 343.16999999999998,
        "seconds": 790
      }
    ],
    [
      10,
      2,
      {
        "cost": 122.52,
        "seconds": 328
      }
    ],
    [
      10,
      4,
      {
        "cost": 151.62,
        "seconds": 311
      }
    ],
    [
      10,
      8,
      {
        "cost": 154.92,
        "seconds": 374
      }
    ],
    [
      11,
      1,
      {
        "cost": 105.21,
        "seconds": 247
      }
    ],
    [
      11,
      0,
      {
        "cost": 190.5,
        "seconds": 431
      }
    ],
    [
      11,
      3,
      {
        "cost": 197.43,
        "seconds": 439
      }
    ],
    [
      11,
      2,
      {
        "cost": 511.40999999999999,
        "seconds": 1104
      }
    ],
    [
      11,
      5,
      {
        "cost": 359.25,
        "seconds": 756
      }
    ],
    [
      11,
      4,
      {
        "cost": 413.15999999999999,
        "seconds": 886
      }
    ],
    [
      11,
      7,
      {
        "cost": 230.01,
        "seconds": 541
      }
    ],
    [
      11,
      6,
      {
        "cost": 182.19,
        "seconds": 400
      }
    ],
    [
      11,
      9,
      {
        "cost": 213.12,
        "seconds": 511
      }
    ],
    [
      11,
      8,
      {
        "cost": 497.46,
        "seconds": 1039
      }
    ],
    [
      11,
      10,
      {
        "cost": 410.4,
        "seconds": 889
      }
    ],
    [
      12,
      0,
      {
        "cost": 210.72,
        "seconds": 485
      }
    ],
    [
      12,
      2,
      {
        "cost": 292.14,
        "seconds": 676
      }
    ],
    [
      12,
      4,
      {
        "cost": 285.45,
        "seconds": 624
      }
    ],
    [
      12,
      5,
      {
        "cost": 44.94,
        "seconds": 137
      }
    ],
    [
      12,
      6,
      {
        "cost": 222.23999999999999,
        "seconds": 500
      }
    ],
    [
      12,
      8,
      {
        "cost": 179.07,
        "seconds": 487
      }
    ],
    [
      12,
      14,
      {
        "cost": 85.83,
        "seconds": 246
      }
    ],
    [
      13,
      1,
      {
        "cost": 437.37,
        "seconds": 893
      }
    ],
    [
      13,
      3,
      {
        "cost": 317.25,
        "seconds": 645
      }
    ],
    [
      13,
      5,
      {
        "cost": 163.85999999999999,
        "seconds": 387
      }
    ],
    [
      13,
      4,
      {
        "cost": 297.9,
        "seconds": 636
      }
    ],
    [
      13,
      7,
      {
        "cost": 315.24,
        "seconds": 659
      }
    ],
    [
      13,
      6,
      {
        "cost": 335.19,
        "seconds": 680
      }
    ],
    [
      13,
      9,
      {
        "cost": 329.37,
        "seconds": 694
      }
    ],
    [
      13,
      8,
      {
        "cost": 85.02,
        "seconds": 220
      }
    ],
    [
      13,
      14,
      {
        "cost": 206.22,
        "seconds": 464
      }
    ],
    [
      13,
      15,
      {
        "cost": 339.59999999999999,
        "seconds": 734
      }
    ],
    [
      13,
      12,
      {
        "cost": 164.82,
        "seconds": 430
      }
    ],
    [
      14,
      2,
      {
        "cost": 311.64,
        "seconds": 679
      }
    ],
    [
      14,
      4,
      {
        "cost": 246.35999999999999,
        "seconds": 558
      }
    ],
    [
      14,
      5,
      {
        "cost": 70.44,
        "seconds": 172
      }
    ],
    [
      14,
      6,
      {
        "cost": 160.82999999999999,
        "seconds": 385
      }
    ],
    [
      14,
      8,
      {
        "cost": 228.6,
        "seconds": 520
      }
    ],
    [
      14,
      12,
      {
        "cost": 99.24,
        "seconds": 308
      }
    ],
    [
      15,
      3,
      {
        "cost": 340.71,
        "seconds": 717
      }
    ],
    [
      15,
      2,
      {
        "cost": 111.69,
        "seconds": 293
      }
    ],
    [
      15,
      5,
      {
        "cost": 325.22999999999998,
        "seconds": 680
      }
    ],
    [
      15,
      4,
      {
        "cost": 86.39999999999999,
        "seconds": 222
      }
    ],
    [
      15,
      7,
      {
        "cost": 378.9,
        "seconds": 803
      }
    ],
    [
      15,
      6,
      {
        "cost": 398.88,
        "seconds": 824
      }
    ],
    [
      15,
      9,
      {
        "cost": 370.68,
        "seconds": 831
      }
    ],
    [
      15,
      8,
      {
        "cost": 348.18,
        "seconds": 729
      }
    ],
    [
      15,
      13,
      {
        "cost": 347.37,
        "seconds": 789
      }
    ],
    [
      15,
      12,
      {
        "cost": 370.65,
        "seconds": 806
      }
    ],
    [
      15,
      14,
      {
        "cost": 316.08,
        "seconds": 716
      }
    ],
    [
      14,
      17,
      {
        "cost": 312.53999999999999,
        "seconds": 709
      }
    ],
    [
      16,
      15,
      {
        "cost": 361.56,
        "seconds": 812
      }
    ],
    [
      14,
      16,
      {
        "cost": 155.54999999999999,
        "seconds": 383
      }
    ],
    [
      17,
      15,
      {
        "cost": 167.16,
        "seconds": 409
      }
    ],
    [
      12,
      17,
      {
        "cost": 293.03999999999999,
        "seconds": 706
      }
    ],
    [
      16,
      13,
      {
        "cost": 323.64,
        "seconds": 758
      }
    ],
    [
      12,
      16,
      {
        "cost": 216.95999999999999,
        "seconds": 498
      }
    ],
    [
      17,
      13,
      {
        "cost": 222.87,
        "seconds": 548
      }
    ],
    [
      10,
      17,
      {
        "cost": 120.14999999999999,
        "seconds": 301
      }
    ],
    [
      16,
      11,
      {
        "cost": 203.91,
        "seconds": 505
      }
    ],
    [
      10,
      16,
      {
        "cost": 299.21999999999999,
        "seconds": 633
      }
    ],
    [
      17,
      11,
      {
        "cost": 493.95,
        "seconds": 1106
      }
    ],
    [
      8,
      17,
      {
        "cost": 176.01,
        "seconds": 349
      }
    ],
    [
      16,
      9,
      {
        "cost": 130.01999999999999,
        "seconds": 359
      }
    ],
    [
      8,
      16,
      {
        "cost": 372.47999999999998,
        "seconds": 752
      }
    ],
    [
      17,
      9,
      {
        "cost": 369.47999999999998,
        "seconds": 867
      }
    ],
    [
      6,
      17,
      {
        "cost": 374.72999999999998,
        "seconds": 811
      }
    ],
    [
      16,
      7,
      {
        "cost": 76.5,
        "seconds": 209
      }
    ],
    [
      6,
      16,
      {
        "cost": 62.46,
        "seconds": 160
      }
    ],
    [
      17,
      7,
      {
        "cost": 379.53,
        "seconds": 842
      }
    ],
    [
      4,
      17,
      {
        "cost": 200.67,
        "seconds": 515
      }
    ],
    [
      16,
      5,
      {
        "cost": 190.62,
        "seconds": 506
      }
    ],
    [
      4,
      16,
      {
        "cost": 341.7,
        "seconds": 701
      }
    ],
    [
      17,
      5,
      {
        "cost": 264.12,
        "seconds": 624
      }
    ],
    [
      2,
      17,
      {
        "cost": 51.51,
        "seconds": 156
      }
    ],
    [
      16,
      3,
      {
        "cost": 119.46,
        "seconds": 340
      }
    ],
    [
      2,
      16,
      {
        "cost": 396.9,
        "seconds": 842
      }
    ],
    [
      17,
      3,
      {
        "cost": 357.36,
        "seconds": 819
      }
    ],
    [
      0,
      17,
      {
        "cost": 352.38,
        "seconds": 817
      }
    ],
    [
      16,
      1,
      {
        "cost": 184.95,
        "seconds": 465
      }
    ],
    [
      0,
      16,
      {
        "cost": 119.46,
        "seconds": 322
      }
    ],
    [
      17,
      1,
      {
        "cost": 477.51,
        "seconds": 1066
      }
    ]
  ]
}