{
  "nodes": [
    {
      "Delivery": {
        "bid": 2412,
        "id": 9,
        "price": null,
        "cost": null,
        "direct_dist": 10031,
        "direct_cost": 301,
        "direct_time": 713
      }
    },
    {
      "Pickup": {
        "bid": 2412,
        "id": 9,
        "price": null,
        "cost": null,
        "direct_dist": 10031,
        "direct_cost": 301,
        "direct_time": 713
      }
    },
    {
      "Delivery": {
        "bid": 248,
        "id": 6,
        "price": null,
        "cost": null,
        "direct_dist": 2960,
        "direct_cost": 89,
        "direct_time": 284
      }
    },
    {
      "Pickup": {
        "bid": 248,
        "id": 6,
        "price": null,
        "cost": null,
        "direct_dist": 2960,
        "direct_cost": 89,
        "direct_time": 284
      }
    },
    {
      "Delivery": {
        "bid": 1043,
        "id": 5,
        "price": null,
        "cost": null,
        "direct_dist": 3477,
        "direct_cost": 105,
        "direct_time": 316
      }
    },
    {
      "Pickup": {
        "bid": 1043,
        "id": 5,
        "price": null,
        "cost": null,
        "direct_dist": 3477,
        "direct_cost": 105,
        "direct_time": 316
      }
    },
    {
      "Delivery": {
        "bid": 258,
        "id": 4,
        "price": null,
        "cost": null,
        "direct_dist": 2173,
        "direct_cost": 66,
        "direct_time": 173
      }
    },
    {
      "Pickup": {
        "bid": 258,
        "id": 4,
        "price": null,
        "cost": null,
        "direct_dist": 2173,
        "direct_cost": 66,
        "direct_time": 173
      }
    },
    {
      "Delivery": {
        "bid": 1933,
        "id": 3,
        "price": null,
        "cost": null,
        "direct_dist": 7652,
        "direct_cost": 230,
        "direct_time": 607
      }
    },
    {
      "Pickup": {
        "bid": 1933,
        "id": 3,
        "price": null,
        "cost": null,
        "direct_dist": 7652,
        "direct_cost": 230,
        "direct_time": 607
      }
    },
    {
      "Delivery": {
        "bid": 1782,
        "id": 2,
        "price": null,
        "cost": null,
        "direct_dist": 7417,
        "direct_cost": 223,
        "direct_time": 504
      }
    },
    {
      "Pickup": {
        "bid": 1782,
        "id": 2,
        "price": null,
        "cost": null,
        "direct_dist": 7417,
        "direct_cost": 223,
        "direct_time": 504
      }
    },
    {
      "Delivery": {
        "bid": 1059,
        "id": 1,
        "price": null,
        "cost": null,
        "direct_dist": 3530,
        "direct_cost": 106,
        "direct_time": 318
      }
    },
    {
      "Pickup": {
        "bid": 1059,
        "id": 1,
        "price": null,
        "cost": null,
        "direct_dist": 3530,
        "direct_cost": 106,
        "direct_time": 318
      }
    },
    {
      "DriverStart": {
        "arrive_until": 2400,
        "direct_cost": 584
      }
    },
    {
      "DriverEnd": {
        "arrive_until": 2400,
        "direct_cost": 584
      }
    }
  ],
  "node_holes": [],
  "edge_property": "directed",
  "edges": [
    [
      0,
      10,
      {
        "cost": 230.76,
        "seconds": 585
      }
    ],
    [
      0,
      8,
      {
        "cost": 195.32999999999999,
        "seconds": 522
      }
    ],
    [
      0,
      4,
      {
        "cost": 44.25,
        "seconds": 150
      }
    ],
    [
      1,
      12,
      {
        "cost": 77.03999999999999,
        "seconds": 206
      }
    ],
    [
      1,
      6,
      {
        "cost": 226.38,
        "seconds": 564
      }
    ],
    [
      1,
      8,
      {
        "cost": 134.76,
        "seconds": 456
      }
    ],
    [
      1,
      4,
      {
        "cost": 215.88,
        "seconds": 616
      }
    ],
    [
      1,
      2,
      {
        "cost": 392.76,
        "seconds": 901
      }
    ],
    [
      1,
      13,
      {
        "cost": 164.67,
        "seconds": 388
      }
    ],
    [
      1,
      7,
      {
        "cost": 271.95,
        "seconds": 579
      }
    ],
    [
      1,
      11,
      {
        "cost": 243.20999999999999,
        "seconds": 553
      }
    ],
    [
      1,
      9,
      {
        "cost": 122.55,
        "seconds": 285
      }
    ],
    [
      1,
      5,
      {
        "cost": 137.64,
        "seconds": 390
      }
    ],
    [
      1,
      3,
      {
        "cost": 330.18,
        "seconds": 743
      }
    ],
    [
      1,
      0,
      {
        "cost": 300.93,
        "seconds": 713
      }
    ],
    [
      2,
      0,
      {
        "cost": 177.18,
        "seconds": 576
      }
    ],
    [
      2,
      12,
      {
        "cost": 348.63,
        "seconds": 792
      }
    ],
    [
      2,
      6,
      {
        "cost": 217.53,
        "seconds": 528
      }
    ],
    [
      2,
      8,
      {
        "cost": 364.77,
        "seconds": 805
      }
    ],
    [
      2,
      4,
      {
        "cost": 199.2,
        "seconds": 519
      }
    ],
    [
      2,
      10,
      {
        "cost": 75.99,
        "seconds": 190
      }
    ],
    [
      2,
      7,
      {
        "cost": 167.19,
        "seconds": 426
      }
    ],
    [
      2,
      11,
      {
        "cost": 166.41,
        "seconds": 440
      }
    ],
    [
      3,
      1,
      {
        "cost": 320.64,
        "seconds": 697
      }
    ],
    [
      3,
      6,
      {
        "cost": 151.73999999999999,
        "seconds": 352
      }
    ],
    [
      3,
      10,
      {
        "cost": 156.54,
        "seconds": 376
      }
    ],
    [
      3,
      4,
      {
        "cost": 101.22,
        "seconds": 326
      }
    ],
    [
      3,
      7,
      {
        "cost": 118.17,
        "seconds": 273
      }
    ],
    [
      3,
      5,
      {
        "cost": 187.35,
        "seconds": 411
      }
    ],
    [
      3,
      11,
      {
        "cost": 63.36,
        "seconds": 220
      }
    ],
    [
      3,
      2,
      {
        "cost": 88.8,
        "seconds": 284
      }
    ],
    [
      4,
      0,
      {
        "cost": 39.39,
        "seconds": 133
      }
    ],
    [
      4,
      3,
      {
        "cost": 140.73,
        "seconds": 415
      }
    ],
    [
      4,
      2,
      {
        "cost": 206.76,
        "seconds": 618
      }
    ],
    [
      4,
      12,
      {
        "cost": 248.37,
        "seconds": 604
      }
    ],
    [
      4,
      8,
      {
        "cost": 171.93,
        "seconds": 435
      }
    ],
    [
      4,
      10,
      {
        "cost": 263.76,
        "seconds": 697
      }
    ],
    [
      4,
      6,
      {
        "cost": 150.39,
        "seconds": 392
      }
    ],
    [
      4,
      13,
      {
        "cost": 189.32999999999999,
        "seconds": 458
      }
    ],
    [
      4,
      7,
      {
        "cost": 144.57,
        "seconds": 373
      }
    ],
    [
      4,
      11,
      {
        "cost": 73.77,
        "seconds": 267
      }
    ],
    [
      5,
      1,
      {
        "cost": 158.4,
        "seconds": 451
      }
    ],
    [
      5,
      0,
      {
        "cost": 142.26,
        "seconds": 440
      }
    ],
    [
      5,
      3,
      {
        "cost": 197.43,
        "seconds": 498
      }
    ],
    [
      5,
      2,
      {
        "cost": 259.98,
        "seconds": 656
      }
    ],
    [
      5,
      12,
      {
        "cost": 154.59,
        "seconds": 396
      }
    ],
    [
      5,
      8,
      {
        "cost": 121.05,
        "seconds": 283
      }
    ],
    [
      5,
      6,
      {
        "cost": 158.73,
        "seconds": 355
      }
    ],
    [
      5,
      13,
      {
        "cost": 98.46,
        "seconds": 238
      }
    ],
    [
      5,
      9,
      {
        "cost": 200.1,
        "seconds": 475
      }
    ],
    [
      5,
      7,
      {
        "cost": 150.84,
        "seconds": 335
      }
    ],
    [
      5,
      11,
      {
        "cost": 112.22999999999999,
        "seconds": 301
      }
    ],
    [
      5,
      4,
      {
        "cost": 104.31,
        "seconds": 316
      }
    ],
    [
      6,
      0,
      {
        "cost": 175.23,
        "seconds": 447
      }
    ],
    [
      6,
      1,
      {
        "cost": 219.26999999999999,
        "seconds": 514
      }
    ],
    [
      6,
      2,
      {
        "cost": 228.92999999999999,
        "seconds": 513
      }
    ],
    [
      6,
      3,
      {
        "cost": 211.5,
        "seconds": 456
      }
    ],
    [
      6,
      4,
      {
        "cost": 150.29999999999999,
        "seconds": 365
      }
    ],
    [
      6,
      5,
      {
        "cost": 126.92999999999999,
        "seconds": 302
      }
    ],
    [
      6,
      12,
      {
        "cost": 175.44,
        "seconds": 459
      }
    ],
    [
      6,
      8,
      {
        "cost": 217.07999999999999,
        "seconds": 475
      }
    ],
    [
      6,
      10,
      {
        "cost": 257.28,
        "seconds": 576
      }
    ],
    [
      6,
      13,
      {
        "cost": 75.0,
        "seconds": 209
      }
    ],
    [
      6,
      9,
      {
        "cost": 170.60999999999999,
        "seconds": 402
      }
    ],
    [
      6,
      11,
      {
        "cost": 130.23,
        "seconds": 324
      }
    ],
    [
      7,
      1,
      {
        "cost": 282.69,
        "seconds": 670
      }
    ],
    [
      7,
      3,
      {
        "cost": 138.54,
        "seconds": 316
      }
    ],
    [
      7,
      2,
      {
        "cost": 162.75,
        "seconds": 397
      }
    ],
    [
      7,
      5,
      {
        "cost": 172.23,
        "seconds": 389
      }
    ],
    [
      7,
      4,
      {
        "cost": 135.63,
        "seconds": 336
      }
    ],
    [
      7,
      12,
      {
        "cost": 271.5,
        "seconds": 579
      }
    ],
    [
      7,
      9,
      {
        "cost": 246.95999999999999,
        "seconds": 555
      }
    ],
    [
      7,
      11,
      {
        "cost": 115.53,
        "seconds": 295
      }
    ],
    [
      7,
      13,
      {
        "cost": 138.42,
        "seconds": 365
      }
    ],
    [
      7,
      6,
      {
        "cost": 65.19,
        "seconds": 173
      }
    ],
    [
      8,
      0,
      {
        "cost": 181.70999999999999,
        "seconds": 526
      }
    ],
    [
      8,
      4,
      {
        "cost": 165.69,
        "seconds": 412
      }
    ],
    [
      8,
      5,
      {
        "cost": 111.92999999999999,
        "seconds": 233
      }
    ],
    [
      8,
      12,
      {
        "cost": 181.41,
        "seconds": 456
      }
    ],
    [
      9,
      1,
      {
        "cost": 156.63,
        "seconds": 359
      }
    ],
    [
      9,
      0,
      {
        "cost": 323.25,
        "seconds": 750
      }
    ],
    [
      9,
      3,
      {
        "cost": 352.5,
        "seconds": 780
      }
    ],
    [
      9,
      5,
      {
        "cost": 242.97,
        "seconds": 521
      }
    ],
    [
      9,
      4,
      {
        "cost": 298.32,
        "seconds": 669
      }
    ],
    [
      9,
      7,
      {
        "cost": 248.60999999999999,
        "seconds": 537
      }
    ],
    [
      9,
      6,
      {
        "cost": 188.94,
        "seconds": 429
      }
    ],
    [
      9,
      12,
      {
        "cost": 130.32,
        "seconds": 311
      }
    ],
    [
      9,
      13,
      {
        "cost": 138.87,
        "seconds": 356
      }
    ],
    [
      9,
      11,
      {
        "cost": 265.53,
        "seconds": 590
      }
    ],
    [
      9,
      8,
      {
        "cost": 229.56,
        "seconds": 607
      }
    ],
    [
      10,
      0,
      {
        "cost": 282.69,
        "seconds": 684
      }
    ],
    [
      10,
      2,
      {
        "cost": 79.59,
        "seconds": 236
      }
    ],
    [
      10,
      4,
      {
        "cost": 257.76,
        "seconds": 602
      }
    ],
    [
      10,
      8,
      {
        "cost": 423.33,
        "seconds": 888
      }
    ],
    [
      11,
      1,
      {
        "cost": 263.03999999999999,
        "seconds": 611
      }
    ],
    [
      11,
      0,
      {
        "cost": 77.49,
        "seconds": 237
      }
    ],
    [
      11,
      3,
      {
        "cost": 72.11999999999999,
        "seconds": 213
      }
    ],
    [
      11,
      2,
      {
        "cost": 136.44,
        "seconds": 420
      }
    ],
    [
      11,
      5,
      {
        "cost": 129.75,
        "seconds": 324
      }
    ],
    [
      11,
      4,
      {
        "cost": 52.559999999999998,
        "seconds": 155
      }
    ],
    [
      11,
      7,
      {
        "cost": 107.94,
        "seconds": 251
      }
    ],
    [
      11,
      6,
      {
        "cost": 115.83,
        "seconds": 271
      }
    ],
    [
      11,
      12,
      {
        "cost": 228.98999999999999,
        "seconds": 514
      }
    ],
    [
      11,
      13,
      {
        "cost": 145.65,
        "seconds": 344
      }
    ],
    [
      11,
      10,
      {
        "cost": 222.51,
        "seconds": 504
      }
    ],
    [
      12,
      0,
      {
        "cost": 291.57,
        "seconds": 701
      }
    ],
    [
      12,
      1,
      {
        "cost": 124.97999999999999,
        "seconds": 310
      }
    ],
    [
      12,
      4,
      {
        "cost": 266.67,
        "seconds": 619
      }
    ],
    [
      12,
      5,
      {
        "cost": 211.32,
        "seconds": 472
      }
    ],
    [
      12,
      6,
      {
        "cost": 207.32999999999999,
        "seconds": 484
      }
    ],
    [
      12,
      8,
      {
        "cost": 197.91,
        "seconds": 558
      }
    ],
    [
      12,
      9,
      {
        "cost": 57.36,
        "seconds": 150
      }
    ],
    [
      12,
      10,
      {
        "cost": 426.71999999999999,
        "seconds": 925
      }
    ],
    [
      13,
      1,
      {
        "cost": 136.47,
        "seconds": 379
      }
    ],
    [
      13,
      3,
      {
        "cost": 264.51,
        "seconds": 625
      }
    ],
    [
      13,
      5,
      {
        "cost": 102.89999999999999,
        "seconds": 247
      }
    ],
    [
      13,
      4,
      {
        "cost": 209.88,
        "seconds": 512
      }
    ],
    [
      13,
      7,
      {
        "cost": 140.54999999999999,
        "seconds": 362
      }
    ],
    [
      13,
      6,
      {
        "cost": 97.77,
        "seconds": 281
      }
    ],
    [
      13,
      9,
      {
        "cost": 119.22,
        "seconds": 293
      }
    ],
    [
      13,
      8,
      {
        "cost": 193.04999999999999,
        "seconds": 419
      }
    ],
    [
      13,
      11,
      {
        "cost": 197.01,
        "seconds": 458
      }
    ],
    [
      13,
      12,
      {
        "cost": 105.89999999999999,
        "seconds": 318
      }
    ],
    [
      12,
      15,
      {
        "cost": 585.6,
        "seconds": 1285
      }
    ],
    [
      14,
      13,
      {
        "cost": 166.98,
        "seconds": 412
      }
    ],
    [
      12,
      14,
      {
        "cost": 147.23999999999999,
        "seconds": 324
      }
    ],
    [
      15,
      13,
      {
        "cost": 454.53,
        "seconds": 1007
      }
    ],
    [
      10,
      15,
      {
        "cost": 190.01999999999999,
        "seconds": 475
      }
    ],
    [
      14,
      11,
      {
        "cost": 221.67,
        "seconds": 581
      }
    ],
    [
      10,
      14,
      {
        "cost": 427.8,
        "seconds": 971
      }
    ],
    [
      15,
      11,
      {
        "cost": 346.2,
        "seconds": 808
      }
    ],
    [
      8,
      15,
      {
        "cost": 579.78,
        "seconds": 1235
      }
    ],
    [
      14,
      9,
      {
        "cost": 162.35999999999999,
        "seconds": 335
      }
    ],
    [
      8,
      14,
      {
        "cost": 119.28,
        "seconds": 319
      }
    ],
    [
      15,
      9,
      {
        "cost": 550.11,
        "seconds": 1200
      }
    ],
    [
      6,
      15,
      {
        "cost": 413.60999999999998,
        "seconds": 920
      }
    ],
    [
      14,
      7,
      {
        "cost": 260.28,
        "seconds": 615
      }
    ],
    [
      6,
      14,
      {
        "cost": 241.53,
        "seconds": 528
      }
    ],
    [
      15,
      7,
      {
        "cost": 351.27,
        "seconds": 797
      }
    ],
    [
      4,
      15,
      {
        "cost": 376.95,
        "seconds": 1019
      }
    ],
    [
      14,
      5,
      {
        "cost": 127.58999999999999,
        "seconds": 350
      }
    ],
    [
      4,
      14,
      {
        "cost": 212.57999999999999,
        "seconds": 585
      }
    ],
    [
      15,
      5,
      {
        "cost": 429.18,
        "seconds": 970
      }
    ],
    [
      2,
      15,
      {
        "cost": 204.15,
        "seconds": 475
      }
    ],
    [
      14,
      3,
      {
        "cost": 306.87,
        "seconds": 778
      }
    ],
    [
      2,
      14,
      {
        "cost": 369.24,
        "seconds": 888
      }
    ],
    [
      15,
      3,
      {
        "cost": 285.09,
        "seconds": 651
      }
    ],
    [
      0,
      15,
      {
        "cost": 343.95,
        "seconds": 907
      }
    ],
    [
      14,
      1,
      {
        "cost": 70.77,
        "seconds": 195
      }
    ],
    [
      0,
      14,
      {
        "cost": 235.98,
        "seconds": 672
      }
    ],
    [
      15,
      1,
      {
        "cost": 562.47,
        "seconds": 1256
      }
    ]
  ]
}