{
  "nodes": [
    {
      "Delivery": {
        "bid": 1820,
        "id": 10,
        "price": null,
        "cost": null,
        "direct_dist": 7161,
        "direct_cost": 215,
        "direct_time": 498
      }
    },
    {
      "Pickup": {
        "bid": 1820,
        "id": 10,
        "price": null,
        "cost": null,
        "direct_dist": 7161,
        "direct_cost": 215,
        "direct_time": 498
      }
    },
    {
      "Delivery": {
        "bid": 360,
        "id": 9,
        "price": null,
        "cost": null,
        "direct_dist": 6131,
        "direct_cost": 184,
        "direct_time": 399
      }
    },
    {
      "Pickup": {
        "bid": 360,
        "id": 9,
        "price": null,
        "cost": null,
        "direct_dist": 6131,
        "direct_cost": 184,
        "direct_time": 399
      }
    },
    {
      "Delivery": {
        "bid": 474,
        "id": 8,
        "price": null,
        "cost": null,
        "direct_dist": 10111,
        "direct_cost": 304,
        "direct_time": 693
      }
    },
    {
      "Pickup": {
        "bid": 474,
        "id": 8,
        "price": null,
        "cost": null,
        "direct_dist": 10111,
        "direct_cost": 304,
        "direct_time": 693
      }
    },
    {
      "Delivery": {
        "bid": 1238,
        "id": 5,
        "price": null,
        "cost": null,
        "direct_dist": 14685,
        "direct_cost": 441,
        "direct_time": 982
      }
    },
    {
      "Pickup": {
        "bid": 1238,
        "id": 5,
        "price": null,
        "cost": null,
        "direct_dist": 14685,
        "direct_cost": 441,
        "direct_time": 982
      }
    },
    {
      "Delivery": {
        "bid": 1516,
        "id": 4,
        "price": null,
        "cost": null,
        "direct_dist": 6780,
        "direct_cost": 204,
        "direct_time": 561
      }
    },
    {
      "Pickup": {
        "bid": 1516,
        "id": 4,
        "price": null,
        "cost": null,
        "direct_dist": 6780,
        "direct_cost": 204,
        "direct_time": 561
      }
    },
    {
      "Delivery": {
        "bid": 1136,
        "id": 2,
        "price": null,
        "cost": null,
        "direct_dist": 6649,
        "direct_cost": 200,
        "direct_time": 643
      }
    },
    {
      "Pickup": {
        "bid": 1136,
        "id": 2,
        "price": null,
        "cost": null,
        "direct_dist": 6649,
        "direct_cost": 200,
        "direct_time": 643
      }
    },
    {
      "DriverStart": {
        "arrive_until": 2400,
        "direct_cost": 448
      }
    },
    {
      "DriverEnd": {
        "arrive_until": 2400,
        "direct_cost": 448
      }
    }
  ],
  "node_holes": [],
  "edge_property": "directed",
  "edges": [
    [
      0,
      8,
      {
        "cost": 243.72,
        "seconds": 527
      }
    ],
    [
      0,
      10,
      {
        "cost": 373.97999999999998,
        "seconds": 753
      }
    ],
    [
      0,
      6,
      {
        "cost": 274.65,
        "seconds": 608
      }
    ],
    [
      0,
      2,
      {
        "cost": 118.89,
        "seconds": 296
      }
    ],
    [
      0,
      4,
      {
        "cost": 213.57,
        "seconds": 471
      }
    ],
    [
      0,
      3,
      {
        "cost": 90.53999999999999,
        "seconds": 246
      }
    ],
    [
      1,
      8,
      {
        "cost": 66.50999999999999,
        "seconds": 205
      }
    ],
    [
      1,
      9,
      {
        "cost": 149.31,
        "seconds": 485
      }
    ],
    [
      1,
      11,
      {
        "cost": 80.61,
        "seconds": 306
      }
    ],
    [
      1,
      2,
      {
        "cost": 256.46999999999999,
        "seconds": 572
      }
    ],
    [
      1,
      4,
      {
        "cost": 183.87,
        "seconds": 477
      }
    ],
    [
      1,
      7,
      {
        "cost": 289.97999999999998,
        "seconds": 675
      }
    ],
    [
      1,
      3,
      {
        "cost": 157.04999999999999,
        "seconds": 414
      }
    ],
    [
      1,
      5,
      {
        "cost": 285.15,
        "seconds": 692
      }
    ],
    [
      1,
      0,
      {
        "cost": 214.82999999999999,
        "seconds": 498
      }
    ],
    [
      2,
      0,
      {
        "cost": 148.26,
        "seconds": 319
      }
    ],
    [
      2,
      8,
      {
        "cost": 294.03,
        "seconds": 609
      }
    ],
    [
      2,
      10,
      {
        "cost": 318.0,
        "seconds": 692
      }
    ],
    [
      2,
      4,
      {
        "cost": 276.99,
        "seconds": 610
      }
    ],
    [
      2,
      6,
      {
        "cost": 365.52,
        "seconds": 787
      }
    ],
    [
      2,
      5,
      {
        "cost": 76.05,
        "seconds": 209
      }
    ],
    [
      2,
      7,
      {
        "cost": 195.81,
        "seconds": 469
      }
    ],
    [
      3,
      1,
      {
        "cost": 218.13,
        "seconds": 495
      }
    ],
    [
      3,
      0,
      {
        "cost": 83.85,
        "seconds": 224
      }
    ],
    [
      3,
      8,
      {
        "cost": 181.73999999999999,
        "seconds": 438
      }
    ],
    [
      3,
      11,
      {
        "cost": 242.42999999999999,
        "seconds": 582
      }
    ],
    [
      3,
      9,
      {
        "cost": 299.37,
        "seconds": 670
      }
    ],
    [
      3,
      5,
      {
        "cost": 231.51,
        "seconds": 528
      }
    ],
    [
      3,
      7,
      {
        "cost": 257.55,
        "seconds": 535
      }
    ],
    [
      3,
      2,
      {
        "cost": 183.93,
        "seconds": 399
      }
    ],
    [
      4,
      0,
      {
        "cost": 198.32999999999999,
        "seconds": 470
      }
    ],
    [
      4,
      6,
      {
        "cost": 150.09,
        "seconds": 301
      }
    ],
    [
      4,
      8,
      {
        "cost": 135.12,
        "seconds": 328
      }
    ],
    [
      5,
      1,
      {
        "cost": 302.31,
        "seconds": 719
      }
    ],
    [
      5,
      0,
      {
        "cost": 174.6,
        "seconds": 402
      }
    ],
    [
      5,
      3,
      {
        "cost": 205.10999999999999,
        "seconds": 486
      }
    ],
    [
      5,
      2,
      {
        "cost": 48.48,
        "seconds": 154
      }
    ],
    [
      5,
      6,
      {
        "cost": 391.86,
        "seconds": 870
      }
    ],
    [
      5,
      8,
      {
        "cost": 320.37,
        "seconds": 692
      }
    ],
    [
      5,
      7,
      {
        "cost": 163.47,
        "seconds": 417
      }
    ],
    [
      5,
      9,
      {
        "cost": 300.99,
        "seconds": 672
      }
    ],
    [
      5,
      4,
      {
        "cost": 303.33,
        "seconds": 693
      }
    ],
    [
      6,
      4,
      {
        "cost": 145.47,
        "seconds": 296
      }
    ],
    [
      7,
      1,
      {
        "cost": 286.44,
        "seconds": 737
      }
    ],
    [
      7,
      0,
      {
        "cost": 242.94,
        "seconds": 527
      }
    ],
    [
      7,
      3,
      {
        "cost": 277.28999999999999,
        "seconds": 612
      }
    ],
    [
      7,
      2,
      {
        "cost": 204.12,
        "seconds": 439
      }
    ],
    [
      7,
      5,
      {
        "cost": 154.92,
        "seconds": 384
      }
    ],
    [
      7,
      4,
      {
        "cost": 375.51,
        "seconds": 820
      }
    ],
    [
      7,
      10,
      {
        "cost": 145.62,
        "seconds": 340
      }
    ],
    [
      7,
      8,
      {
        "cost": 321.53999999999999,
        "seconds": 725
      }
    ],
    [
      7,
      11,
      {
        "cost": 201.78,
        "seconds": 535
      }
    ],
    [
      7,
      9,
      {
        "cost": 195.69,
        "seconds": 503
      }
    ],
    [
      7,
      6,
      {
        "cost": 440.55,
        "seconds": 982
      }
    ],
    [
      8,
      0,
      {
        "cost": 210.92999999999999,
        "seconds": 470
      }
    ],
    [
      8,
      1,
      {
        "cost": 45.15,
        "seconds": 166
      }
    ],
    [
      8,
      2,
      {
        "cost": 246.14999999999999,
        "seconds": 497
      }
    ],
    [
      8,
      4,
      {
        "cost": 160.01999999999999,
        "seconds": 405
      }
    ],
    [
      8,
      6,
      {
        "cost": 275.09999999999999,
        "seconds": 665
      }
    ],
    [
      8,
      10,
      {
        "cost": 401.84999999999999,
        "seconds": 823
      }
    ],
    [
      9,
      1,
      {
        "cost": 155.88,
        "seconds": 474
      }
    ],
    [
      9,
      0,
      {
        "cost": 311.34,
        "seconds": 717
      }
    ],
    [
      9,
      3,
      {
        "cost": 262.05,
        "seconds": 679
      }
    ],
    [
      9,
      2,
      {
        "cost": 272.52,
        "seconds": 629
      }
    ],
    [
      9,
      5,
      {
        "cost": 309.75,
        "seconds": 741
      }
    ],
    [
      9,
      4,
      {
        "cost": 320.76,
        "seconds": 834
      }
    ],
    [
      9,
      7,
      {
        "cost": 152.43,
        "seconds": 457
      }
    ],
    [
      9,
      11,
      {
        "cost": 78.57,
        "seconds": 272
      }
    ],
    [
      9,
      8,
      {
        "cost": 203.4,
        "seconds": 561
      }
    ],
    [
      10,
      6,
      {
        "cost": 565.8,
        "seconds": 1240
      }
    ],
    [
      11,
      1,
      {
        "cost": 74.42999999999999,
        "seconds": 259
      }
    ],
    [
      11,
      0,
      {
        "cost": 238.35,
        "seconds": 548
      }
    ],
    [
      11,
      3,
      {
        "cost": 180.57,
        "seconds": 464
      }
    ],
    [
      11,
      2,
      {
        "cost": 279.99,
        "seconds": 622
      }
    ],
    [
      11,
      7,
      {
        "cost": 193.41,
        "seconds": 532
      }
    ],
    [
      11,
      9,
      {
        "cost": 72.81,
        "seconds": 252
      }
    ],
    [
      11,
      8,
      {
        "cost": 121.94999999999999,
        "seconds": 347
      }
    ],
    [
      11,
      10,
      {
        "cost": 199.47,
        "seconds": 643
      }
    ],
    [
      10,
      13,
      {
        "cost": 552.75,
        "seconds": 1232
      }
    ],
    [
      12,
      11,
      {
        "cost": 96.27,
        "seconds": 340
      }
    ],
    [
      10,
      12,
      {
        "cost": 115.94999999999999,
        "seconds": 325
      }
    ],
    [
      13,
      11,
      {
        "cost": 341.88,
        "seconds": 797
      }
    ],
    [
      8,
      13,
      {
        "cost": 262.05,
        "seconds": 657
      }
    ],
    [
      12,
      9,
      {
        "cost": 31.919999999999999,
        "seconds": 123
      }
    ],
    [
      8,
      12,
      {
        "cost": 187.23,
        "seconds": 611
      }
    ],
    [
      13,
      9,
      {
        "cost": 391.8,
        "seconds": 934
      }
    ],
    [
      6,
      13,
      {
        "cost": 24.509999999999999,
        "seconds": 66
      }
    ],
    [
      12,
      7,
      {
        "cost": 177.32999999999999,
        "seconds": 374
      }
    ],
    [
      6,
      12,
      {
        "cost": 435.65999999999999,
        "seconds": 1058
      }
    ],
    [
      13,
      7,
      {
        "cost": 436.85999999999998,
        "seconds": 935
      }
    ],
    [
      4,
      13,
      {
        "cost": 139.44,
        "seconds": 305
      }
    ],
    [
      12,
      5,
      {
        "cost": 325.05,
        "seconds": 713
      }
    ],
    [
      4,
      12,
      {
        "cost": 306.47999999999998,
        "seconds": 815
      }
    ],
    [
      13,
      5,
      {
        "cost": 410.82,
        "seconds": 928
      }
    ],
    [
      2,
      13,
      {
        "cost": 352.46999999999999,
        "seconds": 778
      }
    ],
    [
      12,
      3,
      {
        "cost": 279.75,
        "seconds": 747
      }
    ],
    [
      2,
      12,
      {
        "cost": 285.71999999999999,
        "seconds": 585
      }
    ],
    [
      13,
      3,
      {
        "cost": 182.91,
        "seconds": 416
      }
    ],
    [
      0,
      13,
      {
        "cost": 261.59999999999999,
        "seconds": 600
      }
    ],
    [
      12,
      1,
      {
        "cost": 173.60999999999999,
        "seconds": 542
      }
    ],
    [
      0,
      12,
      {
        "cost": 301.65,
        "seconds": 660
      }
    ],
    [
      13,
      1,
      {
        "cost": 294.18,
        "seconds": 684
      }
    ]
  ]
}