{
  "nodes": [
    {
      "Delivery": {
        "bid": 679,
        "id": 10,
        "price": null,
        "cost": null,
        "direct_dist": 8725,
        "direct_cost": 262,
        "direct_time": 551
      }
    },
    {
      "Pickup": {
        "bid": 679,
        "id": 10,
        "price": null,
        "cost": null,
        "direct_dist": 8725,
        "direct_cost": 262,
        "direct_time": 551
      }
    },
    {
      "Delivery": {
        "bid": 806,
        "id": 8,
        "price": null,
        "cost": null,
        "direct_dist": 4923,
        "direct_cost": 148,
        "direct_time": 394
      }
    },
    {
      "Pickup": {
        "bid": 806,
        "id": 8,
        "price": null,
        "cost": null,
        "direct_dist": 4923,
        "direct_cost": 148,
        "direct_time": 394
      }
    },
    {
      "Delivery": {
        "bid": 2404,
        "id": 7,
        "price": null,
        "cost": null,
        "direct_dist": 9559,
        "direct_cost": 287,
        "direct_time": 735
      }
    },
    {
      "Pickup": {
        "bid": 2404,
        "id": 7,
        "price": null,
        "cost": null,
        "direct_dist": 9559,
        "direct_cost": 287,
        "direct_time": 735
      }
    },
    {
      "Delivery": {
        "bid": 608,
        "id": 5,
        "price": null,
        "cost": null,
        "direct_dist": 11334,
        "direct_cost": 341,
        "direct_time": 742
      }
    },
    {
      "Pickup": {
        "bid": 608,
        "id": 5,
        "price": null,
        "cost": null,
        "direct_dist": 11334,
        "direct_cost": 341,
        "direct_time": 742
      }
    },
    {
      "Delivery": {
        "bid": 536,
        "id": 4,
        "price": null,
        "cost": null,
        "direct_dist": 9882,
        "direct_cost": 297,
        "direct_time": 699
      }
    },
    {
      "Pickup": {
        "bid": 536,
        "id": 4,
        "price": null,
        "cost": null,
        "direct_dist": 9882,
        "direct_cost": 297,
        "direct_time": 699
      }
    },
    {
      "Delivery": {
        "bid": 209,
        "id": 2,
        "price": null,
        "cost": null,
        "direct_dist": 5608,
        "direct_cost": 169,
        "direct_time": 343
      }
    },
    {
      "Pickup": {
        "bid": 209,
        "id": 2,
        "price": null,
        "cost": null,
        "direct_dist": 5608,
        "direct_cost": 169,
        "direct_time": 343
      }
    },
    {
      "Delivery": {
        "bid": 70,
        "id": 1,
        "price": null,
        "cost": null,
        "direct_dist": 6532,
        "direct_cost": 196,
        "direct_time": 531
      }
    },
    {
      "Pickup": {
        "bid": 70,
        "id": 1,
        "price": null,
        "cost": null,
        "direct_dist": 6532,
        "direct_cost": 196,
        "direct_time": 531
      }
    },
    {
      "DriverStart": {
        "arrive_until": 2400,
        "direct_cost": 432
      }
    },
    {
      "DriverEnd": {
        "arrive_until": 2400,
        "direct_cost": 432
      }
    }
  ],
  "node_holes": [],
  "edge_property": "directed",
  "edges": [
    [
      0,
      8,
      {
        "cost": 227.60999999999999,
        "seconds": 584
      }
    ],
    [
      0,
      6,
      {
        "cost": 250.79999999999999,
        "seconds": 587
      }
    ],
    [
      0,
      12,
      {
        "cost": 123.47999999999999,
        "seconds": 315
      }
    ],
    [
      0,
      4,
      {
        "cost": 433.83,
        "seconds": 980
      }
    ],
    [
      0,
      9,
      {
        "cost": 88.17,
        "seconds": 222
      }
    ],
    [
      1,
      6,
      {
        "cost": 450.93,
        "seconds": 968
      }
    ],
    [
      1,
      8,
      {
        "cost": 217.98,
        "seconds": 619
      }
    ],
    [
      1,
      12,
      {
        "cost": 220.76999999999999,
        "seconds": 490
      }
    ],
    [
      1,
      13,
      {
        "cost": 115.11,
        "seconds": 311
      }
    ],
    [
      1,
      7,
      {
        "cost": 117.53999999999999,
        "seconds": 317
      }
    ],
    [
      1,
      9,
      {
        "cost": 252.35999999999999,
        "seconds": 579
      }
    ],
    [
      1,
      5,
      {
        "cost": 317.37,
        "seconds": 841
      }
    ],
    [
      1,
      0,
      {
        "cost": 261.75,
        "seconds": 551
      }
    ],
    [
      2,
      6,
      {
        "cost": 248.60999999999999,
        "seconds": 620
      }
    ],
    [
      2,
      10,
      {
        "cost": 262.59,
        "seconds": 574
      }
    ],
    [
      2,
      4,
      {
        "cost": 65.91,
        "seconds": 252
      }
    ],
    [
      2,
      11,
      {
        "cost": 119.28,
        "seconds": 319
      }
    ],
    [
      3,
      10,
      {
        "cost": 134.13,
        "seconds": 259
      }
    ],
    [
      3,
      4,
      {
        "cost": 200.45999999999999,
        "seconds": 502
      }
    ],
    [
      3,
      11,
      {
        "cost": 37.68,
        "seconds": 129
      }
    ],
    [
      3,
      5,
      {
        "cost": 195.93,
        "seconds": 502
      }
    ],
    [
      3,
      2,
      {
        "cost": 147.69,
        "seconds": 394
      }
    ],
    [
      4,
      2,
      {
        "cost": 71.49,
        "seconds": 249
      }
    ],
    [
      4,
      6,
      {
        "cost": 308.21999999999999,
        "seconds": 731
      }
    ],
    [
      5,
      1,
      {
        "cost": 305.7,
        "seconds": 821
      }
    ],
    [
      5,
      0,
      {
        "cost": 252.63,
        "seconds": 623
      }
    ],
    [
      5,
      3,
      {
        "cost": 209.57999999999999,
        "seconds": 549
      }
    ],
    [
      5,
      2,
      {
        "cost": 305.72999999999998,
        "seconds": 779
      }
    ],
    [
      5,
      6,
      {
        "cost": 264.69,
        "seconds": 648
      }
    ],
    [
      5,
      10,
      {
        "cost": 303.21,
        "seconds": 675
      }
    ],
    [
      5,
      12,
      {
        "cost": 261.48,
        "seconds": 622
      }
    ],
    [
      5,
      8,
      {
        "cost": 87.50999999999999,
        "seconds": 325
      }
    ],
    [
      5,
      13,
      {
        "cost": 176.7,
        "seconds": 565
      }
    ],
    [
      5,
      11,
      {
        "cost": 201.6,
        "seconds": 542
      }
    ],
    [
      5,
      7,
      {
        "cost": 178.92,
        "seconds": 570
      }
    ],
    [
      5,
      9,
      {
        "cost": 289.74,
        "seconds": 663
      }
    ],
    [
      5,
      4,
      {
        "cost": 286.77,
        "seconds": 735
      }
    ],
    [
      6,
      0,
      {
        "cost": 237.78,
        "seconds": 515
      }
    ],
    [
      6,
      4,
      {
        "cost": 298.83,
        "seconds": 651
      }
    ],
    [
      6,
      8,
      {
        "cost": 258.81,
        "seconds": 631
      }
    ],
    [
      6,
      10,
      {
        "cost": 59.43,
        "seconds": 151
      }
    ],
    [
      6,
      12,
      {
        "cost": 284.43,
        "seconds": 614
      }
    ],
    [
      7,
      1,
      {
        "cost": 140.7,
        "seconds": 332
      }
    ],
    [
      7,
      0,
      {
        "cost": 226.07999999999999,
        "seconds": 547
      }
    ],
    [
      7,
      3,
      {
        "cost": 395.66999999999998,
        "seconds": 865
      }
    ],
    [
      7,
      5,
      {
        "cost": 199.79999999999999,
        "seconds": 525
      }
    ],
    [
      7,
      8,
      {
        "cost": 100.44,
        "seconds": 302
      }
    ],
    [
      7,
      10,
      {
        "cost": 373.08,
        "seconds": 793
      }
    ],
    [
      7,
      12,
      {
        "cost": 189.84,
        "seconds": 475
      }
    ],
    [
      7,
      9,
      {
        "cost": 251.37,
        "seconds": 580
      }
    ],
    [
      7,
      11,
      {
        "cost": 398.82,
        "seconds": 868
      }
    ],
    [
      7,
      13,
      {
        "cost": 27.15,
        "seconds": 70
      }
    ],
    [
      7,
      6,
      {
        "cost": 340.02,
        "seconds": 742
      }
    ],
    [
      8,
      0,
      {
        "cost": 196.92,
        "seconds": 554
      }
    ],
    [
      8,
      4,
      {
        "cost": 337.08,
        "seconds": 916
      }
    ],
    [
      8,
      6,
      {
        "cost": 278.4,
        "seconds": 704
      }
    ],
    [
      8,
      12,
      {
        "cost": 192.09,
        "seconds": 543
      }
    ],
    [
      9,
      1,
      {
        "cost": 241.73999999999999,
        "seconds": 506
      }
    ],
    [
      9,
      0,
      {
        "cost": 99.39,
        "seconds": 298
      }
    ],
    [
      9,
      5,
      {
        "cost": 391.5,
        "seconds": 886
      }
    ],
    [
      9,
      7,
      {
        "cost": 246.17999999999999,
        "seconds": 595
      }
    ],
    [
      9,
      6,
      {
        "cost": 320.49,
        "seconds": 803
      }
    ],
    [
      9,
      12,
      {
        "cost": 133.76999999999999,
        "seconds": 308
      }
    ],
    [
      9,
      10,
      {
        "cost": 353.58,
        "seconds": 853
      }
    ],
    [
      9,
      13,
      {
        "cost": 243.75,
        "seconds": 589
      }
    ],
    [
      9,
      8,
      {
        "cost": 296.46,
        "seconds": 699
      }
    ],
    [
      10,
      2,
      {
        "cost": 251.51999999999999,
        "seconds": 548
      }
    ],
    [
      10,
      3,
      {
        "cost": 109.95,
        "seconds": 200
      }
    ],
    [
      10,
      4,
      {
        "cost": 298.59,
        "seconds": 629
      }
    ],
    [
      10,
      6,
      {
        "cost": 50.16,
        "seconds": 130
      }
    ],
    [
      10,
      8,
      {
        "cost": 306.39,
        "seconds": 684
      }
    ],
    [
      11,
      3,
      {
        "cost": 47.19,
        "seconds": 151
      }
    ],
    [
      11,
      2,
      {
        "cost": 121.83,
        "seconds": 310
      }
    ],
    [
      11,
      5,
      {
        "cost": 183.69,
        "seconds": 477
      }
    ],
    [
      11,
      7,
      {
        "cost": 370.65,
        "seconds": 810
      }
    ],
    [
      11,
      6,
      {
        "cost": 154.26,
        "seconds": 390
      }
    ],
    [
      11,
      9,
      {
        "cost": 343.32,
        "seconds": 752
      }
    ],
    [
      11,
      13,
      {
        "cost": 368.19,
        "seconds": 804
      }
    ],
    [
      11,
      10,
      {
        "cost": 168.23999999999999,
        "seconds": 343
      }
    ],
    [
      12,
      0,
      {
        "cost": 90.3,
        "seconds": 215
      }
    ],
    [
      12,
      4,
      {
        "cost": 442.05,
        "seconds": 959
      }
    ],
    [
      12,
      6,
      {
        "cost": 264.42,
        "seconds": 564
      }
    ],
    [
      12,
      8,
      {
        "cost": 180.63,
        "seconds": 456
      }
    ],
    [
      12,
      9,
      {
        "cost": 115.58999999999999,
        "seconds": 247
      }
    ],
    [
      12,
      10,
      {
        "cost": 297.47999999999998,
        "seconds": 614
      }
    ],
    [
      13,
      1,
      {
        "cost": 129.66,
        "seconds": 334
      }
    ],
    [
      13,
      0,
      {
        "cost": 232.2,
        "seconds": 603
      }
    ],
    [
      13,
      5,
      {
        "cost": 179.7,
        "seconds": 548
      }
    ],
    [
      13,
      7,
      {
        "cost": 31.41,
        "seconds": 103
      }
    ],
    [
      13,
      6,
      {
        "cost": 346.14,
        "seconds": 798
      }
    ],
    [
      13,
      9,
      {
        "cost": 257.49,
        "seconds": 636
      }
    ],
    [
      13,
      8,
      {
        "cost": 84.69,
        "seconds": 327
      }
    ],
    [
      13,
      12,
      {
        "cost": 195.95999999999999,
        "seconds": 531
      }
    ],
    [
      12,
      15,
      {
        "cost": 354.57,
        "seconds": 754
      }
    ],
    [
      14,
      13,
      {
        "cost": 150.9,
        "seconds": 364
      }
    ],
    [
      12,
      14,
      {
        "cost": 91.28999999999999,
        "seconds": 285
      }
    ],
    [
      15,
      13,
      {
        "cost": 363.57,
        "seconds": 809
      }
    ],
    [
      10,
      15,
      {
        "cost": 211.10999999999999,
        "seconds": 424
      }
    ],
    [
      14,
      11,
      {
        "cost": 382.46999999999999,
        "seconds": 891
      }
    ],
    [
      10,
      14,
      {
        "cost": 378.41999999999998,
        "seconds": 780
      }
    ],
    [
      15,
      11,
      {
        "cost": 96.27,
        "seconds": 266
      }
    ],
    [
      8,
      15,
      {
        "cost": 264.06,
        "seconds": 716
      }
    ],
    [
      14,
      9,
      {
        "cost": 131.57999999999999,
        "seconds": 364
      }
    ],
    [
      8,
      14,
      {
        "cost": 182.16,
        "seconds": 542
      }
    ],
    [
      15,
      9,
      {
        "cost": 362.82,
        "seconds": 767
      }
    ],
    [
      6,
      15,
      {
        "cost": 211.35,
        "seconds": 446
      }
    ],
    [
      14,
      7,
      {
        "cost": 153.35999999999999,
        "seconds": 370
      }
    ],
    [
      6,
      14,
      {
        "cost": 330.87,
        "seconds": 728
      }
    ],
    [
      15,
      7,
      {
        "cost": 366.0,
        "seconds": 815
      }
    ],
    [
      4,
      15,
      {
        "cost": 108.17999999999999,
        "seconds": 278
      }
    ],
    [
      14,
      5,
      {
        "cost": 340.83,
        "seconds": 855
      }
    ],
    [
      4,
      14,
      {
        "cost": 473.07,
        "seconds": 1082
      }
    ],
    [
      15,
      5,
      {
        "cost": 162.06,
        "seconds": 416
      }
    ],
    [
      2,
      15,
      {
        "cost": 124.53,
        "seconds": 293
      }
    ],
    [
      14,
      3,
      {
        "cost": 379.32,
        "seconds": 887
      }
    ],
    [
      2,
      14,
      {
        "cost": 482.03999999999999,
        "seconds": 1080
      }
    ],
    [
      15,
      3,
      {
        "cost": 117.63,
        "seconds": 324
      }
    ],
    [
      0,
      15,
      {
        "cost": 346.34999999999999,
        "seconds": 775
      }
    ],
    [
      14,
      1,
      {
        "cost": 166.73999999999999,
        "seconds": 396
      }
    ],
    [
      0,
      14,
      {
        "cost": 157.29,
        "seconds": 408
      }
    ],
    [
      15,
      1,
      {
        "cost": 490.77,
        "seconds": 1041
      }
    ]
  ]
}