{
  "nodes": [
    {
      "Delivery": {
        "bid": 1084,
        "id": 10,
        "price": null,
        "cost": null,
        "direct_dist": 9008,
        "direct_cost": 271,
        "direct_time": 578
      }
    },
    {
      "Pickup": {
        "bid": 1084,
        "id": 10,
        "price": null,
        "cost": null,
        "direct_dist": 9008,
        "direct_cost": 271,
        "direct_time": 578
      }
    },
    {
      "Delivery": {
        "bid": 1621,
        "id": 8,
        "price": null,
        "cost": null,
        "direct_dist": 5404,
        "direct_cost": 163,
        "direct_time": 395
      }
    },
    {
      "Pickup": {
        "bid": 1621,
        "id": 8,
        "price": null,
        "cost": null,
        "direct_dist": 5404,
        "direct_cost": 163,
        "direct_time": 395
      }
    },
    {
      "Delivery": {
        "bid": 194,
        "id": 7,
        "price": null,
        "cost": null,
        "direct_dist": 5958,
        "direct_cost": 179,
        "direct_time": 459
      }
    },
    {
      "Pickup": {
        "bid": 194,
        "id": 7,
        "price": null,
        "cost": null,
        "direct_dist": 5958,
        "direct_cost": 179,
        "direct_time": 459
      }
    },
    {
      "Delivery": {
        "bid": 245,
        "id": 6,
        "price": null,
        "cost": null,
        "direct_dist": 9371,
        "direct_cost": 282,
        "direct_time": 652
      }
    },
    {
      "Pickup": {
        "bid": 245,
        "id": 6,
        "price": null,
        "cost": null,
        "direct_dist": 9371,
        "direct_cost": 282,
        "direct_time": 652
      }
    },
    {
      "Delivery": {
        "bid": 3124,
        "id": 4,
        "price": null,
        "cost": null,
        "direct_dist": 10414,
        "direct_cost": 313,
        "direct_time": 768
      }
    },
    {
      "Pickup": {
        "bid": 3124,
        "id": 4,
        "price": null,
        "cost": null,
        "direct_dist": 10414,
        "direct_cost": 313,
        "direct_time": 768
      }
    },
    {
      "Delivery": {
        "bid": 369,
        "id": 2,
        "price": null,
        "cost": null,
        "direct_dist": 6013,
        "direct_cost": 181,
        "direct_time": 415
      }
    },
    {
      "Pickup": {
        "bid": 369,
        "id": 2,
        "price": null,
        "cost": null,
        "direct_dist": 6013,
        "direct_cost": 181,
        "direct_time": 415
      }
    },
    {
      "Delivery": {
        "bid": 442,
        "id": 1,
        "price": null,
        "cost": null,
        "direct_dist": 3100,
        "direct_cost": 93,
        "direct_time": 204
      }
    },
    {
      "Pickup": {
        "bid": 442,
        "id": 1,
        "price": null,
        "cost": null,
        "direct_dist": 3100,
        "direct_cost": 93,
        "direct_time": 204
      }
    },
    {
      "DriverStart": {
        "arrive_until": 2400,
        "direct_cost": 509
      }
    },
    {
      "DriverEnd": {
        "arrive_until": 2400,
        "direct_cost": 509
      }
    }
  ],
  "node_holes": [],
  "edge_property": "directed",
  "edges": [
    [
      0,
      6,
      {
        "cost": 289.5,
        "seconds": 668
      }
    ],
    [
      0,
      4,
      {
        "cost": 209.4,
        "seconds": 530
      }
    ],
    [
      0,
      5,
      {
        "cost": 70.95,
        "seconds": 223
      }
    ],
    [
      0,
      8,
      {
        "cost": 169.65,
        "seconds": 443
      }
    ],
    [
      0,
      2,
      {
        "cost": 38.55,
        "seconds": 151
      }
    ],
    [
      0,
      10,
      {
        "cost": 120.08999999999999,
        "seconds": 347
      }
    ],
    [
      1,
      6,
      {
        "cost": 335.37,
        "seconds": 635
      }
    ],
    [
      1,
      4,
      {
        "cost": 403.26,
        "seconds": 815
      }
    ],
    [
      1,
      7,
      {
        "cost": 156.09,
        "seconds": 335
      }
    ],
    [
      1,
      12,
      {
        "cost": 319.26,
        "seconds": 660
      }
    ],
    [
      1,
      8,
      {
        "cost": 78.99,
        "seconds": 180
      }
    ],
    [
      1,
      2,
      {
        "cost": 205.89,
        "seconds": 440
      }
    ],
    [
      1,
      10,
      {
        "cost": 137.37,
        "seconds": 322
      }
    ],
    [
      1,
      5,
      {
        "cost": 197.37,
        "seconds": 401
      }
    ],
    [
      1,
      13,
      {
        "cost": 259.05,
        "seconds": 461
      }
    ],
    [
      1,
      9,
      {
        "cost": 350.21999999999999,
        "seconds": 701
      }
    ],
    [
      1,
      11,
      {
        "cost": 282.33,
        "seconds": 647
      }
    ],
    [
      1,
      3,
      {
        "cost": 342.84,
        "seconds": 700
      }
    ],
    [
      1,
      0,
      {
        "cost": 270.24,
        "seconds": 578
      }
    ],
    [
      2,
      1,
      {
        "cost": 205.98,
        "seconds": 429
      }
    ],
    [
      2,
      0,
      {
        "cost": 58.8,
        "seconds": 222
      }
    ],
    [
      2,
      12,
      {
        "cost": 297.09,
        "seconds": 637
      }
    ],
    [
      2,
      4,
      {
        "cost": 234.6,
        "seconds": 611
      }
    ],
    [
      2,
      8,
      {
        "cost": 149.67,
        "seconds": 391
      }
    ],
    [
      2,
      6,
      {
        "cost": 277.14,
        "seconds": 633
      }
    ],
    [
      2,
      5,
      {
        "cost": 81.11999999999999,
        "seconds": 224
      }
    ],
    [
      2,
      10,
      {
        "cost": 82.05,
        "seconds": 243
      }
    ],
    [
      2,
      7,
      {
        "cost": 65.13,
        "seconds": 197
      }
    ],
    [
      2,
      13,
      {
        "cost": 204.12,
        "seconds": 434
      }
    ],
    [
      2,
      11,
      {
        "cost": 149.82,
        "seconds": 433
      }
    ],
    [
      3,
      1,
      {
        "cost": 323.88,
        "seconds": 663
      }
    ],
    [
      3,
      0,
      {
        "cost": 135.26999999999999,
        "seconds": 303
      }
    ],
    [
      3,
      4,
      {
        "cost": 291.99,
        "seconds": 674
      }
    ],
    [
      3,
      8,
      {
        "cost": 267.57,
        "seconds": 626
      }
    ],
    [
      3,
      10,
      {
        "cost": 199.95,
        "seconds": 477
      }
    ],
    [
      3,
      7,
      {
        "cost": 183.03,
        "seconds": 431
      }
    ],
    [
      3,
      5,
      {
        "cost": 217.92,
        "seconds": 491
      }
    ],
    [
      3,
      9,
      {
        "cost": 128.01,
        "seconds": 281
      }
    ],
    [
      3,
      13,
      {
        "cost": 325.62,
        "seconds": 677
      }
    ],
    [
      3,
      11,
      {
        "cost": 274.62,
        "seconds": 637
      }
    ],
    [
      3,
      2,
      {
        "cost": 162.12,
        "seconds": 395
      }
    ],
    [
      4,
      0,
      {
        "cost": 210.69,
        "seconds": 518
      }
    ],
    [
      4,
      2,
      {
        "cost": 215.57999999999999,
        "seconds": 550
      }
    ],
    [
      4,
      10,
      {
        "cost": 262.11,
        "seconds": 585
      }
    ],
    [
      4,
      12,
      {
        "cost": 187.10999999999999,
        "seconds": 455
      }
    ],
    [
      4,
      6,
      {
        "cost": 168.69,
        "seconds": 380
      }
    ],
    [
      4,
      8,
      {
        "cost": 280.83,
        "seconds": 634
      }
    ],
    [
      4,
      11,
      {
        "cost": 117.86999999999999,
        "seconds": 325
      }
    ],
    [
      5,
      1,
      {
        "cost": 203.31,
        "seconds": 413
      }
    ],
    [
      5,
      0,
      {
        "cost": 69.53999999999999,
        "seconds": 198
      }
    ],
    [
      5,
      3,
      {
        "cost": 220.95,
        "seconds": 525
      }
    ],
    [
      5,
      2,
      {
        "cost": 62.849999999999997,
        "seconds": 192
      }
    ],
    [
      5,
      10,
      {
        "cost": 107.42999999999999,
        "seconds": 236
      }
    ],
    [
      5,
      12,
      {
        "cost": 261.71999999999999,
        "seconds": 510
      }
    ],
    [
      5,
      6,
      {
        "cost": 241.79999999999999,
        "seconds": 506
      }
    ],
    [
      5,
      11,
      {
        "cost": 93.92999999999999,
        "seconds": 281
      }
    ],
    [
      5,
      9,
      {
        "cost": 268.65,
        "seconds": 595
      }
    ],
    [
      5,
      13,
      {
        "cost": 168.75,
        "seconds": 307
      }
    ],
    [
      5,
      7,
      {
        "cost": 98.94,
        "seconds": 254
      }
    ],
    [
      5,
      4,
      {
        "cost": 178.73999999999999,
        "seconds": 459
      }
    ],
    [
      6,
      0,
      {
        "cost": 323.09999999999999,
        "seconds": 768
      }
    ],
    [
      6,
      4,
      {
        "cost": 118.83,
        "seconds": 414
      }
    ],
    [
      6,
      12,
      {
        "cost": 105.50999999999999,
        "seconds": 252
      }
    ],
    [
      6,
      8,
      {
        "cost": 260.73,
        "seconds": 553
      }
    ],
    [
      6,
      10,
      {
        "cost": 275.49,
        "seconds": 588
      }
    ],
    [
      7,
      1,
      {
        "cost": 137.85,
        "seconds": 297
      }
    ],
    [
      7,
      0,
      {
        "cost": 142.59,
        "seconds": 370
      }
    ],
    [
      7,
      3,
      {
        "cost": 215.19,
        "seconds": 491
      }
    ],
    [
      7,
      2,
      {
        "cost": 78.24,
        "seconds": 232
      }
    ],
    [
      7,
      5,
      {
        "cost": 118.58999999999999,
        "seconds": 306
      }
    ],
    [
      7,
      4,
      {
        "cost": 272.09999999999999,
        "seconds": 693
      }
    ],
    [
      7,
      8,
      {
        "cost": 101.64,
        "seconds": 316
      }
    ],
    [
      7,
      12,
      {
        "cost": 301.08,
        "seconds": 657
      }
    ],
    [
      7,
      10,
      {
        "cost": 37.53,
        "seconds": 133
      }
    ],
    [
      7,
      13,
      {
        "cost": 208.07999999999999,
        "seconds": 453
      }
    ],
    [
      7,
      9,
      {
        "cost": 206.45999999999999,
        "seconds": 479
      }
    ],
    [
      7,
      11,
      {
        "cost": 187.29,
        "seconds": 515
      }
    ],
    [
      7,
      6,
      {
        "cost": 281.13,
        "seconds": 652
      }
    ],
    [
      8,
      0,
      {
        "cost": 209.7,
        "seconds": 504
      }
    ],
    [
      8,
      2,
      {
        "cost": 160.2,
        "seconds": 388
      }
    ],
    [
      8,
      6,
      {
        "cost": 282.69,
        "seconds": 631
      }
    ],
    [
      8,
      10,
      {
        "cost": 80.19,
        "seconds": 227
      }
    ],
    [
      9,
      1,
      {
        "cost": 348.27,
        "seconds": 732
      }
    ],
    [
      9,
      0,
      {
        "cost": 214.92,
        "seconds": 499
      }
    ],
    [
      9,
      3,
      {
        "cost": 89.91,
        "seconds": 230
      }
    ],
    [
      9,
      2,
      {
        "cost": 237.14999999999999,
        "seconds": 583
      }
    ],
    [
      9,
      5,
      {
        "cost": 277.5,
        "seconds": 657
      }
    ],
    [
      9,
      4,
      {
        "cost": 371.64,
        "seconds": 870
      }
    ],
    [
      9,
      7,
      {
        "cost": 217.92,
        "seconds": 547
      }
    ],
    [
      9,
      6,
      {
        "cost": 468.12,
        "seconds": 1044
      }
    ],
    [
      9,
      12,
      {
        "cost": 488.07,
        "seconds": 1048
      }
    ],
    [
      9,
      10,
      {
        "cost": 243.06,
        "seconds": 609
      }
    ],
    [
      9,
      13,
      {
        "cost": 395.07,
        "seconds": 845
      }
    ],
    [
      9,
      11,
      {
        "cost": 354.27,
        "seconds": 832
      }
    ],
    [
      9,
      8,
      {
        "cost": 312.42,
        "seconds": 768
      }
    ],
    [
      10,
      0,
      {
        "cost": 172.92,
        "seconds": 416
      }
    ],
    [
      10,
      1,
      {
        "cost": 136.38,
        "seconds": 362
      }
    ],
    [
      10,
      2,
      {
        "cost": 108.57,
        "seconds": 278
      }
    ],
    [
      10,
      4,
      {
        "cost": 276.75,
        "seconds": 647
      }
    ],
    [
      10,
      5,
      {
        "cost": 106.97999999999999,
        "seconds": 222
      }
    ],
    [
      10,
      6,
      {
        "cost": 255.14999999999999,
        "seconds": 558
      }
    ],
    [
      10,
      7,
      {
        "cost": 67.05,
        "seconds": 185
      }
    ],
    [
      10,
      8,
      {
        "cost": 77.82,
        "seconds": 247
      }
    ],
    [
      10,
      12,
      {
        "cost": 275.09999999999999,
        "seconds": 563
      }
    ],
    [
      10,
      13,
      {
        "cost": 182.1,
        "seconds": 360
      }
    ],
    [
      11,
      1,
      {
        "cost": 276.27,
        "seconds": 592
      }
    ],
    [
      11,
      0,
      {
        "cost": 140.54999999999999,
        "seconds": 386
      }
    ],
    [
      11,
      3,
      {
        "cost": 291.96,
        "seconds": 713
      }
    ],
    [
      11,
      2,
      {
        "cost": 133.85999999999999,
        "seconds": 380
      }
    ],
    [
      11,
      5,
      {
        "cost": 78.14999999999999,
        "seconds": 217
      }
    ],
    [
      11,
      4,
      {
        "cost": 97.64999999999999,
        "seconds": 364
      }
    ],
    [
      11,
      7,
      {
        "cost": 159.23999999999999,
        "seconds": 428
      }
    ],
    [
      11,
      6,
      {
        "cost": 175.98,
        "seconds": 495
      }
    ],
    [
      11,
      9,
      {
        "cost": 328.95,
        "seconds": 769
      }
    ],
    [
      11,
      8,
      {
        "cost": 199.14,
        "seconds": 464
      }
    ],
    [
      11,
      12,
      {
        "cost": 194.37,
        "seconds": 570
      }
    ],
    [
      11,
      13,
      {
        "cost": 204.06,
        "seconds": 443
      }
    ],
    [
      11,
      10,
      {
        "cost": 180.39,
        "seconds": 415
      }
    ],
    [
      12,
      0,
      {
        "cost": 320.58,
        "seconds": 774
      }
    ],
    [
      12,
      2,
      {
        "cost": 299.19,
        "seconds": 697
      }
    ],
    [
      12,
      4,
      {
        "cost": 231.63,
        "seconds": 559
      }
    ],
    [
      12,
      5,
      {
        "cost": 251.04,
        "seconds": 577
      }
    ],
    [
      12,
      6,
      {
        "cost": 140.01,
        "seconds": 292
      }
    ],
    [
      12,
      8,
      {
        "cost": 276.12,
        "seconds": 590
      }
    ],
    [
      12,
      10,
      {
        "cost": 271.23,
        "seconds": 613
      }
    ],
    [
      12,
      11,
      {
        "cost": 208.65,
        "seconds": 631
      }
    ],
    [
      13,
      1,
      {
        "cost": 261.18,
        "seconds": 547
      }
    ],
    [
      13,
      3,
      {
        "cost": 398.52,
        "seconds": 873
      }
    ],
    [
      13,
      5,
      {
        "cost": 191.07,
        "seconds": 430
      }
    ],
    [
      13,
      4,
      {
        "cost": 270.42,
        "seconds": 625
      }
    ],
    [
      13,
      7,
      {
        "cost": 250.89,
        "seconds": 556
      }
    ],
    [
      13,
      6,
      {
        "cost": 167.88,
        "seconds": 371
      }
    ],
    [
      13,
      9,
      {
        "cost": 420.57,
        "seconds": 896
      }
    ],
    [
      13,
      11,
      {
        "cost": 202.59,
        "seconds": 558
      }
    ],
    [
      13,
      10,
      {
        "cost": 211.26,
        "seconds": 466
      }
    ],
    [
      13,
      12,
      {
        "cost": 93.0,
        "seconds": 204
      }
    ],
    [
      12,
      15,
      {
        "cost": 70.17,
        "seconds": 241
      }
    ],
    [
      14,
      13,
      {
        "cost": 395.58,
        "seconds": 826
      }
    ],
    [
      12,
      14,
      {
        "cost": 483.47999999999998,
        "seconds": 1053
      }
    ],
    [
      15,
      13,
      {
        "cost": 144.69,
        "seconds": 325
      }
    ],
    [
      10,
      15,
      {
        "cost": 294.75,
        "seconds": 638
      }
    ],
    [
      14,
      11,
      {
        "cost": 346.71,
        "seconds": 847
      }
    ],
    [
      10,
      14,
      {
        "cost": 239.67,
        "seconds": 535
      }
    ],
    [
      15,
      11,
      {
        "cost": 281.82,
        "seconds": 719
      }
    ],
    [
      8,
      15,
      {
        "cost": 327.93,
        "seconds": 721
      }
    ],
    [
      14,
      9,
      {
        "cost": 91.8,
        "seconds": 229
      }
    ],
    [
      8,
      14,
      {
        "cost": 293.21999999999999,
        "seconds": 696
      }
    ],
    [
      15,
      9,
      {
        "cost": 499.83,
        "seconds": 1058
      }
    ],
    [
      6,
      15,
      {
        "cost": 168.23999999999999,
        "seconds": 465
      }
    ],
    [
      14,
      7,
      {
        "cost": 218.42999999999999,
        "seconds": 529
      }
    ],
    [
      6,
      14,
      {
        "cost": 487.74,
        "seconds": 1028
      }
    ],
    [
      15,
      7,
      {
        "cost": 330.12,
        "seconds": 717
      }
    ],
    [
      4,
      15,
      {
        "cost": 249.84,
        "seconds": 668
      }
    ],
    [
      14,
      5,
      {
        "cost": 278.01,
        "seconds": 638
      }
    ],
    [
      4,
      14,
      {
        "cost": 413.55,
        "seconds": 948
      }
    ],
    [
      15,
      5,
      {
        "cost": 270.3,
        "seconds": 591
      }
    ],
    [
      2,
      15,
      {
        "cost": 316.74,
        "seconds": 712
      }
    ],
    [
      14,
      3,
      {
        "cost": 117.44999999999999,
        "seconds": 256
      }
    ],
    [
      2,
      14,
      {
        "cost": 212.67,
        "seconds": 504
      }
    ],
    [
      15,
      3,
      {
        "cost": 494.09999999999999,
        "seconds": 1034
      }
    ],
    [
      0,
      15,
      {
        "cost": 329.07,
        "seconds": 747
      }
    ],
    [
      14,
      1,
      {
        "cost": 348.78,
        "seconds": 714
      }
    ],
    [
      0,
      14,
      {
        "cost": 217.73999999999999,
        "seconds": 517
      }
    ],
    [
      15,
      1,
      {
        "cost": 340.46999999999999,
        "seconds": 706
      }
    ]
  ]
}