{
  "nodes": [
    {
      "Delivery": {
        "bid": 68,
        "id": 9,
        "price": null,
        "cost": null,
        "direct_dist": 4032,
        "direct_cost": 121,
        "direct_time": 264
      }
    },
    {
      "Pickup": {
        "bid": 68,
        "id": 9,
        "price": null,
        "cost": null,
        "direct_dist": 4032,
        "direct_cost": 121,
        "direct_time": 264
      }
    },
    {
      "Delivery": {
        "bid": 2401,
        "id": 8,
        "price": null,
        "cost": null,
        "direct_dist": 8004,
        "direct_cost": 241,
        "direct_time": 550
      }
    },
    {
      "Pickup": {
        "bid": 2401,
        "id": 8,
        "price": null,
        "cost": null,
        "direct_dist": 8004,
        "direct_cost": 241,
        "direct_time": 550
      }
    },
    {
      "Delivery": {
        "bid": 208,
        "id": 7,
        "price": null,
        "cost": null,
        "direct_dist": 2508,
        "direct_cost": 76,
        "direct_time": 201
      }
    },
    {
      "Pickup": {
        "bid": 208,
        "id": 7,
        "price": null,
        "cost": null,
        "direct_dist": 2508,
        "direct_cost": 76,
        "direct_time": 201
      }
    },
    {
      "Delivery": {
        "bid": 375,
        "id": 6,
        "price": null,
        "cost": null,
        "direct_dist": 3193,
        "direct_cost": 96,
        "direct_time": 243
      }
    },
    {
      "Pickup": {
        "bid": 375,
        "id": 6,
        "price": null,
        "cost": null,
        "direct_dist": 3193,
        "direct_cost": 96,
        "direct_time": 243
      }
    },
    {
      "Delivery": {
        "bid": 337,
        "id": 5,
        "price": null,
        "cost": null,
        "direct_dist": 3978,
        "direct_cost": 120,
        "direct_time": 309
      }
    },
    {
      "Pickup": {
        "bid": 337,
        "id": 5,
        "price": null,
        "cost": null,
        "direct_dist": 3978,
        "direct_cost": 120,
        "direct_time": 309
      }
    },
    {
      "Delivery": {
        "bid": 3017,
        "id": 4,
        "price": null,
        "cost": null,
        "direct_dist": 14191,
        "direct_cost": 426,
        "direct_time": 878
      }
    },
    {
      "Pickup": {
        "bid": 3017,
        "id": 4,
        "price": null,
        "cost": null,
        "direct_dist": 14191,
        "direct_cost": 426,
        "direct_time": 878
      }
    },
    {
      "Delivery": {
        "bid": 106,
        "id": 3,
        "price": null,
        "cost": null,
        "direct_dist": 2001,
        "direct_cost": 61,
        "direct_time": 145
      }
    },
    {
      "Pickup": {
        "bid": 106,
        "id": 3,
        "price": null,
        "cost": null,
        "direct_dist": 2001,
        "direct_cost": 61,
        "direct_time": 145
      }
    },
    {
      "Delivery": {
        "bid": 1570,
        "id": 2,
        "price": null,
        "cost": null,
        "direct_dist": 11422,
        "direct_cost": 343,
        "direct_time": 757
      }
    },
    {
      "Pickup": {
        "bid": 1570,
        "id": 2,
        "price": null,
        "cost": null,
        "direct_dist": 11422,
        "direct_cost": 343,
        "direct_time": 757
      }
    },
    {
      "Delivery": {
        "bid": 83,
        "id": 1,
        "price": null,
        "cost": null,
        "direct_dist": 1490,
        "direct_cost": 45,
        "direct_time": 87
      }
    },
    {
      "Pickup": {
        "bid": 83,
        "id": 1,
        "price": null,
        "cost": null,
        "direct_dist": 1490,
        "direct_cost": 45,
        "direct_time": 87
      }
    },
    {
      "DriverStart": {
        "arrive_until": 2400,
        "direct_cost": 418
      }
    },
    {
      "DriverEnd": {
        "arrive_until": 2400,
        "direct_cost": 418
      }
    }
  ],
  "node_holes": [],
  "edge_property": "directed",
  "edges": [
    [
      0,
      16,
      {
        "cost": 46.05,
        "seconds": 97
      }
    ],
    [
      0,
      14,
      {
        "cost": 222.09,
        "seconds": 476
      }
    ],
    [
      0,
      10,
      {
        "cost": 272.73,
        "seconds": 610
      }
    ],
    [
      0,
      6,
      {
        "cost": 192.6,
        "seconds": 381
      }
    ],
    [
      0,
      4,
      {
        "cost": 193.04999999999999,
        "seconds": 450
      }
    ],
    [
      0,
      12,
      {
        "cost": 176.13,
        "seconds": 395
      }
    ],
    [
      0,
      2,
      {
        "cost": 141.66,
        "seconds": 290
      }
    ],
    [
      0,
      17,
      {
        "cost": 107.58,
        "seconds": 227
      }
    ],
    [
      0,
      8,
      {
        "cost": 50.22,
        "seconds": 172
      }
    ],
    [
      0,
      15,
      {
        "cost": 111.92999999999999,
        "seconds": 291
      }
    ],
    [
      0,
      7,
      {
        "cost": 196.92,
        "seconds": 455
      }
    ],
    [
      0,
      5,
      {
        "cost": 139.71,
        "seconds": 322
      }
    ],
    [
      0,
      11,
      {
        "cost": 138.03,
        "seconds": 286
      }
    ],
    [
      0,
      3,
      {
        "cost": 183.72,
        "seconds": 432
      }
    ],
    [
      0,
      9,
      {
        "cost": 149.57999999999999,
        "seconds": 356
      }
    ],
    [
      0,
      13,
      {
        "cost": 203.57999999999999,
        "seconds": 461
      }
    ],
    [
      1,
      16,
      {
        "cost": 103.92,
        "seconds": 219
      }
    ],
    [
      1,
      6,
      {
        "cost": 295.05,
        "seconds": 597
      }
    ],
    [
      1,
      4,
      {
        "cost": 147.66,
        "seconds": 352
      }
    ],
    [
      1,
      2,
      {
        "cost": 103.74,
        "seconds": 243
      }
    ],
    [
      1,
      12,
      {
        "cost": 130.74,
        "seconds": 296
      }
    ],
    [
      1,
      8,
      {
        "cost": 106.53,
        "seconds": 232
      }
    ],
    [
      1,
      15,
      {
        "cost": 214.38,
        "seconds": 507
      }
    ],
    [
      1,
      11,
      {
        "cost": 100.14,
        "seconds": 239
      }
    ],
    [
      1,
      17,
      {
        "cost": 59.25,
        "seconds": 133
      }
    ],
    [
      1,
      7,
      {
        "cost": 310.2,
        "seconds": 696
      }
    ],
    [
      1,
      5,
      {
        "cost": 94.28999999999999,
        "seconds": 223
      }
    ],
    [
      1,
      13,
      {
        "cost": 158.16,
        "seconds": 362
      }
    ],
    [
      1,
      9,
      {
        "cost": 66.84,
        "seconds": 176
      }
    ],
    [
      1,
      3,
      {
        "cost": 153.39,
        "seconds": 365
      }
    ],
    [
      1,
      0,
      {
        "cost": 120.96,
        "seconds": 264
      }
    ],
    [
      2,
      0,
      {
        "cost": 143.4,
        "seconds": 327
      }
    ],
    [
      2,
      1,
      {
        "cost": 125.55,
        "seconds": 275
      }
    ],
    [
      2,
      8,
      {
        "cost": 129.0,
        "seconds": 294
      }
    ],
    [
      2,
      16,
      {
        "cost": 126.39,
        "seconds": 282
      }
    ],
    [
      2,
      10,
      {
        "cost": 395.15999999999999,
        "seconds": 845
      }
    ],
    [
      2,
      14,
      {
        "cost": 268.17,
        "seconds": 571
      }
    ],
    [
      2,
      17,
      {
        "cost": 81.69,
        "seconds": 195
      }
    ],
    [
      2,
      11,
      {
        "cost": 19.56,
        "seconds": 76
      }
    ],
    [
      3,
      1,
      {
        "cost": 141.66,
        "seconds": 340
      }
    ],
    [
      3,
      0,
      {
        "cost": 172.89,
        "seconds": 374
      }
    ],
    [
      3,
      6,
      {
        "cost": 235.95,
        "seconds": 495
      }
    ],
    [
      3,
      14,
      {
        "cost": 242.67,
        "seconds": 564
      }
    ],
    [
      3,
      4,
      {
        "cost": 138.0,
        "seconds": 362
      }
    ],
    [
      3,
      12,
      {
        "cost": 126.50999999999999,
        "seconds": 269
      }
    ],
    [
      3,
      8,
      {
        "cost": 112.64999999999999,
        "seconds": 292
      }
    ],
    [
      3,
      16,
      {
        "cost": 144.51,
        "seconds": 358
      }
    ],
    [
      3,
      11,
      {
        "cost": 236.51999999999999,
        "seconds": 546
      }
    ],
    [
      3,
      9,
      {
        "cost": 175.29,
        "seconds": 458
      }
    ],
    [
      3,
      7,
      {
        "cost": 275.28,
        "seconds": 604
      }
    ],
    [
      3,
      17,
      {
        "cost": 200.88,
        "seconds": 473
      }
    ],
    [
      3,
      15,
      {
        "cost": 229.17,
        "seconds": 527
      }
    ],
    [
      3,
      5,
      {
        "cost": 82.74,
        "seconds": 205
      }
    ],
    [
      3,
      13,
      {
        "cost": 129.54,
        "seconds": 309
      }
    ],
    [
      3,
      2,
      {
        "cost": 240.12,
        "seconds": 550
      }
    ],
    [
      4,
      0,
      {
        "cost": 181.26,
        "seconds": 438
      }
    ],
    [
      4,
      1,
      {
        "cost": 141.39,
        "seconds": 363
      }
    ],
    [
      4,
      3,
      {
        "cost": 142.14,
        "seconds": 323
      }
    ],
    [
      4,
      2,
      {
        "cost": 259.83,
        "seconds": 586
      }
    ],
    [
      4,
      6,
      {
        "cost": 316.14,
        "seconds": 690
      }
    ],
    [
      4,
      16,
      {
        "cost": 164.22,
        "seconds": 393
      }
    ],
    [
      4,
      10,
      {
        "cost": 431.31,
        "seconds": 954
      }
    ],
    [
      4,
      14,
      {
        "cost": 156.54,
        "seconds": 377
      }
    ],
    [
      4,
      12,
      {
        "cost": 41.129999999999998,
        "seconds": 117
      }
    ],
    [
      4,
      8,
      {
        "cost": 132.35999999999999,
        "seconds": 327
      }
    ],
    [
      4,
      17,
      {
        "cost": 193.79999999999999,
        "seconds": 495
      }
    ],
    [
      4,
      11,
      {
        "cost": 256.23,
        "seconds": 581
      }
    ],
    [
      4,
      9,
      {
        "cost": 105.03,
        "seconds": 292
      }
    ],
    [
      4,
      13,
      {
        "cost": 37.62,
        "seconds": 132
      }
    ],
    [
      5,
      1,
      {
        "cost": 92.39999999999999,
        "seconds": 229
      }
    ],
    [
      5,
      0,
      {
        "cost": 146.1,
        "seconds": 342
      }
    ],
    [
      5,
      3,
      {
        "cost": 79.92,
        "seconds": 197
      }
    ],
    [
      5,
      16,
      {
        "cost": 129.09,
        "seconds": 297
      }
    ],
    [
      5,
      12,
      {
        "cost": 35.339999999999999,
        "seconds": 94
      }
    ],
    [
      5,
      14,
      {
        "cost": 171.69,
        "seconds": 397
      }
    ],
    [
      5,
      8,
      {
        "cost": 95.94,
        "seconds": 234
      }
    ],
    [
      5,
      11,
      {
        "cost": 192.54,
        "seconds": 468
      }
    ],
    [
      5,
      17,
      {
        "cost": 151.65,
        "seconds": 362
      }
    ],
    [
      5,
      7,
      {
        "cost": 271.08,
        "seconds": 682
      }
    ],
    [
      5,
      15,
      {
        "cost": 243.12,
        "seconds": 577
      }
    ],
    [
      5,
      13,
      {
        "cost": 80.34,
        "seconds": 208
      }
    ],
    [
      5,
      9,
      {
        "cost": 118.53,
        "seconds": 308
      }
    ],
    [
      5,
      4,
      {
        "cost": 75.24,
        "seconds": 201
      }
    ],
    [
      6,
      0,
      {
        "cost": 189.81,
        "seconds": 434
      }
    ],
    [
      6,
      2,
      {
        "cost": 323.21999999999999,
        "seconds": 690
      }
    ],
    [
      6,
      3,
      {
        "cost": 258.51,
        "seconds": 586
      }
    ],
    [
      6,
      4,
      {
        "cost": 353.03999999999999,
        "seconds": 745
      }
    ],
    [
      6,
      12,
      {
        "cost": 309.18,
        "seconds": 634
      }
    ],
    [
      6,
      10,
      {
        "cost": 142.10999999999999,
        "seconds": 339
      }
    ],
    [
      6,
      14,
      {
        "cost": 410.46,
        "seconds": 904
      }
    ],
    [
      6,
      16,
      {
        "cost": 234.42,
        "seconds": 525
      }
    ],
    [
      6,
      8,
      {
        "cost": 233.39999999999999,
        "seconds": 567
      }
    ],
    [
      6,
      15,
      {
        "cost": 169.01999999999999,
        "seconds": 395
      }
    ],
    [
      7,
      1,
      {
        "cost": 276.09,
        "seconds": 610
      }
    ],
    [
      7,
      0,
      {
        "cost": 190.29,
        "seconds": 428
      }
    ],
    [
      7,
      3,
      {
        "cost": 303.59999999999999,
        "seconds": 683
      }
    ],
    [
      7,
      5,
      {
        "cost": 332.58,
        "seconds": 717
      }
    ],
    [
      7,
      16,
      {
        "cost": 234.87,
        "seconds": 519
      }
    ],
    [
      7,
      8,
      {
        "cost": 256.38,
        "seconds": 571
      }
    ],
    [
      7,
      11,
      {
        "cost": 311.67,
        "seconds": 694
      }
    ],
    [
      7,
      15,
      {
        "cost": 114.36,
        "seconds": 295
      }
    ],
    [
      7,
      13,
      {
        "cost": 374.31,
        "seconds": 824
      }
    ],
    [
      7,
      17,
      {
        "cost": 269.01,
        "seconds": 633
      }
    ],
    [
      7,
      9,
      {
        "cost": 323.34,
        "seconds": 748
      }
    ],
    [
      7,
      6,
      {
        "cost": 95.78999999999999,
        "seconds": 243
      }
    ],
    [
      8,
      0,
      {
        "cost": 48.9,
        "seconds": 111
      }
    ],
    [
      8,
      1,
      {
        "cost": 78.99,
        "seconds": 173
      }
    ],
    [
      8,
      2,
      {
        "cost": 127.47,
        "seconds": 258
      }
    ],
    [
      8,
      3,
      {
        "cost": 137.76,
        "seconds": 341
      }
    ],
    [
      8,
      4,
      {
        "cost": 162.0,
        "seconds": 376
      }
    ],
    [
      8,
      5,
      {
        "cost": 108.63,
        "seconds": 248
      }
    ],
    [
      8,
      6,
      {
        "cost": 226.35,
        "seconds": 474
      }
    ],
    [
      8,
      12,
      {
        "cost": 145.07999999999999,
        "seconds": 321
      }
    ],
    [
      8,
      10,
      {
        "cost": 320.15999999999999,
        "seconds": 715
      }
    ],
    [
      8,
      16,
      {
        "cost": 31.89,
        "seconds": 66
      }
    ],
    [
      8,
      14,
      {
        "cost": 191.04,
        "seconds": 402
      }
    ],
    [
      8,
      13,
      {
        "cost": 172.53,
        "seconds": 387
      }
    ],
    [
      8,
      11,
      {
        "cost": 123.86999999999999,
        "seconds": 254
      }
    ],
    [
      8,
      17,
      {
        "cost": 93.42,
        "seconds": 195
      }
    ],
    [
      8,
      15,
      {
        "cost": 159.35999999999999,
        "seconds": 396
      }
    ],
    [
      9,
      1,
      {
        "cost": 54.989999999999998,
        "seconds": 149
      }
    ],
    [
      9,
      0,
      {
        "cost": 142.26,
        "seconds": 348
      }
    ],
    [
      9,
      3,
      {
        "cost": 174.57,
        "seconds": 421
      }
    ],
    [
      9,
      2,
      {
        "cost": 158.73,
        "seconds": 393
      }
    ],
    [
      9,
      5,
      {
        "cost": 96.11999999999999,
        "seconds": 239
      }
    ],
    [
      9,
      4,
      {
        "cost": 84.75,
        "seconds": 217
      }
    ],
    [
      9,
      7,
      {
        "cost": 331.53,
        "seconds": 779
      }
    ],
    [
      9,
      6,
      {
        "cost": 316.34999999999999,
        "seconds": 680
      }
    ],
    [
      9,
      12,
      {
        "cost": 124.08,
        "seconds": 296
      }
    ],
    [
      9,
      16,
      {
        "cost": 125.25,
        "seconds": 303
      }
    ],
    [
      9,
      14,
      {
        "cost": 113.78999999999999,
        "seconds": 243
      }
    ],
    [
      9,
      11,
      {
        "cost": 155.13,
        "seconds": 388
      }
    ],
    [
      9,
      13,
      {
        "cost": 101.64,
        "seconds": 247
      }
    ],
    [
      9,
      17,
      {
        "cost": 114.21,
        "seconds": 282
      }
    ],
    [
      9,
      15,
      {
        "cost": 235.70999999999999,
        "seconds": 590
      }
    ],
    [
      9,
      8,
      {
        "cost": 119.33999999999999,
        "seconds": 309
      }
    ],
    [
      11,
      1,
      {
        "cost": 114.69,
        "seconds": 259
      }
    ],
    [
      11,
      0,
      {
        "cost": 142.01999999999999,
        "seconds": 328
      }
    ],
    [
      11,
      3,
      {
        "cost": 234.0,
        "seconds": 543
      }
    ],
    [
      11,
      2,
      {
        "cost": 15.93,
        "seconds": 62
      }
    ],
    [
      11,
      5,
      {
        "cost": 174.93,
        "seconds": 402
      }
    ],
    [
      11,
      4,
      {
        "cost": 228.26999999999999,
        "seconds": 530
      }
    ],
    [
      11,
      7,
      {
        "cost": 328.56,
        "seconds": 701
      }
    ],
    [
      11,
      6,
      {
        "cost": 316.11,
        "seconds": 660
      }
    ],
    [
      11,
      9,
      {
        "cost": 147.48,
        "seconds": 355
      }
    ],
    [
      11,
      8,
      {
        "cost": 127.61999999999999,
        "seconds": 295
      }
    ],
    [
      11,
      12,
      {
        "cost": 211.35,
        "seconds": 475
      }
    ],
    [
      11,
      16,
      {
        "cost": 125.00999999999999,
        "seconds": 283
      }
    ],
    [
      11,
      13,
      {
        "cost": 238.79999999999999,
        "seconds": 540
      }
    ],
    [
      11,
      17,
      {
        "cost": 80.31,
        "seconds": 196
      }
    ],
    [
      11,
      10,
      {
        "cost": 425.72999999999998,
        "seconds": 878
      }
    ],
    [
      12,
      0,
      {
        "cost": 184.26,
        "seconds": 408
      }
    ],
    [
      12,
      1,
      {
        "cost": 130.59,
        "seconds": 295
      }
    ],
    [
      12,
      2,
      {
        "cost": 234.32999999999999,
        "seconds": 538
      }
    ],
    [
      12,
      3,
      {
        "cost": 106.08,
        "seconds": 225
      }
    ],
    [
      12,
      4,
      {
        "cost": 90.89999999999999,
        "seconds": 201
      }
    ],
    [
      12,
      5,
      {
        "cost": 44.879999999999998,
        "seconds": 104
      }
    ],
    [
      12,
      6,
      {
        "cost": 314.82,
        "seconds": 610
      }
    ],
    [
      12,
      7,
      {
        "cost": 354.15,
        "seconds": 719
      }
    ],
    [
      12,
      8,
      {
        "cost": 134.1,
        "seconds": 300
      }
    ],
    [
      12,
      9,
      {
        "cost": 137.91,
        "seconds": 318
      }
    ],
    [
      12,
      10,
      {
        "cost": 429.99,
        "seconds": 874
      }
    ],
    [
      12,
      11,
      {
        "cost": 230.73,
        "seconds": 534
      }
    ],
    [
      12,
      16,
      {
        "cost": 167.25,
        "seconds": 363
      }
    ],
    [
      12,
      14,
      {
        "cost": 189.42,
        "seconds": 403
      }
    ],
    [
      12,
      17,
      {
        "cost": 189.84,
        "seconds": 427
      }
    ],
    [
      12,
      15,
      {
        "cost": 281.28,
        "seconds": 642
      }
    ],
    [
      13,
      1,
      {
        "cost": 160.73999999999999,
        "seconds": 384
      }
    ],
    [
      13,
      0,
      {
        "cost": 200.13,
        "seconds": 465
      }
    ],
    [
      13,
      3,
      {
        "cost": 159.29999999999999,
        "seconds": 339
      }
    ],
    [
      13,
      5,
      {
        "cost": 70.11,
        "seconds": 181
      }
    ],
    [
      13,
      4,
      {
        "cost": 37.199999999999999,
        "seconds": 111
      }
    ],
    [
      13,
      7,
      {
        "cost": 374.37,
        "seconds": 827
      }
    ],
    [
      13,
      9,
      {
        "cost": 106.8,
        "seconds": 268
      }
    ],
    [
      13,
      8,
      {
        "cost": 151.23,
        "seconds": 355
      }
    ],
    [
      13,
      11,
      {
        "cost": 275.09999999999999,
        "seconds": 609
      }
    ],
    [
      13,
      16,
      {
        "cost": 183.12,
        "seconds": 420
      }
    ],
    [
      13,
      14,
      {
        "cost": 157.73999999999999,
        "seconds": 351
      }
    ],
    [
      13,
      17,
      {
        "cost": 219.95999999999999,
        "seconds": 517
      }
    ],
    [
      13,
      15,
      {
        "cost": 298.40999999999999,
        "seconds": 697
      }
    ],
    [
      13,
      12,
      {
        "cost": 60.03,
        "seconds": 145
      }
    ],
    [
      14,
      2,
      {
        "cost": 257.31,
        "seconds": 602
      }
    ],
    [
      14,
      4,
      {
        "cost": 56.46,
        "seconds": 130
      }
    ],
    [
      14,
      8,
      {
        "cost": 187.01999999999999,
        "seconds": 419
      }
    ],
    [
      14,
      12,
      {
        "cost": 95.78999999999999,
        "seconds": 209
      }
    ],
    [
      15,
      1,
      {
        "cost": 207.81,
        "seconds": 468
      }
    ],
    [
      15,
      0,
      {
        "cost": 122.00999999999999,
        "seconds": 287
      }
    ],
    [
      15,
      3,
      {
        "cost": 253.44,
        "seconds": 604
      }
    ],
    [
      15,
      2,
      {
        "cost": 191.82,
        "seconds": 465
      }
    ],
    [
      15,
      5,
      {
        "cost": 260.25,
        "seconds": 603
      }
    ],
    [
      15,
      4,
      {
        "cost": 313.62,
        "seconds": 731
      }
    ],
    [
      15,
      7,
      {
        "cost": 162.57,
        "seconds": 405
      }
    ],
    [
      15,
      6,
      {
        "cost": 221.45999999999999,
        "seconds": 473
      }
    ],
    [
      15,
      9,
      {
        "cost": 255.06,
        "seconds": 606
      }
    ],
    [
      15,
      8,
      {
        "cost": 170.76,
        "seconds": 453
      }
    ],
    [
      15,
      13,
      {
        "cost": 309.81,
        "seconds": 722
      }
    ],
    [
      15,
      12,
      {
        "cost": 304.11,
        "seconds": 651
      }
    ],
    [
      15,
      16,
      {
        "cost": 166.62,
        "seconds": 378
      }
    ],
    [
      15,
      17,
      {
        "cost": 200.73,
        "seconds": 492
      }
    ],
    [
      15,
      14,
      {
        "cost": 342.65999999999999,
        "seconds": 757
      }
    ],
    [
      16,
      0,
      {
        "cost": 65.7,
        "seconds": 156
      }
    ],
    [
      16,
      1,
      {
        "cost": 58.5,
        "seconds": 125
      }
    ],
    [
      16,
      2,
      {
        "cost": 110.19,
        "seconds": 287
      }
    ],
    [
      16,
      3,
      {
        "cost": 154.56,
        "seconds": 386
      }
    ],
    [
      16,
      4,
      {
        "cost": 186.72,
        "seconds": 439
      }
    ],
    [
      16,
      5,
      {
        "cost": 133.38,
        "seconds": 310
      }
    ],
    [
      16,
      6,
      {
        "cost": 239.79,
        "seconds": 488
      }
    ],
    [
      16,
      7,
      {
        "cost": 254.97,
        "seconds": 587
      }
    ],
    [
      16,
      8,
      {
        "cost": 51.269999999999999,
        "seconds": 123
      }
    ],
    [
      16,
      9,
      {
        "cost": 105.75,
        "seconds": 263
      }
    ],
    [
      16,
      10,
      {
        "cost": 330.78,
        "seconds": 742
      }
    ],
    [
      16,
      11,
      {
        "cost": 106.56,
        "seconds": 282
      }
    ],
    [
      16,
      12,
      {
        "cost": 169.79999999999999,
        "seconds": 383
      }
    ],
    [
      16,
      13,
      {
        "cost": 197.25,
        "seconds": 449
      }
    ],
    [
      16,
      14,
      {
        "cost": 215.76,
        "seconds": 464
      }
    ],
    [
      16,
      15,
      {
        "cost": 159.12,
        "seconds": 398
      }
    ],
    [
      17,
      1,
      {
        "cost": 56.82,
        "seconds": 118
      }
    ],
    [
      17,
      0,
      {
        "cost": 61.71,
        "seconds": 132
      }
    ],
    [
      17,
      3,
      {
        "cost": 150.57,
        "seconds": 362
      }
    ],
    [
      17,
      2,
      {
        "cost": 83.73,
        "seconds": 175
      }
    ],
    [
      17,
      5,
      {
        "cost": 129.39,
        "seconds": 286
      }
    ],
    [
      17,
      4,
      {
        "cost": 182.73,
        "seconds": 415
      }
    ],
    [
      17,
      7,
      {
        "cost": 250.98,
        "seconds": 563
      }
    ],
    [
      17,
      6,
      {
        "cost": 235.79999999999999,
        "seconds": 464
      }
    ],
    [
      17,
      9,
      {
        "cost": 104.07,
        "seconds": 256
      }
    ],
    [
      17,
      8,
      {
        "cost": 47.28,
        "seconds": 99
      }
    ],
    [
      17,
      11,
      {
        "cost": 80.1,
        "seconds": 171
      }
    ],
    [
      17,
      13,
      {
        "cost": 193.26,
        "seconds": 425
      }
    ],
    [
      17,
      12,
      {
        "cost": 165.81,
        "seconds": 360
      }
    ],
    [
      17,
      15,
      {
        "cost": 155.16,
        "seconds": 374
      }
    ],
    [
      17,
      16,
      {
        "cost": 44.699999999999999,
        "seconds": 87
      }
    ],
    [
      16,
      19,
      {
        "cost": 276.84,
        "seconds": 623
      }
    ],
    [
      18,
      17,
      {
        "cost": 144.87,
        "seconds": 314
      }
    ],
    [
      16,
      18,
      {
        "cost": 173.25,
        "seconds": 421
      }
    ],
    [
      19,
      17,
      {
        "cost": 347.55,
        "seconds": 789
      }
    ],
    [
      14,
      19,
      {
        "cost": 323.67,
        "seconds": 766
      }
    ],
    [
      18,
      15,
      {
        "cost": 300.03,
        "seconds": 688
      }
    ],
    [
      14,
      18,
      {
        "cost": 231.48,
        "seconds": 482
      }
    ],
    [
      19,
      15,
      {
        "cost": 233.25,
        "seconds": 545
      }
    ],
    [
      12,
      19,
      {
        "cost": 242.39999999999999,
        "seconds": 596
      }
    ],
    [
      18,
      13,
      {
        "cost": 214.56,
        "seconds": 512
      }
    ],
    [
      12,
      18,
      {
        "cost": 270.36,
        "seconds": 560
      }
    ],
    [
      19,
      13,
      {
        "cost": 315.45,
        "seconds": 776
      }
    ],
    [
      10,
      19,
      {
        "cost": 292.26,
        "seconds": 699
      }
    ],
    [
      18,
      11,
      {
        "cost": 122.52,
        "seconds": 354
      }
    ],
    [
      10,
      18,
      {
        "cost": 510.75,
        "seconds": 1090
      }
    ],
    [
      19,
      11,
      {
        "cost": 390.21,
        "seconds": 850
      }
    ],
    [
      8,
      19,
      {
        "cost": 262.77,
        "seconds": 605
      }
    ],
    [
      18,
      9,
      {
        "cost": 127.19999999999999,
        "seconds": 311
      }
    ],
    [
      8,
      18,
      {
        "cost": 190.56,
        "seconds": 393
      }
    ],
    [
      19,
      9,
      {
        "cost": 401.84999999999999,
        "seconds": 903
      }
    ],
    [
      6,
      19,
      {
        "cost": 177.66,
        "seconds": 429
      }
    ],
    [
      18,
      7,
      {
        "cost": 395.84999999999999,
        "seconds": 877
      }
    ],
    [
      6,
      18,
      {
        "cost": 386.31,
        "seconds": 825
      }
    ],
    [
      19,
      7,
      {
        "cost": 217.23,
        "seconds": 540
      }
    ],
    [
      4,
      19,
      {
        "cost": 278.46,
        "seconds": 694
      }
    ],
    [
      18,
      5,
      {
        "cost": 193.26,
        "seconds": 459
      }
    ],
    [
      4,
      18,
      {
        "cost": 237.48,
        "seconds": 533
      }
    ],
    [
      19,
      5,
      {
        "cost": 269.01,
        "seconds": 673
      }
    ],
    [
      2,
      19,
      {
        "cost": 354.53999999999999,
        "seconds": 795
      }
    ],
    [
      18,
      3,
      {
        "cost": 264.59999999999999,
        "seconds": 637
      }
    ],
    [
      2,
      18,
      {
        "cost": 112.2,
        "seconds": 328
      }
    ],
    [
      19,
      3,
      {
        "cost": 202.92,
        "seconds": 553
      }
    ],
    [
      0,
      19,
      {
        "cost": 215.34,
        "seconds": 501
      }
    ],
    [
      18,
      1,
      {
        "cost": 145.26,
        "seconds": 353
      }
    ],
    [
      0,
      18,
      {
        "cost": 204.72,
        "seconds": 425
      }
    ],
    [
      19,
      1,
      {
        "cost": 354.59999999999999,
        "seconds": 765
      }
    ]
  ]
}