{
  "nodes": [
    {
      "Delivery": {
        "bid": 665,
        "id": 10,
        "price": null,
        "cost": null,
        "direct_dist": 5675,
        "direct_cost": 171,
        "direct_time": 445
      }
    },
    {
      "Pickup": {
        "bid": 665,
        "id": 10,
        "price": null,
        "cost": null,
        "direct_dist": 5675,
        "direct_cost": 171,
        "direct_time": 445
      }
    },
    {
      "Delivery": {
        "bid": 905,
        "id": 8,
        "price": null,
        "cost": null,
        "direct_dist": 4761,
        "direct_cost": 143,
        "direct_time": 391
      }
    },
    {
      "Pickup": {
        "bid": 905,
        "id": 8,
        "price": null,
        "cost": null,
        "direct_dist": 4761,
        "direct_cost": 143,
        "direct_time": 391
      }
    },
    {
      "Delivery": {
        "bid": 539,
        "id": 7,
        "price": null,
        "cost": null,
        "direct_dist": 4964,
        "direct_cost": 149,
        "direct_time": 357
      }
    },
    {
      "Pickup": {
        "bid": 539,
        "id": 7,
        "price": null,
        "cost": null,
        "direct_dist": 4964,
        "direct_cost": 149,
        "direct_time": 357
      }
    },
    {
      "Delivery": {
        "bid": 3577,
        "id": 4,
        "price": null,
        "cost": null,
        "direct_dist": 14180,
        "direct_cost": 426,
        "direct_time": 978
      }
    },
    {
      "Pickup": {
        "bid": 3577,
        "id": 4,
        "price": null,
        "cost": null,
        "direct_dist": 14180,
        "direct_cost": 426,
        "direct_time": 978
      }
    },
    {
      "Delivery": {
        "bid": 954,
        "id": 3,
        "price": null,
        "cost": null,
        "direct_dist": 5877,
        "direct_cost": 177,
        "direct_time": 506
      }
    },
    {
      "Pickup": {
        "bid": 954,
        "id": 3,
        "price": null,
        "cost": null,
        "direct_dist": 5877,
        "direct_cost": 177,
        "direct_time": 506
      }
    },
    {
      "Delivery": {
        "bid": 337,
        "id": 1,
        "price": null,
        "cost": null,
        "direct_dist": 6070,
        "direct_cost": 183,
        "direct_time": 446
      }
    },
    {
      "Pickup": {
        "bid": 337,
        "id": 1,
        "price": null,
        "cost": null,
        "direct_dist": 6070,
        "direct_cost": 183,
        "direct_time": 446
      }
    },
    {
      "DriverStart": {
        "arrive_until": 2400,
        "direct_cost": 498
      }
    },
    {
      "DriverEnd": {
        "arrive_until": 2400,
        "direct_cost": 498
      }
    }
  ],
  "node_holes": [],
  "edge_property": "directed",
  "edges": [
    [
      0,
      10,
      {
        "cost": 252.92999999999999,
        "seconds": 569
      }
    ],
    [
      0,
      4,
      {
        "cost": 212.07,
        "seconds": 546
      }
    ],
    [
      0,
      6,
      {
        "cost": 344.84999999999999,
        "seconds": 764
      }
    ],
    [
      0,
      8,
      {
        "cost": 197.45999999999999,
        "seconds": 459
      }
    ],
    [
      0,
      2,
      {
        "cost": 160.76999999999999,
        "seconds": 374
      }
    ],
    [
      0,
      5,
      {
        "cost": 174.81,
        "seconds": 388
      }
    ],
    [
      0,
      7,
      {
        "cost": 166.32,
        "seconds": 409
      }
    ],
    [
      0,
      9,
      {
        "cost": 166.26,
        "seconds": 353
      }
    ],
    [
      1,
      10,
      {
        "cost": 159.0,
        "seconds": 383
      }
    ],
    [
      1,
      4,
      {
        "cost": 270.69,
        "seconds": 642
      }
    ],
    [
      1,
      11,
      {
        "cost": 199.35,
        "seconds": 490
      }
    ],
    [
      1,
      8,
      {
        "cost": 196.44,
        "seconds": 556
      }
    ],
    [
      1,
      2,
      {
        "cost": 128.64,
        "seconds": 374
      }
    ],
    [
      1,
      7,
      {
        "cost": 165.29999999999999,
        "seconds": 506
      }
    ],
    [
      1,
      5,
      {
        "cost": 254.76,
        "seconds": 540
      }
    ],
    [
      1,
      9,
      {
        "cost": 108.96,
        "seconds": 294
      }
    ],
    [
      1,
      3,
      {
        "cost": 240.14999999999999,
        "seconds": 572
      }
    ],
    [
      1,
      0,
      {
        "cost": 170.25,
        "seconds": 445
      }
    ],
    [
      2,
      1,
      {
        "cost": 142.62,
        "seconds": 324
      }
    ],
    [
      2,
      0,
      {
        "cost": 197.25,
        "seconds": 510
      }
    ],
    [
      2,
      6,
      {
        "cost": 370.44,
        "seconds": 832
      }
    ],
    [
      2,
      4,
      {
        "cost": 142.35,
        "seconds": 387
      }
    ],
    [
      2,
      8,
      {
        "cost": 105.39,
        "seconds": 294
      }
    ],
    [
      2,
      9,
      {
        "cost": 70.14,
        "seconds": 220
      }
    ],
    [
      2,
      7,
      {
        "cost": 74.25,
        "seconds": 244
      }
    ],
    [
      2,
      5,
      {
        "cost": 153.84,
        "seconds": 430
      }
    ],
    [
      3,
      1,
      {
        "cost": 247.47,
        "seconds": 584
      }
    ],
    [
      3,
      0,
      {
        "cost": 255.26999999999999,
        "seconds": 651
      }
    ],
    [
      3,
      4,
      {
        "cost": 74.25,
        "seconds": 228
      }
    ],
    [
      3,
      8,
      {
        "cost": 78.66,
        "seconds": 250
      }
    ],
    [
      3,
      7,
      {
        "cost": 133.74,
        "seconds": 378
      }
    ],
    [
      3,
      9,
      {
        "cost": 188.76,
        "seconds": 471
      }
    ],
    [
      3,
      5,
      {
        "cost": 210.42,
        "seconds": 539
      }
    ],
    [
      3,
      2,
      {
        "cost": 142.82999999999999,
        "seconds": 391
      }
    ],
    [
      4,
      0,
      {
        "cost": 218.42999999999999,
        "seconds": 539
      }
    ],
    [
      4,
      3,
      {
        "cost": 69.27,
        "seconds": 203
      }
    ],
    [
      4,
      2,
      {
        "cost": 163.17,
        "seconds": 407
      }
    ],
    [
      4,
      10,
      {
        "cost": 332.09999999999999,
        "seconds": 840
      }
    ],
    [
      4,
      6,
      {
        "cost": 465.27,
        "seconds": 1050
      }
    ],
    [
      4,
      8,
      {
        "cost": 45.239999999999998,
        "seconds": 119
      }
    ],
    [
      4,
      9,
      {
        "cost": 209.1,
        "seconds": 487
      }
    ],
    [
      4,
      7,
      {
        "cost": 97.02,
        "seconds": 237
      }
    ],
    [
      5,
      1,
      {
        "cost": 214.38,
        "seconds": 427
      }
    ],
    [
      5,
      0,
      {
        "cost": 166.5,
        "seconds": 380
      }
    ],
    [
      5,
      3,
      {
        "cost": 170.64,
        "seconds": 400
      }
    ],
    [
      5,
      2,
      {
        "cost": 181.79999999999999,
        "seconds": 393
      }
    ],
    [
      5,
      8,
      {
        "cost": 129.29999999999999,
        "seconds": 319
      }
    ],
    [
      5,
      7,
      {
        "cost": 102.72,
        "seconds": 250
      }
    ],
    [
      5,
      9,
      {
        "cost": 204.9,
        "seconds": 436
      }
    ],
    [
      5,
      4,
      {
        "cost": 148.92,
        "seconds": 357
      }
    ],
    [
      6,
      10,
      {
        "cost": 118.92,
        "seconds": 318
      }
    ],
    [
      7,
      1,
      {
        "cost": 197.54999999999999,
        "seconds": 470
      }
    ],
    [
      7,
      0,
      {
        "cost": 182.22,
        "seconds": 481
      }
    ],
    [
      7,
      3,
      {
        "cost": 75.24,
        "seconds": 193
      }
    ],
    [
      7,
      2,
      {
        "cost": 112.22999999999999,
        "seconds": 346
      }
    ],
    [
      7,
      5,
      {
        "cost": 122.22,
        "seconds": 331
      }
    ],
    [
      7,
      4,
      {
        "cost": 76.98,
        "seconds": 207
      }
    ],
    [
      7,
      10,
      {
        "cost": 333.47999999999998,
        "seconds": 784
      }
    ],
    [
      7,
      8,
      {
        "cost": 40.05,
        "seconds": 114
      }
    ],
    [
      7,
      11,
      {
        "cost": 365.76,
        "seconds": 853
      }
    ],
    [
      7,
      9,
      {
        "cost": 158.19,
        "seconds": 426
      }
    ],
    [
      7,
      6,
      {
        "cost": 425.4,
        "seconds": 978
      }
    ],
    [
      8,
      0,
      {
        "cost": 193.10999999999999,
        "seconds": 485
      }
    ],
    [
      8,
      2,
      {
        "cost": 119.78999999999999,
        "seconds": 333
      }
    ],
    [
      8,
      3,
      {
        "cost": 83.34,
        "seconds": 192
      }
    ],
    [
      8,
      4,
      {
        "cost": 36.99,
        "seconds": 94
      }
    ],
    [
      8,
      5,
      {
        "cost": 133.10999999999999,
        "seconds": 335
      }
    ],
    [
      8,
      6,
      {
        "cost": 432.96,
        "seconds": 965
      }
    ],
    [
      8,
      7,
      {
        "cost": 71.7,
        "seconds": 183
      }
    ],
    [
      8,
      10,
      {
        "cost": 341.03999999999999,
        "seconds": 771
      }
    ],
    [
      9,
      1,
      {
        "cost": 140.48999999999999,
        "seconds": 330
      }
    ],
    [
      9,
      0,
      {
        "cost": 208.67999999999999,
        "seconds": 477
      }
    ],
    [
      9,
      3,
      {
        "cost": 153.45,
        "seconds": 438
      }
    ],
    [
      9,
      2,
      {
        "cost": 72.86999999999999,
        "seconds": 246
      }
    ],
    [
      9,
      5,
      {
        "cost": 234.6,
        "seconds": 505
      }
    ],
    [
      9,
      4,
      {
        "cost": 224.64,
        "seconds": 582
      }
    ],
    [
      9,
      7,
      {
        "cost": 162.45,
        "seconds": 473
      }
    ],
    [
      9,
      10,
      {
        "cost": 158.88,
        "seconds": 495
      }
    ],
    [
      9,
      11,
      {
        "cost": 308.7,
        "seconds": 713
      }
    ],
    [
      9,
      8,
      {
        "cost": 176.31,
        "seconds": 506
      }
    ],
    [
      10,
      0,
      {
        "cost": 310.8,
        "seconds": 678
      }
    ],
    [
      10,
      6,
      {
        "cost": 103.35,
        "seconds": 253
      }
    ],
    [
      10,
      8,
      {
        "cost": 348.93,
        "seconds": 860
      }
    ],
    [
      11,
      1,
      {
        "cost": 176.64,
        "seconds": 442
      }
    ],
    [
      11,
      0,
      {
        "cost": 311.90999999999999,
        "seconds": 714
      }
    ],
    [
      11,
      5,
      {
        "cost": 398.31,
        "seconds": 883
      }
    ],
    [
      11,
      7,
      {
        "cost": 351.71999999999999,
        "seconds": 879
      }
    ],
    [
      11,
      6,
      {
        "cost": 148.26,
        "seconds": 348
      }
    ],
    [
      11,
      9,
      {
        "cost": 303.24,
        "seconds": 727
      }
    ],
    [
      11,
      10,
      {
        "cost": 182.1,
        "seconds": 446
      }
    ],
    [
      10,
      13,
      {
        "cost": 123.92999999999999,
        "seconds": 299
      }
    ],
    [
      12,
      11,
      {
        "cost": 417.3,
        "seconds": 894
      }
    ],
    [
      10,
      12,
      {
        "cost": 393.69,
        "seconds": 842
      }
    ],
    [
      13,
      11,
      {
        "cost": 135.32999999999999,
        "seconds": 382
      }
    ],
    [
      8,
      13,
      {
        "cost": 453.53999999999999,
        "seconds": 1012
      }
    ],
    [
      12,
      9,
      {
        "cost": 298.34999999999999,
        "seconds": 609
      }
    ],
    [
      8,
      12,
      {
        "cost": 243.0,
        "seconds": 518
      }
    ],
    [
      13,
      9,
      {
        "cost": 309.18,
        "seconds": 789
      }
    ],
    [
      6,
      13,
      {
        "cost": 23.939999999999999,
        "seconds": 73
      }
    ],
    [
      12,
      7,
      {
        "cost": 221.01,
        "seconds": 487
      }
    ],
    [
      6,
      12,
      {
        "cost": 476.60999999999998,
        "seconds": 993
      }
    ],
    [
      13,
      7,
      {
        "cost": 453.18,
        "seconds": 1040
      }
    ],
    [
      4,
      13,
      {
        "cost": 485.84999999999999,
        "seconds": 1096
      }
    ],
    [
      12,
      5,
      {
        "cost": 118.11,
        "seconds": 301
      }
    ],
    [
      4,
      12,
      {
        "cost": 268.32,
        "seconds": 572
      }
    ],
    [
      13,
      5,
      {
        "cost": 499.77,
        "seconds": 1044
      }
    ],
    [
      2,
      13,
      {
        "cost": 391.02,
        "seconds": 878
      }
    ],
    [
      12,
      3,
      {
        "cost": 288.9,
        "seconds": 637
      }
    ],
    [
      2,
      12,
      {
        "cost": 274.8,
        "seconds": 614
      }
    ],
    [
      13,
      3,
      {
        "cost": 434.88,
        "seconds": 1079
      }
    ],
    [
      0,
      13,
      {
        "cost": 365.43,
        "seconds": 810
      }
    ],
    [
      12,
      1,
      {
        "cost": 249.09,
        "seconds": 512
      }
    ],
    [
      0,
      12,
      {
        "cost": 132.6,
        "seconds": 325
      }
    ],
    [
      13,
      1,
      {
        "cost": 278.07,
        "seconds": 603
      }
    ]
  ]
}