[
  {
    "graph_name": "75_0",
    "n_pass": 2,
    "winning_ride": {
      "driver": {
        "arrive_until": 2400,
        "direct_cost": 457
      },
      "passengers": [
        {
          "bid": 4602,
          "id": 55,
          "price": 3346,
          "cost": 1172,
          "direct_dist": 19357,
          "direct_cost": 581,
          "direct_time": 1258
        },
        {
          "bid": 4186,
          "id": 51,
          "price": 2930,
          "cost": 815,
          "direct_dist": 13954,
          "direct_cost": 419,
          "direct_time": 898
        }
      ],
      "cost": 492,
      "virtual_welfare": 6801
    },
    "profit": 5784,
    "cost_profit": 1495.0,
    "welfare": 8296,
    "virtual_welfare": 6801,
    "running_time": 48
  },
  {
    "graph_name": "75_1",
    "n_pass": 2,
    "winning_ride": {
      "driver": {
        "arrive_until": 2400,
        "direct_cost": 432
      },
      "passengers": [
        {
          "bid": 4130,
          "id": 64,
          "price": 3343,
          "cost": 823,
          "direct_dist": 13767,
          "direct_cost": 414,
          "direct_time": 823
        },
        {
          "bid": 3638,
          "id": 48,
          "price": 3430,
          "cost": 910,
          "direct_dist": 14480,
          "direct_cost": 435,
          "direct_time": 1047
        }
      ],
      "cost": 628,
      "virtual_welfare": 6035
    },
    "profit": 6145,
    "cost_profit": 1105.0,
    "welfare": 7140,
    "virtual_welfare": 6035,
    "running_time": 87
  },
  {
    "graph_name": "75_10",
    "n_pass": 2,
    "winning_ride": {
      "driver": {
        "arrive_until": 2400,
        "direct_cost": 521
      },
      "passengers": [
        {
          "bid": 4333,
          "id": 53,
          "price": 4283,
          "cost": 1079,
          "direct_dist": 14444,
          "direct_cost": 434,
          "direct_time": 888
        },
        {
          "bid": 4928,
          "id": 11,
          "price": 4259,
          "cost": 1078,
          "direct_dist": 16428,
          "direct_cost": 493,
          "direct_time": 1034
        }
      ],
      "cost": 600,
      "virtual_welfare": 7104
    },
    "profit": 7942,
    "cost_profit": 1557.0,
    "welfare": 8661,
    "virtual_welfare": 7104,
    "running_time": 208
  },
  {
    "graph_name": "75_11",
    "n_pass": 3,
    "winning_ride": {
      "driver": {
        "arrive_until": 2400,
        "direct_cost": 466
      },
      "passengers": [
        {
          "bid": 4179,
          "id": 72,
          "price": 3956,
          "cost": 948,
          "direct_dist": 13931,
          "direct_cost": 418,
          "direct_time": 902
        },
        {
          "bid": 675,
          "id": 61,
          "price": 452,
          "cost": 269,
          "direct_dist": 2250,
          "direct_cost": 68,
          "direct_time": 177
        },
        {
          "bid": 4576,
          "id": 19,
          "price": 4053,
          "cost": 939,
          "direct_dist": 15256,
          "direct_cost": 458,
          "direct_time": 1036
        }
      ],
      "cost": 456,
      "virtual_welfare": 7274
    },
    "profit": 8005,
    "cost_profit": 1700.0,
    "welfare": 8974,
    "virtual_welfare": 7274,
    "running_time": 215
  },
  {
    "graph_name": "75_12",
    "n_pass": 2,
    "winning_ride": {
      "driver": {
        "arrive_until": 2400,
        "direct_cost": 471
      },
      "passengers": [
        {
          "bid": 4653,
          "id": 23,
          "price": 4606,
          "cost": 962,
          "direct_dist": 15510,
          "direct_cost": 466,
          "direct_time": 1011
        },
        {
          "bid": 5080,
          "id": 15,
          "price": 4744,
          "cost": 1100,
          "direct_dist": 16936,
          "direct_cost": 509,
          "direct_time": 1093
        }
      ],
      "cost": 492,
      "virtual_welfare": 7671
    },
    "profit": 8858,
    "cost_profit": 1570.0,
    "welfare": 9241,
    "virtual_welfare": 7671,
    "running_time": 29
  },
  {
    "graph_name": "75_13",
    "n_pass": 2,
    "winning_ride": {
      "driver": {
        "arrive_until": 2400,
        "direct_cost": 397
      },
      "passengers": [
        {
          "bid": 4926,
          "id": 62,
          "price": 3501,
          "cost": 1023,
          "direct_dist": 16421,
          "direct_cost": 493,
          "direct_time": 1085
        },
        {
          "bid": 4524,
          "id": 46,
          "price": 3099,
          "cost": 921,
          "direct_dist": 15082,
          "direct_cost": 453,
          "direct_time": 963
        }
      ],
      "cost": 604,
      "virtual_welfare": 7506
    },
    "profit": 5996,
    "cost_profit": 1340.0,
    "welfare": 8846,
    "virtual_welfare": 7506,
    "running_time": 63
  },
  {
    "graph_name": "75_14",
    "n_pass": 2,
    "winning_ride": {
      "driver": {
        "arrive_until": 2400,
        "direct_cost": 438
      },
      "passengers": [
        {
          "bid": 2565,
          "id": 45,
          "price": 2526,
          "cost": 835,
          "direct_dist": 13050,
          "direct_cost": 392,
          "direct_time": 825
        },
        {
          "bid": 5032,
          "id": 38,
          "price": 3923,
          "cost": 1110,
          "direct_dist": 16775,
          "direct_cost": 504,
          "direct_time": 1145
        }
      ],
      "cost": 570,
      "virtual_welfare": 5652
    },
    "profit": 5879,
    "cost_profit": 1375.0,
    "welfare": 7027,
    "virtual_welfare": 5652,
    "running_time": 188
  },
  {
    "graph_name": "75_15",
    "n_pass": 2,
    "winning_ride": {
      "driver": {
        "arrive_until": 2400,
        "direct_cost": 330
      },
      "passengers": [
        {
          "bid": 4534,
          "id": 65,
          "price": 4367,
          "cost": 995,
          "direct_dist": 15115,
          "direct_cost": 454,
          "direct_time": 982
        },
        {
          "bid": 5169,
          "id": 4,
          "price": 4619,
          "cost": 1052,
          "direct_dist": 17230,
          "direct_cost": 517,
          "direct_time": 1110
        }
      ],
      "cost": 619,
      "virtual_welfare": 7656
    },
    "profit": 8367,
    "cost_profit": 1428.0,
    "welfare": 9084,
    "virtual_welfare": 7656,
    "running_time": 196
  },
  {
    "graph_name": "75_16",
    "n_pass": 2,
    "winning_ride": {
      "driver": {
        "arrive_until": 2400,
        "direct_cost": 426
      },
      "passengers": [
        {
          "bid": 3161,
          "id": 68,
          "price": 3127,
          "cost": 744,
          "direct_dist": 10538,
          "direct_cost": 317,
          "direct_time": 702
        },
        {
          "bid": 3963,
          "id": 39,
          "price": 3827,
          "cost": 779,
          "direct_dist": 13211,
          "direct_cost": 397,
          "direct_time": 888
        }
      ],
      "cost": 530,
      "virtual_welfare": 5601
    },
    "profit": 6424,
    "cost_profit": 993.0,
    "welfare": 6594,
    "virtual_welfare": 5601,
    "running_time": 185
  },
  {
    "graph_name": "75_17",
    "n_pass": 3,
    "winning_ride": {
      "driver": {
        "arrive_until": 2400,
        "direct_cost": 498
      },
      "passengers": [
        {
          "bid": 5383,
          "id": 59,
          "price": 4894,
          "cost": 1115,
          "direct_dist": 17946,
          "direct_cost": 539,
          "direct_time": 1185
        },
        {
          "bid": 864,
          "id": 46,
          "price": 774,
          "cost": 358,
          "direct_dist": 2981,
          "direct_cost": 90,
          "direct_time": 220
        },
        {
          "bid": 4079,
          "id": 22,
          "price": 3989,
          "cost": 1001,
          "direct_dist": 13599,
          "direct_cost": 408,
          "direct_time": 889
        }
      ],
      "cost": 552,
      "virtual_welfare": 7852
    },
    "profit": 9105,
    "cost_profit": 1922.0,
    "welfare": 9774,
    "virtual_welfare": 7852,
    "running_time": 72
  },
  {
    "graph_name": "75_18",
    "n_pass": 3,
    "winning_ride": {
      "driver": {
        "arrive_until": 2400,
        "direct_cost": 472
      },
      "passengers": [
        {
          "bid": 4345,
          "id": 70,
          "price": 3773,
          "cost": 941,
          "direct_dist": 14589,
          "direct_cost": 438,
          "direct_time": 992
        },
        {
          "bid": 4577,
          "id": 48,
          "price": 3923,
          "cost": 1091,
          "direct_dist": 17416,
          "direct_cost": 523,
          "direct_time": 1130
        },
        {
          "bid": 1886,
          "id": 20,
          "price": 1301,
          "cost": 386,
          "direct_dist": 6288,
          "direct_cost": 189,
          "direct_time": 461
        }
      ],
      "cost": 468,
      "virtual_welfare": 8390
    },
    "profit": 8529,
    "cost_profit": 1950.0,
    "welfare": 10340,
    "virtual_welfare": 8390,
    "running_time": 54
  },
  {
    "graph_name": "75_19",
    "n_pass": 2,
    "winning_ride": {
      "driver": {
        "arrive_until": 2400,
        "direct_cost": 455
      },
      "passengers": [
        {
          "bid": 4572,
          "id": 32,
          "price": 3898,
          "cost": 967,
          "direct_dist": 15241,
          "direct_cost": 458,
          "direct_time": 1025
        },
        {
          "bid": 5552,
          "id": 1,
          "price": 4119,
          "cost": 1188,
          "direct_dist": 18509,
          "direct_cost": 556,
          "direct_time": 1200
        }
      ],
      "cost": 478,
      "virtual_welfare": 7969
    },
    "profit": 7539,
    "cost_profit": 1677.0,
    "welfare": 9646,
    "virtual_welfare": 7969,
    "running_time": 32
  },
  {
    "graph_name": "75_2",
    "n_pass": 2,
    "winning_ride": {
      "driver": {
        "arrive_until": 2400,
        "direct_cost": 426
      },
      "passengers": [
        {
          "bid": 4801,
          "id": 45,
          "price": 3758,
          "cost": 1090,
          "direct_dist": 16004,
          "direct_cost": 481,
          "direct_time": 983
        },
        {
          "bid": 4581,
          "id": 38,
          "price": 3679,
          "cost": 1131,
          "direct_dist": 16236,
          "direct_cost": 488,
          "direct_time": 1051
        }
      ],
      "cost": 553,
      "virtual_welfare": 7161
    },
    "profit": 6884,
    "cost_profit": 1668.0,
    "welfare": 8829,
    "virtual_welfare": 7161,
    "running_time": 176
  },
  {
    "graph_name": "75_20",
    "n_pass": 2,
    "winning_ride": {
      "driver": {
        "arrive_until": 2400,
        "direct_cost": 513
      },
      "passengers": [
        {
          "bid": 2581,
          "id": 74,
          "price": 2243,
          "cost": 501,
          "direct_dist": 8604,
          "direct_cost": 259,
          "direct_time": 685
        },
        {
          "bid": 2765,
          "id": 49,
          "price": 2427,
          "cost": 844,
          "direct_dist": 9217,
          "direct_cost": 277,
          "direct_time": 737
        }
      ],
      "cost": 329,
      "virtual_welfare": 4001
    },
    "profit": 4341,
    "cost_profit": 1016.0,
    "welfare": 5017,
    "virtual_welfare": 4001,
    "running_time": 18
  },
  {
    "graph_name": "75_21",
    "n_pass": 3,
    "winning_ride": {
      "driver": {
        "arrive_until": 2400,
        "direct_cost": 526
      },
      "passengers": [
        {
          "bid": 4346,
          "id": 38,
          "price": 2569,
          "cost": 1013,
          "direct_dist": 14488,
          "direct_cost": 435,
          "direct_time": 910
        },
        {
          "bid": 1195,
          "id": 13,
          "price": 861,
          "cost": 413,
          "direct_dist": 3985,
          "direct_cost": 120,
          "direct_time": 276
        },
        {
          "bid": 2394,
          "id": 6,
          "price": 2060,
          "cost": 574,
          "direct_dist": 7980,
          "direct_cost": 240,
          "direct_time": 561
        }
      ],
      "cost": 441,
      "virtual_welfare": 5935
    },
    "profit": 5049,
    "cost_profit": 1559.0,
    "welfare": 7494,
    "virtual_welfare": 5935,
    "running_time": 67
  },
  {
    "graph_name": "75_22",
    "n_pass": 3,
    "winning_ride": {
      "driver": {
        "arrive_until": 2400,
        "direct_cost": 438
      },
      "passengers": [
        {
          "bid": 1621,
          "id": 61,
          "price": 691,
          "cost": 395,
          "direct_dist": 5405,
          "direct_cost": 163,
          "direct_time": 380
        },
        {
          "bid": 4152,
          "id": 50,
          "price": 3208,
          "cost": 837,
          "direct_dist": 13840,
          "direct_cost": 416,
          "direct_time": 843
        },
        {
          "bid": 3428,
          "id": 5,
          "price": 2078,
          "cost": 1127,
          "direct_dist": 17785,
          "direct_cost": 534,
          "direct_time": 1152
        }
      ],
      "cost": 549,
      "virtual_welfare": 6842
    },
    "profit": 5428,
    "cost_profit": 1810.0,
    "welfare": 8652,
    "virtual_welfare": 6842,
    "running_time": 697
  },
  {
    "graph_name": "75_23",
    "n_pass": 2,
    "winning_ride": {
      "driver": {
        "arrive_until": 2400,
        "direct_cost": 534
      },
      "passengers": [
        {
          "bid": 3929,
          "id": 69,
          "price": 3305,
          "cost": 918,
          "direct_dist": 13098,
          "direct_cost": 393,
          "direct_time": 877
        },
        {
          "bid": 3334,
          "id": 20,
          "price": 3235,
          "cost": 848,
          "direct_dist": 11114,
          "direct_cost": 334,
          "direct_time": 837
        }
      ],
      "cost": 368,
      "virtual_welfare": 5497
    },
    "profit": 6172,
    "cost_profit": 1398.0,
    "welfare": 6895,
    "virtual_welfare": 5497,
    "running_time": 18
  },
  {
    "graph_name": "75_24",
    "n_pass": 2,
    "winning_ride": {
      "driver": {
        "arrive_until": 2400,
        "direct_cost": 499
      },
      "passengers": [
        {
          "bid": 4500,
          "id": 70,
          "price": 2971,
          "cost": 916,
          "direct_dist": 15000,
          "direct_cost": 450,
          "direct_time": 956
        },
        {
          "bid": 3502,
          "id": 22,
          "price": 2305,
          "cost": 794,
          "direct_dist": 11676,
          "direct_cost": 351,
          "direct_time": 801
        }
      ],
      "cost": 565,
      "virtual_welfare": 6292
    },
    "profit": 4711,
    "cost_profit": 1145.0,
    "welfare": 7437,
    "virtual_welfare": 6292,
    "running_time": 87
  },
  {
    "graph_name": "75_25",
    "n_pass": 1,
    "winning_ride": {
      "driver": {
        "arrive_until": 2400,
        "direct_cost": 323
      },
      "passengers": [
        {
          "bid": 5562,
          "id": 47,
          "price": 4491,
          "cost": 1003,
          "direct_dist": 18541,
          "direct_cost": 557,
          "direct_time": 1184
        }
      ],
      "cost": 528,
      "virtual_welfare": 4559
    },
    "profit": 3963,
    "cost_profit": 475.0,
    "welfare": 5034,
    "virtual_welfare": 4559,
    "running_time": 267
  },
  {
    "graph_name": "75_26",
    "n_pass": 3,
    "winning_ride": {
      "driver": {
        "arrive_until": 2400,
        "direct_cost": 481
      },
      "passengers": [
        {
          "bid": 4118,
          "id": 71,
          "price": 3774,
          "cost": 876,
          "direct_dist": 13727,
          "direct_cost": 412,
          "direct_time": 982
        },
        {
          "bid": 3969,
          "id": 21,
          "price": 3604,
          "cost": 806,
          "direct_dist": 13231,
          "direct_cost": 397,
          "direct_time": 858
        },
        {
          "bid": 1161,
          "id": 14,
          "price": 529,
          "cost": 403,
          "direct_dist": 5067,
          "direct_cost": 153,
          "direct_time": 336
        }
      ],
      "cost": 464,
      "virtual_welfare": 7163
    },
    "profit": 7443,
    "cost_profit": 1621.0,
    "welfare": 8784,
    "virtual_welfare": 7163,
    "running_time": 85
  },
  {
    "graph_name": "75_27",
    "n_pass": 2,
    "winning_ride": {
      "driver": {
        "arrive_until": 2400,
        "direct_cost": 485
      },
      "passengers": [
        {
          "bid": 4414,
          "id": 52,
          "price": 4283,
          "cost": 1117,
          "direct_dist": 17343,
          "direct_cost": 521,
          "direct_time": 1140
        },
        {
          "bid": 3374,
          "id": 18,
          "price": 3243,
          "cost": 859,
          "direct_dist": 11248,
          "direct_cost": 338,
          "direct_time": 764
        }
      ],
      "cost": 325,
      "virtual_welfare": 5812
    },
    "profit": 7201,
    "cost_profit": 1651.0,
    "welfare": 7463,
    "virtual_welfare": 5812,
    "running_time": 69
  },
  {
    "graph_name": "75_28",
    "n_pass": 3,
    "winning_ride": {
      "driver": {
        "arrive_until": 2400,
        "direct_cost": 421
      },
      "passengers": [
        {
          "bid": 1424,
          "id": 68,
          "price": 1355,
          "cost": 391,
          "direct_dist": 5634,
          "direct_cost": 170,
          "direct_time": 420
        },
        {
          "bid": 1558,
          "id": 42,
          "price": 1489,
          "cost": 436,
          "direct_dist": 5195,
          "direct_cost": 156,
          "direct_time": 399
        },
        {
          "bid": 4608,
          "id": 28,
          "price": 3874,
          "cost": 994,
          "direct_dist": 15360,
          "direct_cost": 461,
          "direct_time": 997
        }
      ],
      "cost": 537,
      "virtual_welfare": 5769
    },
    "profit": 6181,
    "cost_profit": 1284.0,
    "welfare": 7053,
    "virtual_welfare": 5769,
    "running_time": 227
  },
  {
    "graph_name": "75_29",
    "n_pass": 2,
    "winning_ride": {
      "driver": {
        "arrive_until": 2400,
        "direct_cost": 432
      },
      "passengers": [
        {
          "bid": 3513,
          "id": 34,
          "price": 3148,
          "cost": 896,
          "direct_dist": 12675,
          "direct_cost": 381,
          "direct_time": 877
        },
        {
          "bid": 3455,
          "id": 9,
          "price": 3266,
          "cost": 901,
          "direct_dist": 11519,
          "direct_cost": 346,
          "direct_time": 883
        }
      ],
      "cost": 499,
      "virtual_welfare": 5171
    },
    "profit": 5915,
    "cost_profit": 1298.0,
    "welfare": 6469,
    "virtual_welfare": 5171,
    "running_time": 33
  },
  {
    "graph_name": "75_3",
    "n_pass": 2,
    "winning_ride": {
      "driver": {
        "arrive_until": 2400,
        "direct_cost": 470
      },
      "passengers": [
        {
          "bid": 5740,
          "id": 48,
          "price": 3579,
          "cost": 1224,
          "direct_dist": 19136,
          "direct_cost": 575,
          "direct_time": 1255
        },
        {
          "bid": 4673,
          "id": 15,
          "price": 2803,
          "cost": 948,
          "direct_dist": 15577,
          "direct_cost": 468,
          "direct_time": 1027
        }
      ],
      "cost": 596,
      "virtual_welfare": 8241
    },
    "profit": 5786,
    "cost_profit": 1576.0,
    "welfare": 9817,
    "virtual_welfare": 8241,
    "running_time": 78
  },
  {
    "graph_name": "75_30",
    "n_pass": 2,
    "winning_ride": {
      "driver": {
        "arrive_until": 2400,
        "direct_cost": 413
      },
      "passengers": [
        {
          "bid": 3451,
          "id": 67,
          "price": 2667,
          "cost": 807,
          "direct_dist": 11505,
          "direct_cost": 346,
          "direct_time": 778
        },
        {
          "bid": 3257,
          "id": 30,
          "price": 2388,
          "cost": 924,
          "direct_dist": 15068,
          "direct_cost": 453,
          "direct_time": 1081
        }
      ],
      "cost": 464,
      "virtual_welfare": 4977
    },
    "profit": 4591,
    "cost_profit": 1267.0,
    "welfare": 6244,
    "virtual_welfare": 4977,
    "running_time": 84
  },
  {
    "graph_name": "75_31",
    "n_pass": 3,
    "winning_ride": {
      "driver": {
        "arrive_until": 2400,
        "direct_cost": 509
      },
      "passengers": [
        {
          "bid": 4959,
          "id": 68,
          "price": 4161,
          "cost": 1091,
          "direct_dist": 19211,
          "direct_cost": 577,
          "direct_time": 1176
        },
        {
          "bid": 2160,
          "id": 47,
          "price": 1914,
          "cost": 859,
          "direct_dist": 7201,
          "direct_cost": 217,
          "direct_time": 485
        },
        {
          "bid": 1713,
          "id": 12,
          "price": 1467,
          "cost": 502,
          "direct_dist": 5712,
          "direct_cost": 172,
          "direct_time": 366
        }
      ],
      "cost": 564,
      "virtual_welfare": 6380
    },
    "profit": 6978,
    "cost_profit": 1888.0,
    "welfare": 8268,
    "virtual_welfare": 6380,
    "running_time": 88
  },
  {
    "graph_name": "75_32",
    "n_pass": 2,
    "winning_ride": {
      "driver": {
        "arrive_until": 2400,
        "direct_cost": 592
      },
      "passengers": [
        {
          "bid": 4398,
          "id": 45,
          "price": 4162,
          "cost": 966,
          "direct_dist": 14661,
          "direct_cost": 440,
          "direct_time": 980
        },
        {
          "bid": 4060,
          "id": 38,
          "price": 3507,
          "cost": 930,
          "direct_dist": 13729,
          "direct_cost": 412,
          "direct_time": 865
        }
      ],
      "cost": 275,
      "virtual_welfare": 6562
    },
    "profit": 7394,
    "cost_profit": 1621.0,
    "welfare": 8183,
    "virtual_welfare": 6562,
    "running_time": 41
  },
  {
    "graph_name": "75_33",
    "n_pass": 2,
    "winning_ride": {
      "driver": {
        "arrive_until": 2400,
        "direct_cost": 454
      },
      "passengers": [
        {
          "bid": 3552,
          "id": 53,
          "price": 3442,
          "cost": 861,
          "direct_dist": 11842,
          "direct_cost": 356,
          "direct_time": 778
        },
        {
          "bid": 4243,
          "id": 46,
          "price": 4095,
          "cost": 905,
          "direct_dist": 14144,
          "direct_cost": 425,
          "direct_time": 967
        }
      ],
      "cost": 463,
      "virtual_welfare": 6029
    },
    "profit": 7074,
    "cost_profit": 1303.0,
    "welfare": 7332,
    "virtual_welfare": 6029,
    "running_time": 140
  },
  {
    "graph_name": "75_34",
    "n_pass": 2,
    "winning_ride": {
      "driver": {
        "arrive_until": 2400,
        "direct_cost": 556
      },
      "passengers": [
        {
          "bid": 4377,
          "id": 67,
          "price": 3935,
          "cost": 1118,
          "direct_dist": 17461,
          "direct_cost": 524,
          "direct_time": 1120
        },
        {
          "bid": 5646,
          "id": 37,
          "price": 3761,
          "cost": 1121,
          "direct_dist": 18821,
          "direct_cost": 565,
          "direct_time": 1215
        }
      ],
      "cost": 366,
      "virtual_welfare": 7784
    },
    "profit": 7330,
    "cost_profit": 1873.0,
    "welfare": 9657,
    "virtual_welfare": 7784,
    "running_time": 13
  },
  {
    "graph_name": "75_35",
    "n_pass": 3,
    "winning_ride": {
      "driver": {
        "arrive_until": 2400,
        "direct_cost": 424
      },
      "passengers": [
        {
          "bid": 4644,
          "id": 64,
          "price": 3923,
          "cost": 981,
          "direct_dist": 15483,
          "direct_cost": 465,
          "direct_time": 1044
        },
        {
          "bid": 1213,
          "id": 39,
          "price": 1085,
          "cost": 449,
          "direct_dist": 4666,
          "direct_cost": 140,
          "direct_time": 321
        },
        {
          "bid": 3172,
          "id": 6,
          "price": 3044,
          "cost": 866,
          "direct_dist": 12646,
          "direct_cost": 380,
          "direct_time": 827
        }
      ],
      "cost": 569,
      "virtual_welfare": 6733
    },
    "profit": 7483,
    "cost_profit": 1727.0,
    "welfare": 8460,
    "virtual_welfare": 6733,
    "running_time": 105
  },
  {
    "graph_name": "75_36",
    "n_pass": 2,
    "winning_ride": {
      "driver": {
        "arrive_until": 2400,
        "direct_cost": 478
      },
      "passengers": [
        {
          "bid": 4320,
          "id": 29,
          "price": 4101,
          "cost": 980,
          "direct_dist": 14403,
          "direct_cost": 433,
          "direct_time": 884
        },
        {
          "bid": 3071,
          "id": 23,
          "price": 3019,
          "cost": 696,
          "direct_dist": 10239,
          "direct_cost": 308,
          "direct_time": 666
        }
      ],
      "cost": 487,
      "virtual_welfare": 5715
    },
    "profit": 6633,
    "cost_profit": 1189.0,
    "welfare": 6904,
    "virtual_welfare": 5715,
    "running_time": 158
  },
  {
    "graph_name": "75_37",
    "n_pass": 3,
    "winning_ride": {
      "driver": {
        "arrive_until": 2400,
        "direct_cost": 434
      },
      "passengers": [
        {
          "bid": 4095,
          "id": 70,
          "price": 3554,
          "cost": 904,
          "direct_dist": 13650,
          "direct_cost": 410,
          "direct_time": 903
        },
        {
          "bid": 3614,
          "id": 62,
          "price": 3024,
          "cost": 791,
          "direct_dist": 12049,
          "direct_cost": 362,
          "direct_time": 822
        },
        {
          "bid": 1812,
          "id": 23,
          "price": 1241,
          "cost": 439,
          "direct_dist": 6328,
          "direct_cost": 190,
          "direct_time": 479
        }
      ],
      "cost": 506,
      "virtual_welfare": 7387
    },
    "profit": 7313,
    "cost_profit": 1628.0,
    "welfare": 9015,
    "virtual_welfare": 7387,
    "running_time": 223
  },
  {
    "graph_name": "75_38",
    "n_pass": 2,
    "winning_ride": {
      "driver": {
        "arrive_until": 2400,
        "direct_cost": 585
      },
      "passengers": [
        {
          "bid": 3779,
          "id": 22,
          "price": 3006,
          "cost": 722,
          "direct_dist": 12598,
          "direct_cost": 378,
          "direct_time": 884
        },
        {
          "bid": 5975,
          "id": 21,
          "price": 3733,
          "cost": 1180,
          "direct_dist": 19917,
          "direct_cost": 598,
          "direct_time": 1237
        }
      ],
      "cost": 384,
      "virtual_welfare": 7852
    },
    "profit": 6355,
    "cost_profit": 1518.0,
    "welfare": 9370,
    "virtual_welfare": 7852,
    "running_time": 90
  },
  {
    "graph_name": "75_39",
    "n_pass": 2,
    "winning_ride": {
      "driver": {
        "arrive_until": 2400,
        "direct_cost": 595
      },
      "passengers": [
        {
          "bid": 2976,
          "id": 19,
          "price": 2651,
          "cost": 653,
          "direct_dist": 9921,
          "direct_cost": 298,
          "direct_time": 822
        },
        {
          "bid": 2539,
          "id": 18,
          "price": 2524,
          "cost": 1062,
          "direct_dist": 17431,
          "direct_cost": 523,
          "direct_time": 1158
        }
      ],
      "cost": 319,
      "virtual_welfare": 3800
    },
    "profit": 4856,
    "cost_profit": 1396.0,
    "welfare": 5196,
    "virtual_welfare": 3800,
    "running_time": 16
  },
  {
    "graph_name": "75_4",
    "n_pass": 2,
    "winning_ride": {
      "driver": {
        "arrive_until": 2400,
        "direct_cost": 396
      },
      "passengers": [
        {
          "bid": 4658,
          "id": 69,
          "price": 4324,
          "cost": 930,
          "direct_dist": 15528,
          "direct_cost": 466,
          "direct_time": 1039
        },
        {
          "bid": 4444,
          "id": 43,
          "price": 4419,
          "cost": 1025,
          "direct_dist": 15248,
          "direct_cost": 458,
          "direct_time": 1009
        }
      ],
      "cost": 486,
      "virtual_welfare": 7147
    },
    "profit": 8257,
    "cost_profit": 1469.0,
    "welfare": 8616,
    "virtual_welfare": 7147,
    "running_time": 80
  },
  {
    "graph_name": "75_40",
    "n_pass": 2,
    "winning_ride": {
      "driver": {
        "arrive_until": 2400,
        "direct_cost": 513
      },
      "passengers": [
        {
          "bid": 3560,
          "id": 71,
          "price": 2338,
          "cost": 928,
          "direct_dist": 11868,
          "direct_cost": 357,
          "direct_time": 721
        },
        {
          "bid": 3464,
          "id": 57,
          "price": 2903,
          "cost": 736,
          "direct_dist": 11548,
          "direct_cost": 347,
          "direct_time": 811
        }
      ],
      "cost": 249,
      "virtual_welfare": 5360
    },
    "profit": 4992,
    "cost_profit": 1415.0,
    "welfare": 6775,
    "virtual_welfare": 5360,
    "running_time": 216
  },
  {
    "graph_name": "75_41",
    "n_pass": 2,
    "winning_ride": {
      "driver": {
        "arrive_until": 2400,
        "direct_cost": 395
      },
      "passengers": [
        {
          "bid": 6119,
          "id": 40,
          "price": 3736,
          "cost": 1204,
          "direct_dist": 20398,
          "direct_cost": 612,
          "direct_time": 1333
        },
        {
          "bid": 3505,
          "id": 34,
          "price": 3288,
          "cost": 746,
          "direct_dist": 11686,
          "direct_cost": 351,
          "direct_time": 801
        }
      ],
      "cost": 504,
      "virtual_welfare": 7674
    },
    "profit": 6520,
    "cost_profit": 1446.0,
    "welfare": 9120,
    "virtual_welfare": 7674,
    "running_time": 459
  },
  {
    "graph_name": "75_42",
    "n_pass": 2,
    "winning_ride": {
      "driver": {
        "arrive_until": 2400,
        "direct_cost": 403
      },
      "passengers": [
        {
          "bid": 3442,
          "id": 68,
          "price": 3185,
          "cost": 730,
          "direct_dist": 11476,
          "direct_cost": 345,
          "direct_time": 804
        },
        {
          "bid": 4130,
          "id": 27,
          "price": 3334,
          "cost": 887,
          "direct_dist": 13767,
          "direct_cost": 414,
          "direct_time": 951
        }
      ],
      "cost": 436,
      "virtual_welfare": 5955
    },
    "profit": 6083,
    "cost_profit": 1181.0,
    "welfare": 7136,
    "virtual_welfare": 5955,
    "running_time": 81
  },
  {
    "graph_name": "75_43",
    "n_pass": 2,
    "winning_ride": {
      "driver": {
        "arrive_until": 2400,
        "direct_cost": 515
      },
      "passengers": [
        {
          "bid": 3586,
          "id": 65,
          "price": 2171,
          "cost": 1018,
          "direct_dist": 14781,
          "direct_cost": 444,
          "direct_time": 1012
        },
        {
          "bid": 4206,
          "id": 45,
          "price": 3682,
          "cost": 1146,
          "direct_dist": 14023,
          "direct_cost": 421,
          "direct_time": 1011
        }
      ],
      "cost": 396,
      "virtual_welfare": 5628
    },
    "profit": 5457,
    "cost_profit": 1768.0,
    "welfare": 7396,
    "virtual_welfare": 5628,
    "running_time": 33
  },
  {
    "graph_name": "75_44",
    "n_pass": 3,
    "winning_ride": {
      "driver": {
        "arrive_until": 2400,
        "direct_cost": 498
      },
      "passengers": [
        {
          "bid": 4736,
          "id": 32,
          "price": 2189,
          "cost": 976,
          "direct_dist": 15788,
          "direct_cost": 474,
          "direct_time": 1066
        },
        {
          "bid": 5060,
          "id": 20,
          "price": 3935,
          "cost": 996,
          "direct_dist": 16868,
          "direct_cost": 507,
          "direct_time": 1089
        },
        {
          "bid": 939,
          "id": 15,
          "price": 290,
          "cost": 290,
          "direct_dist": 3744,
          "direct_cost": 113,
          "direct_time": 257
        }
      ],
      "cost": 450,
      "virtual_welfare": 8473
    },
    "profit": 5964,
    "cost_profit": 1812.0,
    "welfare": 10285,
    "virtual_welfare": 8473,
    "running_time": 46
  },
  {
    "graph_name": "75_45",
    "n_pass": 3,
    "winning_ride": {
      "driver": {
        "arrive_until": 2400,
        "direct_cost": 348
      },
      "passengers": [
        {
          "bid": 3632,
          "id": 68,
          "price": 3234,
          "cost": 793,
          "direct_dist": 12108,
          "direct_cost": 364,
          "direct_time": 812
        },
        {
          "bid": 2482,
          "id": 65,
          "price": 2114,
          "cost": 444,
          "direct_dist": 8275,
          "direct_cost": 249,
          "direct_time": 605
        },
        {
          "bid": 794,
          "id": 37,
          "price": 646,
          "cost": 379,
          "direct_dist": 2649,
          "direct_cost": 80,
          "direct_time": 207
        }
      ],
      "cost": 536,
      "virtual_welfare": 5292
    },
    "profit": 5458,
    "cost_profit": 1080.0,
    "welfare": 6372,
    "virtual_welfare": 5292,
    "running_time": 1252
  },
  {
    "graph_name": "75_46",
    "n_pass": 2,
    "winning_ride": {
      "driver": {
        "arrive_until": 2400,
        "direct_cost": 521
      },
      "passengers": [
        {
          "bid": 3620,
          "id": 16,
          "price": 3405,
          "cost": 903,
          "direct_dist": 12069,
          "direct_cost": 363,
          "direct_time": 755
        },
        {
          "bid": 3114,
          "id": 12,
          "price": 2899,
          "cost": 890,
          "direct_dist": 11299,
          "direct_cost": 339,
          "direct_time": 739
        }
      ],
      "cost": 424,
      "virtual_welfare": 4941
    },
    "profit": 5880,
    "cost_profit": 1369.0,
    "welfare": 6310,
    "virtual_welfare": 4941,
    "running_time": 22
  },
  {
    "graph_name": "75_47",
    "n_pass": 2,
    "winning_ride": {
      "driver": {
        "arrive_until": 2400,
        "direct_cost": 499
      },
      "passengers": [
        {
          "bid": 5037,
          "id": 26,
          "price": 4203,
          "cost": 1079,
          "direct_dist": 16793,
          "direct_cost": 504,
          "direct_time": 1062
        },
        {
          "bid": 3624,
          "id": 12,
          "price": 3182,
          "cost": 897,
          "direct_dist": 12081,
          "direct_cost": 363,
          "direct_time": 853
        }
      ],
      "cost": 365,
      "virtual_welfare": 6685
    },
    "profit": 7020,
    "cost_profit": 1611.0,
    "welfare": 8296,
    "virtual_welfare": 6685,
    "running_time": 222
  },
  {
    "graph_name": "75_48",
    "n_pass": 2,
    "winning_ride": {
      "driver": {
        "arrive_until": 2400,
        "direct_cost": 385
      },
      "passengers": [
        {
          "bid": 3930,
          "id": 44,
          "price": 3834,
          "cost": 1035,
          "direct_dist": 17939,
          "direct_cost": 539,
          "direct_time": 1229
        },
        {
          "bid": 3293,
          "id": 1,
          "price": 3197,
          "cost": 1238,
          "direct_dist": 20473,
          "direct_cost": 615,
          "direct_time": 1374
        }
      ],
      "cost": 611,
      "virtual_welfare": 4950
    },
    "profit": 6420,
    "cost_profit": 1662.0,
    "welfare": 6612,
    "virtual_welfare": 4950,
    "running_time": 77
  },
  {
    "graph_name": "75_49",
    "n_pass": 3,
    "winning_ride": {
      "driver": {
        "arrive_until": 2400,
        "direct_cost": 440
      },
      "passengers": [
        {
          "bid": 3743,
          "id": 30,
          "price": 3164,
          "cost": 812,
          "direct_dist": 12477,
          "direct_cost": 375,
          "direct_time": 800
        },
        {
          "bid": 1644,
          "id": 20,
          "price": 1332,
          "cost": 410,
          "direct_dist": 5483,
          "direct_cost": 165,
          "direct_time": 419
        },
        {
          "bid": 3945,
          "id": 19,
          "price": 3546,
          "cost": 882,
          "direct_dist": 13150,
          "direct_cost": 395,
          "direct_time": 874
        }
      ],
      "cost": 440,
      "virtual_welfare": 7228
    },
    "profit": 7602,
    "cost_profit": 1664.0,
    "welfare": 8892,
    "virtual_welfare": 7228,
    "running_time": 91
  },
  {
    "graph_name": "75_5",
    "n_pass": 2,
    "winning_ride": {
      "driver": {
        "arrive_until": 2400,
        "direct_cost": 419
      },
      "passengers": [
        {
          "bid": 3159,
          "id": 53,
          "price": 2565,
          "cost": 672,
          "direct_dist": 10531,
          "direct_cost": 316,
          "direct_time": 750
        },
        {
          "bid": 3749,
          "id": 40,
          "price": 2580,
          "cost": 761,
          "direct_dist": 12497,
          "direct_cost": 375,
          "direct_time": 814
        }
      ],
      "cost": 415,
      "virtual_welfare": 5475
    },
    "profit": 4730,
    "cost_profit": 1018.0,
    "welfare": 6493,
    "virtual_welfare": 5475,
    "running_time": 100
  },
  {
    "graph_name": "75_50",
    "n_pass": 3,
    "winning_ride": {
      "driver": {
        "arrive_until": 2400,
        "direct_cost": 458
      },
      "passengers": [
        {
          "bid": 3252,
          "id": 25,
          "price": 2432,
          "cost": 787,
          "direct_dist": 10840,
          "direct_cost": 326,
          "direct_time": 726
        },
        {
          "bid": 2551,
          "id": 7,
          "price": 2164,
          "cost": 704,
          "direct_dist": 8505,
          "direct_cost": 256,
          "direct_time": 605
        },
        {
          "bid": 1481,
          "id": 3,
          "price": 1094,
          "cost": 383,
          "direct_dist": 4939,
          "direct_cost": 149,
          "direct_time": 367
        }
      ],
      "cost": 228,
      "virtual_welfare": 5410
    },
    "profit": 5462,
    "cost_profit": 1646.0,
    "welfare": 7056,
    "virtual_welfare": 5410,
    "running_time": 109
  },
  {
    "graph_name": "75_51",
    "n_pass": 2,
    "winning_ride": {
      "driver": {
        "arrive_until": 2400,
        "direct_cost": 508
      },
      "passengers": [
        {
          "bid": 4820,
          "id": 56,
          "price": 4060,
          "cost": 1041,
          "direct_dist": 16069,
          "direct_cost": 483,
          "direct_time": 1108
        },
        {
          "bid": 3912,
          "id": 48,
          "price": 3773,
          "cost": 879,
          "direct_dist": 13106,
          "direct_cost": 394,
          "direct_time": 799
        }
      ],
      "cost": 388,
      "virtual_welfare": 6812
    },
    "profit": 7445,
    "cost_profit": 1532.0,
    "welfare": 8344,
    "virtual_welfare": 6812,
    "running_time": 23
  },
  {
    "graph_name": "75_52",
    "n_pass": 2,
    "winning_ride": {
      "driver": {
        "arrive_until": 2400,
        "direct_cost": 537
      },
      "passengers": [
        {
          "bid": 5714,
          "id": 50,
          "price": 4728,
          "cost": 1245,
          "direct_dist": 19048,
          "direct_cost": 572,
          "direct_time": 1258
        },
        {
          "bid": 3267,
          "id": 24,
          "price": 1561,
          "cost": 938,
          "direct_dist": 13254,
          "direct_cost": 398,
          "direct_time": 891
        }
      ],
      "cost": 424,
      "virtual_welfare": 6798
    },
    "profit": 5865,
    "cost_profit": 1759.0,
    "welfare": 8557,
    "virtual_welfare": 6798,
    "running_time": 87
  },
  {
    "graph_name": "75_53",
    "n_pass": 2,
    "winning_ride": {
      "driver": {
        "arrive_until": 2400,
        "direct_cost": 414
      },
      "passengers": [
        {
          "bid": 3875,
          "id": 36,
          "price": 2981,
          "cost": 936,
          "direct_dist": 12917,
          "direct_cost": 388,
          "direct_time": 794
        },
        {
          "bid": 4422,
          "id": 26,
          "price": 3676,
          "cost": 987,
          "direct_dist": 14741,
          "direct_cost": 443,
          "direct_time": 930
        }
      ],
      "cost": 488,
      "virtual_welfare": 6374
    },
    "profit": 6169,
    "cost_profit": 1435.0,
    "welfare": 7809,
    "virtual_welfare": 6374,
    "running_time": 86
  },
  {
    "graph_name": "75_54",
    "n_pass": 3,
    "winning_ride": {
      "driver": {
        "arrive_until": 2400,
        "direct_cost": 424
      },
      "passengers": [
        {
          "bid": 4567,
          "id": 55,
          "price": 3633,
          "cost": 928,
          "direct_dist": 15224,
          "direct_cost": 457,
          "direct_time": 876
        },
        {
          "bid": 1602,
          "id": 4,
          "price": 1411,
          "cost": 378,
          "direct_dist": 5342,
          "direct_cost": 161,
          "direct_time": 391
        },
        {
          "bid": 3134,
          "id": 2,
          "price": 2943,
          "cost": 772,
          "direct_dist": 12352,
          "direct_cost": 371,
          "direct_time": 758
        }
      ],
      "cost": 690,
      "virtual_welfare": 7225
    },
    "profit": 7297,
    "cost_profit": 1388.0,
    "welfare": 8613,
    "virtual_welfare": 7225,
    "running_time": 103
  },
  {
    "graph_name": "75_55",
    "n_pass": 2,
    "winning_ride": {
      "driver": {
        "arrive_until": 2400,
        "direct_cost": 595
      },
      "passengers": [
        {
          "bid": 4280,
          "id": 48,
          "price": 4239,
          "cost": 1246,
          "direct_dist": 19649,
          "direct_cost": 590,
          "direct_time": 1274
        },
        {
          "bid": 4875,
          "id": 36,
          "price": 4834,
          "cost": 1059,
          "direct_dist": 18117,
          "direct_cost": 544,
          "direct_time": 1196
        }
      ],
      "cost": 435,
      "virtual_welfare": 6850
    },
    "profit": 8638,
    "cost_profit": 1870.0,
    "welfare": 8720,
    "virtual_welfare": 6850,
    "running_time": 12
  },
  {
    "graph_name": "75_56",
    "n_pass": 3,
    "winning_ride": {
      "driver": {
        "arrive_until": 2400,
        "direct_cost": 485
      },
      "passengers": [
        {
          "bid": 3419,
          "id": 26,
          "price": 3376,
          "cost": 870,
          "direct_dist": 13640,
          "direct_cost": 410,
          "direct_time": 935
        },
        {
          "bid": 4338,
          "id": 20,
          "price": 4186,
          "cost": 931,
          "direct_dist": 14461,
          "direct_cost": 434,
          "direct_time": 916
        },
        {
          "bid": 849,
          "id": 6,
          "price": 806,
          "cost": 272,
          "direct_dist": 2833,
          "direct_cost": 85,
          "direct_time": 222
        }
      ],
      "cost": 499,
      "virtual_welfare": 6533
    },
    "profit": 7869,
    "cost_profit": 1574.0,
    "welfare": 8107,
    "virtual_welfare": 6533,
    "running_time": 67
  },
  {
    "graph_name": "75_57",
    "n_pass": 3,
    "winning_ride": {
      "driver": {
        "arrive_until": 2400,
        "direct_cost": 512
      },
      "passengers": [
        {
          "bid": 3469,
          "id": 61,
          "price": 3428,
          "cost": 871,
          "direct_dist": 11565,
          "direct_cost": 347,
          "direct_time": 715
        },
        {
          "bid": 135,
          "id": 25,
          "price": 111,
          "cost": 111,
          "direct_dist": 451,
          "direct_cost": 14,
          "direct_time": 30
        },
        {
          "bid": 4115,
          "id": 8,
          "price": 3560,
          "cost": 1027,
          "direct_dist": 13719,
          "direct_cost": 412,
          "direct_time": 871
        }
      ],
      "cost": 412,
      "virtual_welfare": 5710
    },
    "profit": 6687,
    "cost_profit": 1597.0,
    "welfare": 7307,
    "virtual_welfare": 5710,
    "running_time": 80
  },
  {
    "graph_name": "75_58",
    "n_pass": 2,
    "winning_ride": {
      "driver": {
        "arrive_until": 2400,
        "direct_cost": 460
      },
      "passengers": [
        {
          "bid": 3056,
          "id": 41,
          "price": 2667,
          "cost": 808,
          "direct_dist": 10187,
          "direct_cost": 306,
          "direct_time": 649
        },
        {
          "bid": 2245,
          "id": 20,
          "price": 2161,
          "cost": 721,
          "direct_dist": 8135,
          "direct_cost": 245,
          "direct_time": 540
        }
      ],
      "cost": 522,
      "virtual_welfare": 3772
    },
    "profit": 4306,
    "cost_profit": 1007.0,
    "welfare": 4779,
    "virtual_welfare": 3772,
    "running_time": 29
  },
  {
    "graph_name": "75_59",
    "n_pass": 2,
    "winning_ride": {
      "driver": {
        "arrive_until": 2400,
        "direct_cost": 538
      },
      "passengers": [
        {
          "bid": 2831,
          "id": 69,
          "price": 2803,
          "cost": 699,
          "direct_dist": 9437,
          "direct_cost": 284,
          "direct_time": 697
        },
        {
          "bid": 4011,
          "id": 42,
          "price": 3810,
          "cost": 965,
          "direct_dist": 13372,
          "direct_cost": 402,
          "direct_time": 895
        }
      ],
      "cost": 351,
      "virtual_welfare": 5178
    },
    "profit": 6262,
    "cost_profit": 1313.0,
    "welfare": 6491,
    "virtual_welfare": 5178,
    "running_time": 16
  },
  {
    "graph_name": "75_6",
    "n_pass": 2,
    "winning_ride": {
      "driver": {
        "arrive_until": 2400,
        "direct_cost": 492
      },
      "passengers": [
        {
          "bid": 5301,
          "id": 27,
          "price": 4595,
          "cost": 1056,
          "direct_dist": 17670,
          "direct_cost": 531,
          "direct_time": 1201
        },
        {
          "bid": 4914,
          "id": 23,
          "price": 3397,
          "cost": 1001,
          "direct_dist": 16380,
          "direct_cost": 492,
          "direct_time": 1145
        }
      ],
      "cost": 453,
      "virtual_welfare": 8158
    },
    "profit": 7539,
    "cost_profit": 1604.0,
    "welfare": 9762,
    "virtual_welfare": 8158,
    "running_time": 40
  },
  {
    "graph_name": "75_60",
    "n_pass": 2,
    "winning_ride": {
      "driver": {
        "arrive_until": 2400,
        "direct_cost": 456
      },
      "passengers": [
        {
          "bid": 6004,
          "id": 24,
          "price": 5112,
          "cost": 1166,
          "direct_dist": 20014,
          "direct_cost": 601,
          "direct_time": 1288
        },
        {
          "bid": 2701,
          "id": 14,
          "price": 1809,
          "cost": 701,
          "direct_dist": 9006,
          "direct_cost": 271,
          "direct_time": 598
        }
      ],
      "cost": 465,
      "virtual_welfare": 6838
    },
    "profit": 6456,
    "cost_profit": 1402.0,
    "welfare": 8240,
    "virtual_welfare": 6838,
    "running_time": 26
  },
  {
    "graph_name": "75_61",
    "n_pass": 2,
    "winning_ride": {
      "driver": {
        "arrive_until": 2400,
        "direct_cost": 544
      },
      "passengers": [
        {
          "bid": 4272,
          "id": 45,
          "price": 3805,
          "cost": 1077,
          "direct_dist": 14499,
          "direct_cost": 435,
          "direct_time": 1068
        },
        {
          "bid": 3820,
          "id": 32,
          "price": 3270,
          "cost": 1050,
          "direct_dist": 16151,
          "direct_cost": 485,
          "direct_time": 1023
        }
      ],
      "cost": 362,
      "virtual_welfare": 5965
    },
    "profit": 6713,
    "cost_profit": 1765.0,
    "welfare": 7730,
    "virtual_welfare": 5965,
    "running_time": 17
  },
  {
    "graph_name": "75_62",
    "n_pass": 2,
    "winning_ride": {
      "driver": {
        "arrive_until": 2400,
        "direct_cost": 508
      },
      "passengers": [
        {
          "bid": 3420,
          "id": 75,
          "price": 2549,
          "cost": 788,
          "direct_dist": 11402,
          "direct_cost": 343,
          "direct_time": 757
        },
        {
          "bid": 6115,
          "id": 14,
          "price": 4894,
          "cost": 1256,
          "direct_dist": 20386,
          "direct_cost": 612,
          "direct_time": 1327
        }
      ],
      "cost": 387,
      "virtual_welfare": 7491
    },
    "profit": 7056,
    "cost_profit": 1657.0,
    "welfare": 9148,
    "virtual_welfare": 7491,
    "running_time": 67
  },
  {
    "graph_name": "75_63",
    "n_pass": 2,
    "winning_ride": {
      "driver": {
        "arrive_until": 2400,
        "direct_cost": 402
      },
      "passengers": [
        {
          "bid": 3961,
          "id": 34,
          "price": 3727,
          "cost": 891,
          "direct_dist": 13204,
          "direct_cost": 397,
          "direct_time": 907
        },
        {
          "bid": 4810,
          "id": 28,
          "price": 4663,
          "cost": 932,
          "direct_dist": 16035,
          "direct_cost": 482,
          "direct_time": 1063
        }
      ],
      "cost": 382,
      "virtual_welfare": 6948
    },
    "profit": 8008,
    "cost_profit": 1441.0,
    "welfare": 8389,
    "virtual_welfare": 6948,
    "running_time": 47
  },
  {
    "graph_name": "75_64",
    "n_pass": 2,
    "winning_ride": {
      "driver": {
        "arrive_until": 2400,
        "direct_cost": 482
      },
      "passengers": [
        {
          "bid": 5418,
          "id": 32,
          "price": 4048,
          "cost": 1121,
          "direct_dist": 18063,
          "direct_cost": 542,
          "direct_time": 1180
        },
        {
          "bid": 5365,
          "id": 17,
          "price": 3947,
          "cost": 1020,
          "direct_dist": 18009,
          "direct_cost": 541,
          "direct_time": 1125
        }
      ],
      "cost": 550,
      "virtual_welfare": 8642
    },
    "profit": 7445,
    "cost_profit": 1591.0,
    "welfare": 10233,
    "virtual_welfare": 8642,
    "running_time": 104
  },
  {
    "graph_name": "75_65",
    "n_pass": 3,
    "winning_ride": {
      "driver": {
        "arrive_until": 2400,
        "direct_cost": 411
      },
      "passengers": [
        {
          "bid": 3302,
          "id": 50,
          "price": 3286,
          "cost": 828,
          "direct_dist": 12284,
          "direct_cost": 369,
          "direct_time": 849
        },
        {
          "bid": 3680,
          "id": 45,
          "price": 3601,
          "cost": 919,
          "direct_dist": 12267,
          "direct_cost": 369,
          "direct_time": 796
        },
        {
          "bid": 1324,
          "id": 37,
          "price": 1308,
          "cost": 287,
          "direct_dist": 4807,
          "direct_cost": 145,
          "direct_time": 324
        }
      ],
      "cost": 524,
      "virtual_welfare": 6272
    },
    "profit": 7671,
    "cost_profit": 1510.0,
    "welfare": 7782,
    "virtual_welfare": 6272,
    "running_time": 184
  },
  {
    "graph_name": "75_66",
    "n_pass": 2,
    "winning_ride": {
      "driver": {
        "arrive_until": 2400,
        "direct_cost": 432
      },
      "passengers": [
        {
          "bid": 5798,
          "id": 58,
          "price": 5126,
          "cost": 1235,
          "direct_dist": 19327,
          "direct_cost": 580,
          "direct_time": 1227
        },
        {
          "bid": 4371,
          "id": 46,
          "price": 4090,
          "cost": 974,
          "direct_dist": 14572,
          "direct_cost": 438,
          "direct_time": 953
        }
      ],
      "cost": 625,
      "virtual_welfare": 7960
    },
    "profit": 8591,
    "cost_profit": 1584.0,
    "welfare": 9544,
    "virtual_welfare": 7960,
    "running_time": 266
  },
  {
    "graph_name": "75_67",
    "n_pass": 2,
    "winning_ride": {
      "driver": {
        "arrive_until": 2400,
        "direct_cost": 455
      },
      "passengers": [
        {
          "bid": 3162,
          "id": 43,
          "price": 3048,
          "cost": 710,
          "direct_dist": 10542,
          "direct_cost": 317,
          "direct_time": 787
        },
        {
          "bid": 4472,
          "id": 4,
          "price": 4358,
          "cost": 1066,
          "direct_dist": 14907,
          "direct_cost": 448,
          "direct_time": 1031
        }
      ],
      "cost": 462,
      "virtual_welfare": 5858
    },
    "profit": 6944,
    "cost_profit": 1314.0,
    "welfare": 7172,
    "virtual_welfare": 5858,
    "running_time": 40
  },
  {
    "graph_name": "75_68",
    "n_pass": 2,
    "winning_ride": {
      "driver": {
        "arrive_until": 2400,
        "direct_cost": 436
      },
      "passengers": [
        {
          "bid": 3899,
          "id": 72,
          "price": 3286,
          "cost": 936,
          "direct_dist": 12997,
          "direct_cost": 390,
          "direct_time": 781
        },
        {
          "bid": 4419,
          "id": 47,
          "price": 3806,
          "cost": 968,
          "direct_dist": 14730,
          "direct_cost": 442,
          "direct_time": 949
        }
      ],
      "cost": 507,
      "virtual_welfare": 6414
    },
    "profit": 6585,
    "cost_profit": 1397.0,
    "welfare": 7811,
    "virtual_welfare": 6414,
    "running_time": 81
  },
  {
    "graph_name": "75_69",
    "n_pass": 3,
    "winning_ride": {
      "driver": {
        "arrive_until": 2400,
        "direct_cost": 481
      },
      "passengers": [
        {
          "bid": 4265,
          "id": 73,
          "price": 3348,
          "cost": 940,
          "direct_dist": 14218,
          "direct_cost": 427,
          "direct_time": 1087
        },
        {
          "bid": 1615,
          "id": 61,
          "price": 687,
          "cost": 320,
          "direct_dist": 5541,
          "direct_cost": 167,
          "direct_time": 373
        },
        {
          "bid": 4485,
          "id": 54,
          "price": 3442,
          "cost": 1034,
          "direct_dist": 14953,
          "direct_cost": 449,
          "direct_time": 987
        }
      ],
      "cost": 524,
      "virtual_welfare": 8071
    },
    "profit": 6953,
    "cost_profit": 1770.0,
    "welfare": 9841,
    "virtual_welfare": 8071,
    "running_time": 46
  },
  {
    "graph_name": "75_7",
    "n_pass": 2,
    "winning_ride": {
      "driver": {
        "arrive_until": 2400,
        "direct_cost": 469
      },
      "passengers": [
        {
          "bid": 5411,
          "id": 19,
          "price": 4601,
          "cost": 1124,
          "direct_dist": 18039,
          "direct_cost": 542,
          "direct_time": 1209
        },
        {
          "bid": 5634,
          "id": 4,
          "price": 4824,
          "cost": 1172,
          "direct_dist": 18782,
          "direct_cost": 564,
          "direct_time": 1212
        }
      ],
      "cost": 508,
      "virtual_welfare": 8749
    },
    "profit": 8917,
    "cost_profit": 1788.0,
    "welfare": 10537,
    "virtual_welfare": 8749,
    "running_time": 15
  },
  {
    "graph_name": "75_70",
    "n_pass": 2,
    "winning_ride": {
      "driver": {
        "arrive_until": 2400,
        "direct_cost": 406
      },
      "passengers": [
        {
          "bid": 5270,
          "id": 73,
          "price": 4277,
          "cost": 1128,
          "direct_dist": 17568,
          "direct_cost": 528,
          "direct_time": 1218
        },
        {
          "bid": 3832,
          "id": 72,
          "price": 1910,
          "cost": 793,
          "direct_dist": 12774,
          "direct_cost": 384,
          "direct_time": 799
        }
      ],
      "cost": 595,
      "virtual_welfare": 7181
    },
    "profit": 5592,
    "cost_profit": 1326.0,
    "welfare": 8507,
    "virtual_welfare": 7181,
    "running_time": 78
  },
  {
    "graph_name": "75_71",
    "n_pass": 2,
    "winning_ride": {
      "driver": {
        "arrive_until": 2400,
        "direct_cost": 528
      },
      "passengers": [
        {
          "bid": 4272,
          "id": 43,
          "price": 4184,
          "cost": 1059,
          "direct_dist": 14241,
          "direct_cost": 428,
          "direct_time": 938
        },
        {
          "bid": 4153,
          "id": 21,
          "price": 4065,
          "cost": 897,
          "direct_dist": 14570,
          "direct_cost": 438,
          "direct_time": 851
        }
      ],
      "cost": 457,
      "virtual_welfare": 6469
    },
    "profit": 7792,
    "cost_profit": 1499.0,
    "welfare": 7968,
    "virtual_welfare": 6469,
    "running_time": 56
  },
  {
    "graph_name": "75_72",
    "n_pass": 2,
    "winning_ride": {
      "driver": {
        "arrive_until": 2400,
        "direct_cost": 472
      },
      "passengers": [
        {
          "bid": 4366,
          "id": 55,
          "price": 3441,
          "cost": 863,
          "direct_dist": 14555,
          "direct_cost": 437,
          "direct_time": 920
        },
        {
          "bid": 3784,
          "id": 20,
          "price": 3541,
          "cost": 963,
          "direct_dist": 13504,
          "direct_cost": 406,
          "direct_time": 875
        }
      ],
      "cost": 428,
      "virtual_welfare": 6324
    },
    "profit": 6554,
    "cost_profit": 1398.0,
    "welfare": 7722,
    "virtual_welfare": 6324,
    "running_time": 273
  },
  {
    "graph_name": "75_73",
    "n_pass": 2,
    "winning_ride": {
      "driver": {
        "arrive_until": 2400,
        "direct_cost": 448
      },
      "passengers": [
        {
          "bid": 2983,
          "id": 54,
          "price": 2887,
          "cost": 686,
          "direct_dist": 9945,
          "direct_cost": 299,
          "direct_time": 627
        },
        {
          "bid": 4831,
          "id": 29,
          "price": 3968,
          "cost": 1068,
          "direct_dist": 16106,
          "direct_cost": 484,
          "direct_time": 1169
        }
      ],
      "cost": 529,
      "virtual_welfare": 6060
    },
    "profit": 6326,
    "cost_profit": 1225.0,
    "welfare": 7285,
    "virtual_welfare": 6060,
    "running_time": 440
  },
  {
    "graph_name": "75_74",
    "n_pass": 2,
    "winning_ride": {
      "driver": {
        "arrive_until": 2400,
        "direct_cost": 515
      },
      "passengers": [
        {
          "bid": 3351,
          "id": 8,
          "price": 2548,
          "cost": 812,
          "direct_dist": 11172,
          "direct_cost": 336,
          "direct_time": 704
        },
        {
          "bid": 3494,
          "id": 5,
          "price": 3185,
          "cost": 910,
          "direct_dist": 13041,
          "direct_cost": 392,
          "direct_time": 846
        }
      ],
      "cost": 398,
      "virtual_welfare": 5123
    },
    "profit": 5335,
    "cost_profit": 1324.0,
    "welfare": 6447,
    "virtual_welfare": 5123,
    "running_time": 52
  },
  {
    "graph_name": "75_75",
    "n_pass": 2,
    "winning_ride": {
      "driver": {
        "arrive_until": 2400,
        "direct_cost": 419
      },
      "passengers": [
        {
          "bid": 4016,
          "id": 74,
          "price": 2977,
          "cost": 913,
          "direct_dist": 13388,
          "direct_cost": 402,
          "direct_time": 856
        },
        {
          "bid": 4655,
          "id": 53,
          "price": 4072,
          "cost": 1001,
          "direct_dist": 15517,
          "direct_cost": 466,
          "direct_time": 905
        }
      ],
      "cost": 649,
      "virtual_welfare": 6757
    },
    "profit": 6400,
    "cost_profit": 1265.0,
    "welfare": 8022,
    "virtual_welfare": 6757,
    "running_time": 128
  },
  {
    "graph_name": "75_76",
    "n_pass": 2,
    "winning_ride": {
      "driver": {
        "arrive_until": 2400,
        "direct_cost": 463
      },
      "passengers": [
        {
          "bid": 3379,
          "id": 65,
          "price": 2676,
          "cost": 698,
          "direct_dist": 11266,
          "direct_cost": 338,
          "direct_time": 745
        },
        {
          "bid": 3260,
          "id": 26,
          "price": 2557,
          "cost": 751,
          "direct_dist": 11954,
          "direct_cost": 359,
          "direct_time": 944
        }
      ],
      "cost": 349,
      "virtual_welfare": 5190
    },
    "profit": 4884,
    "cost_profit": 1100.0,
    "welfare": 6290,
    "virtual_welfare": 5190,
    "running_time": 15
  },
  {
    "graph_name": "75_77",
    "n_pass": 2,
    "winning_ride": {
      "driver": {
        "arrive_until": 2400,
        "direct_cost": 519
      },
      "passengers": [
        {
          "bid": 3219,
          "id": 72,
          "price": 2311,
          "cost": 669,
          "direct_dist": 10732,
          "direct_cost": 322,
          "direct_time": 720
        },
        {
          "bid": 4139,
          "id": 62,
          "price": 3403,
          "cost": 947,
          "direct_dist": 13869,
          "direct_cost": 417,
          "direct_time": 960
        }
      ],
      "cost": 341,
      "virtual_welfare": 5742
    },
    "profit": 5373,
    "cost_profit": 1275.0,
    "welfare": 7017,
    "virtual_welfare": 5742,
    "running_time": 200
  },
  {
    "graph_name": "75_78",
    "n_pass": 2,
    "winning_ride": {
      "driver": {
        "arrive_until": 2400,
        "direct_cost": 554
      },
      "passengers": [
        {
          "bid": 4156,
          "id": 56,
          "price": 3498,
          "cost": 963,
          "direct_dist": 13855,
          "direct_cost": 416,
          "direct_time": 890
        },
        {
          "bid": 3923,
          "id": 48,
          "price": 3722,
          "cost": 1112,
          "direct_dist": 13077,
          "direct_cost": 393,
          "direct_time": 789
        }
      ],
      "cost": 478,
      "virtual_welfare": 6004
    },
    "profit": 6742,
    "cost_profit": 1597.0,
    "welfare": 7601,
    "virtual_welfare": 6004,
    "running_time": 93
  },
  {
    "graph_name": "75_79",
    "n_pass": 3,
    "winning_ride": {
      "driver": {
        "arrive_until": 2400,
        "direct_cost": 517
      },
      "passengers": [
        {
          "bid": 5252,
          "id": 68,
          "price": 2933,
          "cost": 1146,
          "direct_dist": 17509,
          "direct_cost": 526,
          "direct_time": 1112
        },
        {
          "bid": 1227,
          "id": 40,
          "price": 690,
          "cost": 273,
          "direct_dist": 4093,
          "direct_cost": 123,
          "direct_time": 269
        },
        {
          "bid": 4617,
          "id": 6,
          "price": 4080,
          "cost": 1151,
          "direct_dist": 15392,
          "direct_cost": 462,
          "direct_time": 1052
        }
      ],
      "cost": 455,
      "virtual_welfare": 8526
    },
    "profit": 7248,
    "cost_profit": 2115.0,
    "welfare": 10641,
    "virtual_welfare": 8526,
    "running_time": 94
  },
  {
    "graph_name": "75_8",
    "n_pass": 2,
    "winning_ride": {
      "driver": {
        "arrive_until": 2400,
        "direct_cost": 442
      },
      "passengers": [
        {
          "bid": 4037,
          "id": 67,
          "price": 3161,
          "cost": 927,
          "direct_dist": 14982,
          "direct_cost": 450,
          "direct_time": 934
        },
        {
          "bid": 3036,
          "id": 45,
          "price": 2740,
          "cost": 767,
          "direct_dist": 11431,
          "direct_cost": 343,
          "direct_time": 753
        }
      ],
      "cost": 428,
      "virtual_welfare": 5379
    },
    "profit": 5473,
    "cost_profit": 1266.0,
    "welfare": 6645,
    "virtual_welfare": 5379,
    "running_time": 145
  },
  {
    "graph_name": "75_80",
    "n_pass": 2,
    "winning_ride": {
      "driver": {
        "arrive_until": 2400,
        "direct_cost": 451
      },
      "passengers": [
        {
          "bid": 3753,
          "id": 59,
          "price": 3310,
          "cost": 782,
          "direct_dist": 12510,
          "direct_cost": 376,
          "direct_time": 781
        },
        {
          "bid": 5054,
          "id": 11,
          "price": 3673,
          "cost": 969,
          "direct_dist": 16847,
          "direct_cost": 506,
          "direct_time": 1104
        }
      ],
      "cost": 535,
      "virtual_welfare": 7056
    },
    "profit": 6448,
    "cost_profit": 1216.0,
    "welfare": 8272,
    "virtual_welfare": 7056,
    "running_time": 114
  },
  {
    "graph_name": "75_81",
    "n_pass": 2,
    "winning_ride": {
      "driver": {
        "arrive_until": 2400,
        "direct_cost": 391
      },
      "passengers": [
        {
          "bid": 3880,
          "id": 45,
          "price": 3670,
          "cost": 1116,
          "direct_dist": 17736,
          "direct_cost": 533,
          "direct_time": 1140
        },
        {
          "bid": 4832,
          "id": 1,
          "price": 3995,
          "cost": 1038,
          "direct_dist": 16109,
          "direct_cost": 484,
          "direct_time": 1010
        }
      ],
      "cost": 601,
      "virtual_welfare": 6558
    },
    "profit": 7064,
    "cost_profit": 1553.0,
    "welfare": 8111,
    "virtual_welfare": 6558,
    "running_time": 109
  },
  {
    "graph_name": "75_82",
    "n_pass": 2,
    "winning_ride": {
      "driver": {
        "arrive_until": 2400,
        "direct_cost": 478
      },
      "passengers": [
        {
          "bid": 3782,
          "id": 31,
          "price": 3171,
          "cost": 913,
          "direct_dist": 12607,
          "direct_cost": 379,
          "direct_time": 860
        },
        {
          "bid": 5149,
          "id": 4,
          "price": 4238,
          "cost": 1091,
          "direct_dist": 17165,
          "direct_cost": 515,
          "direct_time": 1088
        }
      ],
      "cost": 489,
      "virtual_welfare": 6927
    },
    "profit": 6920,
    "cost_profit": 1515.0,
    "welfare": 8442,
    "virtual_welfare": 6927,
    "running_time": 108
  },
  {
    "graph_name": "75_83",
    "n_pass": 3,
    "winning_ride": {
      "driver": {
        "arrive_until": 2400,
        "direct_cost": 528
      },
      "passengers": [
        {
          "bid": 4939,
          "id": 37,
          "price": 3675,
          "cost": 1020,
          "direct_dist": 16465,
          "direct_cost": 494,
          "direct_time": 1054
        },
        {
          "bid": 1574,
          "id": 28,
          "price": 506,
          "cost": 502,
          "direct_dist": 6691,
          "direct_cost": 201,
          "direct_time": 436
        },
        {
          "bid": 5465,
          "id": 8,
          "price": 4333,
          "cost": 1207,
          "direct_dist": 18219,
          "direct_cost": 547,
          "direct_time": 1177
        }
      ],
      "cost": 480,
      "virtual_welfare": 9249
    },
    "profit": 8034,
    "cost_profit": 2249.0,
    "welfare": 11498,
    "virtual_welfare": 9249,
    "running_time": 110
  },
  {
    "graph_name": "75_84",
    "n_pass": 2,
    "winning_ride": {
      "driver": {
        "arrive_until": 2400,
        "direct_cost": 410
      },
      "passengers": [
        {
          "bid": 4032,
          "id": 30,
          "price": 3963,
          "cost": 938,
          "direct_dist": 13441,
          "direct_cost": 404,
          "direct_time": 932
        },
        {
          "bid": 5222,
          "id": 4,
          "price": 4378,
          "cost": 1062,
          "direct_dist": 17579,
          "direct_cost": 528,
          "direct_time": 1100
        }
      ],
      "cost": 481,
      "virtual_welfare": 7254
    },
    "profit": 7860,
    "cost_profit": 1519.0,
    "welfare": 8773,
    "virtual_welfare": 7254,
    "running_time": 87
  },
  {
    "graph_name": "75_85",
    "n_pass": 2,
    "winning_ride": {
      "driver": {
        "arrive_until": 2400,
        "direct_cost": 446
      },
      "passengers": [
        {
          "bid": 2466,
          "id": 70,
          "price": 2178,
          "cost": 826,
          "direct_dist": 12544,
          "direct_cost": 377,
          "direct_time": 778
        },
        {
          "bid": 4468,
          "id": 13,
          "price": 4180,
          "cost": 1101,
          "direct_dist": 14895,
          "direct_cost": 447,
          "direct_time": 980
        }
      ],
      "cost": 530,
      "virtual_welfare": 5007
    },
    "profit": 5828,
    "cost_profit": 1397.0,
    "welfare": 6404,
    "virtual_welfare": 5007,
    "running_time": 35
  },
  {
    "graph_name": "75_86",
    "n_pass": 2,
    "winning_ride": {
      "driver": {
        "arrive_until": 2400,
        "direct_cost": 539
      },
      "passengers": [
        {
          "bid": 3973,
          "id": 70,
          "price": 3945,
          "cost": 773,
          "direct_dist": 13245,
          "direct_cost": 398,
          "direct_time": 867
        },
        {
          "bid": 4647,
          "id": 33,
          "price": 4170,
          "cost": 998,
          "direct_dist": 15492,
          "direct_cost": 465,
          "direct_time": 1103
        }
      ],
      "cost": 364,
      "virtual_welfare": 6849
    },
    "profit": 7751,
    "cost_profit": 1407.0,
    "welfare": 8256,
    "virtual_welfare": 6849,
    "running_time": 59
  },
  {
    "graph_name": "75_87",
    "n_pass": 3,
    "winning_ride": {
      "driver": {
        "arrive_until": 2400,
        "direct_cost": 435
      },
      "passengers": [
        {
          "bid": 3750,
          "id": 55,
          "price": 3367,
          "cost": 882,
          "direct_dist": 12500,
          "direct_cost": 375,
          "direct_time": 809
        },
        {
          "bid": 1326,
          "id": 54,
          "price": 943,
          "cost": 342,
          "direct_dist": 4421,
          "direct_cost": 133,
          "direct_time": 347
        },
        {
          "bid": 3774,
          "id": 2,
          "price": 3275,
          "cost": 790,
          "direct_dist": 12581,
          "direct_cost": 378,
          "direct_time": 758
        }
      ],
      "cost": 477,
      "virtual_welfare": 6836
    },
    "profit": 7108,
    "cost_profit": 1537.0,
    "welfare": 8373,
    "virtual_welfare": 6836,
    "running_time": 168
  },
  {
    "graph_name": "75_88",
    "n_pass": 3,
    "winning_ride": {
      "driver": {
        "arrive_until": 2400,
        "direct_cost": 390
      },
      "passengers": [
        {
          "bid": 2145,
          "id": 59,
          "price": 1194,
          "cost": 499,
          "direct_dist": 7150,
          "direct_cost": 215,
          "direct_time": 511
        },
        {
          "bid": 3024,
          "id": 54,
          "price": 2073,
          "cost": 806,
          "direct_dist": 10081,
          "direct_cost": 303,
          "direct_time": 594
        },
        {
          "bid": 3417,
          "id": 36,
          "price": 2491,
          "cost": 811,
          "direct_dist": 11391,
          "direct_cost": 342,
          "direct_time": 786
        }
      ],
      "cost": 622,
      "virtual_welfare": 6470
    },
    "profit": 5136,
    "cost_profit": 1494.0,
    "welfare": 7964,
    "virtual_welfare": 6470,
    "running_time": 117
  },
  {
    "graph_name": "75_89",
    "n_pass": 2,
    "winning_ride": {
      "driver": {
        "arrive_until": 2400,
        "direct_cost": 472
      },
      "passengers": [
        {
          "bid": 4618,
          "id": 41,
          "price": 3436,
          "cost": 898,
          "direct_dist": 15394,
          "direct_cost": 462,
          "direct_time": 981
        },
        {
          "bid": 5662,
          "id": 3,
          "price": 4957,
          "cost": 1133,
          "direct_dist": 18876,
          "direct_cost": 567,
          "direct_time": 1173
        }
      ],
      "cost": 610,
      "virtual_welfare": 8249
    },
    "profit": 7783,
    "cost_profit": 1421.0,
    "welfare": 9670,
    "virtual_welfare": 8249,
    "running_time": 43
  },
  {
    "graph_name": "75_9",
    "n_pass": 2,
    "winning_ride": {
      "driver": {
        "arrive_until": 2400,
        "direct_cost": 474
      },
      "passengers": [
        {
          "bid": 1126,
          "id": 51,
          "price": 964,
          "cost": 571,
          "direct_dist": 5481,
          "direct_cost": 165,
          "direct_time": 399
        },
        {
          "bid": 3930,
          "id": 44,
          "price": 3768,
          "cost": 1041,
          "direct_dist": 13101,
          "direct_cost": 394,
          "direct_time": 925
        }
      ],
      "cost": 366,
      "virtual_welfare": 3444
    },
    "profit": 4366,
    "cost_profit": 1246.0,
    "welfare": 4690,
    "virtual_welfare": 3444,
    "running_time": 47
  },
  {
    "graph_name": "75_90",
    "n_pass": 3,
    "winning_ride": {
      "driver": {
        "arrive_until": 2400,
        "direct_cost": 461
      },
      "passengers": [
        {
          "bid": 1119,
          "id": 71,
          "price": 1050,
          "cost": 418,
          "direct_dist": 3732,
          "direct_cost": 112,
          "direct_time": 309
        },
        {
          "bid": 2308,
          "id": 64,
          "price": 2239,
          "cost": 675,
          "direct_dist": 9951,
          "direct_cost": 299,
          "direct_time": 703
        },
        {
          "bid": 4810,
          "id": 43,
          "price": 4444,
          "cost": 1062,
          "direct_dist": 16034,
          "direct_cost": 482,
          "direct_time": 1004
        }
      ],
      "cost": 466,
      "virtual_welfare": 6082
    },
    "profit": 7267,
    "cost_profit": 1689.0,
    "welfare": 7771,
    "virtual_welfare": 6082,
    "running_time": 125
  },
  {
    "graph_name": "75_91",
    "n_pass": 2,
    "winning_ride": {
      "driver": {
        "arrive_until": 2400,
        "direct_cost": 510
      },
      "passengers": [
        {
          "bid": 4751,
          "id": 43,
          "price": 4626,
          "cost": 1015,
          "direct_dist": 15838,
          "direct_cost": 476,
          "direct_time": 974
        },
        {
          "bid": 4781,
          "id": 39,
          "price": 4685,
          "cost": 1074,
          "direct_dist": 15939,
          "direct_cost": 479,
          "direct_time": 1042
        }
      ],
      "cost": 491,
      "virtual_welfare": 7443
    },
    "profit": 8820,
    "cost_profit": 1598.0,
    "welfare": 9041,
    "virtual_welfare": 7443,
    "running_time": 84
  },
  {
    "graph_name": "75_92",
    "n_pass": 3,
    "winning_ride": {
      "driver": {
        "arrive_until": 2400,
        "direct_cost": 486
      },
      "passengers": [
        {
          "bid": 4022,
          "id": 68,
          "price": 3229,
          "cost": 794,
          "direct_dist": 13408,
          "direct_cost": 403,
          "direct_time": 836
        },
        {
          "bid": 725,
          "id": 30,
          "price": 256,
          "cost": 256,
          "direct_dist": 3443,
          "direct_cost": 104,
          "direct_time": 273
        },
        {
          "bid": 4221,
          "id": 10,
          "price": 3815,
          "cost": 911,
          "direct_dist": 14070,
          "direct_cost": 423,
          "direct_time": 973
        }
      ],
      "cost": 483,
      "virtual_welfare": 7007
    },
    "profit": 6817,
    "cost_profit": 1478.0,
    "welfare": 8485,
    "virtual_welfare": 7007,
    "running_time": 78
  },
  {
    "graph_name": "75_93",
    "n_pass": 2,
    "winning_ride": {
      "driver": {
        "arrive_until": 2400,
        "direct_cost": 362
      },
      "passengers": [
        {
          "bid": 4204,
          "id": 61,
          "price": 3772,
          "cost": 925,
          "direct_dist": 14093,
          "direct_cost": 423,
          "direct_time": 957
        },
        {
          "bid": 4526,
          "id": 32,
          "price": 3712,
          "cost": 865,
          "direct_dist": 15389,
          "direct_cost": 462,
          "direct_time": 967
        }
      ],
      "cost": 602,
      "virtual_welfare": 6940
    },
    "profit": 6882,
    "cost_profit": 1188.0,
    "welfare": 8128,
    "virtual_welfare": 6940,
    "running_time": 124
  },
  {
    "graph_name": "75_94",
    "n_pass": 3,
    "winning_ride": {
      "driver": {
        "arrive_until": 2400,
        "direct_cost": 480
      },
      "passengers": [
        {
          "bid": 4596,
          "id": 65,
          "price": 2519,
          "cost": 1012,
          "direct_dist": 15320,
          "direct_cost": 460,
          "direct_time": 1026
        },
        {
          "bid": 1536,
          "id": 33,
          "price": 887,
          "cost": 419,
          "direct_dist": 5120,
          "direct_cost": 154,
          "direct_time": 345
        },
        {
          "bid": 3189,
          "id": 23,
          "price": 2540,
          "cost": 908,
          "direct_dist": 10633,
          "direct_cost": 319,
          "direct_time": 655
        }
      ],
      "cost": 401,
      "virtual_welfare": 6982
    },
    "profit": 5545,
    "cost_profit": 1938.0,
    "welfare": 8920,
    "virtual_welfare": 6982,
    "running_time": 676
  },
  {
    "graph_name": "75_95",
    "n_pass": 3,
    "winning_ride": {
      "driver": {
        "arrive_until": 2400,
        "direct_cost": 477
      },
      "passengers": [
        {
          "bid": 3062,
          "id": 28,
          "price": 2929,
          "cost": 614,
          "direct_dist": 10209,
          "direct_cost": 307,
          "direct_time": 633
        },
        {
          "bid": 1215,
          "id": 7,
          "price": 1035,
          "cost": 236,
          "direct_dist": 4050,
          "direct_cost": 122,
          "direct_time": 310
        },
        {
          "bid": 3806,
          "id": 2,
          "price": 3673,
          "cost": 850,
          "direct_dist": 12688,
          "direct_cost": 381,
          "direct_time": 786
        }
      ],
      "cost": 428,
      "virtual_welfare": 6383
    },
    "profit": 7209,
    "cost_profit": 1272.0,
    "welfare": 7655,
    "virtual_welfare": 6383,
    "running_time": 269
  },
  {
    "graph_name": "75_96",
    "n_pass": 3,
    "winning_ride": {
      "driver": {
        "arrive_until": 2400,
        "direct_cost": 411
      },
      "passengers": [
        {
          "bid": 2308,
          "id": 66,
          "price": 631,
          "cost": 462,
          "direct_dist": 7695,
          "direct_cost": 231,
          "direct_time": 546
        },
        {
          "bid": 4316,
          "id": 34,
          "price": 2738,
          "cost": 956,
          "direct_dist": 14389,
          "direct_cost": 432,
          "direct_time": 946
        },
        {
          "bid": 4424,
          "id": 33,
          "price": 2747,
          "cost": 1045,
          "direct_dist": 14813,
          "direct_cost": 445,
          "direct_time": 916
        }
      ],
      "cost": 632,
      "virtual_welfare": 8585
    },
    "profit": 5484,
    "cost_profit": 1831.0,
    "welfare": 10416,
    "virtual_welfare": 8585,
    "running_time": 29
  },
  {
    "graph_name": "75_97",
    "n_pass": 3,
    "winning_ride": {
      "driver": {
        "arrive_until": 2400,
        "direct_cost": 582
      },
      "passengers": [
        {
          "bid": 3939,
          "id": 72,
          "price": 3724,
          "cost": 1023,
          "direct_dist": 13130,
          "direct_cost": 394,
          "direct_time": 886
        },
        {
          "bid": 310,
          "id": 54,
          "price": 232,
          "cost": 232,
          "direct_dist": 1334,
          "direct_cost": 41,
          "direct_time": 130
        },
        {
          "bid": 3915,
          "id": 44,
          "price": 3728,
          "cost": 1035,
          "direct_dist": 16127,
          "direct_cost": 484,
          "direct_time": 1092
        }
      ],
      "cost": 298,
      "virtual_welfare": 5874
    },
    "profit": 7386,
    "cost_profit": 1992.0,
    "welfare": 7866,
    "virtual_welfare": 5874,
    "running_time": 23
  },
  {
    "graph_name": "75_98",
    "n_pass": 2,
    "winning_ride": {
      "driver": {
        "arrive_until": 2400,
        "direct_cost": 487
      },
      "passengers": [
        {
          "bid": 3925,
          "id": 71,
          "price": 3568,
          "cost": 869,
          "direct_dist": 13085,
          "direct_cost": 393,
          "direct_time": 1043
        },
        {
          "bid": 3735,
          "id": 46,
          "price": 2311,
          "cost": 763,
          "direct_dist": 12451,
          "direct_cost": 374,
          "direct_time": 733
        }
      ],
      "cost": 328,
      "virtual_welfare": 6028
    },
    "profit": 5551,
    "cost_profit": 1304.0,
    "welfare": 7332,
    "virtual_welfare": 6028,
    "running_time": 107
  },
  {
    "graph_name": "75_99",
    "n_pass": 2,
    "winning_ride": {
      "driver": {
        "arrive_until": 2400,
        "direct_cost": 423
      },
      "passengers": [
        {
          "bid": 4837,
          "id": 63,
          "price": 4732,
          "cost": 897,
          "direct_dist": 16124,
          "direct_cost": 484,
          "direct_time": 1026
        },
        {
          "bid": 6221,
          "id": 35,
          "price": 5324,
          "cost": 1207,
          "direct_dist": 20739,
          "direct_cost": 623,
          "direct_time": 1277
        }
      ],
      "cost": 598,
      "virtual_welfare": 8954
    },
    "profit": 9458,
    "cost_profit": 1506.0,
    "welfare": 10460,
    "virtual_welfare": 8954,
    "running_time": 98
  }
]