[
  {
    "graph_name": "75_0",
    "n_pass": 2,
    "winning_ride": {
      "driver": {
        "arrive_until": 2400,
        "direct_cost": 457
      },
      "passengers": [
        {
          "bid": 4602,
          "id": 55,
          "price": 3036,
          "cost": 581,
          "direct_dist": 19357,
          "direct_cost": 581,
          "direct_time": 1258
        },
        {
          "bid": 4186,
          "id": 51,
          "price": 2629,
          "cost": 419,
          "direct_dist": 13954,
          "direct_cost": 419,
          "direct_time": 898
        }
      ],
      "cost": 492,
      "virtual_welfare": 8296
    },
    "profit": 5173,
    "cost_profit": 508.0,
    "welfare": 8296,
    "virtual_welfare": 8296,
    "running_time": 15
  },
  {
    "graph_name": "75_1",
    "n_pass": 2,
    "winning_ride": {
      "driver": {
        "arrive_until": 2400,
        "direct_cost": 432
      },
      "passengers": [
        {
          "bid": 4130,
          "id": 64,
          "price": 3569,
          "cost": 414,
          "direct_dist": 13767,
          "direct_cost": 414,
          "direct_time": 823
        },
        {
          "bid": 3638,
          "id": 48,
          "price": 3227,
          "cost": 435,
          "direct_dist": 14480,
          "direct_cost": 435,
          "direct_time": 1047
        }
      ],
      "cost": 628,
      "virtual_welfare": 7140
    },
    "profit": 6168,
    "cost_profit": 221.0,
    "welfare": 7140,
    "virtual_welfare": 7140,
    "running_time": 29
  },
  {
    "graph_name": "75_10",
    "n_pass": 3,
    "winning_ride": {
      "driver": {
        "arrive_until": 2400,
        "direct_cost": 521
      },
      "passengers": [
        {
          "bid": 4059,
          "id": 46,
          "price": 3885,
          "cost": 406,
          "direct_dist": 13532,
          "direct_cost": 406,
          "direct_time": 900
        },
        {
          "bid": 336,
          "id": 34,
          "price": 330,
          "cost": 131,
          "direct_dist": 4363,
          "direct_cost": 131,
          "direct_time": 321
        },
        {
          "bid": 4928,
          "id": 11,
          "price": 3978,
          "cost": 493,
          "direct_dist": 16428,
          "direct_cost": 493,
          "direct_time": 1034
        }
      ],
      "cost": 488,
      "virtual_welfare": 8835
    },
    "profit": 7705,
    "cost_profit": 542.0,
    "welfare": 8835,
    "virtual_welfare": 8835,
    "running_time": 28
  },
  {
    "graph_name": "75_11",
    "n_pass": 3,
    "winning_ride": {
      "driver": {
        "arrive_until": 2400,
        "direct_cost": 466
      },
      "passengers": [
        {
          "bid": 4179,
          "id": 72,
          "price": 3728,
          "cost": 418,
          "direct_dist": 13931,
          "direct_cost": 418,
          "direct_time": 902
        },
        {
          "bid": 675,
          "id": 61,
          "price": 224,
          "cost": 68,
          "direct_dist": 2250,
          "direct_cost": 68,
          "direct_time": 177
        },
        {
          "bid": 4576,
          "id": 19,
          "price": 4073,
          "cost": 458,
          "direct_dist": 15256,
          "direct_cost": 458,
          "direct_time": 1036
        }
      ],
      "cost": 456,
      "virtual_welfare": 8974
    },
    "profit": 7569,
    "cost_profit": 488.0,
    "welfare": 8974,
    "virtual_welfare": 8974,
    "running_time": 21
  },
  {
    "graph_name": "75_12",
    "n_pass": 3,
    "winning_ride": {
      "driver": {
        "arrive_until": 2400,
        "direct_cost": 471
      },
      "passengers": [
        {
          "bid": 4630,
          "id": 60,
          "price": 4437,
          "cost": 464,
          "direct_dist": 15434,
          "direct_cost": 464,
          "direct_time": 904
        },
        {
          "bid": 5080,
          "id": 15,
          "price": 4697,
          "cost": 509,
          "direct_dist": 16936,
          "direct_cost": 509,
          "direct_time": 1093
        },
        {
          "bid": 223,
          "id": 7,
          "price": 148,
          "cost": 73,
          "direct_dist": 2404,
          "direct_cost": 73,
          "direct_time": 212
        }
      ],
      "cost": 499,
      "virtual_welfare": 9434
    },
    "profit": 8783,
    "cost_profit": 547.0,
    "welfare": 9434,
    "virtual_welfare": 9434,
    "running_time": 23
  },
  {
    "graph_name": "75_13",
    "n_pass": 2,
    "winning_ride": {
      "driver": {
        "arrive_until": 2400,
        "direct_cost": 397
      },
      "passengers": [
        {
          "bid": 4926,
          "id": 62,
          "price": 3529,
          "cost": 493,
          "direct_dist": 16421,
          "direct_cost": 493,
          "direct_time": 1085
        },
        {
          "bid": 4524,
          "id": 46,
          "price": 3198,
          "cost": 453,
          "direct_dist": 15082,
          "direct_cost": 453,
          "direct_time": 963
        }
      ],
      "cost": 604,
      "virtual_welfare": 8846
    },
    "profit": 6123,
    "cost_profit": 342.0,
    "welfare": 8846,
    "virtual_welfare": 8846,
    "running_time": 28
  },
  {
    "graph_name": "75_14",
    "n_pass": 2,
    "winning_ride": {
      "driver": {
        "arrive_until": 2400,
        "direct_cost": 438
      },
      "passengers": [
        {
          "bid": 5032,
          "id": 38,
          "price": 3692,
          "cost": 504,
          "direct_dist": 16775,
          "direct_cost": 504,
          "direct_time": 1145
        },
        {
          "bid": 2614,
          "id": 7,
          "price": 2408,
          "cost": 347,
          "direct_dist": 11548,
          "direct_cost": 347,
          "direct_time": 724
        }
      ],
      "cost": 413,
      "virtual_welfare": 7233
    },
    "profit": 5687,
    "cost_profit": 438.0,
    "welfare": 7233,
    "virtual_welfare": 7233,
    "running_time": 27
  },
  {
    "graph_name": "75_15",
    "n_pass": 2,
    "winning_ride": {
      "driver": {
        "arrive_until": 2400,
        "direct_cost": 330
      },
      "passengers": [
        {
          "bid": 4534,
          "id": 65,
          "price": 4286,
          "cost": 454,
          "direct_dist": 15115,
          "direct_cost": 454,
          "direct_time": 982
        },
        {
          "bid": 5169,
          "id": 4,
          "price": 4562,
          "cost": 517,
          "direct_dist": 17230,
          "direct_cost": 517,
          "direct_time": 1110
        }
      ],
      "cost": 619,
      "virtual_welfare": 9084
    },
    "profit": 8229,
    "cost_profit": 352.0,
    "welfare": 9084,
    "virtual_welfare": 9084,
    "running_time": 31
  },
  {
    "graph_name": "75_16",
    "n_pass": 2,
    "winning_ride": {
      "driver": {
        "arrive_until": 2400,
        "direct_cost": 426
      },
      "passengers": [
        {
          "bid": 3161,
          "id": 68,
          "price": 3118,
          "cost": 317,
          "direct_dist": 10538,
          "direct_cost": 317,
          "direct_time": 702
        },
        {
          "bid": 3963,
          "id": 39,
          "price": 3959,
          "cost": 397,
          "direct_dist": 13211,
          "direct_cost": 397,
          "direct_time": 888
        }
      ],
      "cost": 530,
      "virtual_welfare": 6594
    },
    "profit": 6547,
    "cost_profit": 184.0,
    "welfare": 6594,
    "virtual_welfare": 6594,
    "running_time": 25
  },
  {
    "graph_name": "75_17",
    "n_pass": 3,
    "winning_ride": {
      "driver": {
        "arrive_until": 2400,
        "direct_cost": 498
      },
      "passengers": [
        {
          "bid": 5383,
          "id": 59,
          "price": 4893,
          "cost": 539,
          "direct_dist": 17946,
          "direct_cost": 539,
          "direct_time": 1185
        },
        {
          "bid": 864,
          "id": 46,
          "price": 644,
          "cost": 90,
          "direct_dist": 2981,
          "direct_cost": 90,
          "direct_time": 220
        },
        {
          "bid": 4079,
          "id": 22,
          "price": 3859,
          "cost": 408,
          "direct_dist": 13599,
          "direct_cost": 408,
          "direct_time": 889
        }
      ],
      "cost": 552,
      "virtual_welfare": 9774
    },
    "profit": 8844,
    "cost_profit": 485.0,
    "welfare": 9774,
    "virtual_welfare": 9774,
    "running_time": 12
  },
  {
    "graph_name": "75_18",
    "n_pass": 3,
    "winning_ride": {
      "driver": {
        "arrive_until": 2400,
        "direct_cost": 472
      },
      "passengers": [
        {
          "bid": 4345,
          "id": 70,
          "price": 3617,
          "cost": 438,
          "direct_dist": 14589,
          "direct_cost": 438,
          "direct_time": 992
        },
        {
          "bid": 4577,
          "id": 48,
          "price": 3574,
          "cost": 523,
          "direct_dist": 17416,
          "direct_cost": 523,
          "direct_time": 1130
        },
        {
          "bid": 1886,
          "id": 20,
          "price": 1266,
          "cost": 189,
          "direct_dist": 6288,
          "direct_cost": 189,
          "direct_time": 461
        }
      ],
      "cost": 468,
      "virtual_welfare": 10340
    },
    "profit": 7989,
    "cost_profit": 682.0,
    "welfare": 10340,
    "virtual_welfare": 10340,
    "running_time": 33
  },
  {
    "graph_name": "75_19",
    "n_pass": 2,
    "winning_ride": {
      "driver": {
        "arrive_until": 2400,
        "direct_cost": 455
      },
      "passengers": [
        {
          "bid": 4572,
          "id": 32,
          "price": 3811,
          "cost": 458,
          "direct_dist": 15241,
          "direct_cost": 458,
          "direct_time": 1025
        },
        {
          "bid": 5552,
          "id": 1,
          "price": 4033,
          "cost": 556,
          "direct_dist": 18509,
          "direct_cost": 556,
          "direct_time": 1200
        }
      ],
      "cost": 478,
      "virtual_welfare": 9646
    },
    "profit": 7366,
    "cost_profit": 536.0,
    "welfare": 9646,
    "virtual_welfare": 9646,
    "running_time": 9
  },
  {
    "graph_name": "75_2",
    "n_pass": 2,
    "winning_ride": {
      "driver": {
        "arrive_until": 2400,
        "direct_cost": 426
      },
      "passengers": [
        {
          "bid": 4801,
          "id": 45,
          "price": 3630,
          "cost": 481,
          "direct_dist": 16004,
          "direct_cost": 481,
          "direct_time": 983
        },
        {
          "bid": 4581,
          "id": 38,
          "price": 2515,
          "cost": 488,
          "direct_dist": 16236,
          "direct_cost": 488,
          "direct_time": 1051
        }
      ],
      "cost": 553,
      "virtual_welfare": 8829
    },
    "profit": 5592,
    "cost_profit": 416.0,
    "welfare": 8829,
    "virtual_welfare": 8829,
    "running_time": 27
  },
  {
    "graph_name": "75_20",
    "n_pass": 2,
    "winning_ride": {
      "driver": {
        "arrive_until": 2400,
        "direct_cost": 513
      },
      "passengers": [
        {
          "bid": 2581,
          "id": 74,
          "price": 2469,
          "cost": 259,
          "direct_dist": 8604,
          "direct_cost": 259,
          "direct_time": 685
        },
        {
          "bid": 2765,
          "id": 49,
          "price": 2526,
          "cost": 277,
          "direct_dist": 9217,
          "direct_cost": 277,
          "direct_time": 737
        }
      ],
      "cost": 329,
      "virtual_welfare": 5017
    },
    "profit": 4666,
    "cost_profit": 207.0,
    "welfare": 5017,
    "virtual_welfare": 5017,
    "running_time": 3
  },
  {
    "graph_name": "75_21",
    "n_pass": 3,
    "winning_ride": {
      "driver": {
        "arrive_until": 2400,
        "direct_cost": 526
      },
      "passengers": [
        {
          "bid": 4346,
          "id": 38,
          "price": 3071,
          "cost": 435,
          "direct_dist": 14488,
          "direct_cost": 435,
          "direct_time": 910
        },
        {
          "bid": 1195,
          "id": 13,
          "price": 990,
          "cost": 120,
          "direct_dist": 3985,
          "direct_cost": 120,
          "direct_time": 276
        },
        {
          "bid": 2394,
          "id": 6,
          "price": 2189,
          "cost": 240,
          "direct_dist": 7980,
          "direct_cost": 240,
          "direct_time": 561
        }
      ],
      "cost": 441,
      "virtual_welfare": 7494
    },
    "profit": 5809,
    "cost_profit": 354.0,
    "welfare": 7494,
    "virtual_welfare": 7494,
    "running_time": 14
  },
  {
    "graph_name": "75_22",
    "n_pass": 3,
    "winning_ride": {
      "driver": {
        "arrive_until": 2400,
        "direct_cost": 438
      },
      "passengers": [
        {
          "bid": 1621,
          "id": 61,
          "price": 632,
          "cost": 163,
          "direct_dist": 5405,
          "direct_cost": 163,
          "direct_time": 380
        },
        {
          "bid": 4152,
          "id": 50,
          "price": 3421,
          "cost": 416,
          "direct_dist": 13840,
          "direct_cost": 416,
          "direct_time": 843
        },
        {
          "bid": 3428,
          "id": 5,
          "price": 1305,
          "cost": 534,
          "direct_dist": 17785,
          "direct_cost": 534,
          "direct_time": 1152
        }
      ],
      "cost": 549,
      "virtual_welfare": 8652
    },
    "profit": 4809,
    "cost_profit": 564.0,
    "welfare": 8652,
    "virtual_welfare": 8652,
    "running_time": 28
  },
  {
    "graph_name": "75_23",
    "n_pass": 2,
    "winning_ride": {
      "driver": {
        "arrive_until": 2400,
        "direct_cost": 534
      },
      "passengers": [
        {
          "bid": 3929,
          "id": 69,
          "price": 3316,
          "cost": 393,
          "direct_dist": 13098,
          "direct_cost": 393,
          "direct_time": 877
        },
        {
          "bid": 3334,
          "id": 20,
          "price": 3242,
          "cost": 334,
          "direct_dist": 11114,
          "direct_cost": 334,
          "direct_time": 837
        }
      ],
      "cost": 368,
      "virtual_welfare": 6895
    },
    "profit": 6190,
    "cost_profit": 359.0,
    "welfare": 6895,
    "virtual_welfare": 6895,
    "running_time": 10
  },
  {
    "graph_name": "75_24",
    "n_pass": 2,
    "winning_ride": {
      "driver": {
        "arrive_until": 2400,
        "direct_cost": 499
      },
      "passengers": [
        {
          "bid": 4500,
          "id": 70,
          "price": 2845,
          "cost": 450,
          "direct_dist": 15000,
          "direct_cost": 450,
          "direct_time": 956
        },
        {
          "bid": 3502,
          "id": 22,
          "price": 2416,
          "cost": 351,
          "direct_dist": 11676,
          "direct_cost": 351,
          "direct_time": 801
        }
      ],
      "cost": 565,
      "virtual_welfare": 7437
    },
    "profit": 4696,
    "cost_profit": 236.0,
    "welfare": 7437,
    "virtual_welfare": 7437,
    "running_time": 10
  },
  {
    "graph_name": "75_25",
    "n_pass": 1,
    "winning_ride": {
      "driver": {
        "arrive_until": 2400,
        "direct_cost": 323
      },
      "passengers": [
        {
          "bid": 5562,
          "id": 47,
          "price": 4678,
          "cost": 557,
          "direct_dist": 18541,
          "direct_cost": 557,
          "direct_time": 1184
        }
      ],
      "cost": 528,
      "virtual_welfare": 5034
    },
    "profit": 4150,
    "cost_profit": 29.0,
    "welfare": 5034,
    "virtual_welfare": 5034,
    "running_time": 18
  },
  {
    "graph_name": "75_26",
    "n_pass": 3,
    "winning_ride": {
      "driver": {
        "arrive_until": 2400,
        "direct_cost": 481
      },
      "passengers": [
        {
          "bid": 4118,
          "id": 71,
          "price": 3932,
          "cost": 412,
          "direct_dist": 13727,
          "direct_cost": 412,
          "direct_time": 982
        },
        {
          "bid": 3969,
          "id": 21,
          "price": 3783,
          "cost": 397,
          "direct_dist": 13231,
          "direct_cost": 397,
          "direct_time": 858
        },
        {
          "bid": 1161,
          "id": 14,
          "price": 346,
          "cost": 153,
          "direct_dist": 5067,
          "direct_cost": 153,
          "direct_time": 336
        }
      ],
      "cost": 464,
      "virtual_welfare": 8784
    },
    "profit": 7597,
    "cost_profit": 498.0,
    "welfare": 8784,
    "virtual_welfare": 8784,
    "running_time": 10
  },
  {
    "graph_name": "75_27",
    "n_pass": 3,
    "winning_ride": {
      "driver": {
        "arrive_until": 2400,
        "direct_cost": 485
      },
      "passengers": [
        {
          "bid": 130,
          "id": 53,
          "price": 77,
          "cost": 77,
          "direct_dist": 2548,
          "direct_cost": 77,
          "direct_time": 213
        },
        {
          "bid": 4414,
          "id": 52,
          "price": 3824,
          "cost": 521,
          "direct_dist": 17343,
          "direct_cost": 521,
          "direct_time": 1140
        },
        {
          "bid": 3374,
          "id": 18,
          "price": 3089,
          "cost": 338,
          "direct_dist": 11248,
          "direct_cost": 338,
          "direct_time": 764
        }
      ],
      "cost": 398,
      "virtual_welfare": 7520
    },
    "profit": 6592,
    "cost_profit": 538.0,
    "welfare": 7520,
    "virtual_welfare": 7520,
    "running_time": 17
  },
  {
    "graph_name": "75_28",
    "n_pass": 2,
    "winning_ride": {
      "driver": {
        "arrive_until": 2400,
        "direct_cost": 421
      },
      "passengers": [
        {
          "bid": 2799,
          "id": 29,
          "price": 2666,
          "cost": 345,
          "direct_dist": 11487,
          "direct_cost": 345,
          "direct_time": 725
        },
        {
          "bid": 4608,
          "id": 28,
          "price": 3387,
          "cost": 461,
          "direct_dist": 15360,
          "direct_cost": 461,
          "direct_time": 997
        }
      ],
      "cost": 221,
      "virtual_welfare": 7186
    },
    "profit": 5832,
    "cost_profit": 585.0,
    "welfare": 7186,
    "virtual_welfare": 7186,
    "running_time": 18
  },
  {
    "graph_name": "75_29",
    "n_pass": 2,
    "winning_ride": {
      "driver": {
        "arrive_until": 2400,
        "direct_cost": 432
      },
      "passengers": [
        {
          "bid": 3513,
          "id": 34,
          "price": 3187,
          "cost": 381,
          "direct_dist": 12675,
          "direct_cost": 381,
          "direct_time": 877
        },
        {
          "bid": 3392,
          "id": 18,
          "price": 3384,
          "cost": 492,
          "direct_dist": 16397,
          "direct_cost": 492,
          "direct_time": 1072
        }
      ],
      "cost": 428,
      "virtual_welfare": 6477
    },
    "profit": 6143,
    "cost_profit": 445.0,
    "welfare": 6477,
    "virtual_welfare": 6477,
    "running_time": 9
  },
  {
    "graph_name": "75_3",
    "n_pass": 2,
    "winning_ride": {
      "driver": {
        "arrive_until": 2400,
        "direct_cost": 470
      },
      "passengers": [
        {
          "bid": 5740,
          "id": 48,
          "price": 3658,
          "cost": 575,
          "direct_dist": 19136,
          "direct_cost": 575,
          "direct_time": 1255
        },
        {
          "bid": 4673,
          "id": 15,
          "price": 2785,
          "cost": 468,
          "direct_dist": 15577,
          "direct_cost": 468,
          "direct_time": 1027
        }
      ],
      "cost": 596,
      "virtual_welfare": 9817
    },
    "profit": 5847,
    "cost_profit": 447.0,
    "welfare": 9817,
    "virtual_welfare": 9817,
    "running_time": 20
  },
  {
    "graph_name": "75_30",
    "n_pass": 2,
    "winning_ride": {
      "driver": {
        "arrive_until": 2400,
        "direct_cost": 413
      },
      "passengers": [
        {
          "bid": 3451,
          "id": 67,
          "price": 2689,
          "cost": 346,
          "direct_dist": 11505,
          "direct_cost": 346,
          "direct_time": 778
        },
        {
          "bid": 3257,
          "id": 30,
          "price": 2363,
          "cost": 453,
          "direct_dist": 15068,
          "direct_cost": 453,
          "direct_time": 1081
        }
      ],
      "cost": 464,
      "virtual_welfare": 6244
    },
    "profit": 4588,
    "cost_profit": 335.0,
    "welfare": 6244,
    "virtual_welfare": 6244,
    "running_time": 34
  },
  {
    "graph_name": "75_31",
    "n_pass": 3,
    "winning_ride": {
      "driver": {
        "arrive_until": 2400,
        "direct_cost": 509
      },
      "passengers": [
        {
          "bid": 4959,
          "id": 68,
          "price": 3674,
          "cost": 577,
          "direct_dist": 19211,
          "direct_cost": 577,
          "direct_time": 1176
        },
        {
          "bid": 2160,
          "id": 47,
          "price": 1513,
          "cost": 217,
          "direct_dist": 7201,
          "direct_cost": 217,
          "direct_time": 485
        },
        {
          "bid": 1713,
          "id": 12,
          "price": 1066,
          "cost": 172,
          "direct_dist": 5712,
          "direct_cost": 172,
          "direct_time": 366
        }
      ],
      "cost": 564,
      "virtual_welfare": 8268
    },
    "profit": 5689,
    "cost_profit": 402.0,
    "welfare": 8268,
    "virtual_welfare": 8268,
    "running_time": 10
  },
  {
    "graph_name": "75_32",
    "n_pass": 2,
    "winning_ride": {
      "driver": {
        "arrive_until": 2400,
        "direct_cost": 592
      },
      "passengers": [
        {
          "bid": 4398,
          "id": 45,
          "price": 4281,
          "cost": 440,
          "direct_dist": 14661,
          "direct_cost": 440,
          "direct_time": 980
        },
        {
          "bid": 4060,
          "id": 38,
          "price": 3943,
          "cost": 412,
          "direct_dist": 13729,
          "direct_cost": 412,
          "direct_time": 865
        }
      ],
      "cost": 275,
      "virtual_welfare": 8183
    },
    "profit": 7949,
    "cost_profit": 577.0,
    "welfare": 8183,
    "virtual_welfare": 8183,
    "running_time": 9
  },
  {
    "graph_name": "75_33",
    "n_pass": 2,
    "winning_ride": {
      "driver": {
        "arrive_until": 2400,
        "direct_cost": 454
      },
      "passengers": [
        {
          "bid": 3552,
          "id": 53,
          "price": 3369,
          "cost": 356,
          "direct_dist": 11842,
          "direct_cost": 356,
          "direct_time": 778
        },
        {
          "bid": 4243,
          "id": 46,
          "price": 4134,
          "cost": 425,
          "direct_dist": 14144,
          "direct_cost": 425,
          "direct_time": 967
        }
      ],
      "cost": 463,
      "virtual_welfare": 7332
    },
    "profit": 7040,
    "cost_profit": 318.0,
    "welfare": 7332,
    "virtual_welfare": 7332,
    "running_time": 15
  },
  {
    "graph_name": "75_34",
    "n_pass": 2,
    "winning_ride": {
      "driver": {
        "arrive_until": 2400,
        "direct_cost": 556
      },
      "passengers": [
        {
          "bid": 4377,
          "id": 67,
          "price": 4078,
          "cost": 524,
          "direct_dist": 17461,
          "direct_cost": 524,
          "direct_time": 1120
        },
        {
          "bid": 5646,
          "id": 37,
          "price": 3465,
          "cost": 565,
          "direct_dist": 18821,
          "direct_cost": 565,
          "direct_time": 1215
        }
      ],
      "cost": 366,
      "virtual_welfare": 9657
    },
    "profit": 7177,
    "cost_profit": 723.0,
    "welfare": 9657,
    "virtual_welfare": 9657,
    "running_time": 8
  },
  {
    "graph_name": "75_35",
    "n_pass": 3,
    "winning_ride": {
      "driver": {
        "arrive_until": 2400,
        "direct_cost": 424
      },
      "passengers": [
        {
          "bid": 4644,
          "id": 64,
          "price": 3822,
          "cost": 465,
          "direct_dist": 15483,
          "direct_cost": 465,
          "direct_time": 1044
        },
        {
          "bid": 1213,
          "id": 39,
          "price": 805,
          "cost": 140,
          "direct_dist": 4666,
          "direct_cost": 140,
          "direct_time": 321
        },
        {
          "bid": 3172,
          "id": 6,
          "price": 2764,
          "cost": 380,
          "direct_dist": 12646,
          "direct_cost": 380,
          "direct_time": 827
        }
      ],
      "cost": 569,
      "virtual_welfare": 8460
    },
    "profit": 6822,
    "cost_profit": 416.0,
    "welfare": 8460,
    "virtual_welfare": 8460,
    "running_time": 19
  },
  {
    "graph_name": "75_36",
    "n_pass": 3,
    "winning_ride": {
      "driver": {
        "arrive_until": 2400,
        "direct_cost": 478
      },
      "passengers": [
        {
          "bid": 3169,
          "id": 68,
          "price": 3001,
          "cost": 317,
          "direct_dist": 10566,
          "direct_cost": 317,
          "direct_time": 635
        },
        {
          "bid": 3667,
          "id": 48,
          "price": 3499,
          "cost": 367,
          "direct_dist": 12225,
          "direct_cost": 367,
          "direct_time": 755
        },
        {
          "bid": 870,
          "id": 16,
          "price": 702,
          "cost": 88,
          "direct_dist": 2902,
          "direct_cost": 88,
          "direct_time": 205
        }
      ],
      "cost": 459,
      "virtual_welfare": 7247
    },
    "profit": 6743,
    "cost_profit": 313.0,
    "welfare": 7247,
    "virtual_welfare": 7247,
    "running_time": 30
  },
  {
    "graph_name": "75_37",
    "n_pass": 3,
    "winning_ride": {
      "driver": {
        "arrive_until": 2400,
        "direct_cost": 434
      },
      "passengers": [
        {
          "bid": 4095,
          "id": 70,
          "price": 3460,
          "cost": 410,
          "direct_dist": 13650,
          "direct_cost": 410,
          "direct_time": 903
        },
        {
          "bid": 3614,
          "id": 62,
          "price": 3171,
          "cost": 362,
          "direct_dist": 12049,
          "direct_cost": 362,
          "direct_time": 822
        },
        {
          "bid": 1812,
          "id": 23,
          "price": 1102,
          "cost": 190,
          "direct_dist": 6328,
          "direct_cost": 190,
          "direct_time": 479
        }
      ],
      "cost": 506,
      "virtual_welfare": 9015
    },
    "profit": 7227,
    "cost_profit": 456.0,
    "welfare": 9015,
    "virtual_welfare": 9015,
    "running_time": 32
  },
  {
    "graph_name": "75_38",
    "n_pass": 2,
    "winning_ride": {
      "driver": {
        "arrive_until": 2400,
        "direct_cost": 585
      },
      "passengers": [
        {
          "bid": 3779,
          "id": 22,
          "price": 3117,
          "cost": 378,
          "direct_dist": 12598,
          "direct_cost": 378,
          "direct_time": 884
        },
        {
          "bid": 5975,
          "id": 21,
          "price": 3614,
          "cost": 598,
          "direct_dist": 19917,
          "direct_cost": 598,
          "direct_time": 1237
        }
      ],
      "cost": 384,
      "virtual_welfare": 9370
    },
    "profit": 6347,
    "cost_profit": 592.0,
    "welfare": 9370,
    "virtual_welfare": 9370,
    "running_time": 11
  },
  {
    "graph_name": "75_39",
    "n_pass": 2,
    "winning_ride": {
      "driver": {
        "arrive_until": 2400,
        "direct_cost": 595
      },
      "passengers": [
        {
          "bid": 3242,
          "id": 75,
          "price": 3227,
          "cost": 446,
          "direct_dist": 14862,
          "direct_cost": 446,
          "direct_time": 965
        },
        {
          "bid": 2376,
          "id": 32,
          "price": 2361,
          "cost": 368,
          "direct_dist": 12250,
          "direct_cost": 368,
          "direct_time": 777
        }
      ],
      "cost": 407,
      "virtual_welfare": 5211
    },
    "profit": 5181,
    "cost_profit": 407.0,
    "welfare": 5211,
    "virtual_welfare": 5211,
    "running_time": 6
  },
  {
    "graph_name": "75_4",
    "n_pass": 3,
    "winning_ride": {
      "driver": {
        "arrive_until": 2400,
        "direct_cost": 396
      },
      "passengers": [
        {
          "bid": 4658,
          "id": 69,
          "price": 4066,
          "cost": 466,
          "direct_dist": 15528,
          "direct_cost": 466,
          "direct_time": 1039
        },
        {
          "bid": 330,
          "id": 53,
          "price": 90,
          "cost": 34,
          "direct_dist": 1102,
          "direct_cost": 34,
          "direct_time": 106
        },
        {
          "bid": 4444,
          "id": 43,
          "price": 4204,
          "cost": 458,
          "direct_dist": 15248,
          "direct_cost": 458,
          "direct_time": 1009
        }
      ],
      "cost": 552,
      "virtual_welfare": 8880
    },
    "profit": 7808,
    "cost_profit": 406.0,
    "welfare": 8880,
    "virtual_welfare": 8880,
    "running_time": 30
  },
  {
    "graph_name": "75_40",
    "n_pass": 2,
    "winning_ride": {
      "driver": {
        "arrive_until": 2400,
        "direct_cost": 513
      },
      "passengers": [
        {
          "bid": 3560,
          "id": 71,
          "price": 2025,
          "cost": 357,
          "direct_dist": 11868,
          "direct_cost": 357,
          "direct_time": 721
        },
        {
          "bid": 3464,
          "id": 57,
          "price": 2732,
          "cost": 347,
          "direct_dist": 11548,
          "direct_cost": 347,
          "direct_time": 811
        }
      ],
      "cost": 249,
      "virtual_welfare": 6775
    },
    "profit": 4508,
    "cost_profit": 455.0,
    "welfare": 6775,
    "virtual_welfare": 6775,
    "running_time": 19
  },
  {
    "graph_name": "75_41",
    "n_pass": 2,
    "winning_ride": {
      "driver": {
        "arrive_until": 2400,
        "direct_cost": 395
      },
      "passengers": [
        {
          "bid": 6119,
          "id": 40,
          "price": 3494,
          "cost": 612,
          "direct_dist": 20398,
          "direct_cost": 612,
          "direct_time": 1333
        },
        {
          "bid": 3505,
          "id": 34,
          "price": 3343,
          "cost": 351,
          "direct_dist": 11686,
          "direct_cost": 351,
          "direct_time": 801
        }
      ],
      "cost": 504,
      "virtual_welfare": 9120
    },
    "profit": 6333,
    "cost_profit": 459.0,
    "welfare": 9120,
    "virtual_welfare": 9120,
    "running_time": 25
  },
  {
    "graph_name": "75_42",
    "n_pass": 2,
    "winning_ride": {
      "driver": {
        "arrive_until": 2400,
        "direct_cost": 403
      },
      "passengers": [
        {
          "bid": 3442,
          "id": 68,
          "price": 3307,
          "cost": 345,
          "direct_dist": 11476,
          "direct_cost": 345,
          "direct_time": 804
        },
        {
          "bid": 4130,
          "id": 27,
          "price": 3296,
          "cost": 414,
          "direct_dist": 13767,
          "direct_cost": 414,
          "direct_time": 951
        }
      ],
      "cost": 436,
      "virtual_welfare": 7136
    },
    "profit": 6167,
    "cost_profit": 323.0,
    "welfare": 7136,
    "virtual_welfare": 7136,
    "running_time": 20
  },
  {
    "graph_name": "75_43",
    "n_pass": 2,
    "winning_ride": {
      "driver": {
        "arrive_until": 2400,
        "direct_cost": 515
      },
      "passengers": [
        {
          "bid": 3586,
          "id": 65,
          "price": 1920,
          "cost": 444,
          "direct_dist": 14781,
          "direct_cost": 444,
          "direct_time": 1012
        },
        {
          "bid": 4206,
          "id": 45,
          "price": 3291,
          "cost": 421,
          "direct_dist": 14023,
          "direct_cost": 421,
          "direct_time": 1011
        }
      ],
      "cost": 396,
      "virtual_welfare": 7396
    },
    "profit": 4815,
    "cost_profit": 469.0,
    "welfare": 7396,
    "virtual_welfare": 7396,
    "running_time": 7
  },
  {
    "graph_name": "75_44",
    "n_pass": 3,
    "winning_ride": {
      "driver": {
        "arrive_until": 2400,
        "direct_cost": 498
      },
      "passengers": [
        {
          "bid": 4736,
          "id": 32,
          "price": 2001,
          "cost": 474,
          "direct_dist": 15788,
          "direct_cost": 474,
          "direct_time": 1066
        },
        {
          "bid": 5060,
          "id": 20,
          "price": 3622,
          "cost": 507,
          "direct_dist": 16868,
          "direct_cost": 507,
          "direct_time": 1089
        },
        {
          "bid": 939,
          "id": 15,
          "price": 113,
          "cost": 113,
          "direct_dist": 3744,
          "direct_cost": 113,
          "direct_time": 257
        }
      ],
      "cost": 450,
      "virtual_welfare": 10285
    },
    "profit": 5286,
    "cost_profit": 644.0,
    "welfare": 10285,
    "virtual_welfare": 10285,
    "running_time": 12
  },
  {
    "graph_name": "75_45",
    "n_pass": 3,
    "winning_ride": {
      "driver": {
        "arrive_until": 2400,
        "direct_cost": 348
      },
      "passengers": [
        {
          "bid": 3632,
          "id": 68,
          "price": 3175,
          "cost": 364,
          "direct_dist": 12108,
          "direct_cost": 364,
          "direct_time": 812
        },
        {
          "bid": 2482,
          "id": 65,
          "price": 2306,
          "cost": 249,
          "direct_dist": 8275,
          "direct_cost": 249,
          "direct_time": 605
        },
        {
          "bid": 794,
          "id": 37,
          "price": 618,
          "cost": 80,
          "direct_dist": 2649,
          "direct_cost": 80,
          "direct_time": 207
        }
      ],
      "cost": 536,
      "virtual_welfare": 6372
    },
    "profit": 5563,
    "cost_profit": 157.0,
    "welfare": 6372,
    "virtual_welfare": 6372,
    "running_time": 28
  },
  {
    "graph_name": "75_46",
    "n_pass": 2,
    "winning_ride": {
      "driver": {
        "arrive_until": 2400,
        "direct_cost": 521
      },
      "passengers": [
        {
          "bid": 3620,
          "id": 16,
          "price": 3242,
          "cost": 363,
          "direct_dist": 12069,
          "direct_cost": 363,
          "direct_time": 755
        },
        {
          "bid": 3114,
          "id": 12,
          "price": 2736,
          "cost": 339,
          "direct_dist": 11299,
          "direct_cost": 339,
          "direct_time": 739
        }
      ],
      "cost": 424,
      "virtual_welfare": 6310
    },
    "profit": 5554,
    "cost_profit": 278.0,
    "welfare": 6310,
    "virtual_welfare": 6310,
    "running_time": 8
  },
  {
    "graph_name": "75_47",
    "n_pass": 2,
    "winning_ride": {
      "driver": {
        "arrive_until": 2400,
        "direct_cost": 499
      },
      "passengers": [
        {
          "bid": 5037,
          "id": 26,
          "price": 4212,
          "cost": 504,
          "direct_dist": 16793,
          "direct_cost": 504,
          "direct_time": 1062
        },
        {
          "bid": 3624,
          "id": 12,
          "price": 2911,
          "cost": 363,
          "direct_dist": 12081,
          "direct_cost": 363,
          "direct_time": 853
        }
      ],
      "cost": 365,
      "virtual_welfare": 8296
    },
    "profit": 6758,
    "cost_profit": 502.0,
    "welfare": 8296,
    "virtual_welfare": 8296,
    "running_time": 22
  },
  {
    "graph_name": "75_48",
    "n_pass": 2,
    "winning_ride": {
      "driver": {
        "arrive_until": 2400,
        "direct_cost": 385
      },
      "passengers": [
        {
          "bid": 3930,
          "id": 44,
          "price": 3405,
          "cost": 539,
          "direct_dist": 17939,
          "direct_cost": 539,
          "direct_time": 1229
        },
        {
          "bid": 3293,
          "id": 1,
          "price": 2768,
          "cost": 615,
          "direct_dist": 20473,
          "direct_cost": 615,
          "direct_time": 1374
        }
      ],
      "cost": 611,
      "virtual_welfare": 6612
    },
    "profit": 5562,
    "cost_profit": 543.0,
    "welfare": 6612,
    "virtual_welfare": 6612,
    "running_time": 13
  },
  {
    "graph_name": "75_49",
    "n_pass": 3,
    "winning_ride": {
      "driver": {
        "arrive_until": 2400,
        "direct_cost": 440
      },
      "passengers": [
        {
          "bid": 3743,
          "id": 30,
          "price": 2942,
          "cost": 375,
          "direct_dist": 12477,
          "direct_cost": 375,
          "direct_time": 800
        },
        {
          "bid": 1644,
          "id": 20,
          "price": 1345,
          "cost": 165,
          "direct_dist": 5483,
          "direct_cost": 165,
          "direct_time": 419
        },
        {
          "bid": 3945,
          "id": 19,
          "price": 3245,
          "cost": 395,
          "direct_dist": 13150,
          "direct_cost": 395,
          "direct_time": 874
        }
      ],
      "cost": 439,
      "virtual_welfare": 8893
    },
    "profit": 7093,
    "cost_profit": 496.0,
    "welfare": 8893,
    "virtual_welfare": 8893,
    "running_time": 23
  },
  {
    "graph_name": "75_5",
    "n_pass": 2,
    "winning_ride": {
      "driver": {
        "arrive_until": 2400,
        "direct_cost": 419
      },
      "passengers": [
        {
          "bid": 3159,
          "id": 53,
          "price": 2714,
          "cost": 316,
          "direct_dist": 10531,
          "direct_cost": 316,
          "direct_time": 750
        },
        {
          "bid": 3749,
          "id": 40,
          "price": 2809,
          "cost": 375,
          "direct_dist": 12497,
          "direct_cost": 375,
          "direct_time": 814
        }
      ],
      "cost": 415,
      "virtual_welfare": 6493
    },
    "profit": 5108,
    "cost_profit": 276.0,
    "welfare": 6493,
    "virtual_welfare": 6493,
    "running_time": 10
  },
  {
    "graph_name": "75_50",
    "n_pass": 3,
    "winning_ride": {
      "driver": {
        "arrive_until": 2400,
        "direct_cost": 458
      },
      "passengers": [
        {
          "bid": 3252,
          "id": 25,
          "price": 1982,
          "cost": 326,
          "direct_dist": 10840,
          "direct_cost": 326,
          "direct_time": 726
        },
        {
          "bid": 2551,
          "id": 7,
          "price": 1932,
          "cost": 256,
          "direct_dist": 8505,
          "direct_cost": 256,
          "direct_time": 605
        },
        {
          "bid": 1481,
          "id": 3,
          "price": 862,
          "cost": 149,
          "direct_dist": 4939,
          "direct_cost": 149,
          "direct_time": 367
        }
      ],
      "cost": 228,
      "virtual_welfare": 7056
    },
    "profit": 4548,
    "cost_profit": 503.0,
    "welfare": 7056,
    "virtual_welfare": 7056,
    "running_time": 19
  },
  {
    "graph_name": "75_51",
    "n_pass": 2,
    "winning_ride": {
      "driver": {
        "arrive_until": 2400,
        "direct_cost": 508
      },
      "passengers": [
        {
          "bid": 4820,
          "id": 56,
          "price": 4049,
          "cost": 483,
          "direct_dist": 16069,
          "direct_cost": 483,
          "direct_time": 1108
        },
        {
          "bid": 3912,
          "id": 48,
          "price": 3777,
          "cost": 394,
          "direct_dist": 13106,
          "direct_cost": 394,
          "direct_time": 799
        }
      ],
      "cost": 388,
      "virtual_welfare": 8344
    },
    "profit": 7438,
    "cost_profit": 489.0,
    "welfare": 8344,
    "virtual_welfare": 8344,
    "running_time": 11
  },
  {
    "graph_name": "75_52",
    "n_pass": 2,
    "winning_ride": {
      "driver": {
        "arrive_until": 2400,
        "direct_cost": 537
      },
      "passengers": [
        {
          "bid": 5714,
          "id": 50,
          "price": 4790,
          "cost": 572,
          "direct_dist": 19048,
          "direct_cost": 572,
          "direct_time": 1258
        },
        {
          "bid": 3267,
          "id": 24,
          "price": 1478,
          "cost": 398,
          "direct_dist": 13254,
          "direct_cost": 398,
          "direct_time": 891
        }
      ],
      "cost": 424,
      "virtual_welfare": 8557
    },
    "profit": 5844,
    "cost_profit": 546.0,
    "welfare": 8557,
    "virtual_welfare": 8557,
    "running_time": 18
  },
  {
    "graph_name": "75_53",
    "n_pass": 2,
    "winning_ride": {
      "driver": {
        "arrive_until": 2400,
        "direct_cost": 414
      },
      "passengers": [
        {
          "bid": 3875,
          "id": 36,
          "price": 2784,
          "cost": 388,
          "direct_dist": 12917,
          "direct_cost": 388,
          "direct_time": 794
        },
        {
          "bid": 4422,
          "id": 26,
          "price": 3715,
          "cost": 443,
          "direct_dist": 14741,
          "direct_cost": 443,
          "direct_time": 930
        }
      ],
      "cost": 488,
      "virtual_welfare": 7809
    },
    "profit": 6011,
    "cost_profit": 343.0,
    "welfare": 7809,
    "virtual_welfare": 7809,
    "running_time": 24
  },
  {
    "graph_name": "75_54",
    "n_pass": 3,
    "winning_ride": {
      "driver": {
        "arrive_until": 2400,
        "direct_cost": 424
      },
      "passengers": [
        {
          "bid": 4567,
          "id": 55,
          "price": 3686,
          "cost": 457,
          "direct_dist": 15224,
          "direct_cost": 457,
          "direct_time": 876
        },
        {
          "bid": 1602,
          "id": 4,
          "price": 1275,
          "cost": 161,
          "direct_dist": 5342,
          "direct_cost": 161,
          "direct_time": 391
        },
        {
          "bid": 3134,
          "id": 2,
          "price": 2807,
          "cost": 371,
          "direct_dist": 12352,
          "direct_cost": 371,
          "direct_time": 758
        }
      ],
      "cost": 690,
      "virtual_welfare": 8613
    },
    "profit": 7078,
    "cost_profit": 299.0,
    "welfare": 8613,
    "virtual_welfare": 8613,
    "running_time": 20
  },
  {
    "graph_name": "75_55",
    "n_pass": 2,
    "winning_ride": {
      "driver": {
        "arrive_until": 2400,
        "direct_cost": 595
      },
      "passengers": [
        {
          "bid": 4280,
          "id": 48,
          "price": 4079,
          "cost": 590,
          "direct_dist": 19649,
          "direct_cost": 590,
          "direct_time": 1274
        },
        {
          "bid": 4875,
          "id": 36,
          "price": 4674,
          "cost": 544,
          "direct_dist": 18117,
          "direct_cost": 544,
          "direct_time": 1196
        }
      ],
      "cost": 435,
      "virtual_welfare": 8720
    },
    "profit": 8318,
    "cost_profit": 699.0,
    "welfare": 8720,
    "virtual_welfare": 8720,
    "running_time": 5
  },
  {
    "graph_name": "75_56",
    "n_pass": 3,
    "winning_ride": {
      "driver": {
        "arrive_until": 2400,
        "direct_cost": 485
      },
      "passengers": [
        {
          "bid": 3419,
          "id": 26,
          "price": 3331,
          "cost": 410,
          "direct_dist": 13640,
          "direct_cost": 410,
          "direct_time": 935
        },
        {
          "bid": 4338,
          "id": 20,
          "price": 4250,
          "cost": 434,
          "direct_dist": 14461,
          "direct_cost": 434,
          "direct_time": 916
        },
        {
          "bid": 849,
          "id": 6,
          "price": 700,
          "cost": 85,
          "direct_dist": 2833,
          "direct_cost": 85,
          "direct_time": 222
        }
      ],
      "cost": 499,
      "virtual_welfare": 8107
    },
    "profit": 7782,
    "cost_profit": 430.0,
    "welfare": 8107,
    "virtual_welfare": 8107,
    "running_time": 12
  },
  {
    "graph_name": "75_57",
    "n_pass": 3,
    "winning_ride": {
      "driver": {
        "arrive_until": 2400,
        "direct_cost": 512
      },
      "passengers": [
        {
          "bid": 3469,
          "id": 61,
          "price": 3387,
          "cost": 347,
          "direct_dist": 11565,
          "direct_cost": 347,
          "direct_time": 715
        },
        {
          "bid": 135,
          "id": 25,
          "price": 129,
          "cost": 14,
          "direct_dist": 451,
          "direct_cost": 14,
          "direct_time": 30
        },
        {
          "bid": 4115,
          "id": 8,
          "price": 3512,
          "cost": 412,
          "direct_dist": 13719,
          "direct_cost": 412,
          "direct_time": 871
        }
      ],
      "cost": 412,
      "virtual_welfare": 7307
    },
    "profit": 6616,
    "cost_profit": 361.0,
    "welfare": 7307,
    "virtual_welfare": 7307,
    "running_time": 15
  },
  {
    "graph_name": "75_58",
    "n_pass": 2,
    "winning_ride": {
      "driver": {
        "arrive_until": 2400,
        "direct_cost": 460
      },
      "passengers": [
        {
          "bid": 3056,
          "id": 41,
          "price": 2608,
          "cost": 306,
          "direct_dist": 10187,
          "direct_cost": 306,
          "direct_time": 649
        },
        {
          "bid": 2179,
          "id": 38,
          "price": 2089,
          "cost": 308,
          "direct_dist": 10237,
          "direct_cost": 308,
          "direct_time": 683
        }
      ],
      "cost": 366,
      "virtual_welfare": 4869
    },
    "profit": 4331,
    "cost_profit": 248.0,
    "welfare": 4869,
    "virtual_welfare": 4869,
    "running_time": 4
  },
  {
    "graph_name": "75_59",
    "n_pass": 3,
    "winning_ride": {
      "driver": {
        "arrive_until": 2400,
        "direct_cost": 538
      },
      "passengers": [
        {
          "bid": 219,
          "id": 73,
          "price": 94,
          "cost": 94,
          "direct_dist": 3122,
          "direct_cost": 94,
          "direct_time": 231
        },
        {
          "bid": 4011,
          "id": 42,
          "price": 3863,
          "cost": 402,
          "direct_dist": 13372,
          "direct_cost": 402,
          "direct_time": 895
        },
        {
          "bid": 3039,
          "id": 4,
          "price": 2813,
          "cost": 461,
          "direct_dist": 15346,
          "direct_cost": 461,
          "direct_time": 967
        }
      ],
      "cost": 309,
      "virtual_welfare": 6960
    },
    "profit": 6461,
    "cost_profit": 648.0,
    "welfare": 6960,
    "virtual_welfare": 6960,
    "running_time": 11
  },
  {
    "graph_name": "75_6",
    "n_pass": 2,
    "winning_ride": {
      "driver": {
        "arrive_until": 2400,
        "direct_cost": 492
      },
      "passengers": [
        {
          "bid": 5301,
          "id": 27,
          "price": 4342,
          "cost": 531,
          "direct_dist": 17670,
          "direct_cost": 531,
          "direct_time": 1201
        },
        {
          "bid": 4914,
          "id": 23,
          "price": 3197,
          "cost": 492,
          "direct_dist": 16380,
          "direct_cost": 492,
          "direct_time": 1145
        }
      ],
      "cost": 453,
      "virtual_welfare": 9762
    },
    "profit": 7086,
    "cost_profit": 570.0,
    "welfare": 9762,
    "virtual_welfare": 9762,
    "running_time": 7
  },
  {
    "graph_name": "75_60",
    "n_pass": 2,
    "winning_ride": {
      "driver": {
        "arrive_until": 2400,
        "direct_cost": 456
      },
      "passengers": [
        {
          "bid": 6004,
          "id": 24,
          "price": 5375,
          "cost": 601,
          "direct_dist": 20014,
          "direct_cost": 601,
          "direct_time": 1288
        },
        {
          "bid": 2701,
          "id": 14,
          "price": 2072,
          "cost": 271,
          "direct_dist": 9006,
          "direct_cost": 271,
          "direct_time": 598
        }
      ],
      "cost": 465,
      "virtual_welfare": 8240
    },
    "profit": 6982,
    "cost_profit": 407.0,
    "welfare": 8240,
    "virtual_welfare": 8240,
    "running_time": 17
  },
  {
    "graph_name": "75_61",
    "n_pass": 2,
    "winning_ride": {
      "driver": {
        "arrive_until": 2400,
        "direct_cost": 544
      },
      "passengers": [
        {
          "bid": 4272,
          "id": 45,
          "price": 3820,
          "cost": 435,
          "direct_dist": 14499,
          "direct_cost": 435,
          "direct_time": 1068
        },
        {
          "bid": 3820,
          "id": 32,
          "price": 3196,
          "cost": 485,
          "direct_dist": 16151,
          "direct_cost": 485,
          "direct_time": 1023
        }
      ],
      "cost": 362,
      "virtual_welfare": 7730
    },
    "profit": 6654,
    "cost_profit": 558.0,
    "welfare": 7730,
    "virtual_welfare": 7730,
    "running_time": 6
  },
  {
    "graph_name": "75_62",
    "n_pass": 2,
    "winning_ride": {
      "driver": {
        "arrive_until": 2400,
        "direct_cost": 508
      },
      "passengers": [
        {
          "bid": 3420,
          "id": 75,
          "price": 2195,
          "cost": 343,
          "direct_dist": 11402,
          "direct_cost": 343,
          "direct_time": 757
        },
        {
          "bid": 6115,
          "id": 14,
          "price": 4903,
          "cost": 612,
          "direct_dist": 20386,
          "direct_cost": 612,
          "direct_time": 1327
        }
      ],
      "cost": 387,
      "virtual_welfare": 9148
    },
    "profit": 6711,
    "cost_profit": 568.0,
    "welfare": 9148,
    "virtual_welfare": 9148,
    "running_time": 32
  },
  {
    "graph_name": "75_63",
    "n_pass": 2,
    "winning_ride": {
      "driver": {
        "arrive_until": 2400,
        "direct_cost": 402
      },
      "passengers": [
        {
          "bid": 3961,
          "id": 34,
          "price": 3687,
          "cost": 397,
          "direct_dist": 13204,
          "direct_cost": 397,
          "direct_time": 907
        },
        {
          "bid": 4810,
          "id": 28,
          "price": 4619,
          "cost": 482,
          "direct_dist": 16035,
          "direct_cost": 482,
          "direct_time": 1063
        }
      ],
      "cost": 382,
      "virtual_welfare": 8389
    },
    "profit": 7924,
    "cost_profit": 497.0,
    "welfare": 8389,
    "virtual_welfare": 8389,
    "running_time": 20
  },
  {
    "graph_name": "75_64",
    "n_pass": 2,
    "winning_ride": {
      "driver": {
        "arrive_until": 2400,
        "direct_cost": 482
      },
      "passengers": [
        {
          "bid": 5418,
          "id": 32,
          "price": 4071,
          "cost": 542,
          "direct_dist": 18063,
          "direct_cost": 542,
          "direct_time": 1180
        },
        {
          "bid": 5365,
          "id": 17,
          "price": 3969,
          "cost": 541,
          "direct_dist": 18009,
          "direct_cost": 541,
          "direct_time": 1125
        }
      ],
      "cost": 550,
      "virtual_welfare": 10233
    },
    "profit": 7490,
    "cost_profit": 533.0,
    "welfare": 10233,
    "virtual_welfare": 10233,
    "running_time": 23
  },
  {
    "graph_name": "75_65",
    "n_pass": 3,
    "winning_ride": {
      "driver": {
        "arrive_until": 2400,
        "direct_cost": 411
      },
      "passengers": [
        {
          "bid": 3302,
          "id": 50,
          "price": 2999,
          "cost": 369,
          "direct_dist": 12284,
          "direct_cost": 369,
          "direct_time": 849
        },
        {
          "bid": 3680,
          "id": 45,
          "price": 3282,
          "cost": 369,
          "direct_dist": 12267,
          "direct_cost": 369,
          "direct_time": 796
        },
        {
          "bid": 1324,
          "id": 37,
          "price": 1021,
          "cost": 145,
          "direct_dist": 4807,
          "direct_cost": 145,
          "direct_time": 324
        }
      ],
      "cost": 524,
      "virtual_welfare": 7782
    },
    "profit": 6778,
    "cost_profit": 359.0,
    "welfare": 7782,
    "virtual_welfare": 7782,
    "running_time": 21
  },
  {
    "graph_name": "75_66",
    "n_pass": 2,
    "winning_ride": {
      "driver": {
        "arrive_until": 2400,
        "direct_cost": 432
      },
      "passengers": [
        {
          "bid": 5798,
          "id": 58,
          "price": 5101,
          "cost": 580,
          "direct_dist": 19327,
          "direct_cost": 580,
          "direct_time": 1227
        },
        {
          "bid": 4371,
          "id": 46,
          "price": 4178,
          "cost": 438,
          "direct_dist": 14572,
          "direct_cost": 438,
          "direct_time": 953
        }
      ],
      "cost": 625,
      "virtual_welfare": 9544
    },
    "profit": 8654,
    "cost_profit": 393.0,
    "welfare": 9544,
    "virtual_welfare": 9544,
    "running_time": 27
  },
  {
    "graph_name": "75_67",
    "n_pass": 2,
    "winning_ride": {
      "driver": {
        "arrive_until": 2400,
        "direct_cost": 455
      },
      "passengers": [
        {
          "bid": 2651,
          "id": 48,
          "price": 2490,
          "cost": 487,
          "direct_dist": 16213,
          "direct_cost": 487,
          "direct_time": 1072
        },
        {
          "bid": 5103,
          "id": 16,
          "price": 4942,
          "cost": 511,
          "direct_dist": 17013,
          "direct_cost": 511,
          "direct_time": 1072
        }
      ],
      "cost": 421,
      "virtual_welfare": 7333
    },
    "profit": 7011,
    "cost_profit": 577.0,
    "welfare": 7333,
    "virtual_welfare": 7333,
    "running_time": 15
  },
  {
    "graph_name": "75_68",
    "n_pass": 3,
    "winning_ride": {
      "driver": {
        "arrive_until": 2400,
        "direct_cost": 436
      },
      "passengers": [
        {
          "bid": 3899,
          "id": 72,
          "price": 2985,
          "cost": 390,
          "direct_dist": 12997,
          "direct_cost": 390,
          "direct_time": 781
        },
        {
          "bid": 4419,
          "id": 47,
          "price": 3505,
          "cost": 442,
          "direct_dist": 14730,
          "direct_cost": 442,
          "direct_time": 949
        },
        {
          "bid": 55,
          "id": 39,
          "price": 57,
          "cost": 57,
          "direct_dist": 1868,
          "direct_cost": 57,
          "direct_time": 144
        }
      ],
      "cost": 561,
      "virtual_welfare": 7812
    },
    "profit": 5986,
    "cost_profit": 328.0,
    "welfare": 7812,
    "virtual_welfare": 7812,
    "running_time": 21
  },
  {
    "graph_name": "75_69",
    "n_pass": 3,
    "winning_ride": {
      "driver": {
        "arrive_until": 2400,
        "direct_cost": 481
      },
      "passengers": [
        {
          "bid": 4265,
          "id": 73,
          "price": 3473,
          "cost": 427,
          "direct_dist": 14218,
          "direct_cost": 427,
          "direct_time": 1087
        },
        {
          "bid": 1615,
          "id": 61,
          "price": 779,
          "cost": 167,
          "direct_dist": 5541,
          "direct_cost": 167,
          "direct_time": 373
        },
        {
          "bid": 4485,
          "id": 54,
          "price": 3484,
          "cost": 449,
          "direct_dist": 14953,
          "direct_cost": 449,
          "direct_time": 987
        }
      ],
      "cost": 524,
      "virtual_welfare": 9841
    },
    "profit": 7212,
    "cost_profit": 519.0,
    "welfare": 9841,
    "virtual_welfare": 9841,
    "running_time": 18
  },
  {
    "graph_name": "75_7",
    "n_pass": 2,
    "winning_ride": {
      "driver": {
        "arrive_until": 2400,
        "direct_cost": 469
      },
      "passengers": [
        {
          "bid": 5411,
          "id": 19,
          "price": 4670,
          "cost": 542,
          "direct_dist": 18039,
          "direct_cost": 542,
          "direct_time": 1209
        },
        {
          "bid": 5634,
          "id": 4,
          "price": 4893,
          "cost": 564,
          "direct_dist": 18782,
          "direct_cost": 564,
          "direct_time": 1212
        }
      ],
      "cost": 508,
      "virtual_welfare": 10537
    },
    "profit": 9055,
    "cost_profit": 598.0,
    "welfare": 10537,
    "virtual_welfare": 10537,
    "running_time": 17
  },
  {
    "graph_name": "75_70",
    "n_pass": 2,
    "winning_ride": {
      "driver": {
        "arrive_until": 2400,
        "direct_cost": 406
      },
      "passengers": [
        {
          "bid": 5270,
          "id": 73,
          "price": 4466,
          "cost": 528,
          "direct_dist": 17568,
          "direct_cost": 528,
          "direct_time": 1218
        },
        {
          "bid": 3832,
          "id": 72,
          "price": 2123,
          "cost": 384,
          "direct_dist": 12774,
          "direct_cost": 384,
          "direct_time": 799
        }
      ],
      "cost": 595,
      "virtual_welfare": 8507
    },
    "profit": 5994,
    "cost_profit": 317.0,
    "welfare": 8507,
    "virtual_welfare": 8507,
    "running_time": 16
  },
  {
    "graph_name": "75_71",
    "n_pass": 2,
    "winning_ride": {
      "driver": {
        "arrive_until": 2400,
        "direct_cost": 528
      },
      "passengers": [
        {
          "bid": 4272,
          "id": 43,
          "price": 4243,
          "cost": 428,
          "direct_dist": 14241,
          "direct_cost": 428,
          "direct_time": 938
        },
        {
          "bid": 4153,
          "id": 21,
          "price": 4124,
          "cost": 438,
          "direct_dist": 14570,
          "direct_cost": 438,
          "direct_time": 851
        }
      ],
      "cost": 457,
      "virtual_welfare": 7968
    },
    "profit": 7910,
    "cost_profit": 409.0,
    "welfare": 7968,
    "virtual_welfare": 7968,
    "running_time": 13
  },
  {
    "graph_name": "75_72",
    "n_pass": 2,
    "winning_ride": {
      "driver": {
        "arrive_until": 2400,
        "direct_cost": 472
      },
      "passengers": [
        {
          "bid": 4366,
          "id": 55,
          "price": 3468,
          "cost": 437,
          "direct_dist": 14555,
          "direct_cost": 437,
          "direct_time": 920
        },
        {
          "bid": 3784,
          "id": 20,
          "price": 3615,
          "cost": 406,
          "direct_dist": 13504,
          "direct_cost": 406,
          "direct_time": 875
        }
      ],
      "cost": 428,
      "virtual_welfare": 7722
    },
    "profit": 6655,
    "cost_profit": 415.0,
    "welfare": 7722,
    "virtual_welfare": 7722,
    "running_time": 25
  },
  {
    "graph_name": "75_73",
    "n_pass": 2,
    "winning_ride": {
      "driver": {
        "arrive_until": 2400,
        "direct_cost": 448
      },
      "passengers": [
        {
          "bid": 2983,
          "id": 54,
          "price": 2982,
          "cost": 299,
          "direct_dist": 9945,
          "direct_cost": 299,
          "direct_time": 627
        },
        {
          "bid": 4831,
          "id": 29,
          "price": 3810,
          "cost": 484,
          "direct_dist": 16106,
          "direct_cost": 484,
          "direct_time": 1169
        }
      ],
      "cost": 529,
      "virtual_welfare": 7285
    },
    "profit": 6263,
    "cost_profit": 254.0,
    "welfare": 7285,
    "virtual_welfare": 7285,
    "running_time": 21
  },
  {
    "graph_name": "75_74",
    "n_pass": 2,
    "winning_ride": {
      "driver": {
        "arrive_until": 2400,
        "direct_cost": 515
      },
      "passengers": [
        {
          "bid": 3351,
          "id": 8,
          "price": 2809,
          "cost": 336,
          "direct_dist": 11172,
          "direct_cost": 336,
          "direct_time": 704
        },
        {
          "bid": 3494,
          "id": 5,
          "price": 3109,
          "cost": 392,
          "direct_dist": 13041,
          "direct_cost": 392,
          "direct_time": 846
        }
      ],
      "cost": 398,
      "virtual_welfare": 6447
    },
    "profit": 5520,
    "cost_profit": 330.0,
    "welfare": 6447,
    "virtual_welfare": 6447,
    "running_time": 20
  },
  {
    "graph_name": "75_75",
    "n_pass": 2,
    "winning_ride": {
      "driver": {
        "arrive_until": 2400,
        "direct_cost": 419
      },
      "passengers": [
        {
          "bid": 4016,
          "id": 74,
          "price": 3051,
          "cost": 402,
          "direct_dist": 13388,
          "direct_cost": 402,
          "direct_time": 856
        },
        {
          "bid": 4655,
          "id": 53,
          "price": 4350,
          "cost": 466,
          "direct_dist": 15517,
          "direct_cost": 466,
          "direct_time": 905
        }
      ],
      "cost": 649,
      "virtual_welfare": 8022
    },
    "profit": 6752,
    "cost_profit": 219.0,
    "welfare": 8022,
    "virtual_welfare": 8022,
    "running_time": 21
  },
  {
    "graph_name": "75_76",
    "n_pass": 2,
    "winning_ride": {
      "driver": {
        "arrive_until": 2400,
        "direct_cost": 463
      },
      "passengers": [
        {
          "bid": 3379,
          "id": 65,
          "price": 3031,
          "cost": 338,
          "direct_dist": 11266,
          "direct_cost": 338,
          "direct_time": 745
        },
        {
          "bid": 3260,
          "id": 26,
          "price": 2912,
          "cost": 359,
          "direct_dist": 11954,
          "direct_cost": 359,
          "direct_time": 944
        }
      ],
      "cost": 349,
      "virtual_welfare": 6290
    },
    "profit": 5594,
    "cost_profit": 348.0,
    "welfare": 6290,
    "virtual_welfare": 6290,
    "running_time": 8
  },
  {
    "graph_name": "75_77",
    "n_pass": 2,
    "winning_ride": {
      "driver": {
        "arrive_until": 2400,
        "direct_cost": 519
      },
      "passengers": [
        {
          "bid": 3219,
          "id": 72,
          "price": 2706,
          "cost": 322,
          "direct_dist": 10732,
          "direct_cost": 322,
          "direct_time": 720
        },
        {
          "bid": 4139,
          "id": 62,
          "price": 3445,
          "cost": 417,
          "direct_dist": 13869,
          "direct_cost": 417,
          "direct_time": 960
        }
      ],
      "cost": 341,
      "virtual_welfare": 7017
    },
    "profit": 5810,
    "cost_profit": 398.0,
    "welfare": 7017,
    "virtual_welfare": 7017,
    "running_time": 11
  },
  {
    "graph_name": "75_78",
    "n_pass": 2,
    "winning_ride": {
      "driver": {
        "arrive_until": 2400,
        "direct_cost": 554
      },
      "passengers": [
        {
          "bid": 4156,
          "id": 56,
          "price": 3578,
          "cost": 416,
          "direct_dist": 13855,
          "direct_cost": 416,
          "direct_time": 890
        },
        {
          "bid": 3923,
          "id": 48,
          "price": 3812,
          "cost": 393,
          "direct_dist": 13077,
          "direct_cost": 393,
          "direct_time": 789
        }
      ],
      "cost": 478,
      "virtual_welfare": 7601
    },
    "profit": 6912,
    "cost_profit": 331.0,
    "welfare": 7601,
    "virtual_welfare": 7601,
    "running_time": 14
  },
  {
    "graph_name": "75_79",
    "n_pass": 3,
    "winning_ride": {
      "driver": {
        "arrive_until": 2400,
        "direct_cost": 517
      },
      "passengers": [
        {
          "bid": 5252,
          "id": 68,
          "price": 2504,
          "cost": 526,
          "direct_dist": 17509,
          "direct_cost": 526,
          "direct_time": 1112
        },
        {
          "bid": 1227,
          "id": 40,
          "price": 802,
          "cost": 123,
          "direct_dist": 4093,
          "direct_cost": 123,
          "direct_time": 269
        },
        {
          "bid": 4617,
          "id": 6,
          "price": 4192,
          "cost": 462,
          "direct_dist": 15392,
          "direct_cost": 462,
          "direct_time": 1052
        }
      ],
      "cost": 455,
      "virtual_welfare": 10641
    },
    "profit": 7043,
    "cost_profit": 656.0,
    "welfare": 10641,
    "virtual_welfare": 10641,
    "running_time": 21
  },
  {
    "graph_name": "75_8",
    "n_pass": 2,
    "winning_ride": {
      "driver": {
        "arrive_until": 2400,
        "direct_cost": 442
      },
      "passengers": [
        {
          "bid": 4037,
          "id": 67,
          "price": 2920,
          "cost": 450,
          "direct_dist": 14982,
          "direct_cost": 450,
          "direct_time": 934
        },
        {
          "bid": 3036,
          "id": 45,
          "price": 2714,
          "cost": 343,
          "direct_dist": 11431,
          "direct_cost": 343,
          "direct_time": 753
        }
      ],
      "cost": 428,
      "virtual_welfare": 6645
    },
    "profit": 5206,
    "cost_profit": 365.0,
    "welfare": 6645,
    "virtual_welfare": 6645,
    "running_time": 25
  },
  {
    "graph_name": "75_80",
    "n_pass": 2,
    "winning_ride": {
      "driver": {
        "arrive_until": 2400,
        "direct_cost": 451
      },
      "passengers": [
        {
          "bid": 3753,
          "id": 59,
          "price": 3508,
          "cost": 376,
          "direct_dist": 12510,
          "direct_cost": 376,
          "direct_time": 781
        },
        {
          "bid": 5054,
          "id": 11,
          "price": 3840,
          "cost": 506,
          "direct_dist": 16847,
          "direct_cost": 506,
          "direct_time": 1104
        }
      ],
      "cost": 535,
      "virtual_welfare": 8272
    },
    "profit": 6813,
    "cost_profit": 347.0,
    "welfare": 8272,
    "virtual_welfare": 8272,
    "running_time": 25
  },
  {
    "graph_name": "75_81",
    "n_pass": 2,
    "winning_ride": {
      "driver": {
        "arrive_until": 2400,
        "direct_cost": 391
      },
      "passengers": [
        {
          "bid": 3880,
          "id": 45,
          "price": 3454,
          "cost": 533,
          "direct_dist": 17736,
          "direct_cost": 533,
          "direct_time": 1140
        },
        {
          "bid": 4832,
          "id": 1,
          "price": 3741,
          "cost": 484,
          "direct_dist": 16109,
          "direct_cost": 484,
          "direct_time": 1010
        }
      ],
      "cost": 601,
      "virtual_welfare": 8111
    },
    "profit": 6594,
    "cost_profit": 416.0,
    "welfare": 8111,
    "virtual_welfare": 8111,
    "running_time": 19
  },
  {
    "graph_name": "75_82",
    "n_pass": 2,
    "winning_ride": {
      "driver": {
        "arrive_until": 2400,
        "direct_cost": 478
      },
      "passengers": [
        {
          "bid": 3782,
          "id": 31,
          "price": 3258,
          "cost": 379,
          "direct_dist": 12607,
          "direct_cost": 379,
          "direct_time": 860
        },
        {
          "bid": 5149,
          "id": 4,
          "price": 4289,
          "cost": 515,
          "direct_dist": 17165,
          "direct_cost": 515,
          "direct_time": 1088
        }
      ],
      "cost": 489,
      "virtual_welfare": 8442
    },
    "profit": 7058,
    "cost_profit": 405.0,
    "welfare": 8442,
    "virtual_welfare": 8442,
    "running_time": 19
  },
  {
    "graph_name": "75_83",
    "n_pass": 3,
    "winning_ride": {
      "driver": {
        "arrive_until": 2400,
        "direct_cost": 528
      },
      "passengers": [
        {
          "bid": 4939,
          "id": 37,
          "price": 3590,
          "cost": 494,
          "direct_dist": 16465,
          "direct_cost": 494,
          "direct_time": 1054
        },
        {
          "bid": 1574,
          "id": 28,
          "price": 253,
          "cost": 201,
          "direct_dist": 6691,
          "direct_cost": 201,
          "direct_time": 436
        },
        {
          "bid": 5465,
          "id": 8,
          "price": 4108,
          "cost": 547,
          "direct_dist": 18219,
          "direct_cost": 547,
          "direct_time": 1177
        }
      ],
      "cost": 480,
      "virtual_welfare": 11498
    },
    "profit": 7471,
    "cost_profit": 762.0,
    "welfare": 11498,
    "virtual_welfare": 11498,
    "running_time": 22
  },
  {
    "graph_name": "75_84",
    "n_pass": 2,
    "winning_ride": {
      "driver": {
        "arrive_until": 2400,
        "direct_cost": 410
      },
      "passengers": [
        {
          "bid": 4032,
          "id": 30,
          "price": 3929,
          "cost": 404,
          "direct_dist": 13441,
          "direct_cost": 404,
          "direct_time": 932
        },
        {
          "bid": 5222,
          "id": 4,
          "price": 4406,
          "cost": 528,
          "direct_dist": 17579,
          "direct_cost": 528,
          "direct_time": 1100
        }
      ],
      "cost": 481,
      "virtual_welfare": 8773
    },
    "profit": 7854,
    "cost_profit": 451.0,
    "welfare": 8773,
    "virtual_welfare": 8773,
    "running_time": 16
  },
  {
    "graph_name": "75_85",
    "n_pass": 2,
    "winning_ride": {
      "driver": {
        "arrive_until": 2400,
        "direct_cost": 446
      },
      "passengers": [
        {
          "bid": 2466,
          "id": 70,
          "price": 2316,
          "cost": 377,
          "direct_dist": 12544,
          "direct_cost": 377,
          "direct_time": 778
        },
        {
          "bid": 4468,
          "id": 13,
          "price": 4201,
          "cost": 447,
          "direct_dist": 14895,
          "direct_cost": 447,
          "direct_time": 980
        }
      ],
      "cost": 530,
      "virtual_welfare": 6404
    },
    "profit": 5987,
    "cost_profit": 294.0,
    "welfare": 6404,
    "virtual_welfare": 6404,
    "running_time": 11
  },
  {
    "graph_name": "75_86",
    "n_pass": 2,
    "winning_ride": {
      "driver": {
        "arrive_until": 2400,
        "direct_cost": 539
      },
      "passengers": [
        {
          "bid": 4647,
          "id": 33,
          "price": 3797,
          "cost": 465,
          "direct_dist": 15492,
          "direct_cost": 465,
          "direct_time": 1103
        },
        {
          "bid": 3903,
          "id": 23,
          "price": 3714,
          "cost": 391,
          "direct_dist": 13011,
          "direct_cost": 391,
          "direct_time": 955
        }
      ],
      "cost": 105,
      "virtual_welfare": 8445
    },
    "profit": 7406,
    "cost_profit": 751.0,
    "welfare": 8445,
    "virtual_welfare": 8445,
    "running_time": 12
  },
  {
    "graph_name": "75_87",
    "n_pass": 3,
    "winning_ride": {
      "driver": {
        "arrive_until": 2400,
        "direct_cost": 435
      },
      "passengers": [
        {
          "bid": 3750,
          "id": 55,
          "price": 3128,
          "cost": 375,
          "direct_dist": 12500,
          "direct_cost": 375,
          "direct_time": 809
        },
        {
          "bid": 1326,
          "id": 54,
          "price": 727,
          "cost": 133,
          "direct_dist": 4421,
          "direct_cost": 133,
          "direct_time": 347
        },
        {
          "bid": 3774,
          "id": 2,
          "price": 3260,
          "cost": 378,
          "direct_dist": 12581,
          "direct_cost": 378,
          "direct_time": 758
        }
      ],
      "cost": 477,
      "virtual_welfare": 8373
    },
    "profit": 6638,
    "cost_profit": 409.0,
    "welfare": 8373,
    "virtual_welfare": 8373,
    "running_time": 24
  },
  {
    "graph_name": "75_88",
    "n_pass": 3,
    "winning_ride": {
      "driver": {
        "arrive_until": 2400,
        "direct_cost": 390
      },
      "passengers": [
        {
          "bid": 2145,
          "id": 59,
          "price": 674,
          "cost": 215,
          "direct_dist": 7150,
          "direct_cost": 215,
          "direct_time": 511
        },
        {
          "bid": 3024,
          "id": 54,
          "price": 1553,
          "cost": 303,
          "direct_dist": 10081,
          "direct_cost": 303,
          "direct_time": 594
        },
        {
          "bid": 3417,
          "id": 36,
          "price": 2789,
          "cost": 342,
          "direct_dist": 11391,
          "direct_cost": 342,
          "direct_time": 786
        }
      ],
      "cost": 622,
      "virtual_welfare": 7964
    },
    "profit": 4394,
    "cost_profit": 238.0,
    "welfare": 7964,
    "virtual_welfare": 7964,
    "running_time": 18
  },
  {
    "graph_name": "75_89",
    "n_pass": 2,
    "winning_ride": {
      "driver": {
        "arrive_until": 2400,
        "direct_cost": 472
      },
      "passengers": [
        {
          "bid": 4618,
          "id": 41,
          "price": 3247,
          "cost": 462,
          "direct_dist": 15394,
          "direct_cost": 462,
          "direct_time": 981
        },
        {
          "bid": 5662,
          "id": 3,
          "price": 5020,
          "cost": 567,
          "direct_dist": 18876,
          "direct_cost": 567,
          "direct_time": 1173
        }
      ],
      "cost": 610,
      "virtual_welfare": 9670
    },
    "profit": 7657,
    "cost_profit": 419.0,
    "welfare": 9670,
    "virtual_welfare": 9670,
    "running_time": 17
  },
  {
    "graph_name": "75_9",
    "n_pass": 2,
    "winning_ride": {
      "driver": {
        "arrive_until": 2400,
        "direct_cost": 474
      },
      "passengers": [
        {
          "bid": 1126,
          "id": 51,
          "price": 850,
          "cost": 165,
          "direct_dist": 5481,
          "direct_cost": 165,
          "direct_time": 399
        },
        {
          "bid": 3930,
          "id": 44,
          "price": 3654,
          "cost": 394,
          "direct_dist": 13101,
          "direct_cost": 394,
          "direct_time": 925
        }
      ],
      "cost": 366,
      "virtual_welfare": 4690
    },
    "profit": 4138,
    "cost_profit": 193.0,
    "welfare": 4690,
    "virtual_welfare": 4690,
    "running_time": 8
  },
  {
    "graph_name": "75_90",
    "n_pass": 3,
    "winning_ride": {
      "driver": {
        "arrive_until": 2400,
        "direct_cost": 461
      },
      "passengers": [
        {
          "bid": 1119,
          "id": 71,
          "price": 726,
          "cost": 112,
          "direct_dist": 3732,
          "direct_cost": 112,
          "direct_time": 309
        },
        {
          "bid": 2308,
          "id": 64,
          "price": 1915,
          "cost": 299,
          "direct_dist": 9951,
          "direct_cost": 299,
          "direct_time": 703
        },
        {
          "bid": 4810,
          "id": 43,
          "price": 4067,
          "cost": 482,
          "direct_dist": 16034,
          "direct_cost": 482,
          "direct_time": 1004
        }
      ],
      "cost": 466,
      "virtual_welfare": 7771
    },
    "profit": 6242,
    "cost_profit": 427.0,
    "welfare": 7771,
    "virtual_welfare": 7771,
    "running_time": 21
  },
  {
    "graph_name": "75_91",
    "n_pass": 2,
    "winning_ride": {
      "driver": {
        "arrive_until": 2400,
        "direct_cost": 510
      },
      "passengers": [
        {
          "bid": 4751,
          "id": 43,
          "price": 4714,
          "cost": 476,
          "direct_dist": 15838,
          "direct_cost": 476,
          "direct_time": 974
        },
        {
          "bid": 4781,
          "id": 39,
          "price": 4655,
          "cost": 479,
          "direct_dist": 15939,
          "direct_cost": 479,
          "direct_time": 1042
        }
      ],
      "cost": 491,
      "virtual_welfare": 9041
    },
    "profit": 8878,
    "cost_profit": 464.0,
    "welfare": 9041,
    "virtual_welfare": 9041,
    "running_time": 14
  },
  {
    "graph_name": "75_92",
    "n_pass": 3,
    "winning_ride": {
      "driver": {
        "arrive_until": 2400,
        "direct_cost": 486
      },
      "passengers": [
        {
          "bid": 4022,
          "id": 68,
          "price": 3165,
          "cost": 403,
          "direct_dist": 13408,
          "direct_cost": 403,
          "direct_time": 836
        },
        {
          "bid": 725,
          "id": 30,
          "price": 104,
          "cost": 104,
          "direct_dist": 3443,
          "direct_cost": 104,
          "direct_time": 273
        },
        {
          "bid": 4221,
          "id": 10,
          "price": 3778,
          "cost": 423,
          "direct_dist": 14070,
          "direct_cost": 423,
          "direct_time": 973
        }
      ],
      "cost": 483,
      "virtual_welfare": 8485
    },
    "profit": 6564,
    "cost_profit": 447.0,
    "welfare": 8485,
    "virtual_welfare": 8485,
    "running_time": 15
  },
  {
    "graph_name": "75_93",
    "n_pass": 2,
    "winning_ride": {
      "driver": {
        "arrive_until": 2400,
        "direct_cost": 362
      },
      "passengers": [
        {
          "bid": 4204,
          "id": 61,
          "price": 3846,
          "cost": 423,
          "direct_dist": 14093,
          "direct_cost": 423,
          "direct_time": 957
        },
        {
          "bid": 4526,
          "id": 32,
          "price": 4101,
          "cost": 462,
          "direct_dist": 15389,
          "direct_cost": 462,
          "direct_time": 967
        }
      ],
      "cost": 602,
      "virtual_welfare": 8128
    },
    "profit": 7345,
    "cost_profit": 283.0,
    "welfare": 8128,
    "virtual_welfare": 8128,
    "running_time": 23
  },
  {
    "graph_name": "75_94",
    "n_pass": 3,
    "winning_ride": {
      "driver": {
        "arrive_until": 2400,
        "direct_cost": 480
      },
      "passengers": [
        {
          "bid": 4596,
          "id": 65,
          "price": 1995,
          "cost": 460,
          "direct_dist": 15320,
          "direct_cost": 460,
          "direct_time": 1026
        },
        {
          "bid": 1536,
          "id": 33,
          "price": 818,
          "cost": 154,
          "direct_dist": 5120,
          "direct_cost": 154,
          "direct_time": 345
        },
        {
          "bid": 3189,
          "id": 23,
          "price": 2471,
          "cost": 319,
          "direct_dist": 10633,
          "direct_cost": 319,
          "direct_time": 655
        }
      ],
      "cost": 401,
      "virtual_welfare": 8920
    },
    "profit": 4883,
    "cost_profit": 532.0,
    "welfare": 8920,
    "virtual_welfare": 8920,
    "running_time": 34
  },
  {
    "graph_name": "75_95",
    "n_pass": 3,
    "winning_ride": {
      "driver": {
        "arrive_until": 2400,
        "direct_cost": 477
      },
      "passengers": [
        {
          "bid": 3062,
          "id": 28,
          "price": 2903,
          "cost": 307,
          "direct_dist": 10209,
          "direct_cost": 307,
          "direct_time": 633
        },
        {
          "bid": 1215,
          "id": 7,
          "price": 1056,
          "cost": 122,
          "direct_dist": 4050,
          "direct_cost": 122,
          "direct_time": 310
        },
        {
          "bid": 3806,
          "id": 2,
          "price": 3647,
          "cost": 381,
          "direct_dist": 12688,
          "direct_cost": 381,
          "direct_time": 786
        }
      ],
      "cost": 428,
      "virtual_welfare": 7655
    },
    "profit": 7178,
    "cost_profit": 382.0,
    "welfare": 7655,
    "virtual_welfare": 7655,
    "running_time": 29
  },
  {
    "graph_name": "75_96",
    "n_pass": 3,
    "winning_ride": {
      "driver": {
        "arrive_until": 2400,
        "direct_cost": 411
      },
      "passengers": [
        {
          "bid": 2308,
          "id": 66,
          "price": 476,
          "cost": 231,
          "direct_dist": 7695,
          "direct_cost": 231,
          "direct_time": 546
        },
        {
          "bid": 4316,
          "id": 34,
          "price": 2404,
          "cost": 432,
          "direct_dist": 14389,
          "direct_cost": 432,
          "direct_time": 946
        },
        {
          "bid": 4424,
          "id": 33,
          "price": 2592,
          "cost": 445,
          "direct_dist": 14813,
          "direct_cost": 445,
          "direct_time": 916
        }
      ],
      "cost": 632,
      "virtual_welfare": 10416
    },
    "profit": 4840,
    "cost_profit": 476.0,
    "welfare": 10416,
    "virtual_welfare": 10416,
    "running_time": 17
  },
  {
    "graph_name": "75_97",
    "n_pass": 3,
    "winning_ride": {
      "driver": {
        "arrive_until": 2400,
        "direct_cost": 582
      },
      "passengers": [
        {
          "bid": 3939,
          "id": 72,
          "price": 3745,
          "cost": 394,
          "direct_dist": 13130,
          "direct_cost": 394,
          "direct_time": 886
        },
        {
          "bid": 310,
          "id": 54,
          "price": 116,
          "cost": 41,
          "direct_dist": 1334,
          "direct_cost": 41,
          "direct_time": 130
        },
        {
          "bid": 3915,
          "id": 44,
          "price": 3721,
          "cost": 484,
          "direct_dist": 16127,
          "direct_cost": 484,
          "direct_time": 1092
        }
      ],
      "cost": 298,
      "virtual_welfare": 7866
    },
    "profit": 7284,
    "cost_profit": 621.0,
    "welfare": 7866,
    "virtual_welfare": 7866,
    "running_time": 7
  },
  {
    "graph_name": "75_98",
    "n_pass": 2,
    "winning_ride": {
      "driver": {
        "arrive_until": 2400,
        "direct_cost": 487
      },
      "passengers": [
        {
          "bid": 3925,
          "id": 71,
          "price": 3459,
          "cost": 393,
          "direct_dist": 13085,
          "direct_cost": 393,
          "direct_time": 1043
        },
        {
          "bid": 3735,
          "id": 46,
          "price": 2497,
          "cost": 374,
          "direct_dist": 12451,
          "direct_cost": 374,
          "direct_time": 733
        }
      ],
      "cost": 328,
      "virtual_welfare": 7332
    },
    "profit": 5628,
    "cost_profit": 439.0,
    "welfare": 7332,
    "virtual_welfare": 7332,
    "running_time": 11
  },
  {
    "graph_name": "75_99",
    "n_pass": 3,
    "winning_ride": {
      "driver": {
        "arrive_until": 2400,
        "direct_cost": 423
      },
      "passengers": [
        {
          "bid": 1292,
          "id": 42,
          "price": 1229,
          "cost": 130,
          "direct_dist": 4308,
          "direct_cost": 130,
          "direct_time": 233
        },
        {
          "bid": 6221,
          "id": 35,
          "price": 5254,
          "cost": 623,
          "direct_dist": 20739,
          "direct_cost": 623,
          "direct_time": 1277
        },
        {
          "bid": 3683,
          "id": 24,
          "price": 3620,
          "cost": 369,
          "direct_dist": 12279,
          "direct_cost": 369,
          "direct_time": 752
        }
      ],
      "cost": 673,
      "virtual_welfare": 10523
    },
    "profit": 9430,
    "cost_profit": 449.0,
    "welfare": 10523,
    "virtual_welfare": 10523,
    "running_time": 30
  }
]