[
  {
    "graph_name": "75_0",
    "n_pass": 2,
    "winning_ride": {
      "driver": {
        "arrive_until": 2400,
        "direct_cost": 457
      },
      "passengers": [
        {
          "bid": 4602,
          "id": 55,
          "price": 3072,
          "cost": 581,
          "direct_dist": 19357,
          "direct_cost": 581,
          "direct_time": 1258
        },
        {
          "bid": 4186,
          "id": 51,
          "price": 2910,
          "cost": 419,
          "direct_dist": 13954,
          "direct_cost": 419,
          "direct_time": 898
        }
      ],
      "cost": 492,
      "virtual_welfare": 7788
    },
    "profit": 5490,
    "cost_profit": 508.0,
    "welfare": 8296,
    "virtual_welfare": 7788,
    "running_time": 244
  },
  {
    "graph_name": "75_1",
    "n_pass": 2,
    "winning_ride": {
      "driver": {
        "arrive_until": 2400,
        "direct_cost": 432
      },
      "passengers": [
        {
          "bid": 4130,
          "id": 64,
          "price": 3267,
          "cost": 414,
          "direct_dist": 13767,
          "direct_cost": 414,
          "direct_time": 823
        },
        {
          "bid": 3638,
          "id": 48,
          "price": 3359,
          "cost": 435,
          "direct_dist": 14480,
          "direct_cost": 435,
          "direct_time": 1047
        }
      ],
      "cost": 628,
      "virtual_welfare": 6919
    },
    "profit": 5998,
    "cost_profit": 221.0,
    "welfare": 7140,
    "virtual_welfare": 6919,
    "running_time": 592
  },
  {
    "graph_name": "75_10",
    "n_pass": 2,
    "winning_ride": {
      "driver": {
        "arrive_until": 2400,
        "direct_cost": 521
      },
      "passengers": [
        {
          "bid": 4333,
          "id": 53,
          "price": 4087,
          "cost": 434,
          "direct_dist": 14444,
          "direct_cost": 434,
          "direct_time": 888
        },
        {
          "bid": 4928,
          "id": 11,
          "price": 4146,
          "cost": 493,
          "direct_dist": 16428,
          "direct_cost": 493,
          "direct_time": 1034
        }
      ],
      "cost": 600,
      "virtual_welfare": 8334
    },
    "profit": 7633,
    "cost_profit": 327.0,
    "welfare": 8661,
    "virtual_welfare": 8334,
    "running_time": 1501
  },
  {
    "graph_name": "75_11",
    "n_pass": 2,
    "winning_ride": {
      "driver": {
        "arrive_until": 2400,
        "direct_cost": 466
      },
      "passengers": [
        {
          "bid": 4576,
          "id": 19,
          "price": 4219,
          "cost": 458,
          "direct_dist": 15256,
          "direct_cost": 458,
          "direct_time": 1036
        },
        {
          "bid": 4296,
          "id": 6,
          "price": 4156,
          "cost": 430,
          "direct_dist": 14320,
          "direct_cost": 430,
          "direct_time": 918
        }
      ],
      "cost": 349,
      "virtual_welfare": 7984
    },
    "profit": 8026,
    "cost_profit": 539.0,
    "welfare": 8523,
    "virtual_welfare": 7984,
    "running_time": 1500
  },
  {
    "graph_name": "75_12",
    "n_pass": 2,
    "winning_ride": {
      "driver": {
        "arrive_until": 2400,
        "direct_cost": 471
      },
      "passengers": [
        {
          "bid": 4653,
          "id": 23,
          "price": 4632,
          "cost": 466,
          "direct_dist": 15510,
          "direct_cost": 466,
          "direct_time": 1011
        },
        {
          "bid": 5080,
          "id": 15,
          "price": 4675,
          "cost": 509,
          "direct_dist": 16936,
          "direct_cost": 509,
          "direct_time": 1093
        }
      ],
      "cost": 492,
      "virtual_welfare": 8758
    },
    "profit": 8815,
    "cost_profit": 483.0,
    "welfare": 9241,
    "virtual_welfare": 8758,
    "running_time": 519
  },
  {
    "graph_name": "75_13",
    "n_pass": 2,
    "winning_ride": {
      "driver": {
        "arrive_until": 2400,
        "direct_cost": 397
      },
      "passengers": [
        {
          "bid": 4926,
          "id": 62,
          "price": 3665,
          "cost": 493,
          "direct_dist": 16421,
          "direct_cost": 493,
          "direct_time": 1085
        },
        {
          "bid": 4524,
          "id": 46,
          "price": 3625,
          "cost": 453,
          "direct_dist": 15082,
          "direct_cost": 453,
          "direct_time": 963
        }
      ],
      "cost": 604,
      "virtual_welfare": 8504
    },
    "profit": 6686,
    "cost_profit": 342.0,
    "welfare": 8846,
    "virtual_welfare": 8504,
    "running_time": 162
  },
  {
    "graph_name": "75_14",
    "n_pass": 2,
    "winning_ride": {
      "driver": {
        "arrive_until": 2400,
        "direct_cost": 438
      },
      "passengers": [
        {
          "bid": 2892,
          "id": 43,
          "price": 2579,
          "cost": 312,
          "direct_dist": 10377,
          "direct_cost": 312,
          "direct_time": 611
        },
        {
          "bid": 3466,
          "id": 2,
          "price": 2640,
          "cost": 347,
          "direct_dist": 11556,
          "direct_cost": 347,
          "direct_time": 845
        }
      ],
      "cost": 465,
      "virtual_welfare": 5699
    },
    "profit": 4754,
    "cost_profit": 194.0,
    "welfare": 5893,
    "virtual_welfare": 5699,
    "running_time": 878
  },
  {
    "graph_name": "75_15",
    "n_pass": 2,
    "winning_ride": {
      "driver": {
        "arrive_until": 2400,
        "direct_cost": 330
      },
      "passengers": [
        {
          "bid": 4534,
          "id": 65,
          "price": 4298,
          "cost": 454,
          "direct_dist": 15115,
          "direct_cost": 454,
          "direct_time": 982
        },
        {
          "bid": 5169,
          "id": 4,
          "price": 4561,
          "cost": 517,
          "direct_dist": 17230,
          "direct_cost": 517,
          "direct_time": 1110
        }
      ],
      "cost": 619,
      "virtual_welfare": 8732
    },
    "profit": 8240,
    "cost_profit": 352.0,
    "welfare": 9084,
    "virtual_welfare": 8732,
    "running_time": 2593
  },
  {
    "graph_name": "75_16",
    "n_pass": 2,
    "winning_ride": {
      "driver": {
        "arrive_until": 2400,
        "direct_cost": 426
      },
      "passengers": [
        {
          "bid": 3161,
          "id": 68,
          "price": 3067,
          "cost": 317,
          "direct_dist": 10538,
          "direct_cost": 317,
          "direct_time": 702
        },
        {
          "bid": 3963,
          "id": 39,
          "price": 3025,
          "cost": 397,
          "direct_dist": 13211,
          "direct_cost": 397,
          "direct_time": 888
        }
      ],
      "cost": 530,
      "virtual_welfare": 6410
    },
    "profit": 5562,
    "cost_profit": 184.0,
    "welfare": 6594,
    "virtual_welfare": 6410,
    "running_time": 397
  },
  {
    "graph_name": "75_17",
    "n_pass": 2,
    "winning_ride": {
      "driver": {
        "arrive_until": 2400,
        "direct_cost": 498
      },
      "passengers": [
        {
          "bid": 4528,
          "id": 68,
          "price": 4385,
          "cost": 453,
          "direct_dist": 15094,
          "direct_cost": 453,
          "direct_time": 1047
        },
        {
          "bid": 5383,
          "id": 59,
          "price": 4471,
          "cost": 539,
          "direct_dist": 17946,
          "direct_cost": 539,
          "direct_time": 1185
        }
      ],
      "cost": 357,
      "virtual_welfare": 8919
    },
    "profit": 8499,
    "cost_profit": 635.0,
    "welfare": 9554,
    "virtual_welfare": 8919,
    "running_time": 175
  },
  {
    "graph_name": "75_18",
    "n_pass": 2,
    "winning_ride": {
      "driver": {
        "arrive_until": 2400,
        "direct_cost": 472
      },
      "passengers": [
        {
          "bid": 4345,
          "id": 70,
          "price": 4325,
          "cost": 438,
          "direct_dist": 14589,
          "direct_cost": 438,
          "direct_time": 992
        },
        {
          "bid": 4577,
          "id": 48,
          "price": 4410,
          "cost": 523,
          "direct_dist": 17416,
          "direct_cost": 523,
          "direct_time": 1130
        }
      ],
      "cost": 235,
      "virtual_welfare": 7961
    },
    "profit": 8500,
    "cost_profit": 726.0,
    "welfare": 8687,
    "virtual_welfare": 7961,
    "running_time": 208
  },
  {
    "graph_name": "75_19",
    "n_pass": 2,
    "winning_ride": {
      "driver": {
        "arrive_until": 2400,
        "direct_cost": 455
      },
      "passengers": [
        {
          "bid": 4572,
          "id": 32,
          "price": 3888,
          "cost": 458,
          "direct_dist": 15241,
          "direct_cost": 458,
          "direct_time": 1025
        },
        {
          "bid": 5552,
          "id": 1,
          "price": 4187,
          "cost": 556,
          "direct_dist": 18509,
          "direct_cost": 556,
          "direct_time": 1200
        }
      ],
      "cost": 478,
      "virtual_welfare": 9110
    },
    "profit": 7597,
    "cost_profit": 536.0,
    "welfare": 9646,
    "virtual_welfare": 9110,
    "running_time": 265
  },
  {
    "graph_name": "75_2",
    "n_pass": 2,
    "winning_ride": {
      "driver": {
        "arrive_until": 2400,
        "direct_cost": 426
      },
      "passengers": [
        {
          "bid": 4801,
          "id": 45,
          "price": 3742,
          "cost": 481,
          "direct_dist": 16004,
          "direct_cost": 481,
          "direct_time": 983
        },
        {
          "bid": 4581,
          "id": 38,
          "price": 2051,
          "cost": 488,
          "direct_dist": 16236,
          "direct_cost": 488,
          "direct_time": 1051
        }
      ],
      "cost": 553,
      "virtual_welfare": 8413
    },
    "profit": 5240,
    "cost_profit": 416.0,
    "welfare": 8829,
    "virtual_welfare": 8413,
    "running_time": 180
  },
  {
    "graph_name": "75_20",
    "n_pass": 2,
    "winning_ride": {
      "driver": {
        "arrive_until": 2400,
        "direct_cost": 513
      },
      "passengers": [
        {
          "bid": 2581,
          "id": 74,
          "price": 2421,
          "cost": 259,
          "direct_dist": 8604,
          "direct_cost": 259,
          "direct_time": 685
        },
        {
          "bid": 2765,
          "id": 49,
          "price": 2439,
          "cost": 277,
          "direct_dist": 9217,
          "direct_cost": 277,
          "direct_time": 737
        }
      ],
      "cost": 329,
      "virtual_welfare": 4810
    },
    "profit": 4531,
    "cost_profit": 207.0,
    "welfare": 5017,
    "virtual_welfare": 4810,
    "running_time": 99
  },
  {
    "graph_name": "75_21",
    "n_pass": 2,
    "winning_ride": {
      "driver": {
        "arrive_until": 2400,
        "direct_cost": 526
      },
      "passengers": [
        {
          "bid": 3218,
          "id": 70,
          "price": 2490,
          "cost": 322,
          "direct_dist": 10728,
          "direct_cost": 322,
          "direct_time": 727
        },
        {
          "bid": 4346,
          "id": 38,
          "price": 2662,
          "cost": 435,
          "direct_dist": 14488,
          "direct_cost": 435,
          "direct_time": 910
        }
      ],
      "cost": 316,
      "virtual_welfare": 6807
    },
    "profit": 4836,
    "cost_profit": 441.0,
    "welfare": 7248,
    "virtual_welfare": 6807,
    "running_time": 69
  },
  {
    "graph_name": "75_22",
    "n_pass": 2,
    "winning_ride": {
      "driver": {
        "arrive_until": 2400,
        "direct_cost": 438
      },
      "passengers": [
        {
          "bid": 3228,
          "id": 54,
          "price": 3217,
          "cost": 323,
          "direct_dist": 10763,
          "direct_cost": 323,
          "direct_time": 732
        },
        {
          "bid": 3428,
          "id": 5,
          "price": 3223,
          "cost": 534,
          "direct_dist": 17785,
          "direct_cost": 534,
          "direct_time": 1152
        }
      ],
      "cost": 554,
      "virtual_welfare": 5799
    },
    "profit": 5886,
    "cost_profit": 303.0,
    "welfare": 6102,
    "virtual_welfare": 5799,
    "running_time": 73
  },
  {
    "graph_name": "75_23",
    "n_pass": 2,
    "winning_ride": {
      "driver": {
        "arrive_until": 2400,
        "direct_cost": 534
      },
      "passengers": [
        {
          "bid": 3929,
          "id": 69,
          "price": 3315,
          "cost": 393,
          "direct_dist": 13098,
          "direct_cost": 393,
          "direct_time": 877
        },
        {
          "bid": 3334,
          "id": 20,
          "price": 3192,
          "cost": 334,
          "direct_dist": 11114,
          "direct_cost": 334,
          "direct_time": 837
        }
      ],
      "cost": 368,
      "virtual_welfare": 6536
    },
    "profit": 6139,
    "cost_profit": 359.0,
    "welfare": 6895,
    "virtual_welfare": 6536,
    "running_time": 89
  },
  {
    "graph_name": "75_24",
    "n_pass": 2,
    "winning_ride": {
      "driver": {
        "arrive_until": 2400,
        "direct_cost": 499
      },
      "passengers": [
        {
          "bid": 4500,
          "id": 70,
          "price": 3237,
          "cost": 450,
          "direct_dist": 15000,
          "direct_cost": 450,
          "direct_time": 956
        },
        {
          "bid": 3502,
          "id": 22,
          "price": 3138,
          "cost": 351,
          "direct_dist": 11676,
          "direct_cost": 351,
          "direct_time": 801
        }
      ],
      "cost": 565,
      "virtual_welfare": 7201
    },
    "profit": 5810,
    "cost_profit": 236.0,
    "welfare": 7437,
    "virtual_welfare": 7201,
    "running_time": 168
  },
  {
    "graph_name": "75_25",
    "n_pass": 1,
    "winning_ride": {
      "driver": {
        "arrive_until": 2400,
        "direct_cost": 323
      },
      "passengers": [
        {
          "bid": 5562,
          "id": 47,
          "price": 3707,
          "cost": 557,
          "direct_dist": 18541,
          "direct_cost": 557,
          "direct_time": 1184
        }
      ],
      "cost": 528,
      "virtual_welfare": 5005
    },
    "profit": 3179,
    "cost_profit": 29.0,
    "welfare": 5034,
    "virtual_welfare": 5005,
    "running_time": 776
  },
  {
    "graph_name": "75_26",
    "n_pass": 2,
    "winning_ride": {
      "driver": {
        "arrive_until": 2400,
        "direct_cost": 481
      },
      "passengers": [
        {
          "bid": 4118,
          "id": 71,
          "price": 3984,
          "cost": 412,
          "direct_dist": 13727,
          "direct_cost": 412,
          "direct_time": 982
        },
        {
          "bid": 4279,
          "id": 66,
          "price": 4149,
          "cost": 472,
          "direct_dist": 15726,
          "direct_cost": 472,
          "direct_time": 1045
        }
      ],
      "cost": 428,
      "virtual_welfare": 7513
    },
    "profit": 7705,
    "cost_profit": 456.0,
    "welfare": 7969,
    "virtual_welfare": 7513,
    "running_time": 72
  },
  {
    "graph_name": "75_27",
    "n_pass": 2,
    "winning_ride": {
      "driver": {
        "arrive_until": 2400,
        "direct_cost": 485
      },
      "passengers": [
        {
          "bid": 4414,
          "id": 52,
          "price": 3345,
          "cost": 521,
          "direct_dist": 17343,
          "direct_cost": 521,
          "direct_time": 1140
        },
        {
          "bid": 3374,
          "id": 18,
          "price": 3162,
          "cost": 338,
          "direct_dist": 11248,
          "direct_cost": 338,
          "direct_time": 764
        }
      ],
      "cost": 325,
      "virtual_welfare": 6929
    },
    "profit": 6182,
    "cost_profit": 534.0,
    "welfare": 7463,
    "virtual_welfare": 6929,
    "running_time": 133
  },
  {
    "graph_name": "75_28",
    "n_pass": 2,
    "winning_ride": {
      "driver": {
        "arrive_until": 2400,
        "direct_cost": 421
      },
      "passengers": [
        {
          "bid": 2799,
          "id": 29,
          "price": 2784,
          "cost": 345,
          "direct_dist": 11487,
          "direct_cost": 345,
          "direct_time": 725
        },
        {
          "bid": 4608,
          "id": 28,
          "price": 2915,
          "cost": 461,
          "direct_dist": 15360,
          "direct_cost": 461,
          "direct_time": 997
        }
      ],
      "cost": 221,
      "virtual_welfare": 6601
    },
    "profit": 5478,
    "cost_profit": 585.0,
    "welfare": 7186,
    "virtual_welfare": 6601,
    "running_time": 335
  },
  {
    "graph_name": "75_29",
    "n_pass": 2,
    "winning_ride": {
      "driver": {
        "arrive_until": 2400,
        "direct_cost": 432
      },
      "passengers": [
        {
          "bid": 3513,
          "id": 34,
          "price": 3259,
          "cost": 381,
          "direct_dist": 12675,
          "direct_cost": 381,
          "direct_time": 877
        },
        {
          "bid": 3455,
          "id": 9,
          "price": 3224,
          "cost": 346,
          "direct_dist": 11519,
          "direct_cost": 346,
          "direct_time": 883
        }
      ],
      "cost": 499,
      "virtual_welfare": 6241
    },
    "profit": 5984,
    "cost_profit": 228.0,
    "welfare": 6469,
    "virtual_welfare": 6241,
    "running_time": 173
  },
  {
    "graph_name": "75_3",
    "n_pass": 2,
    "winning_ride": {
      "driver": {
        "arrive_until": 2400,
        "direct_cost": 470
      },
      "passengers": [
        {
          "bid": 5740,
          "id": 48,
          "price": 3352,
          "cost": 575,
          "direct_dist": 19136,
          "direct_cost": 575,
          "direct_time": 1255
        },
        {
          "bid": 4673,
          "id": 15,
          "price": 3050,
          "cost": 468,
          "direct_dist": 15577,
          "direct_cost": 468,
          "direct_time": 1027
        }
      ],
      "cost": 596,
      "virtual_welfare": 9370
    },
    "profit": 5806,
    "cost_profit": 447.0,
    "welfare": 9817,
    "virtual_welfare": 9370,
    "running_time": 524
  },
  {
    "graph_name": "75_30",
    "n_pass": 2,
    "winning_ride": {
      "driver": {
        "arrive_until": 2400,
        "direct_cost": 413
      },
      "passengers": [
        {
          "bid": 3451,
          "id": 67,
          "price": 2612,
          "cost": 346,
          "direct_dist": 11505,
          "direct_cost": 346,
          "direct_time": 778
        },
        {
          "bid": 3257,
          "id": 30,
          "price": 2463,
          "cost": 453,
          "direct_dist": 15068,
          "direct_cost": 453,
          "direct_time": 1081
        }
      ],
      "cost": 464,
      "virtual_welfare": 5909
    },
    "profit": 4611,
    "cost_profit": 335.0,
    "welfare": 6244,
    "virtual_welfare": 5909,
    "running_time": 578
  },
  {
    "graph_name": "75_31",
    "n_pass": 2,
    "winning_ride": {
      "driver": {
        "arrive_until": 2400,
        "direct_cost": 509
      },
      "passengers": [
        {
          "bid": 3794,
          "id": 24,
          "price": 3253,
          "cost": 380,
          "direct_dist": 12648,
          "direct_cost": 380,
          "direct_time": 844
        },
        {
          "bid": 3621,
          "id": 2,
          "price": 3236,
          "cost": 363,
          "direct_dist": 12072,
          "direct_cost": 363,
          "direct_time": 778
        }
      ],
      "cost": 432,
      "virtual_welfare": 6672
    },
    "profit": 6057,
    "cost_profit": 311.0,
    "welfare": 6983,
    "virtual_welfare": 6672,
    "running_time": 177
  },
  {
    "graph_name": "75_32",
    "n_pass": 2,
    "winning_ride": {
      "driver": {
        "arrive_until": 2400,
        "direct_cost": 592
      },
      "passengers": [
        {
          "bid": 4060,
          "id": 38,
          "price": 3405,
          "cost": 412,
          "direct_dist": 13729,
          "direct_cost": 412,
          "direct_time": 865
        },
        {
          "bid": 4228,
          "id": 24,
          "price": 4140,
          "cost": 492,
          "direct_dist": 16389,
          "direct_cost": 492,
          "direct_time": 1140
        }
      ],
      "cost": 303,
      "virtual_welfare": 7384
    },
    "profit": 7242,
    "cost_profit": 601.0,
    "welfare": 7985,
    "virtual_welfare": 7384,
    "running_time": 115
  },
  {
    "graph_name": "75_33",
    "n_pass": 2,
    "winning_ride": {
      "driver": {
        "arrive_until": 2400,
        "direct_cost": 454
      },
      "passengers": [
        {
          "bid": 3552,
          "id": 53,
          "price": 3474,
          "cost": 356,
          "direct_dist": 11842,
          "direct_cost": 356,
          "direct_time": 778
        },
        {
          "bid": 4243,
          "id": 46,
          "price": 3621,
          "cost": 425,
          "direct_dist": 14144,
          "direct_cost": 425,
          "direct_time": 967
        }
      ],
      "cost": 463,
      "virtual_welfare": 7014
    },
    "profit": 6632,
    "cost_profit": 318.0,
    "welfare": 7332,
    "virtual_welfare": 7014,
    "running_time": 427
  },
  {
    "graph_name": "75_34",
    "n_pass": 2,
    "winning_ride": {
      "driver": {
        "arrive_until": 2400,
        "direct_cost": 556
      },
      "passengers": [
        {
          "bid": 4377,
          "id": 67,
          "price": 3606,
          "cost": 524,
          "direct_dist": 17461,
          "direct_cost": 524,
          "direct_time": 1120
        },
        {
          "bid": 5646,
          "id": 37,
          "price": 3681,
          "cost": 565,
          "direct_dist": 18821,
          "direct_cost": 565,
          "direct_time": 1215
        }
      ],
      "cost": 366,
      "virtual_welfare": 8934
    },
    "profit": 6921,
    "cost_profit": 723.0,
    "welfare": 9657,
    "virtual_welfare": 8934,
    "running_time": 46
  },
  {
    "graph_name": "75_35",
    "n_pass": 2,
    "winning_ride": {
      "driver": {
        "arrive_until": 2400,
        "direct_cost": 424
      },
      "passengers": [
        {
          "bid": 4644,
          "id": 64,
          "price": 3590,
          "cost": 465,
          "direct_dist": 15483,
          "direct_cost": 465,
          "direct_time": 1044
        },
        {
          "bid": 3814,
          "id": 32,
          "price": 3507,
          "cost": 382,
          "direct_dist": 12714,
          "direct_cost": 382,
          "direct_time": 854
        }
      ],
      "cost": 406,
      "virtual_welfare": 7611
    },
    "profit": 6691,
    "cost_profit": 441.0,
    "welfare": 8052,
    "virtual_welfare": 7611,
    "running_time": 1192
  },
  {
    "graph_name": "75_36",
    "n_pass": 2,
    "winning_ride": {
      "driver": {
        "arrive_until": 2400,
        "direct_cost": 478
      },
      "passengers": [
        {
          "bid": 3169,
          "id": 68,
          "price": 3087,
          "cost": 317,
          "direct_dist": 10566,
          "direct_cost": 317,
          "direct_time": 635
        },
        {
          "bid": 3667,
          "id": 48,
          "price": 3219,
          "cost": 367,
          "direct_dist": 12225,
          "direct_cost": 367,
          "direct_time": 755
        }
      ],
      "cost": 389,
      "virtual_welfare": 6152
    },
    "profit": 5917,
    "cost_profit": 295.0,
    "welfare": 6447,
    "virtual_welfare": 6152,
    "running_time": 1684
  },
  {
    "graph_name": "75_37",
    "n_pass": 2,
    "winning_ride": {
      "driver": {
        "arrive_until": 2400,
        "direct_cost": 434
      },
      "passengers": [
        {
          "bid": 4095,
          "id": 70,
          "price": 3662,
          "cost": 410,
          "direct_dist": 13650,
          "direct_cost": 410,
          "direct_time": 903
        },
        {
          "bid": 3890,
          "id": 69,
          "price": 3642,
          "cost": 390,
          "direct_dist": 12968,
          "direct_cost": 390,
          "direct_time": 795
        }
      ],
      "cost": 371,
      "virtual_welfare": 7185
    },
    "profit": 6933,
    "cost_profit": 429.0,
    "welfare": 7614,
    "virtual_welfare": 7185,
    "running_time": 441
  },
  {
    "graph_name": "75_38",
    "n_pass": 2,
    "winning_ride": {
      "driver": {
        "arrive_until": 2400,
        "direct_cost": 585
      },
      "passengers": [
        {
          "bid": 3779,
          "id": 22,
          "price": 3131,
          "cost": 378,
          "direct_dist": 12598,
          "direct_cost": 378,
          "direct_time": 884
        },
        {
          "bid": 5975,
          "id": 21,
          "price": 3717,
          "cost": 598,
          "direct_dist": 19917,
          "direct_cost": 598,
          "direct_time": 1237
        }
      ],
      "cost": 384,
      "virtual_welfare": 8778
    },
    "profit": 6464,
    "cost_profit": 592.0,
    "welfare": 9370,
    "virtual_welfare": 8778,
    "running_time": 374
  },
  {
    "graph_name": "75_39",
    "n_pass": 1,
    "winning_ride": {
      "driver": {
        "arrive_until": 2400,
        "direct_cost": 595
      },
      "passengers": [
        {
          "bid": 4634,
          "id": 44,
          "price": 4496,
          "cost": 464,
          "direct_dist": 15449,
          "direct_cost": 464,
          "direct_time": 1102
        }
      ],
      "cost": 279,
      "virtual_welfare": 4170
    },
    "profit": 4217,
    "cost_profit": 185.0,
    "welfare": 4355,
    "virtual_welfare": 4170,
    "running_time": 93
  },
  {
    "graph_name": "75_4",
    "n_pass": 2,
    "winning_ride": {
      "driver": {
        "arrive_until": 2400,
        "direct_cost": 396
      },
      "passengers": [
        {
          "bid": 4658,
          "id": 69,
          "price": 4425,
          "cost": 466,
          "direct_dist": 15528,
          "direct_cost": 466,
          "direct_time": 1039
        },
        {
          "bid": 4444,
          "id": 43,
          "price": 4417,
          "cost": 458,
          "direct_dist": 15248,
          "direct_cost": 458,
          "direct_time": 1009
        }
      ],
      "cost": 486,
      "virtual_welfare": 8178
    },
    "profit": 8356,
    "cost_profit": 438.0,
    "welfare": 8616,
    "virtual_welfare": 8178,
    "running_time": 1256
  },
  {
    "graph_name": "75_40",
    "n_pass": 2,
    "winning_ride": {
      "driver": {
        "arrive_until": 2400,
        "direct_cost": 513
      },
      "passengers": [
        {
          "bid": 3560,
          "id": 71,
          "price": 2498,
          "cost": 357,
          "direct_dist": 11868,
          "direct_cost": 357,
          "direct_time": 721
        },
        {
          "bid": 3464,
          "id": 57,
          "price": 2908,
          "cost": 347,
          "direct_dist": 11548,
          "direct_cost": 347,
          "direct_time": 811
        }
      ],
      "cost": 249,
      "virtual_welfare": 6320
    },
    "profit": 5157,
    "cost_profit": 455.0,
    "welfare": 6775,
    "virtual_welfare": 6320,
    "running_time": 3949
  },
  {
    "graph_name": "75_41",
    "n_pass": 2,
    "winning_ride": {
      "driver": {
        "arrive_until": 2400,
        "direct_cost": 395
      },
      "passengers": [
        {
          "bid": 6119,
          "id": 40,
          "price": 3668,
          "cost": 612,
          "direct_dist": 20398,
          "direct_cost": 612,
          "direct_time": 1333
        },
        {
          "bid": 3505,
          "id": 34,
          "price": 3299,
          "cost": 351,
          "direct_dist": 11686,
          "direct_cost": 351,
          "direct_time": 801
        }
      ],
      "cost": 504,
      "virtual_welfare": 8661
    },
    "profit": 6463,
    "cost_profit": 459.0,
    "welfare": 9120,
    "virtual_welfare": 8661,
    "running_time": 1365
  },
  {
    "graph_name": "75_42",
    "n_pass": 2,
    "winning_ride": {
      "driver": {
        "arrive_until": 2400,
        "direct_cost": 403
      },
      "passengers": [
        {
          "bid": 3442,
          "id": 68,
          "price": 3208,
          "cost": 345,
          "direct_dist": 11476,
          "direct_cost": 345,
          "direct_time": 804
        },
        {
          "bid": 4130,
          "id": 27,
          "price": 2535,
          "cost": 414,
          "direct_dist": 13767,
          "direct_cost": 414,
          "direct_time": 951
        }
      ],
      "cost": 436,
      "virtual_welfare": 6813
    },
    "profit": 5307,
    "cost_profit": 323.0,
    "welfare": 7136,
    "virtual_welfare": 6813,
    "running_time": 273
  },
  {
    "graph_name": "75_43",
    "n_pass": 2,
    "winning_ride": {
      "driver": {
        "arrive_until": 2400,
        "direct_cost": 515
      },
      "passengers": [
        {
          "bid": 3586,
          "id": 65,
          "price": 2336,
          "cost": 444,
          "direct_dist": 14781,
          "direct_cost": 444,
          "direct_time": 1012
        },
        {
          "bid": 4206,
          "id": 45,
          "price": 3473,
          "cost": 421,
          "direct_dist": 14023,
          "direct_cost": 421,
          "direct_time": 1011
        }
      ],
      "cost": 396,
      "virtual_welfare": 6927
    },
    "profit": 5413,
    "cost_profit": 469.0,
    "welfare": 7396,
    "virtual_welfare": 6927,
    "running_time": 155
  },
  {
    "graph_name": "75_44",
    "n_pass": 2,
    "winning_ride": {
      "driver": {
        "arrive_until": 2400,
        "direct_cost": 498
      },
      "passengers": [
        {
          "bid": 4736,
          "id": 32,
          "price": 2769,
          "cost": 474,
          "direct_dist": 15788,
          "direct_cost": 474,
          "direct_time": 1066
        },
        {
          "bid": 5060,
          "id": 20,
          "price": 4652,
          "cost": 507,
          "direct_dist": 16868,
          "direct_cost": 507,
          "direct_time": 1089
        }
      ],
      "cost": 338,
      "virtual_welfare": 8815
    },
    "profit": 7083,
    "cost_profit": 643.0,
    "welfare": 9458,
    "virtual_welfare": 8815,
    "running_time": 186
  },
  {
    "graph_name": "75_45",
    "n_pass": 2,
    "winning_ride": {
      "driver": {
        "arrive_until": 2400,
        "direct_cost": 348
      },
      "passengers": [
        {
          "bid": 3632,
          "id": 68,
          "price": 2597,
          "cost": 364,
          "direct_dist": 12108,
          "direct_cost": 364,
          "direct_time": 812
        },
        {
          "bid": 2682,
          "id": 4,
          "price": 2651,
          "cost": 269,
          "direct_dist": 8942,
          "direct_cost": 269,
          "direct_time": 640
        }
      ],
      "cost": 403,
      "virtual_welfare": 5681
    },
    "profit": 4845,
    "cost_profit": 230.0,
    "welfare": 5911,
    "virtual_welfare": 5681,
    "running_time": 3551
  },
  {
    "graph_name": "75_46",
    "n_pass": 2,
    "winning_ride": {
      "driver": {
        "arrive_until": 2400,
        "direct_cost": 521
      },
      "passengers": [
        {
          "bid": 3620,
          "id": 16,
          "price": 2873,
          "cost": 363,
          "direct_dist": 12069,
          "direct_cost": 363,
          "direct_time": 755
        },
        {
          "bid": 3114,
          "id": 12,
          "price": 2849,
          "cost": 339,
          "direct_dist": 11299,
          "direct_cost": 339,
          "direct_time": 739
        }
      ],
      "cost": 424,
      "virtual_welfare": 6032
    },
    "profit": 5298,
    "cost_profit": 278.0,
    "welfare": 6310,
    "virtual_welfare": 6032,
    "running_time": 227
  },
  {
    "graph_name": "75_47",
    "n_pass": 2,
    "winning_ride": {
      "driver": {
        "arrive_until": 2400,
        "direct_cost": 499
      },
      "passengers": [
        {
          "bid": 5037,
          "id": 26,
          "price": 3676,
          "cost": 504,
          "direct_dist": 16793,
          "direct_cost": 504,
          "direct_time": 1062
        },
        {
          "bid": 3624,
          "id": 12,
          "price": 3535,
          "cost": 363,
          "direct_dist": 12081,
          "direct_cost": 363,
          "direct_time": 853
        }
      ],
      "cost": 365,
      "virtual_welfare": 7794
    },
    "profit": 6846,
    "cost_profit": 502.0,
    "welfare": 8296,
    "virtual_welfare": 7794,
    "running_time": 510
  },
  {
    "graph_name": "75_48",
    "n_pass": 2,
    "winning_ride": {
      "driver": {
        "arrive_until": 2400,
        "direct_cost": 385
      },
      "passengers": [
        {
          "bid": 3930,
          "id": 44,
          "price": 2822,
          "cost": 539,
          "direct_dist": 17939,
          "direct_cost": 539,
          "direct_time": 1229
        },
        {
          "bid": 3293,
          "id": 1,
          "price": 2898,
          "cost": 615,
          "direct_dist": 20473,
          "direct_cost": 615,
          "direct_time": 1374
        }
      ],
      "cost": 611,
      "virtual_welfare": 6069
    },
    "profit": 5109,
    "cost_profit": 543.0,
    "welfare": 6612,
    "virtual_welfare": 6069,
    "running_time": 206
  },
  {
    "graph_name": "75_49",
    "n_pass": 2,
    "winning_ride": {
      "driver": {
        "arrive_until": 2400,
        "direct_cost": 440
      },
      "passengers": [
        {
          "bid": 4198,
          "id": 47,
          "price": 3892,
          "cost": 524,
          "direct_dist": 17434,
          "direct_cost": 524,
          "direct_time": 1081
        },
        {
          "bid": 3945,
          "id": 19,
          "price": 3763,
          "cost": 395,
          "direct_dist": 13150,
          "direct_cost": 395,
          "direct_time": 874
        }
      ],
      "cost": 468,
      "virtual_welfare": 7224
    },
    "profit": 7187,
    "cost_profit": 451.0,
    "welfare": 7675,
    "virtual_welfare": 7224,
    "running_time": 123
  },
  {
    "graph_name": "75_5",
    "n_pass": 2,
    "winning_ride": {
      "driver": {
        "arrive_until": 2400,
        "direct_cost": 419
      },
      "passengers": [
        {
          "bid": 3159,
          "id": 53,
          "price": 2537,
          "cost": 316,
          "direct_dist": 10531,
          "direct_cost": 316,
          "direct_time": 750
        },
        {
          "bid": 3749,
          "id": 40,
          "price": 2638,
          "cost": 375,
          "direct_dist": 12497,
          "direct_cost": 375,
          "direct_time": 814
        }
      ],
      "cost": 415,
      "virtual_welfare": 6217
    },
    "profit": 4760,
    "cost_profit": 276.0,
    "welfare": 6493,
    "virtual_welfare": 6217,
    "running_time": 214
  },
  {
    "graph_name": "75_50",
    "n_pass": 2,
    "winning_ride": {
      "driver": {
        "arrive_until": 2400,
        "direct_cost": 458
      },
      "passengers": [
        {
          "bid": 3485,
          "id": 29,
          "price": 2644,
          "cost": 349,
          "direct_dist": 11619,
          "direct_cost": 349,
          "direct_time": 789
        },
        {
          "bid": 3252,
          "id": 25,
          "price": 2621,
          "cost": 326,
          "direct_dist": 10840,
          "direct_cost": 326,
          "direct_time": 726
        }
      ],
      "cost": 300,
      "virtual_welfare": 6062
    },
    "profit": 4965,
    "cost_profit": 375.0,
    "welfare": 6437,
    "virtual_welfare": 6062,
    "running_time": 102
  },
  {
    "graph_name": "75_51",
    "n_pass": 2,
    "winning_ride": {
      "driver": {
        "arrive_until": 2400,
        "direct_cost": 508
      },
      "passengers": [
        {
          "bid": 4820,
          "id": 56,
          "price": 3787,
          "cost": 483,
          "direct_dist": 16069,
          "direct_cost": 483,
          "direct_time": 1108
        },
        {
          "bid": 3912,
          "id": 48,
          "price": 3698,
          "cost": 394,
          "direct_dist": 13106,
          "direct_cost": 394,
          "direct_time": 799
        }
      ],
      "cost": 388,
      "virtual_welfare": 7855
    },
    "profit": 7097,
    "cost_profit": 489.0,
    "welfare": 8344,
    "virtual_welfare": 7855,
    "running_time": 62
  },
  {
    "graph_name": "75_52",
    "n_pass": 3,
    "winning_ride": {
      "driver": {
        "arrive_until": 2400,
        "direct_cost": 537
      },
      "passengers": [
        {
          "bid": 2200,
          "id": 72,
          "price": 2133,
          "cost": 221,
          "direct_dist": 7334,
          "direct_cost": 221,
          "direct_time": 487
        },
        {
          "bid": 2581,
          "id": 53,
          "price": 2192,
          "cost": 280,
          "direct_dist": 9310,
          "direct_cost": 280,
          "direct_time": 615
        },
        {
          "bid": 3267,
          "id": 24,
          "price": 2328,
          "cost": 398,
          "direct_dist": 13254,
          "direct_cost": 398,
          "direct_time": 891
        }
      ],
      "cost": 415,
      "virtual_welfare": 7149
    },
    "profit": 6238,
    "cost_profit": 484.0,
    "welfare": 7633,
    "virtual_welfare": 7149,
    "running_time": 1487
  },
  {
    "graph_name": "75_53",
    "n_pass": 2,
    "winning_ride": {
      "driver": {
        "arrive_until": 2400,
        "direct_cost": 414
      },
      "passengers": [
        {
          "bid": 3875,
          "id": 36,
          "price": 3099,
          "cost": 388,
          "direct_dist": 12917,
          "direct_cost": 388,
          "direct_time": 794
        },
        {
          "bid": 4422,
          "id": 26,
          "price": 3154,
          "cost": 443,
          "direct_dist": 14741,
          "direct_cost": 443,
          "direct_time": 930
        }
      ],
      "cost": 488,
      "virtual_welfare": 7466
    },
    "profit": 5765,
    "cost_profit": 343.0,
    "welfare": 7809,
    "virtual_welfare": 7466,
    "running_time": 384
  },
  {
    "graph_name": "75_54",
    "n_pass": 2,
    "winning_ride": {
      "driver": {
        "arrive_until": 2400,
        "direct_cost": 424
      },
      "passengers": [
        {
          "bid": 4391,
          "id": 70,
          "price": 3906,
          "cost": 440,
          "direct_dist": 14637,
          "direct_cost": 440,
          "direct_time": 892
        },
        {
          "bid": 4567,
          "id": 55,
          "price": 3923,
          "cost": 457,
          "direct_dist": 15224,
          "direct_cost": 457,
          "direct_time": 876
        }
      ],
      "cost": 672,
      "virtual_welfare": 8061
    },
    "profit": 7157,
    "cost_profit": 225.0,
    "welfare": 8286,
    "virtual_welfare": 8061,
    "running_time": 265
  },
  {
    "graph_name": "75_55",
    "n_pass": 2,
    "winning_ride": {
      "driver": {
        "arrive_until": 2400,
        "direct_cost": 595
      },
      "passengers": [
        {
          "bid": 4280,
          "id": 48,
          "price": 3427,
          "cost": 590,
          "direct_dist": 19649,
          "direct_cost": 590,
          "direct_time": 1274
        },
        {
          "bid": 4875,
          "id": 36,
          "price": 3381,
          "cost": 544,
          "direct_dist": 18117,
          "direct_cost": 544,
          "direct_time": 1196
        }
      ],
      "cost": 435,
      "virtual_welfare": 8021
    },
    "profit": 6373,
    "cost_profit": 699.0,
    "welfare": 8720,
    "virtual_welfare": 8021,
    "running_time": 10
  },
  {
    "graph_name": "75_56",
    "n_pass": 2,
    "winning_ride": {
      "driver": {
        "arrive_until": 2400,
        "direct_cost": 485
      },
      "passengers": [
        {
          "bid": 3991,
          "id": 70,
          "price": 3690,
          "cost": 400,
          "direct_dist": 13304,
          "direct_cost": 400,
          "direct_time": 904
        },
        {
          "bid": 4338,
          "id": 20,
          "price": 3724,
          "cost": 434,
          "direct_dist": 14461,
          "direct_cost": 434,
          "direct_time": 916
        }
      ],
      "cost": 371,
      "virtual_welfare": 7495
    },
    "profit": 7043,
    "cost_profit": 463.0,
    "welfare": 7958,
    "virtual_welfare": 7495,
    "running_time": 213
  },
  {
    "graph_name": "75_57",
    "n_pass": 2,
    "winning_ride": {
      "driver": {
        "arrive_until": 2400,
        "direct_cost": 512
      },
      "passengers": [
        {
          "bid": 3469,
          "id": 61,
          "price": 3464,
          "cost": 347,
          "direct_dist": 11565,
          "direct_cost": 347,
          "direct_time": 715
        },
        {
          "bid": 4115,
          "id": 8,
          "price": 3529,
          "cost": 412,
          "direct_dist": 13719,
          "direct_cost": 412,
          "direct_time": 871
        }
      ],
      "cost": 375,
      "virtual_welfare": 6825
    },
    "profit": 6618,
    "cost_profit": 384.0,
    "welfare": 7209,
    "virtual_welfare": 6825,
    "running_time": 239
  },
  {
    "graph_name": "75_58",
    "n_pass": 2,
    "winning_ride": {
      "driver": {
        "arrive_until": 2400,
        "direct_cost": 460
      },
      "passengers": [
        {
          "bid": 3056,
          "id": 41,
          "price": 2084,
          "cost": 306,
          "direct_dist": 10187,
          "direct_cost": 306,
          "direct_time": 649
        },
        {
          "bid": 2245,
          "id": 20,
          "price": 2116,
          "cost": 245,
          "direct_dist": 8135,
          "direct_cost": 245,
          "direct_time": 540
        }
      ],
      "cost": 522,
      "virtual_welfare": 4750
    },
    "profit": 3678,
    "cost_profit": 29.0,
    "welfare": 4779,
    "virtual_welfare": 4750,
    "running_time": 89
  },
  {
    "graph_name": "75_59",
    "n_pass": 2,
    "winning_ride": {
      "driver": {
        "arrive_until": 2400,
        "direct_cost": 538
      },
      "passengers": [
        {
          "bid": 4011,
          "id": 42,
          "price": 2980,
          "cost": 402,
          "direct_dist": 13372,
          "direct_cost": 402,
          "direct_time": 895
        },
        {
          "bid": 3039,
          "id": 4,
          "price": 3008,
          "cost": 461,
          "direct_dist": 15346,
          "direct_cost": 461,
          "direct_time": 967
        }
      ],
      "cost": 248,
      "virtual_welfare": 6187
    },
    "profit": 5740,
    "cost_profit": 615.0,
    "welfare": 6802,
    "virtual_welfare": 6187,
    "running_time": 98
  },
  {
    "graph_name": "75_6",
    "n_pass": 2,
    "winning_ride": {
      "driver": {
        "arrive_until": 2400,
        "direct_cost": 492
      },
      "passengers": [
        {
          "bid": 5301,
          "id": 27,
          "price": 4481,
          "cost": 531,
          "direct_dist": 17670,
          "direct_cost": 531,
          "direct_time": 1201
        },
        {
          "bid": 4914,
          "id": 23,
          "price": 3292,
          "cost": 492,
          "direct_dist": 16380,
          "direct_cost": 492,
          "direct_time": 1145
        }
      ],
      "cost": 453,
      "virtual_welfare": 9192
    },
    "profit": 7320,
    "cost_profit": 570.0,
    "welfare": 9762,
    "virtual_welfare": 9192,
    "running_time": 63
  },
  {
    "graph_name": "75_60",
    "n_pass": 1,
    "winning_ride": {
      "driver": {
        "arrive_until": 2400,
        "direct_cost": 456
      },
      "passengers": [
        {
          "bid": 6004,
          "id": 24,
          "price": 5553,
          "cost": 601,
          "direct_dist": 20014,
          "direct_cost": 601,
          "direct_time": 1288
        }
      ],
      "cost": 439,
      "virtual_welfare": 5403
    },
    "profit": 5114,
    "cost_profit": 162.0,
    "welfare": 5565,
    "virtual_welfare": 5403,
    "running_time": 72
  },
  {
    "graph_name": "75_61",
    "n_pass": 2,
    "winning_ride": {
      "driver": {
        "arrive_until": 2400,
        "direct_cost": 544
      },
      "passengers": [
        {
          "bid": 4272,
          "id": 45,
          "price": 3770,
          "cost": 435,
          "direct_dist": 14499,
          "direct_cost": 435,
          "direct_time": 1068
        },
        {
          "bid": 3820,
          "id": 32,
          "price": 3755,
          "cost": 485,
          "direct_dist": 16151,
          "direct_cost": 485,
          "direct_time": 1023
        }
      ],
      "cost": 362,
      "virtual_welfare": 7172
    },
    "profit": 7163,
    "cost_profit": 558.0,
    "welfare": 7730,
    "virtual_welfare": 7172,
    "running_time": 51
  },
  {
    "graph_name": "75_62",
    "n_pass": 2,
    "winning_ride": {
      "driver": {
        "arrive_until": 2400,
        "direct_cost": 508
      },
      "passengers": [
        {
          "bid": 4673,
          "id": 41,
          "price": 3545,
          "cost": 468,
          "direct_dist": 15577,
          "direct_cost": 468,
          "direct_time": 1053
        },
        {
          "bid": 3515,
          "id": 25,
          "price": 3429,
          "cost": 352,
          "direct_dist": 11717,
          "direct_cost": 352,
          "direct_time": 771
        }
      ],
      "cost": 266,
      "virtual_welfare": 7368
    },
    "profit": 6708,
    "cost_profit": 554.0,
    "welfare": 7922,
    "virtual_welfare": 7368,
    "running_time": 2083
  },
  {
    "graph_name": "75_63",
    "n_pass": 2,
    "winning_ride": {
      "driver": {
        "arrive_until": 2400,
        "direct_cost": 402
      },
      "passengers": [
        {
          "bid": 3961,
          "id": 34,
          "price": 3888,
          "cost": 397,
          "direct_dist": 13204,
          "direct_cost": 397,
          "direct_time": 907
        },
        {
          "bid": 4810,
          "id": 28,
          "price": 4046,
          "cost": 482,
          "direct_dist": 16035,
          "direct_cost": 482,
          "direct_time": 1063
        }
      ],
      "cost": 382,
      "virtual_welfare": 7892
    },
    "profit": 7552,
    "cost_profit": 497.0,
    "welfare": 8389,
    "virtual_welfare": 7892,
    "running_time": 141
  },
  {
    "graph_name": "75_64",
    "n_pass": 2,
    "winning_ride": {
      "driver": {
        "arrive_until": 2400,
        "direct_cost": 482
      },
      "passengers": [
        {
          "bid": 5418,
          "id": 32,
          "price": 3968,
          "cost": 542,
          "direct_dist": 18063,
          "direct_cost": 542,
          "direct_time": 1180
        },
        {
          "bid": 5365,
          "id": 17,
          "price": 3967,
          "cost": 541,
          "direct_dist": 18009,
          "direct_cost": 541,
          "direct_time": 1125
        }
      ],
      "cost": 550,
      "virtual_welfare": 9700
    },
    "profit": 7385,
    "cost_profit": 533.0,
    "welfare": 10233,
    "virtual_welfare": 9700,
    "running_time": 2188
  },
  {
    "graph_name": "75_65",
    "n_pass": 2,
    "winning_ride": {
      "driver": {
        "arrive_until": 2400,
        "direct_cost": 411
      },
      "passengers": [
        {
          "bid": 4323,
          "id": 65,
          "price": 3536,
          "cost": 433,
          "direct_dist": 14413,
          "direct_cost": 433,
          "direct_time": 896
        },
        {
          "bid": 3680,
          "id": 45,
          "price": 3472,
          "cost": 369,
          "direct_dist": 12267,
          "direct_cost": 369,
          "direct_time": 796
        }
      ],
      "cost": 524,
      "virtual_welfare": 7201
    },
    "profit": 6484,
    "cost_profit": 278.0,
    "welfare": 7479,
    "virtual_welfare": 7201,
    "running_time": 318
  },
  {
    "graph_name": "75_66",
    "n_pass": 2,
    "winning_ride": {
      "driver": {
        "arrive_until": 2400,
        "direct_cost": 432
      },
      "passengers": [
        {
          "bid": 4371,
          "id": 46,
          "price": 4144,
          "cost": 438,
          "direct_dist": 14572,
          "direct_cost": 438,
          "direct_time": 953
        },
        {
          "bid": 5007,
          "id": 38,
          "price": 4434,
          "cost": 501,
          "direct_dist": 16691,
          "direct_cost": 501,
          "direct_time": 1142
        }
      ],
      "cost": 531,
      "virtual_welfare": 8439
    },
    "profit": 8047,
    "cost_profit": 408.0,
    "welfare": 8847,
    "virtual_welfare": 8439,
    "running_time": 2865
  },
  {
    "graph_name": "75_67",
    "n_pass": 2,
    "winning_ride": {
      "driver": {
        "arrive_until": 2400,
        "direct_cost": 455
      },
      "passengers": [
        {
          "bid": 3162,
          "id": 43,
          "price": 2843,
          "cost": 317,
          "direct_dist": 10542,
          "direct_cost": 317,
          "direct_time": 787
        },
        {
          "bid": 4472,
          "id": 4,
          "price": 3214,
          "cost": 448,
          "direct_dist": 14907,
          "direct_cost": 448,
          "direct_time": 1031
        }
      ],
      "cost": 462,
      "virtual_welfare": 6869
    },
    "profit": 5595,
    "cost_profit": 303.0,
    "welfare": 7172,
    "virtual_welfare": 6869,
    "running_time": 275
  },
  {
    "graph_name": "75_68",
    "n_pass": 2,
    "winning_ride": {
      "driver": {
        "arrive_until": 2400,
        "direct_cost": 436
      },
      "passengers": [
        {
          "bid": 3899,
          "id": 72,
          "price": 3088,
          "cost": 390,
          "direct_dist": 12997,
          "direct_cost": 390,
          "direct_time": 781
        },
        {
          "bid": 4419,
          "id": 47,
          "price": 3140,
          "cost": 442,
          "direct_dist": 14730,
          "direct_cost": 442,
          "direct_time": 949
        }
      ],
      "cost": 507,
      "virtual_welfare": 7486
    },
    "profit": 5721,
    "cost_profit": 325.0,
    "welfare": 7811,
    "virtual_welfare": 7486,
    "running_time": 1147
  },
  {
    "graph_name": "75_69",
    "n_pass": 2,
    "winning_ride": {
      "driver": {
        "arrive_until": 2400,
        "direct_cost": 481
      },
      "passengers": [
        {
          "bid": 4265,
          "id": 73,
          "price": 3442,
          "cost": 427,
          "direct_dist": 14218,
          "direct_cost": 427,
          "direct_time": 1087
        },
        {
          "bid": 4485,
          "id": 54,
          "price": 3464,
          "cost": 449,
          "direct_dist": 14953,
          "direct_cost": 449,
          "direct_time": 987
        }
      ],
      "cost": 417,
      "virtual_welfare": 7874
    },
    "profit": 6489,
    "cost_profit": 459.0,
    "welfare": 8333,
    "virtual_welfare": 7874,
    "running_time": 115
  },
  {
    "graph_name": "75_7",
    "n_pass": 2,
    "winning_ride": {
      "driver": {
        "arrive_until": 2400,
        "direct_cost": 469
      },
      "passengers": [
        {
          "bid": 5411,
          "id": 19,
          "price": 4566,
          "cost": 542,
          "direct_dist": 18039,
          "direct_cost": 542,
          "direct_time": 1209
        },
        {
          "bid": 5634,
          "id": 4,
          "price": 4588,
          "cost": 564,
          "direct_dist": 18782,
          "direct_cost": 564,
          "direct_time": 1212
        }
      ],
      "cost": 508,
      "virtual_welfare": 9939
    },
    "profit": 8646,
    "cost_profit": 598.0,
    "welfare": 10537,
    "virtual_welfare": 9939,
    "running_time": 227
  },
  {
    "graph_name": "75_70",
    "n_pass": 2,
    "winning_ride": {
      "driver": {
        "arrive_until": 2400,
        "direct_cost": 406
      },
      "passengers": [
        {
          "bid": 5270,
          "id": 73,
          "price": 3785,
          "cost": 528,
          "direct_dist": 17568,
          "direct_cost": 528,
          "direct_time": 1218
        },
        {
          "bid": 3832,
          "id": 72,
          "price": 3435,
          "cost": 384,
          "direct_dist": 12774,
          "direct_cost": 384,
          "direct_time": 799
        }
      ],
      "cost": 595,
      "virtual_welfare": 8190
    },
    "profit": 6625,
    "cost_profit": 317.0,
    "welfare": 8507,
    "virtual_welfare": 8190,
    "running_time": 270
  },
  {
    "graph_name": "75_71",
    "n_pass": 2,
    "winning_ride": {
      "driver": {
        "arrive_until": 2400,
        "direct_cost": 528
      },
      "passengers": [
        {
          "bid": 4272,
          "id": 43,
          "price": 3916,
          "cost": 428,
          "direct_dist": 14241,
          "direct_cost": 428,
          "direct_time": 938
        },
        {
          "bid": 4153,
          "id": 21,
          "price": 3926,
          "cost": 438,
          "direct_dist": 14570,
          "direct_cost": 438,
          "direct_time": 851
        }
      ],
      "cost": 457,
      "virtual_welfare": 7559
    },
    "profit": 7385,
    "cost_profit": 409.0,
    "welfare": 7968,
    "virtual_welfare": 7559,
    "running_time": 409
  },
  {
    "graph_name": "75_72",
    "n_pass": 2,
    "winning_ride": {
      "driver": {
        "arrive_until": 2400,
        "direct_cost": 472
      },
      "passengers": [
        {
          "bid": 4366,
          "id": 55,
          "price": 3612,
          "cost": 437,
          "direct_dist": 14555,
          "direct_cost": 437,
          "direct_time": 920
        },
        {
          "bid": 3784,
          "id": 20,
          "price": 3581,
          "cost": 406,
          "direct_dist": 13504,
          "direct_cost": 406,
          "direct_time": 875
        }
      ],
      "cost": 428,
      "virtual_welfare": 7307
    },
    "profit": 6765,
    "cost_profit": 415.0,
    "welfare": 7722,
    "virtual_welfare": 7307,
    "running_time": 1167
  },
  {
    "graph_name": "75_73",
    "n_pass": 2,
    "winning_ride": {
      "driver": {
        "arrive_until": 2400,
        "direct_cost": 448
      },
      "passengers": [
        {
          "bid": 3345,
          "id": 75,
          "price": 3019,
          "cost": 335,
          "direct_dist": 11151,
          "direct_cost": 335,
          "direct_time": 766
        },
        {
          "bid": 3103,
          "id": 33,
          "price": 2995,
          "cost": 311,
          "direct_dist": 10344,
          "direct_cost": 311,
          "direct_time": 619
        }
      ],
      "cost": 530,
      "virtual_welfare": 5802
    },
    "profit": 5484,
    "cost_profit": 116.0,
    "welfare": 5918,
    "virtual_welfare": 5802,
    "running_time": 2755
  },
  {
    "graph_name": "75_74",
    "n_pass": 2,
    "winning_ride": {
      "driver": {
        "arrive_until": 2400,
        "direct_cost": 515
      },
      "passengers": [
        {
          "bid": 3351,
          "id": 8,
          "price": 2901,
          "cost": 336,
          "direct_dist": 11172,
          "direct_cost": 336,
          "direct_time": 704
        },
        {
          "bid": 3494,
          "id": 5,
          "price": 3144,
          "cost": 392,
          "direct_dist": 13041,
          "direct_cost": 392,
          "direct_time": 846
        }
      ],
      "cost": 398,
      "virtual_welfare": 6117
    },
    "profit": 5647,
    "cost_profit": 330.0,
    "welfare": 6447,
    "virtual_welfare": 6117,
    "running_time": 533
  },
  {
    "graph_name": "75_75",
    "n_pass": 2,
    "winning_ride": {
      "driver": {
        "arrive_until": 2400,
        "direct_cost": 419
      },
      "passengers": [
        {
          "bid": 4016,
          "id": 74,
          "price": 3218,
          "cost": 402,
          "direct_dist": 13388,
          "direct_cost": 402,
          "direct_time": 856
        },
        {
          "bid": 4655,
          "id": 53,
          "price": 3468,
          "cost": 466,
          "direct_dist": 15517,
          "direct_cost": 466,
          "direct_time": 905
        }
      ],
      "cost": 649,
      "virtual_welfare": 7803
    },
    "profit": 6037,
    "cost_profit": 219.0,
    "welfare": 8022,
    "virtual_welfare": 7803,
    "running_time": 289
  },
  {
    "graph_name": "75_76",
    "n_pass": 2,
    "winning_ride": {
      "driver": {
        "arrive_until": 2400,
        "direct_cost": 463
      },
      "passengers": [
        {
          "bid": 3379,
          "id": 65,
          "price": 2806,
          "cost": 338,
          "direct_dist": 11266,
          "direct_cost": 338,
          "direct_time": 745
        },
        {
          "bid": 3260,
          "id": 26,
          "price": 2827,
          "cost": 359,
          "direct_dist": 11954,
          "direct_cost": 359,
          "direct_time": 944
        }
      ],
      "cost": 349,
      "virtual_welfare": 5942
    },
    "profit": 5284,
    "cost_profit": 348.0,
    "welfare": 6290,
    "virtual_welfare": 5942,
    "running_time": 96
  },
  {
    "graph_name": "75_77",
    "n_pass": 2,
    "winning_ride": {
      "driver": {
        "arrive_until": 2400,
        "direct_cost": 519
      },
      "passengers": [
        {
          "bid": 3219,
          "id": 72,
          "price": 2611,
          "cost": 322,
          "direct_dist": 10732,
          "direct_cost": 322,
          "direct_time": 720
        },
        {
          "bid": 4139,
          "id": 62,
          "price": 3314,
          "cost": 417,
          "direct_dist": 13869,
          "direct_cost": 417,
          "direct_time": 960
        }
      ],
      "cost": 341,
      "virtual_welfare": 6619
    },
    "profit": 5584,
    "cost_profit": 398.0,
    "welfare": 7017,
    "virtual_welfare": 6619,
    "running_time": 237
  },
  {
    "graph_name": "75_78",
    "n_pass": 2,
    "winning_ride": {
      "driver": {
        "arrive_until": 2400,
        "direct_cost": 554
      },
      "passengers": [
        {
          "bid": 4156,
          "id": 56,
          "price": 3057,
          "cost": 416,
          "direct_dist": 13855,
          "direct_cost": 416,
          "direct_time": 890
        },
        {
          "bid": 3923,
          "id": 48,
          "price": 3025,
          "cost": 393,
          "direct_dist": 13077,
          "direct_cost": 393,
          "direct_time": 789
        }
      ],
      "cost": 478,
      "virtual_welfare": 7270
    },
    "profit": 5604,
    "cost_profit": 331.0,
    "welfare": 7601,
    "virtual_welfare": 7270,
    "running_time": 177
  },
  {
    "graph_name": "75_79",
    "n_pass": 2,
    "winning_ride": {
      "driver": {
        "arrive_until": 2400,
        "direct_cost": 517
      },
      "passengers": [
        {
          "bid": 5252,
          "id": 68,
          "price": 3817,
          "cost": 526,
          "direct_dist": 17509,
          "direct_cost": 526,
          "direct_time": 1112
        },
        {
          "bid": 4617,
          "id": 6,
          "price": 4146,
          "cost": 462,
          "direct_dist": 15392,
          "direct_cost": 462,
          "direct_time": 1052
        }
      ],
      "cost": 325,
      "virtual_welfare": 8881
    },
    "profit": 7638,
    "cost_profit": 663.0,
    "welfare": 9544,
    "virtual_welfare": 8881,
    "running_time": 173
  },
  {
    "graph_name": "75_8",
    "n_pass": 2,
    "winning_ride": {
      "driver": {
        "arrive_until": 2400,
        "direct_cost": 442
      },
      "passengers": [
        {
          "bid": 4037,
          "id": 67,
          "price": 3143,
          "cost": 450,
          "direct_dist": 14982,
          "direct_cost": 450,
          "direct_time": 934
        },
        {
          "bid": 3036,
          "id": 45,
          "price": 2811,
          "cost": 343,
          "direct_dist": 11431,
          "direct_cost": 343,
          "direct_time": 753
        }
      ],
      "cost": 428,
      "virtual_welfare": 6280
    },
    "profit": 5526,
    "cost_profit": 365.0,
    "welfare": 6645,
    "virtual_welfare": 6280,
    "running_time": 474
  },
  {
    "graph_name": "75_80",
    "n_pass": 2,
    "winning_ride": {
      "driver": {
        "arrive_until": 2400,
        "direct_cost": 451
      },
      "passengers": [
        {
          "bid": 3753,
          "id": 59,
          "price": 3449,
          "cost": 376,
          "direct_dist": 12510,
          "direct_cost": 376,
          "direct_time": 781
        },
        {
          "bid": 5054,
          "id": 11,
          "price": 3834,
          "cost": 506,
          "direct_dist": 16847,
          "direct_cost": 506,
          "direct_time": 1104
        }
      ],
      "cost": 535,
      "virtual_welfare": 7925
    },
    "profit": 6748,
    "cost_profit": 347.0,
    "welfare": 8272,
    "virtual_welfare": 7925,
    "running_time": 418
  },
  {
    "graph_name": "75_81",
    "n_pass": 2,
    "winning_ride": {
      "driver": {
        "arrive_until": 2400,
        "direct_cost": 391
      },
      "passengers": [
        {
          "bid": 3880,
          "id": 45,
          "price": 3569,
          "cost": 533,
          "direct_dist": 17736,
          "direct_cost": 533,
          "direct_time": 1140
        },
        {
          "bid": 4832,
          "id": 1,
          "price": 3520,
          "cost": 484,
          "direct_dist": 16109,
          "direct_cost": 484,
          "direct_time": 1010
        }
      ],
      "cost": 601,
      "virtual_welfare": 7695
    },
    "profit": 6488,
    "cost_profit": 416.0,
    "welfare": 8111,
    "virtual_welfare": 7695,
    "running_time": 1580
  },
  {
    "graph_name": "75_82",
    "n_pass": 2,
    "winning_ride": {
      "driver": {
        "arrive_until": 2400,
        "direct_cost": 478
      },
      "passengers": [
        {
          "bid": 3782,
          "id": 31,
          "price": 3519,
          "cost": 379,
          "direct_dist": 12607,
          "direct_cost": 379,
          "direct_time": 860
        },
        {
          "bid": 5149,
          "id": 4,
          "price": 3655,
          "cost": 515,
          "direct_dist": 17165,
          "direct_cost": 515,
          "direct_time": 1088
        }
      ],
      "cost": 489,
      "virtual_welfare": 8037
    },
    "profit": 6685,
    "cost_profit": 405.0,
    "welfare": 8442,
    "virtual_welfare": 8037,
    "running_time": 764
  },
  {
    "graph_name": "75_83",
    "n_pass": 2,
    "winning_ride": {
      "driver": {
        "arrive_until": 2400,
        "direct_cost": 528
      },
      "passengers": [
        {
          "bid": 4939,
          "id": 37,
          "price": 4889,
          "cost": 494,
          "direct_dist": 16465,
          "direct_cost": 494,
          "direct_time": 1054
        },
        {
          "bid": 5465,
          "id": 8,
          "price": 4942,
          "cost": 547,
          "direct_dist": 18219,
          "direct_cost": 547,
          "direct_time": 1177
        }
      ],
      "cost": 321,
      "virtual_welfare": 9363
    },
    "profit": 9510,
    "cost_profit": 720.0,
    "welfare": 10083,
    "virtual_welfare": 9363,
    "running_time": 120
  },
  {
    "graph_name": "75_84",
    "n_pass": 2,
    "winning_ride": {
      "driver": {
        "arrive_until": 2400,
        "direct_cost": 410
      },
      "passengers": [
        {
          "bid": 4032,
          "id": 30,
          "price": 3918,
          "cost": 404,
          "direct_dist": 13441,
          "direct_cost": 404,
          "direct_time": 932
        },
        {
          "bid": 5222,
          "id": 4,
          "price": 4097,
          "cost": 528,
          "direct_dist": 17579,
          "direct_cost": 528,
          "direct_time": 1100
        }
      ],
      "cost": 481,
      "virtual_welfare": 8322
    },
    "profit": 7534,
    "cost_profit": 451.0,
    "welfare": 8773,
    "virtual_welfare": 8322,
    "running_time": 150
  },
  {
    "graph_name": "75_85",
    "n_pass": 2,
    "winning_ride": {
      "driver": {
        "arrive_until": 2400,
        "direct_cost": 446
      },
      "passengers": [
        {
          "bid": 3293,
          "id": 31,
          "price": 2419,
          "cost": 330,
          "direct_dist": 10977,
          "direct_cost": 330,
          "direct_time": 691
        },
        {
          "bid": 2824,
          "id": 26,
          "price": 2673,
          "cost": 314,
          "direct_dist": 10442,
          "direct_cost": 314,
          "direct_time": 631
        }
      ],
      "cost": 536,
      "virtual_welfare": 5473
    },
    "profit": 4556,
    "cost_profit": 108.0,
    "welfare": 5581,
    "virtual_welfare": 5473,
    "running_time": 146
  },
  {
    "graph_name": "75_86",
    "n_pass": 2,
    "winning_ride": {
      "driver": {
        "arrive_until": 2400,
        "direct_cost": 539
      },
      "passengers": [
        {
          "bid": 4647,
          "id": 33,
          "price": 4040,
          "cost": 465,
          "direct_dist": 15492,
          "direct_cost": 465,
          "direct_time": 1103
        },
        {
          "bid": 3973,
          "id": 7,
          "price": 3973,
          "cost": 398,
          "direct_dist": 13246,
          "direct_cost": 398,
          "direct_time": 853
        }
      ],
      "cost": 386,
      "virtual_welfare": 7757
    },
    "profit": 7627,
    "cost_profit": 477.0,
    "welfare": 8234,
    "virtual_welfare": 7757,
    "running_time": 140
  },
  {
    "graph_name": "75_87",
    "n_pass": 2,
    "winning_ride": {
      "driver": {
        "arrive_until": 2400,
        "direct_cost": 435
      },
      "passengers": [
        {
          "bid": 4383,
          "id": 10,
          "price": 3835,
          "cost": 439,
          "direct_dist": 14610,
          "direct_cost": 439,
          "direct_time": 944
        },
        {
          "bid": 3774,
          "id": 2,
          "price": 3753,
          "cost": 378,
          "direct_dist": 12581,
          "direct_cost": 378,
          "direct_time": 758
        }
      ],
      "cost": 406,
      "virtual_welfare": 7340
    },
    "profit": 7182,
    "cost_profit": 411.0,
    "welfare": 7751,
    "virtual_welfare": 7340,
    "running_time": 299
  },
  {
    "graph_name": "75_88",
    "n_pass": 2,
    "winning_ride": {
      "driver": {
        "arrive_until": 2400,
        "direct_cost": 390
      },
      "passengers": [
        {
          "bid": 3417,
          "id": 36,
          "price": 2272,
          "cost": 342,
          "direct_dist": 11391,
          "direct_cost": 342,
          "direct_time": 786
        },
        {
          "bid": 3794,
          "id": 6,
          "price": 3275,
          "cost": 380,
          "direct_dist": 12649,
          "direct_cost": 380,
          "direct_time": 740
        }
      ],
      "cost": 718,
      "virtual_welfare": 6489
    },
    "profit": 4829,
    "cost_profit": 4.0,
    "welfare": 6493,
    "virtual_welfare": 6489,
    "running_time": 372
  },
  {
    "graph_name": "75_89",
    "n_pass": 2,
    "winning_ride": {
      "driver": {
        "arrive_until": 2400,
        "direct_cost": 472
      },
      "passengers": [
        {
          "bid": 4618,
          "id": 41,
          "price": 3643,
          "cost": 462,
          "direct_dist": 15394,
          "direct_cost": 462,
          "direct_time": 981
        },
        {
          "bid": 4916,
          "id": 9,
          "price": 4648,
          "cost": 492,
          "direct_dist": 16387,
          "direct_cost": 492,
          "direct_time": 1128
        }
      ],
      "cost": 506,
      "virtual_welfare": 8580
    },
    "profit": 7785,
    "cost_profit": 448.0,
    "welfare": 9028,
    "virtual_welfare": 8580,
    "running_time": 106
  },
  {
    "graph_name": "75_9",
    "n_pass": 1,
    "winning_ride": {
      "driver": {
        "arrive_until": 2400,
        "direct_cost": 474
      },
      "passengers": [
        {
          "bid": 3930,
          "id": 44,
          "price": 3176,
          "cost": 394,
          "direct_dist": 13101,
          "direct_cost": 394,
          "direct_time": 925
        }
      ],
      "cost": 393,
      "virtual_welfare": 3536
    },
    "profit": 2783,
    "cost_profit": 1.0,
    "welfare": 3537,
    "virtual_welfare": 3536,
    "running_time": 127
  },
  {
    "graph_name": "75_90",
    "n_pass": 2,
    "winning_ride": {
      "driver": {
        "arrive_until": 2400,
        "direct_cost": 461
      },
      "passengers": [
        {
          "bid": 2964,
          "id": 75,
          "price": 2638,
          "cost": 297,
          "direct_dist": 9882,
          "direct_cost": 297,
          "direct_time": 637
        },
        {
          "bid": 4810,
          "id": 43,
          "price": 2823,
          "cost": 482,
          "direct_dist": 16034,
          "direct_cost": 482,
          "direct_time": 1004
        }
      ],
      "cost": 396,
      "virtual_welfare": 6995
    },
    "profit": 5065,
    "cost_profit": 383.0,
    "welfare": 7378,
    "virtual_welfare": 6995,
    "running_time": 763
  },
  {
    "graph_name": "75_91",
    "n_pass": 2,
    "winning_ride": {
      "driver": {
        "arrive_until": 2400,
        "direct_cost": 510
      },
      "passengers": [
        {
          "bid": 4751,
          "id": 43,
          "price": 4583,
          "cost": 476,
          "direct_dist": 15838,
          "direct_cost": 476,
          "direct_time": 974
        },
        {
          "bid": 4781,
          "id": 39,
          "price": 4586,
          "cost": 479,
          "direct_dist": 15939,
          "direct_cost": 479,
          "direct_time": 1042
        }
      ],
      "cost": 491,
      "virtual_welfare": 8577
    },
    "profit": 8678,
    "cost_profit": 464.0,
    "welfare": 9041,
    "virtual_welfare": 8577,
    "running_time": 191
  },
  {
    "graph_name": "75_92",
    "n_pass": 2,
    "winning_ride": {
      "driver": {
        "arrive_until": 2400,
        "direct_cost": 486
      },
      "passengers": [
        {
          "bid": 4022,
          "id": 68,
          "price": 3752,
          "cost": 403,
          "direct_dist": 13408,
          "direct_cost": 403,
          "direct_time": 836
        },
        {
          "bid": 4221,
          "id": 10,
          "price": 3772,
          "cost": 423,
          "direct_dist": 14070,
          "direct_cost": 423,
          "direct_time": 973
        }
      ],
      "cost": 397,
      "virtual_welfare": 7417
    },
    "profit": 7127,
    "cost_profit": 429.0,
    "welfare": 7846,
    "virtual_welfare": 7417,
    "running_time": 253
  },
  {
    "graph_name": "75_93",
    "n_pass": 2,
    "winning_ride": {
      "driver": {
        "arrive_until": 2400,
        "direct_cost": 362
      },
      "passengers": [
        {
          "bid": 4204,
          "id": 61,
          "price": 3810,
          "cost": 423,
          "direct_dist": 14093,
          "direct_cost": 423,
          "direct_time": 957
        },
        {
          "bid": 4526,
          "id": 32,
          "price": 3849,
          "cost": 462,
          "direct_dist": 15389,
          "direct_cost": 462,
          "direct_time": 967
        }
      ],
      "cost": 602,
      "virtual_welfare": 7845
    },
    "profit": 7057,
    "cost_profit": 283.0,
    "welfare": 8128,
    "virtual_welfare": 7845,
    "running_time": 429
  },
  {
    "graph_name": "75_94",
    "n_pass": 2,
    "winning_ride": {
      "driver": {
        "arrive_until": 2400,
        "direct_cost": 480
      },
      "passengers": [
        {
          "bid": 4596,
          "id": 65,
          "price": 3119,
          "cost": 460,
          "direct_dist": 15320,
          "direct_cost": 460,
          "direct_time": 1026
        },
        {
          "bid": 3189,
          "id": 23,
          "price": 2978,
          "cost": 319,
          "direct_dist": 10633,
          "direct_cost": 319,
          "direct_time": 655
        }
      ],
      "cost": 259,
      "virtual_welfare": 7006
    },
    "profit": 5838,
    "cost_profit": 520.0,
    "welfare": 7526,
    "virtual_welfare": 7006,
    "running_time": 303
  },
  {
    "graph_name": "75_95",
    "n_pass": 2,
    "winning_ride": {
      "driver": {
        "arrive_until": 2400,
        "direct_cost": 477
      },
      "passengers": [
        {
          "bid": 3102,
          "id": 61,
          "price": 3066,
          "cost": 311,
          "direct_dist": 10341,
          "direct_cost": 311,
          "direct_time": 663
        },
        {
          "bid": 4768,
          "id": 58,
          "price": 3268,
          "cost": 477,
          "direct_dist": 15895,
          "direct_cost": 477,
          "direct_time": 1085
        }
      ],
      "cost": 374,
      "virtual_welfare": 7082
    },
    "profit": 5960,
    "cost_profit": 414.0,
    "welfare": 7496,
    "virtual_welfare": 7082,
    "running_time": 701
  },
  {
    "graph_name": "75_96",
    "n_pass": 2,
    "winning_ride": {
      "driver": {
        "arrive_until": 2400,
        "direct_cost": 411
      },
      "passengers": [
        {
          "bid": 4424,
          "id": 33,
          "price": 4329,
          "cost": 445,
          "direct_dist": 14813,
          "direct_cost": 445,
          "direct_time": 916
        },
        {
          "bid": 4418,
          "id": 21,
          "price": 4366,
          "cost": 482,
          "direct_dist": 16035,
          "direct_cost": 482,
          "direct_time": 997
        }
      ],
      "cost": 625,
      "virtual_welfare": 7915
    },
    "profit": 8070,
    "cost_profit": 302.0,
    "welfare": 8217,
    "virtual_welfare": 7915,
    "running_time": 101
  },
  {
    "graph_name": "75_97",
    "n_pass": 2,
    "winning_ride": {
      "driver": {
        "arrive_until": 2400,
        "direct_cost": 582
      },
      "passengers": [
        {
          "bid": 3939,
          "id": 72,
          "price": 3606,
          "cost": 394,
          "direct_dist": 13130,
          "direct_cost": 394,
          "direct_time": 886
        },
        {
          "bid": 3915,
          "id": 44,
          "price": 3696,
          "cost": 484,
          "direct_dist": 16127,
          "direct_cost": 484,
          "direct_time": 1092
        }
      ],
      "cost": 250,
      "virtual_welfare": 6976
    },
    "profit": 7052,
    "cost_profit": 628.0,
    "welfare": 7604,
    "virtual_welfare": 6976,
    "running_time": 39
  },
  {
    "graph_name": "75_98",
    "n_pass": 2,
    "winning_ride": {
      "driver": {
        "arrive_until": 2400,
        "direct_cost": 487
      },
      "passengers": [
        {
          "bid": 3925,
          "id": 71,
          "price": 3570,
          "cost": 393,
          "direct_dist": 13085,
          "direct_cost": 393,
          "direct_time": 1043
        },
        {
          "bid": 3735,
          "id": 46,
          "price": 2829,
          "cost": 374,
          "direct_dist": 12451,
          "direct_cost": 374,
          "direct_time": 733
        }
      ],
      "cost": 328,
      "virtual_welfare": 6893
    },
    "profit": 6071,
    "cost_profit": 439.0,
    "welfare": 7332,
    "virtual_welfare": 6893,
    "running_time": 727
  },
  {
    "graph_name": "75_99",
    "n_pass": 2,
    "winning_ride": {
      "driver": {
        "arrive_until": 2400,
        "direct_cost": 423
      },
      "passengers": [
        {
          "bid": 4837,
          "id": 63,
          "price": 4626,
          "cost": 484,
          "direct_dist": 16124,
          "direct_cost": 484,
          "direct_time": 1026
        },
        {
          "bid": 5322,
          "id": 30,
          "price": 4961,
          "cost": 608,
          "direct_dist": 20242,
          "direct_cost": 608,
          "direct_time": 1334
        }
      ],
      "cost": 603,
      "virtual_welfare": 9067
    },
    "profit": 8984,
    "cost_profit": 489.0,
    "welfare": 9556,
    "virtual_welfare": 9067,
    "running_time": 450
  }
]