{
  "nodes": [
    {
      "Delivery": {
        "bid": 2175,
        "id": 24,
        "price": null,
        "cost": null,
        "direct_dist": 7253,
        "direct_cost": 218,
        "direct_time": 492
      }
    },
    {
      "Pickup": {
        "bid": 2175,
        "id": 24,
        "price": null,
        "cost": null,
        "direct_dist": 7253,
        "direct_cost": 218,
        "direct_time": 492
      }
    },
    {
      "Delivery": {
        "bid": 920,
        "id": 23,
        "price": null,
        "cost": null,
        "direct_dist": 3068,
        "direct_cost": 93,
        "direct_time": 231
      }
    },
    {
      "Pickup": {
        "bid": 920,
        "id": 23,
        "price": null,
        "cost": null,
        "direct_dist": 3068,
        "direct_cost": 93,
        "direct_time": 231
      }
    },
    {
      "Delivery": {
        "bid": 2121,
        "id": 21,
        "price": null,
        "cost": null,
        "direct_dist": 9936,
        "direct_cost": 299,
        "direct_time": 736
      }
    },
    {
      "Pickup": {
        "bid": 2121,
        "id": 21,
        "price": null,
        "cost": null,
        "direct_dist": 9936,
        "direct_cost": 299,
        "direct_time": 736
      }
    },
    {
      "Delivery": {
        "bid": 4260,
        "id": 19,
        "price": null,
        "cost": null,
        "direct_dist": 14203,
        "direct_cost": 427,
        "direct_time": 971
      }
    },
    {
      "Pickup": {
        "bid": 4260,
        "id": 19,
        "price": null,
        "cost": null,
        "direct_dist": 14203,
        "direct_cost": 427,
        "direct_time": 971
      }
    },
    {
      "Delivery": {
        "bid": 4409,
        "id": 18,
        "price": null,
        "cost": null,
        "direct_dist": 14697,
        "direct_cost": 441,
        "direct_time": 924
      }
    },
    {
      "Pickup": {
        "bid": 4409,
        "id": 18,
        "price": null,
        "cost": null,
        "direct_dist": 14697,
        "direct_cost": 441,
        "direct_time": 924
      }
    },
    {
      "Delivery": {
        "bid": 3121,
        "id": 15,
        "price": null,
        "cost": null,
        "direct_dist": 15523,
        "direct_cost": 466,
        "direct_time": 988
      }
    },
    {
      "Pickup": {
        "bid": 3121,
        "id": 15,
        "price": null,
        "cost": null,
        "direct_dist": 15523,
        "direct_cost": 466,
        "direct_time": 988
      }
    },
    {
      "Delivery": {
        "bid": 572,
        "id": 14,
        "price": null,
        "cost": null,
        "direct_dist": 11002,
        "direct_cost": 331,
        "direct_time": 719
      }
    },
    {
      "Pickup": {
        "bid": 572,
        "id": 14,
        "price": null,
        "cost": null,
        "direct_dist": 11002,
        "direct_cost": 331,
        "direct_time": 719
      }
    },
    {
      "Delivery": {
        "bid": 3315,
        "id": 11,
        "price": null,
        "cost": null,
        "direct_dist": 14837,
        "direct_cost": 446,
        "direct_time": 949
      }
    },
    {
      "Pickup": {
        "bid": 3315,
        "id": 11,
        "price": null,
        "cost": null,
        "direct_dist": 14837,
        "direct_cost": 446,
        "direct_time": 949
      }
    },
    {
      "Delivery": {
        "bid": 924,
        "id": 10,
        "price": null,
        "cost": null,
        "direct_dist": 3081,
        "direct_cost": 93,
        "direct_time": 233
      }
    },
    {
      "Pickup": {
        "bid": 924,
        "id": 10,
        "price": null,
        "cost": null,
        "direct_dist": 3081,
        "direct_cost": 93,
        "direct_time": 233
      }
    },
    {
      "Delivery": {
        "bid": 2231,
        "id": 9,
        "price": null,
        "cost": null,
        "direct_dist": 7437,
        "direct_cost": 224,
        "direct_time": 495
      }
    },
    {
      "Pickup": {
        "bid": 2231,
        "id": 9,
        "price": null,
        "cost": null,
        "direct_dist": 7437,
        "direct_cost": 224,
        "direct_time": 495
      }
    },
    {
      "Delivery": {
        "bid": 3411,
        "id": 8,
        "price": null,
        "cost": null,
        "direct_dist": 11372,
        "direct_cost": 342,
        "direct_time": 750
      }
    },
    {
      "Pickup": {
        "bid": 3411,
        "id": 8,
        "price": null,
        "cost": null,
        "direct_dist": 11372,
        "direct_cost": 342,
        "direct_time": 750
      }
    },
    {
      "Delivery": {
        "bid": 4066,
        "id": 7,
        "price": null,
        "cost": null,
        "direct_dist": 13556,
        "direct_cost": 407,
        "direct_time": 937
      }
    },
    {
      "Pickup": {
        "bid": 4066,
        "id": 7,
        "price": null,
        "cost": null,
        "direct_dist": 13556,
        "direct_cost": 407,
        "direct_time": 937
      }
    },
    {
      "Delivery": {
        "bid": 2503,
        "id": 5,
        "price": null,
        "cost": null,
        "direct_dist": 8344,
        "direct_cost": 251,
        "direct_time": 616
      }
    },
    {
      "Pickup": {
        "bid": 2503,
        "id": 5,
        "price": null,
        "cost": null,
        "direct_dist": 8344,
        "direct_cost": 251,
        "direct_time": 616
      }
    },
    {
      "Delivery": {
        "bid": 157,
        "id": 4,
        "price": null,
        "cost": null,
        "direct_dist": 12046,
        "direct_cost": 362,
        "direct_time": 728
      }
    },
    {
      "Pickup": {
        "bid": 157,
        "id": 4,
        "price": null,
        "cost": null,
        "direct_dist": 12046,
        "direct_cost": 362,
        "direct_time": 728
      }
    },
    {
      "Delivery": {
        "bid": 1995,
        "id": 3,
        "price": null,
        "cost": null,
        "direct_dist": 6650,
        "direct_cost": 200,
        "direct_time": 456
      }
    },
    {
      "Pickup": {
        "bid": 1995,
        "id": 3,
        "price": null,
        "cost": null,
        "direct_dist": 6650,
        "direct_cost": 200,
        "direct_time": 456
      }
    },
    {
      "Delivery": {
        "bid": 2748,
        "id": 2,
        "price": null,
        "cost": null,
        "direct_dist": 9161,
        "direct_cost": 275,
        "direct_time": 646
      }
    },
    {
      "Pickup": {
        "bid": 2748,
        "id": 2,
        "price": null,
        "cost": null,
        "direct_dist": 9161,
        "direct_cost": 275,
        "direct_time": 646
      }
    },
    {
      "DriverStart": {
        "arrive_until": 2400,
        "direct_cost": 428
      }
    },
    {
      "DriverEnd": {
        "arrive_until": 2400,
        "direct_cost": 428
      }
    }
  ],
  "node_holes": [],
  "edge_property": "directed",
  "edges": [
    [
      0,
      6,
      {
        "cost": 145.07999999999999,
        "seconds": 353
      }
    ],
    [
      0,
      10,
      {
        "cost": 65.75999999999999,
        "seconds": 185
      }
    ],
    [
      0,
      4,
      {
        "cost": 119.39999999999999,
        "seconds": 311
      }
    ],
    [
      0,
      12,
      {
        "cost": 104.94,
        "seconds": 297
      }
    ],
    [
      0,
      22,
      {
        "cost": 132.87,
        "seconds": 307
      }
    ],
    [
      0,
      26,
      {
        "cost": 128.85,
        "seconds": 263
      }
    ],
    [
      0,
      20,
      {
        "cost": 131.28,
        "seconds": 276
      }
    ],
    [
      0,
      24,
      {
        "cost": 306.47999999999998,
        "seconds": 687
      }
    ],
    [
      0,
      25,
      {
        "cost": 108.53999999999999,
        "seconds": 342
      }
    ],
    [
      0,
      28,
      {
        "cost": 165.23999999999999,
        "seconds": 428
      }
    ],
    [
      0,
      18,
      {
        "cost": 316.59,
        "seconds": 704
      }
    ],
    [
      0,
      30,
      {
        "cost": 88.5,
        "seconds": 227
      }
    ],
    [
      0,
      8,
      {
        "cost": 89.34,
        "seconds": 217
      }
    ],
    [
      0,
      14,
      {
        "cost": 85.35,
        "seconds": 191
      }
    ],
    [
      0,
      19,
      {
        "cost": 135.66,
        "seconds": 327
      }
    ],
    [
      1,
      6,
      {
        "cost": 273.12,
        "seconds": 662
      }
    ],
    [
      1,
      7,
      {
        "cost": 185.1,
        "seconds": 494
      }
    ],
    [
      1,
      22,
      {
        "cost": 249.06,
        "seconds": 620
      }
    ],
    [
      1,
      4,
      {
        "cost": 286.14,
        "seconds": 697
      }
    ],
    [
      1,
      10,
      {
        "cost": 273.84,
        "seconds": 634
      }
    ],
    [
      1,
      12,
      {
        "cost": 207.15,
        "seconds": 535
      }
    ],
    [
      1,
      11,
      {
        "cost": 224.88,
        "seconds": 547
      }
    ],
    [
      1,
      13,
      {
        "cost": 175.29,
        "seconds": 486
      }
    ],
    [
      1,
      23,
      {
        "cost": 232.04999999999999,
        "seconds": 546
      }
    ],
    [
      1,
      5,
      {
        "cost": 218.51999999999999,
        "seconds": 507
      }
    ],
    [
      1,
      2,
      {
        "cost": 239.31,
        "seconds": 547
      }
    ],
    [
      1,
      24,
      {
        "cost": 121.22999999999999,
        "seconds": 330
      }
    ],
    [
      1,
      26,
      {
        "cost": 147.72,
        "seconds": 408
      }
    ],
    [
      1,
      20,
      {
        "cost": 150.15,
        "seconds": 421
      }
    ],
    [
      1,
      16,
      {
        "cost": 178.47,
        "seconds": 488
      }
    ],
    [
      1,
      28,
      {
        "cost": 92.22,
        "seconds": 266
      }
    ],
    [
      1,
      27,
      {
        "cost": 270.63,
        "seconds": 696
      }
    ],
    [
      1,
      25,
      {
        "cost": 210.32999999999999,
        "seconds": 557
      }
    ],
    [
      1,
      3,
      {
        "cost": 163.98,
        "seconds": 382
      }
    ],
    [
      1,
      21,
      {
        "cost": 264.3,
        "seconds": 631
      }
    ],
    [
      1,
      30,
      {
        "cost": 260.58,
        "seconds": 619
      }
    ],
    [
      1,
      18,
      {
        "cost": 131.31,
        "seconds": 348
      }
    ],
    [
      1,
      17,
      {
        "cost": 86.03999999999999,
        "seconds": 255
      }
    ],
    [
      1,
      8,
      {
        "cost": 244.53,
        "seconds": 547
      }
    ],
    [
      1,
      14,
      {
        "cost": 240.54,
        "seconds": 522
      }
    ],
    [
      1,
      29,
      {
        "cost": 206.42999999999999,
        "seconds": 502
      }
    ],
    [
      1,
      19,
      {
        "cost": 112.8,
        "seconds": 301
      }
    ],
    [
      1,
      31,
      {
        "cost": 9.87,
        "seconds": 33
      }
    ],
    [
      1,
      9,
      {
        "cost": 231.63,
        "seconds": 564
      }
    ],
    [
      1,
      15,
      {
        "cost": 277.68,
        "seconds": 654
      }
    ],
    [
      1,
      0,
      {
        "cost": 217.59,
        "seconds": 492
      }
    ],
    [
      2,
      0,
      {
        "cost": 338.4,
        "seconds": 737
      }
    ],
    [
      2,
      1,
      {
        "cost": 232.32,
        "seconds": 527
      }
    ],
    [
      2,
      16,
      {
        "cost": 299.49,
        "seconds": 647
      }
    ],
    [
      2,
      22,
      {
        "cost": 394.02,
        "seconds": 875
      }
    ],
    [
      2,
      20,
      {
        "cost": 311.07,
        "seconds": 689
      }
    ],
    [
      2,
      18,
      {
        "cost": 186.42,
        "seconds": 427
      }
    ],
    [
      2,
      23,
      {
        "cost": 103.41,
        "seconds": 255
      }
    ],
    [
      2,
      21,
      {
        "cost": 30.99,
        "seconds": 84
      }
    ],
    [
      2,
      19,
      {
        "cost": 258.12,
        "seconds": 590
      }
    ],
    [
      2,
      28,
      {
        "cost": 195.98999999999999,
        "seconds": 449
      }
    ],
    [
      2,
      26,
      {
        "cost": 308.61,
        "seconds": 677
      }
    ],
    [
      2,
      14,
      {
        "cost": 361.34999999999999,
        "seconds": 766
      }
    ],
    [
      2,
      30,
      {
        "cost": 313.53,
        "seconds": 734
      }
    ],
    [
      2,
      24,
      {
        "cost": 228.75,
        "seconds": 543
      }
    ],
    [
      2,
      27,
      {
        "cost": 277.53,
        "seconds": 643
      }
    ],
    [
      2,
      12,
      {
        "cost": 352.11,
        "seconds": 789
      }
    ],
    [
      2,
      31,
      {
        "cost": 242.16,
        "seconds": 561
      }
    ],
    [
      2,
      29,
      {
        "cost": 76.98,
        "seconds": 147
      }
    ],
    [
      2,
      25,
      {
        "cost": 279.81,
        "seconds": 654
      }
    ],
    [
      2,
      13,
      {
        "cost": 304.26,
        "seconds": 649
      }
    ],
    [
      2,
      15,
      {
        "cost": 146.31,
        "seconds": 340
      }
    ],
    [
      2,
      6,
      {
        "cost": 418.08,
        "seconds": 917
      }
    ],
    [
      2,
      10,
      {
        "cost": 394.65,
        "seconds": 878
      }
    ],
    [
      2,
      8,
      {
        "cost": 365.34,
        "seconds": 792
      }
    ],
    [
      2,
      4,
      {
        "cost": 266.84999999999999,
        "seconds": 628
      }
    ],
    [
      2,
      7,
      {
        "cost": 239.85,
        "seconds": 571
      }
    ],
    [
      2,
      9,
      {
        "cost": 218.60999999999999,
        "seconds": 464
      }
    ],
    [
      2,
      11,
      {
        "cost": 231.78,
        "seconds": 494
      }
    ],
    [
      2,
      5,
      {
        "cost": 69.75,
        "seconds": 177
      }
    ],
    [
      3,
      1,
      {
        "cost": 170.51999999999999,
        "seconds": 404
      }
    ],
    [
      3,
      18,
      {
        "cost": 136.59,
        "seconds": 369
      }
    ],
    [
      3,
      23,
      {
        "cost": 143.13,
        "seconds": 350
      }
    ],
    [
      3,
      21,
      {
        "cost": 117.03,
        "seconds": 314
      }
    ],
    [
      3,
      17,
      {
        "cost": 226.35,
        "seconds": 536
      }
    ],
    [
      3,
      28,
      {
        "cost": 123.53999999999999,
        "seconds": 290
      }
    ],
    [
      3,
      19,
      {
        "cost": 194.37,
        "seconds": 447
      }
    ],
    [
      3,
      27,
      {
        "cost": 323.84999999999999,
        "seconds": 760
      }
    ],
    [
      3,
      15,
      {
        "cost": 186.06,
        "seconds": 435
      }
    ],
    [
      3,
      31,
      {
        "cost": 180.35999999999999,
        "seconds": 437
      }
    ],
    [
      3,
      25,
      {
        "cost": 246.66,
        "seconds": 609
      }
    ],
    [
      3,
      29,
      {
        "cost": 123.3,
        "seconds": 264
      }
    ],
    [
      3,
      13,
      {
        "cost": 265.14,
        "seconds": 587
      }
    ],
    [
      3,
      7,
      {
        "cost": 205.17,
        "seconds": 559
      }
    ],
    [
      3,
      11,
      {
        "cost": 278.09999999999999,
        "seconds": 611
      }
    ],
    [
      3,
      9,
      {
        "cost": 264.96,
        "seconds": 580
      }
    ],
    [
      3,
      5,
      {
        "cost": 71.25,
        "seconds": 191
      }
    ],
    [
      3,
      2,
      {
        "cost": 92.03999999999999,
        "seconds": 231
      }
    ],
    [
      4,
      0,
      {
        "cost": 111.6,
        "seconds": 291
      }
    ],
    [
      4,
      22,
      {
        "cost": 227.4,
        "seconds": 584
      }
    ],
    [
      4,
      20,
      {
        "cost": 222.39,
        "seconds": 501
      }
    ],
    [
      4,
      10,
      {
        "cost": 117.92999999999999,
        "seconds": 321
      }
    ],
    [
      4,
      8,
      {
        "cost": 170.25,
        "seconds": 466
      }
    ],
    [
      4,
      12,
      {
        "cost": 233.64,
        "seconds": 574
      }
    ],
    [
      4,
      6,
      {
        "cost": 256.68,
        "seconds": 644
      }
    ],
    [
      4,
      14,
      {
        "cost": 196.95,
        "seconds": 482
      }
    ],
    [
      4,
      26,
      {
        "cost": 219.92999999999999,
        "seconds": 488
      }
    ],
    [
      4,
      30,
      {
        "cost": 53.46,
        "seconds": 166
      }
    ],
    [
      4,
      24,
      {
        "cost": 278.76,
        "seconds": 711
      }
    ],
    [
      4,
      28,
      {
        "cost": 174.75,
        "seconds": 479
      }
    ],
    [
      5,
      1,
      {
        "cost": 180.72,
        "seconds": 440
      }
    ],
    [
      5,
      0,
      {
        "cost": 330.33,
        "seconds": 731
      }
    ],
    [
      5,
      3,
      {
        "cost": 57.51,
        "seconds": 184
      }
    ],
    [
      5,
      2,
      {
        "cost": 76.23,
        "seconds": 189
      }
    ],
    [
      5,
      18,
      {
        "cost": 117.99,
        "seconds": 356
      }
    ],
    [
      5,
      22,
      {
        "cost": 355.28999999999999,
        "seconds": 853
      }
    ],
    [
      5,
      20,
      {
        "cost": 302.96999999999999,
        "seconds": 683
      }
    ],
    [
      5,
      10,
      {
        "cost": 386.58,
        "seconds": 872
      }
    ],
    [
      5,
      16,
      {
        "cost": 274.38,
        "seconds": 620
      }
    ],
    [
      5,
      8,
      {
        "cost": 357.27,
        "seconds": 786
      }
    ],
    [
      5,
      23,
      {
        "cost": 106.17,
        "seconds": 272
      }
    ],
    [
      5,
      19,
      {
        "cost": 235.82999999999999,
        "seconds": 542
      }
    ],
    [
      5,
      21,
      {
        "cost": 101.25,
        "seconds": 272
      }
    ],
    [
      5,
      12,
      {
        "cost": 313.38,
        "seconds": 767
      }
    ],
    [
      5,
      17,
      {
        "cost": 232.38,
        "seconds": 568
      }
    ],
    [
      5,
      11,
      {
        "cost": 199.73999999999999,
        "seconds": 487
      }
    ],
    [
      5,
      9,
      {
        "cost": 186.6,
        "seconds": 456
      }
    ],
    [
      5,
      14,
      {
        "cost": 353.28,
        "seconds": 760
      }
    ],
    [
      5,
      26,
      {
        "cost": 300.53999999999999,
        "seconds": 671
      }
    ],
    [
      5,
      30,
      {
        "cost": 344.76,
        "seconds": 841
      }
    ],
    [
      5,
      24,
      {
        "cost": 172.98,
        "seconds": 451
      }
    ],
    [
      5,
      28,
      {
        "cost": 187.92,
        "seconds": 443
      }
    ],
    [
      5,
      13,
      {
        "cost": 271.2,
        "seconds": 619
      }
    ],
    [
      5,
      7,
      {
        "cost": 202.82999999999999,
        "seconds": 553
      }
    ],
    [
      5,
      27,
      {
        "cost": 245.48999999999999,
        "seconds": 636
      }
    ],
    [
      5,
      15,
      {
        "cost": 151.82999999999999,
        "seconds": 379
      }
    ],
    [
      5,
      31,
      {
        "cost": 190.59,
        "seconds": 473
      }
    ],
    [
      5,
      29,
      {
        "cost": 61.23,
        "seconds": 156
      }
    ],
    [
      5,
      25,
      {
        "cost": 311.01,
        "seconds": 762
      }
    ],
    [
      5,
      4,
      {
        "cost": 298.08,
        "seconds": 736
      }
    ],
    [
      6,
      0,
      {
        "cost": 161.22,
        "seconds": 404
      }
    ],
    [
      6,
      22,
      {
        "cost": 53.28,
        "seconds": 157
      }
    ],
    [
      6,
      26,
      {
        "cost": 154.10999999999999,
        "seconds": 415
      }
    ],
    [
      6,
      20,
      {
        "cost": 147.42,
        "seconds": 393
      }
    ],
    [
      6,
      8,
      {
        "cost": 125.1,
        "seconds": 336
      }
    ],
    [
      6,
      10,
      {
        "cost": 193.23,
        "seconds": 464
      }
    ],
    [
      6,
      12,
      {
        "cost": 106.61999999999999,
        "seconds": 333
      }
    ],
    [
      6,
      14,
      {
        "cost": 67.59,
        "seconds": 192
      }
    ],
    [
      7,
      1,
      {
        "cost": 192.72,
        "seconds": 531
      }
    ],
    [
      7,
      0,
      {
        "cost": 370.56,
        "seconds": 802
      }
    ],
    [
      7,
      3,
      {
        "cost": 183.9,
        "seconds": 505
      }
    ],
    [
      7,
      2,
      {
        "cost": 291.99,
        "seconds": 652
      }
    ],
    [
      7,
      5,
      {
        "cost": 223.04999999999999,
        "seconds": 601
      }
    ],
    [
      7,
      4,
      {
        "cost": 354.15,
        "seconds": 929
      }
    ],
    [
      7,
      30,
      {
        "cost": 413.55,
        "seconds": 929
      }
    ],
    [
      7,
      18,
      {
        "cost": 79.47,
        "seconds": 276
      }
    ],
    [
      7,
      22,
      {
        "cost": 402.03,
        "seconds": 929
      }
    ],
    [
      7,
      26,
      {
        "cost": 318.47999999999998,
        "seconds": 663
      }
    ],
    [
      7,
      28,
      {
        "cost": 231.54,
        "seconds": 544
      }
    ],
    [
      7,
      31,
      {
        "cost": 227.67,
        "seconds": 558
      }
    ],
    [
      7,
      8,
      {
        "cost": 397.5,
        "seconds": 856
      }
    ],
    [
      7,
      23,
      {
        "cost": 185.79,
        "seconds": 509
      }
    ],
    [
      7,
      20,
      {
        "cost": 320.90999999999999,
        "seconds": 676
      }
    ],
    [
      7,
      27,
      {
        "cost": 93.96,
        "seconds": 295
      }
    ],
    [
      7,
      19,
      {
        "cost": 265.77,
        "seconds": 611
      }
    ],
    [
      7,
      29,
      {
        "cost": 209.82,
        "seconds": 581
      }
    ],
    [
      7,
      10,
      {
        "cost": 426.81,
        "seconds": 943
      }
    ],
    [
      7,
      24,
      {
        "cost": 117.92999999999999,
        "seconds": 382
      }
    ],
    [
      7,
      21,
      {
        "cost": 291.93,
        "seconds": 680
      }
    ],
    [
      7,
      16,
      {
        "cost": 50.519999999999999,
        "seconds": 149
      }
    ],
    [
      7,
      12,
      {
        "cost": 360.12,
        "seconds": 844
      }
    ],
    [
      7,
      14,
      {
        "cost": 393.51,
        "seconds": 831
      }
    ],
    [
      7,
      25,
      {
        "cost": 363.3,
        "seconds": 867
      }
    ],
    [
      7,
      9,
      {
        "cost": 95.55,
        "seconds": 281
      }
    ],
    [
      7,
      13,
      {
        "cost": 55.29,
        "seconds": 151
      }
    ],
    [
      7,
      11,
      {
        "cost": 80.67,
        "seconds": 221
      }
    ],
    [
      7,
      15,
      {
        "cost": 235.62,
        "seconds": 662
      }
    ],
    [
      7,
      17,
      {
        "cost": 162.66,
        "seconds": 418
      }
    ],
    [
      7,
      6,
      {
        "cost": 426.09,
        "seconds": 971
      }
    ],
    [
      8,
      0,
      {
        "cost": 121.05,
        "seconds": 303
      }
    ],
    [
      8,
      4,
      {
        "cost": 229.65,
        "seconds": 598
      }
    ],
    [
      8,
      6,
      {
        "cost": 85.28999999999999,
        "seconds": 243
      }
    ],
    [
      8,
      14,
      {
        "cost": 30.779999999999999,
        "seconds": 90
      }
    ],
    [
      8,
      10,
      {
        "cost": 132.99,
        "seconds": 343
      }
    ],
    [
      8,
      20,
      {
        "cost": 177.03,
        "seconds": 380
      }
    ],
    [
      8,
      12,
      {
        "cost": 123.17999999999999,
        "seconds": 338
      }
    ],
    [
      8,
      26,
      {
        "cost": 174.57,
        "seconds": 368
      }
    ],
    [
      8,
      30,
      {
        "cost": 198.75,
        "seconds": 514
      }
    ],
    [
      8,
      22,
      {
        "cost": 108.42,
        "seconds": 288
      }
    ],
    [
      9,
      1,
      {
        "cost": 236.16,
        "seconds": 598
      }
    ],
    [
      9,
      0,
      {
        "cost": 414.0,
        "seconds": 869
      }
    ],
    [
      9,
      3,
      {
        "cost": 212.76,
        "seconds": 517
      }
    ],
    [
      9,
      2,
      {
        "cost": 266.73,
        "seconds": 532
      }
    ],
    [
      9,
      5,
      {
        "cost": 206.67,
        "seconds": 503
      }
    ],
    [
      9,
      4,
      {
        "cost": 397.59,
        "seconds": 997
      }
    ],
    [
      9,
      7,
      {
        "cost": 88.28999999999999,
        "seconds": 265
      }
    ],
    [
      9,
      6,
      {
        "cost": 469.5,
        "seconds": 1039
      }
    ],
    [
      9,
      16,
      {
        "cost": 108.72,
        "seconds": 294
      }
    ],
    [
      9,
      10,
      {
        "cost": 470.25,
        "seconds": 1010
      }
    ],
    [
      9,
      14,
      {
        "cost": 436.95,
        "seconds": 898
      }
    ],
    [
      9,
      20,
      {
        "cost": 379.11,
        "seconds": 820
      }
    ],
    [
      9,
      17,
      {
        "cost": 220.85999999999999,
        "seconds": 563
      }
    ],
    [
      9,
      26,
      {
        "cost": 376.65,
        "seconds": 808
      }
    ],
    [
      9,
      12,
      {
        "cost": 403.53,
        "seconds": 911
      }
    ],
    [
      9,
      15,
      {
        "cost": 210.32999999999999,
        "seconds": 543
      }
    ],
    [
      9,
      18,
      {
        "cost": 122.91,
        "seconds": 343
      }
    ],
    [
      9,
      11,
      {
        "cost": 29.099999999999999,
        "seconds": 113
      }
    ],
    [
      9,
      21,
      {
        "cost": 266.67,
        "seconds": 560
      }
    ],
    [
      9,
      13,
      {
        "cost": 113.49,
        "seconds": 295
      }
    ],
    [
      9,
      22,
      {
        "cost": 445.44,
        "seconds": 997
      }
    ],
    [
      9,
      28,
      {
        "cost": 274.95,
        "seconds": 611
      }
    ],
    [
      9,
      30,
      {
        "cost": 456.96,
        "seconds": 996
      }
    ],
    [
      9,
      24,
      {
        "cost": 161.37,
        "seconds": 450
      }
    ],
    [
      9,
      27,
      {
        "cost": 86.75999999999999,
        "seconds": 290
      }
    ],
    [
      9,
      19,
      {
        "cost": 309.18,
        "seconds": 678
      }
    ],
    [
      9,
      29,
      {
        "cost": 217.29,
        "seconds": 482
      }
    ],
    [
      9,
      23,
      {
        "cost": 160.53,
        "seconds": 389
      }
    ],
    [
      9,
      31,
      {
        "cost": 246.03,
        "seconds": 632
      }
    ],
    [
      9,
      8,
      {
        "cost": 440.90999999999999,
        "seconds": 924
      }
    ],
    [
      10,
      0,
      {
        "cost": 55.83,
        "seconds": 139
      }
    ],
    [
      10,
      4,
      {
        "cost": 140.22,
        "seconds": 373
      }
    ],
    [
      10,
      6,
      {
        "cost": 168.0,
        "seconds": 441
      }
    ],
    [
      10,
      8,
      {
        "cost": 89.13,
        "seconds": 248
      }
    ],
    [
      10,
      22,
      {
        "cost": 146.28,
        "seconds": 366
      }
    ],
    [
      10,
      30,
      {
        "cost": 109.32,
        "seconds": 289
      }
    ],
    [
      10,
      26,
      {
        "cost": 178.44,
        "seconds": 390
      }
    ],
    [
      10,
      20,
      {
        "cost": 180.9,
        "seconds": 403
      }
    ],
    [
      10,
      14,
      {
        "cost": 108.27,
        "seconds": 279
      }
    ],
    [
      10,
      12,
      {
        "cost": 161.04,
        "seconds": 416
      }
    ],
    [
      11,
      1,
      {
        "cost": 231.63,
        "seconds": 576
      }
    ],
    [
      11,
      0,
      {
        "cost": 409.44,
        "seconds": 847
      }
    ],
    [
      11,
      3,
      {
        "cost": 224.34,
        "seconds": 546
      }
    ],
    [
      11,
      2,
      {
        "cost": 278.34,
        "seconds": 560
      }
    ],
    [
      11,
      5,
      {
        "cost": 218.28,
        "seconds": 531
      }
    ],
    [
      11,
      4,
      {
        "cost": 393.06,
        "seconds": 974
      }
    ],
    [
      11,
      7,
      {
        "cost": 72.11999999999999,
        "seconds": 214
      }
    ],
    [
      11,
      6,
      {
        "cost": 464.96999999999999,
        "seconds": 1016
      }
    ],
    [
      11,
      9,
      {
        "cost": 29.099999999999999,
        "seconds": 113
      }
    ],
    [
      11,
      8,
      {
        "cost": 436.38,
        "seconds": 901
      }
    ],
    [
      11,
      28,
      {
        "cost": 270.42,
        "seconds": 589
      }
    ],
    [
      11,
      22,
      {
        "cost": 440.90999999999999,
        "seconds": 975
      }
    ],
    [
      11,
      30,
      {
        "cost": 452.43,
        "seconds": 974
      }
    ],
    [
      11,
      24,
      {
        "cost": 156.81,
        "seconds": 427
      }
    ],
    [
      11,
      23,
      {
        "cost": 172.10999999999999,
        "seconds": 417
      }
    ],
    [
      11,
      20,
      {
        "cost": 362.94,
        "seconds": 769
      }
    ],
    [
      11,
      29,
      {
        "cost": 228.9,
        "seconds": 510
      }
    ],
    [
      11,
      31,
      {
        "cost": 241.47,
        "seconds": 609
      }
    ],
    [
      11,
      18,
      {
        "cost": 118.38,
        "seconds": 321
      }
    ],
    [
      11,
      26,
      {
        "cost": 360.51,
        "seconds": 756
      }
    ],
    [
      11,
      14,
      {
        "cost": 432.39,
        "seconds": 876
      }
    ],
    [
      11,
      12,
      {
        "cost": 399.0,
        "seconds": 889
      }
    ],
    [
      11,
      16,
      {
        "cost": 92.58,
        "seconds": 242
      }
    ],
    [
      11,
      19,
      {
        "cost": 304.65,
        "seconds": 656
      }
    ],
    [
      11,
      27,
      {
        "cost": 70.61999999999999,
        "seconds": 238
      }
    ],
    [
      11,
      15,
      {
        "cost": 221.94,
        "seconds": 571
      }
    ],
    [
      11,
      21,
      {
        "cost": 278.28,
        "seconds": 588
      }
    ],
    [
      11,
      17,
      {
        "cost": 204.69,
        "seconds": 511
      }
    ],
    [
      11,
      13,
      {
        "cost": 97.35,
        "seconds": 244
      }
    ],
    [
      11,
      10,
      {
        "cost": 465.69,
        "seconds": 988
      }
    ],
    [
      12,
      0,
      {
        "cost": 108.21,
        "seconds": 310
      }
    ],
    [
      12,
      4,
      {
        "cost": 249.54,
        "seconds": 583
      }
    ],
    [
      12,
      6,
      {
        "cost": 93.27,
        "seconds": 298
      }
    ],
    [
      12,
      8,
      {
        "cost": 77.25,
        "seconds": 208
      }
    ],
    [
      12,
      10,
      {
        "cost": 158.54999999999999,
        "seconds": 365
      }
    ],
    [
      12,
      20,
      {
        "cost": 66.72,
        "seconds": 211
      }
    ],
    [
      12,
      18,
      {
        "cost": 299.21999999999999,
        "seconds": 678
      }
    ],
    [
      12,
      28,
      {
        "cost": 172.70999999999999,
        "seconds": 413
      }
    ],
    [
      12,
      24,
      {
        "cost": 289.14,
        "seconds": 661
      }
    ],
    [
      12,
      22,
      {
        "cost": 60.54,
        "seconds": 206
      }
    ],
    [
      12,
      30,
      {
        "cost": 223.98,
        "seconds": 506
      }
    ],
    [
      12,
      26,
      {
        "cost": 90.69,
        "seconds": 227
      }
    ],
    [
      12,
      14,
      {
        "cost": 90.57,
        "seconds": 231
      }
    ],
    [
      13,
      1,
      {
        "cost": 173.82,
        "seconds": 415
      }
    ],
    [
      13,
      0,
      {
        "cost": 338.7,
        "seconds": 674
      }
    ],
    [
      13,
      3,
      {
        "cost": 232.32,
        "seconds": 495
      }
    ],
    [
      13,
      2,
      {
        "cost": 307.65,
        "seconds": 660
      }
    ],
    [
      13,
      5,
      {
        "cost": 260.90999999999999,
        "seconds": 611
      }
    ],
    [
      13,
      4,
      {
        "cost": 407.25,
        "seconds": 878
      }
    ],
    [
      13,
      7,
      {
        "cost": 59.19,
        "seconds": 191
      }
    ],
    [
      13,
      6,
      {
        "cost": 388.68,
        "seconds": 835
      }
    ],
    [
      13,
      9,
      {
        "cost": 110.46,
        "seconds": 291
      }
    ],
    [
      13,
      8,
      {
        "cost": 365.64,
        "seconds": 728
      }
    ],
    [
      13,
      11,
      {
        "cost": 87.27,
        "seconds": 225
      }
    ],
    [
      13,
      10,
      {
        "cost": 394.95,
        "seconds": 815
      }
    ],
    [
      13,
      16,
      {
        "cost": 25.259999999999999,
        "seconds": 75
      }
    ],
    [
      13,
      20,
      {
        "cost": 265.62,
        "seconds": 525
      }
    ],
    [
      13,
      18,
      {
        "cost": 120.69,
        "seconds": 314
      }
    ],
    [
      13,
      28,
      {
        "cost": 213.32999999999999,
        "seconds": 447
      }
    ],
    [
      13,
      17,
      {
        "cost": 107.36999999999999,
        "seconds": 267
      }
    ],
    [
      13,
      21,
      {
        "cost": 332.64,
        "seconds": 744
      }
    ],
    [
      13,
      24,
      {
        "cost": 94.74,
        "seconds": 286
      }
    ],
    [
      13,
      30,
      {
        "cost": 381.69,
        "seconds": 801
      }
    ],
    [
      13,
      26,
      {
        "cost": 263.15999999999999,
        "seconds": 512
      }
    ],
    [
      13,
      22,
      {
        "cost": 364.62,
        "seconds": 793
      }
    ],
    [
      13,
      19,
      {
        "cost": 229.5,
        "seconds": 514
      }
    ],
    [
      13,
      14,
      {
        "cost": 361.65,
        "seconds": 703
      }
    ],
    [
      13,
      29,
      {
        "cost": 265.71,
        "seconds": 594
      }
    ],
    [
      13,
      23,
      {
        "cost": 245.57999999999999,
        "seconds": 591
      }
    ],
    [
      13,
      31,
      {
        "cost": 172.35,
        "seconds": 407
      }
    ],
    [
      13,
      25,
      {
        "cost": 331.40999999999999,
        "seconds": 739
      }
    ],
    [
      13,
      27,
      {
        "cost": 100.58999999999999,
        "seconds": 299
      }
    ],
    [
      13,
      15,
      {
        "cost": 295.38,
        "seconds": 744
      }
    ],
    [
      13,
      12,
      {
        "cost": 330.06,
        "seconds": 719
      }
    ],
    [
      14,
      0,
      {
        "cost": 93.99,
        "seconds": 227
      }
    ],
    [
      14,
      4,
      {
        "cost": 213.39,
        "seconds": 538
      }
    ],
    [
      14,
      6,
      {
        "cost": 60.599999999999997,
        "seconds": 165
      }
    ],
    [
      14,
      8,
      {
        "cost": 105.36,
        "seconds": 217
      }
    ],
    [
      14,
      10,
      {
        "cost": 135.63,
        "seconds": 355
      }
    ],
    [
      14,
      12,
      {
        "cost": 98.49,
        "seconds": 260
      }
    ],
    [
      14,
      20,
      {
        "cost": 149.97,
        "seconds": 305
      }
    ],
    [
      14,
      22,
      {
        "cost": 83.75999999999999,
        "seconds": 210
      }
    ],
    [
      14,
      26,
      {
        "cost": 147.51,
        "seconds": 292
      }
    ],
    [
      14,
      30,
      {
        "cost": 182.48999999999999,
        "seconds": 454
      }
    ],
    [
      15,
      1,
      {
        "cost": 262.26,
        "seconds": 626
      }
    ],
    [
      15,
      0,
      {
        "cost": 422.15999999999999,
        "seconds": 920
      }
    ],
    [
      15,
      3,
      {
        "cost": 182.13,
        "seconds": 426
      }
    ],
    [
      15,
      2,
      {
        "cost": 149.43,
        "seconds": 347
      }
    ],
    [
      15,
      5,
      {
        "cost": 159.21,
        "seconds": 386
      }
    ],
    [
      15,
      4,
      {
        "cost": 390.81,
        "seconds": 932
      }
    ],
    [
      15,
      7,
      {
        "cost": 248.76,
        "seconds": 649
      }
    ],
    [
      15,
      6,
      {
        "cost": 477.69,
        "seconds": 1090
      }
    ],
    [
      15,
      9,
      {
        "cost": 227.51999999999999,
        "seconds": 542
      }
    ],
    [
      15,
      8,
      {
        "cost": 449.09999999999999,
        "seconds": 975
      }
    ],
    [
      15,
      11,
      {
        "cost": 240.69,
        "seconds": 572
      }
    ],
    [
      15,
      10,
      {
        "cost": 478.40999999999999,
        "seconds": 1061
      }
    ],
    [
      15,
      13,
      {
        "cost": 313.17,
        "seconds": 727
      }
    ],
    [
      15,
      12,
      {
        "cost": 411.71999999999999,
        "seconds": 962
      }
    ],
    [
      15,
      20,
      {
        "cost": 384.57,
        "seconds": 892
      }
    ],
    [
      15,
      16,
      {
        "cost": 308.4,
        "seconds": 726
      }
    ],
    [
      15,
      18,
      {
        "cost": 181.04999999999999,
        "seconds": 505
      }
    ],
    [
      15,
      28,
      {
        "cost": 289.97999999999998,
        "seconds": 659
      }
    ],
    [
      15,
      21,
      {
        "cost": 165.39,
        "seconds": 389
      }
    ],
    [
      15,
      26,
      {
        "cost": 382.11,
        "seconds": 879
      }
    ],
    [
      15,
      22,
      {
        "cost": 453.63,
        "seconds": 1048
      }
    ],
    [
      15,
      30,
      {
        "cost": 437.49,
        "seconds": 1038
      }
    ],
    [
      15,
      17,
      {
        "cost": 300.75,
        "seconds": 725
      }
    ],
    [
      15,
      19,
      {
        "cost": 317.37,
        "seconds": 729
      }
    ],
    [
      15,
      23,
      {
        "cost": 71.19,
        "seconds": 206
      }
    ],
    [
      15,
      29,
      {
        "cost": 120.63,
        "seconds": 296
      }
    ],
    [
      15,
      27,
      {
        "cost": 286.44,
        "seconds": 722
      }
    ],
    [
      15,
      31,
      {
        "cost": 272.13,
        "seconds": 659
      }
    ],
    [
      15,
      14,
      {
        "cost": 445.10999999999998,
        "seconds": 949
      }
    ],
    [
      16,
      0,
      {
        "cost": 384.96,
        "seconds": 799
      }
    ],
    [
      16,
      1,
      {
        "cost": 220.07999999999999,
        "seconds": 541
      }
    ],
    [
      16,
      2,
      {
        "cost": 346.53,
        "seconds": 717
      }
    ],
    [
      16,
      3,
      {
        "cost": 278.58,
        "seconds": 620
      }
    ],
    [
      16,
      4,
      {
        "cost": 453.51,
        "seconds": 1003
      }
    ],
    [
      16,
      7,
      {
        "cost": 59.73,
        "seconds": 206
      }
    ],
    [
      16,
      6,
      {
        "cost": 434.94,
        "seconds": 960
      }
    ],
    [
      16,
      8,
      {
        "cost": 411.9,
        "seconds": 853
      }
    ],
    [
      16,
      9,
      {
        "cost": 105.21,
        "seconds": 274
      }
    ],
    [
      16,
      11,
      {
        "cost": 82.05,
        "seconds": 208
      }
    ],
    [
      16,
      10,
      {
        "cost": 441.21,
        "seconds": 940
      }
    ],
    [
      16,
      12,
      {
        "cost": 376.32,
        "seconds": 845
      }
    ],
    [
      16,
      13,
      {
        "cost": 46.26,
        "seconds": 125
      }
    ],
    [
      16,
      14,
      {
        "cost": 407.90999999999999,
        "seconds": 828
      }
    ],
    [
      16,
      26,
      {
        "cost": 309.45,
        "seconds": 638
      }
    ],
    [
      16,
      20,
      {
        "cost": 311.88,
        "seconds": 650
      }
    ],
    [
      16,
      24,
      {
        "cost": 141.0,
        "seconds": 411
      }
    ],
    [
      16,
      28,
      {
        "cost": 259.59,
        "seconds": 572
      }
    ],
    [
      16,
      30,
      {
        "cost": 427.95,
        "seconds": 926
      }
    ],
    [
      16,
      18,
      {
        "cost": 126.86999999999999,
        "seconds": 393
      }
    ],
    [
      16,
      22,
      {
        "cost": 410.88,
        "seconds": 918
      }
    ],
    [
      16,
      27,
      {
        "cost": 79.98,
        "seconds": 256
      }
    ],
    [
      16,
      31,
      {
        "cost": 218.60999999999999,
        "seconds": 533
      }
    ],
    [
      16,
      23,
      {
        "cost": 240.32999999999999,
        "seconds": 574
      }
    ],
    [
      16,
      19,
      {
        "cost": 275.78999999999999,
        "seconds": 640
      }
    ],
    [
      17,
      1,
      {
        "cost": 125.36999999999999,
        "seconds": 322
      }
    ],
    [
      17,
      3,
      {
        "cost": 213.12,
        "seconds": 436
      }
    ],
    [
      17,
      5,
      {
        "cost": 241.73999999999999,
        "seconds": 553
      }
    ],
    [
      17,
      7,
      {
        "cost": 141.09,
        "seconds": 397
      }
    ],
    [
      17,
      9,
      {
        "cost": 187.53,
        "seconds": 480
      }
    ],
    [
      17,
      11,
      {
        "cost": 164.34,
        "seconds": 414
      }
    ],
    [
      17,
      13,
      {
        "cost": 89.25,
        "seconds": 231
      }
    ],
    [
      17,
      15,
      {
        "cost": 313.38,
        "seconds": 691
      }
    ],
    [
      17,
      24,
      {
        "cost": 100.41,
        "seconds": 319
      }
    ],
    [
      17,
      18,
      {
        "cost": 180.03,
        "seconds": 392
      }
    ],
    [
      17,
      28,
      {
        "cost": 169.10999999999999,
        "seconds": 354
      }
    ],
    [
      17,
      27,
      {
        "cost": 162.26999999999999,
        "seconds": 461
      }
    ],
    [
      17,
      21,
      {
        "cost": 313.46999999999999,
        "seconds": 686
      }
    ],
    [
      17,
      31,
      {
        "cost": 128.16,
        "seconds": 314
      }
    ],
    [
      17,
      23,
      {
        "cost": 267.71999999999999,
        "seconds": 584
      }
    ],
    [
      17,
      25,
      {
        "cost": 287.21999999999999,
        "seconds": 646
      }
    ],
    [
      17,
      29,
      {
        "cost": 246.51,
        "seconds": 536
      }
    ],
    [
      17,
      19,
      {
        "cost": 185.31,
        "seconds": 421
      }
    ],
    [
      17,
      16,
      {
        "cost": 92.42999999999999,
        "seconds": 233
      }
    ],
    [
      18,
      0,
      {
        "cost": 312.39,
        "seconds": 643
      }
    ],
    [
      18,
      2,
      {
        "cost": 171.75,
        "seconds": 466
      }
    ],
    [
      18,
      3,
      {
        "cost": 113.78999999999999,
        "seconds": 314
      }
    ],
    [
      18,
      4,
      {
        "cost": 295.97999999999998,
        "seconds": 770
      }
    ],
    [
      18,
      6,
      {
        "cost": 367.89,
        "seconds": 812
      }
    ],
    [
      18,
      7,
      {
        "cost": 81.33,
        "seconds": 274
      }
    ],
    [
      18,
      8,
      {
        "cost": 339.3,
        "seconds": 697
      }
    ],
    [
      18,
      9,
      {
        "cost": 127.86,
        "seconds": 344
      }
    ],
    [
      18,
      11,
      {
        "cost": 121.11,
        "seconds": 327
      }
    ],
    [
      18,
      10,
      {
        "cost": 368.64,
        "seconds": 784
      }
    ],
    [
      18,
      12,
      {
        "cost": 301.92,
        "seconds": 685
      }
    ],
    [
      18,
      13,
      {
        "cost": 107.46,
        "seconds": 345
      }
    ],
    [
      18,
      14,
      {
        "cost": 335.34,
        "seconds": 672
      }
    ],
    [
      18,
      16,
      {
        "cost": 119.58,
        "seconds": 359
      }
    ],
    [
      18,
      28,
      {
        "cost": 173.34,
        "seconds": 385
      }
    ],
    [
      18,
      26,
      {
        "cost": 272.31,
        "seconds": 602
      }
    ],
    [
      18,
      20,
      {
        "cost": 274.77,
        "seconds": 615
      }
    ],
    [
      18,
      30,
      {
        "cost": 355.34999999999999,
        "seconds": 770
      }
    ],
    [
      18,
      22,
      {
        "cost": 343.83,
        "seconds": 770
      }
    ],
    [
      18,
      24,
      {
        "cost": 63.419999999999998,
        "seconds": 230
      }
    ],
    [
      19,
      1,
      {
        "cost": 112.64999999999999,
        "seconds": 315
      }
    ],
    [
      19,
      0,
      {
        "cost": 111.0,
        "seconds": 255
      }
    ],
    [
      19,
      3,
      {
        "cost": 186.63,
        "seconds": 435
      }
    ],
    [
      19,
      2,
      {
        "cost": 261.12,
        "seconds": 553
      }
    ],
    [
      19,
      5,
      {
        "cost": 242.73,
        "seconds": 560
      }
    ],
    [
      19,
      7,
      {
        "cost": 276.87,
        "seconds": 642
      }
    ],
    [
      19,
      9,
      {
        "cost": 323.4,
        "seconds": 711
      }
    ],
    [
      19,
      11,
      {
        "cost": 316.68,
        "seconds": 695
      }
    ],
    [
      19,
      13,
      {
        "cost": 270.33,
        "seconds": 623
      }
    ],
    [
      19,
      12,
      {
        "cost": 108.24,
        "seconds": 267
      }
    ],
    [
      19,
      15,
      {
        "cost": 333.39,
        "seconds": 780
      }
    ],
    [
      19,
      17,
      {
        "cost": 181.10999999999999,
        "seconds": 392
      }
    ],
    [
      19,
      16,
      {
        "cost": 273.51,
        "seconds": 625
      }
    ],
    [
      19,
      28,
      {
        "cost": 80.88,
        "seconds": 194
      }
    ],
    [
      19,
      26,
      {
        "cost": 92.13,
        "seconds": 192
      }
    ],
    [
      19,
      20,
      {
        "cost": 94.56,
        "seconds": 204
      }
    ],
    [
      19,
      24,
      {
        "cost": 213.0,
        "seconds": 478
      }
    ],
    [
      19,
      31,
      {
        "cost": 111.69,
        "seconds": 307
      }
    ],
    [
      19,
      23,
      {
        "cost": 287.72999999999998,
        "seconds": 673
      }
    ],
    [
      19,
      29,
      {
        "cost": 262.14,
        "seconds": 628
      }
    ],
    [
      19,
      27,
      {
        "cost": 362.43,
        "seconds": 844
      }
    ],
    [
      19,
      21,
      {
        "cost": 292.11,
        "seconds": 637
      }
    ],
    [
      19,
      25,
      {
        "cost": 117.3,
        "seconds": 351
      }
    ],
    [
      19,
      18,
      {
        "cost": 223.10999999999999,
        "seconds": 495
      }
    ],
    [
      20,
      0,
      {
        "cost": 144.42,
        "seconds": 283
      }
    ],
    [
      20,
      4,
      {
        "cost": 217.2,
        "seconds": 466
      }
    ],
    [
      20,
      6,
      {
        "cost": 139.26,
        "seconds": 357
      }
    ],
    [
      20,
      8,
      {
        "cost": 132.75,
        "seconds": 319
      }
    ],
    [
      20,
      10,
      {
        "cost": 197.76,
        "seconds": 408
      }
    ],
    [
      20,
      12,
      {
        "cost": 80.64,
        "seconds": 242
      }
    ],
    [
      20,
      14,
      {
        "cost": 167.37,
        "seconds": 312
      }
    ],
    [
      20,
      18,
      {
        "cost": 258.12,
        "seconds": 550
      }
    ],
    [
      20,
      24,
      {
        "cost": 248.01,
        "seconds": 533
      }
    ],
    [
      20,
      28,
      {
        "cost": 132.75,
        "seconds": 270
      }
    ],
    [
      20,
      22,
      {
        "cost": 115.19999999999999,
        "seconds": 315
      }
    ],
    [
      20,
      30,
      {
        "cost": 191.64,
        "seconds": 389
      }
    ],
    [
      20,
      26,
      {
        "cost": 13.74,
        "seconds": 35
      }
    ],
    [
      21,
      1,
      {
        "cost": 259.86,
        "seconds": 579
      }
    ],
    [
      21,
      0,
      {
        "cost": 368.52,
        "seconds": 798
      }
    ],
    [
      21,
      3,
      {
        "cost": 118.22999999999999,
        "seconds": 277
      }
    ],
    [
      21,
      2,
      {
        "cost": 38.01,
        "seconds": 103
      }
    ],
    [
      21,
      5,
      {
        "cost": 97.32,
        "seconds": 237
      }
    ],
    [
      21,
      4,
      {
        "cost": 285.21,
        "seconds": 687
      }
    ],
    [
      21,
      7,
      {
        "cost": 261.63,
        "seconds": 620
      }
    ],
    [
      21,
      6,
      {
        "cost": 448.2,
        "seconds": 978
      }
    ],
    [
      21,
      9,
      {
        "cost": 240.42,
        "seconds": 512
      }
    ],
    [
      21,
      8,
      {
        "cost": 395.43,
        "seconds": 853
      }
    ],
    [
      21,
      11,
      {
        "cost": 253.56,
        "seconds": 543
      }
    ],
    [
      21,
      10,
      {
        "cost": 424.77,
        "seconds": 939
      }
    ],
    [
      21,
      13,
      {
        "cost": 326.03999999999999,
        "seconds": 697
      }
    ],
    [
      21,
      12,
      {
        "cost": 382.22999999999998,
        "seconds": 850
      }
    ],
    [
      21,
      15,
      {
        "cost": 168.09,
        "seconds": 389
      }
    ],
    [
      21,
      14,
      {
        "cost": 391.46999999999999,
        "seconds": 827
      }
    ],
    [
      21,
      17,
      {
        "cost": 315.71999999999999,
        "seconds": 711
      }
    ],
    [
      21,
      16,
      {
        "cost": 321.27,
        "seconds": 696
      }
    ],
    [
      21,
      19,
      {
        "cost": 285.69,
        "seconds": 642
      }
    ],
    [
      21,
      18,
      {
        "cost": 208.2,
        "seconds": 476
      }
    ],
    [
      21,
      24,
      {
        "cost": 256.28999999999999,
        "seconds": 594
      }
    ],
    [
      21,
      28,
      {
        "cost": 226.10999999999999,
        "seconds": 510
      }
    ],
    [
      21,
      22,
      {
        "cost": 424.14,
        "seconds": 936
      }
    ],
    [
      21,
      30,
      {
        "cost": 331.89,
        "seconds": 793
      }
    ],
    [
      21,
      26,
      {
        "cost": 338.72999999999998,
        "seconds": 738
      }
    ],
    [
      21,
      25,
      {
        "cost": 298.17,
        "seconds": 713
      }
    ],
    [
      21,
      23,
      {
        "cost": 125.19,
        "seconds": 304
      }
    ],
    [
      21,
      29,
      {
        "cost": 98.75999999999999,
        "seconds": 196
      }
    ],
    [
      21,
      31,
      {
        "cost": 269.73,
        "seconds": 612
      }
    ],
    [
      21,
      27,
      {
        "cost": 299.31,
        "seconds": 692
      }
    ],
    [
      21,
      20,
      {
        "cost": 341.15999999999999,
        "seconds": 750
      }
    ],
    [
      22,
      0,
      {
        "cost": 148.82999999999999,
        "seconds": 374
      }
    ],
    [
      22,
      4,
      {
        "cost": 268.23,
        "seconds": 685
      }
    ],
    [
      22,
      6,
      {
        "cost": 34.589999999999999,
        "seconds": 109
      }
    ],
    [
      22,
      8,
      {
        "cost": 110.33999999999999,
        "seconds": 301
      }
    ],
    [
      22,
      10,
      {
        "cost": 180.84,
        "seconds": 434
      }
    ],
    [
      22,
      12,
      {
        "cost": 91.86,
        "seconds": 298
      }
    ],
    [
      22,
      14,
      {
        "cost": 55.199999999999999,
        "seconds": 162
      }
    ],
    [
      22,
      20,
      {
        "cost": 132.66,
        "seconds": 358
      }
    ],
    [
      22,
      26,
      {
        "cost": 139.35,
        "seconds": 381
      }
    ],
    [
      23,
      1,
      {
        "cost": 215.34,
        "seconds": 516
      }
    ],
    [
      23,
      0,
      {
        "cost": 375.24,
        "seconds": 810
      }
    ],
    [
      23,
      3,
      {
        "cost": 140.7,
        "seconds": 314
      }
    ],
    [
      23,
      2,
      {
        "cost": 108.03,
        "seconds": 234
      }
    ],
    [
      23,
      5,
      {
        "cost": 119.78999999999999,
        "seconds": 274
      }
    ],
    [
      23,
      4,
      {
        "cost": 349.40999999999999,
        "seconds": 819
      }
    ],
    [
      23,
      7,
      {
        "cost": 201.81,
        "seconds": 539
      }
    ],
    [
      23,
      6,
      {
        "cost": 430.74,
        "seconds": 979
      }
    ],
    [
      23,
      9,
      {
        "cost": 180.6,
        "seconds": 431
      }
    ],
    [
      23,
      8,
      {
        "cost": 402.18,
        "seconds": 864
      }
    ],
    [
      23,
      11,
      {
        "cost": 193.73999999999999,
        "seconds": 462
      }
    ],
    [
      23,
      10,
      {
        "cost": 431.49,
        "seconds": 951
      }
    ],
    [
      23,
      13,
      {
        "cost": 266.21999999999999,
        "seconds": 617
      }
    ],
    [
      23,
      12,
      {
        "cost": 364.77,
        "seconds": 852
      }
    ],
    [
      23,
      15,
      {
        "cost": 81.33,
        "seconds": 241
      }
    ],
    [
      23,
      14,
      {
        "cost": 398.19,
        "seconds": 839
      }
    ],
    [
      23,
      17,
      {
        "cost": 253.82999999999999,
        "seconds": 614
      }
    ],
    [
      23,
      16,
      {
        "cost": 261.45,
        "seconds": 615
      }
    ],
    [
      23,
      19,
      {
        "cost": 270.42,
        "seconds": 619
      }
    ],
    [
      23,
      18,
      {
        "cost": 134.13,
        "seconds": 395
      }
    ],
    [
      23,
      21,
      {
        "cost": 123.99,
        "seconds": 277
      }
    ],
    [
      23,
      20,
      {
        "cost": 337.62,
        "seconds": 781
      }
    ],
    [
      23,
      24,
      {
        "cost": 194.4,
        "seconds": 497
      }
    ],
    [
      23,
      30,
      {
        "cost": 396.09,
        "seconds": 925
      }
    ],
    [
      23,
      28,
      {
        "cost": 248.57999999999999,
        "seconds": 547
      }
    ],
    [
      23,
      26,
      {
        "cost": 335.19,
        "seconds": 769
      }
    ],
    [
      23,
      29,
      {
        "cost": 73.71,
        "seconds": 185
      }
    ],
    [
      23,
      31,
      {
        "cost": 225.17999999999999,
        "seconds": 549
      }
    ],
    [
      23,
      25,
      {
        "cost": 362.34,
        "seconds": 846
      }
    ],
    [
      23,
      27,
      {
        "cost": 239.48999999999999,
        "seconds": 611
      }
    ],
    [
      23,
      22,
      {
        "cost": 406.68,
        "seconds": 937
      }
    ],
    [
      24,
      0,
      {
        "cost": 304.28999999999999,
        "seconds": 644
      }
    ],
    [
      24,
      4,
      {
        "cost": 287.88,
        "seconds": 772
      }
    ],
    [
      24,
      6,
      {
        "cost": 359.82,
        "seconds": 814
      }
    ],
    [
      24,
      8,
      {
        "cost": 331.22999999999998,
        "seconds": 699
      }
    ],
    [
      24,
      10,
      {
        "cost": 360.53999999999999,
        "seconds": 785
      }
    ],
    [
      24,
      12,
      {
        "cost": 293.84999999999999,
        "seconds": 686
      }
    ],
    [
      24,
      16,
      {
        "cost": 115.47,
        "seconds": 342
      }
    ],
    [
      24,
      18,
      {
        "cost": 79.35,
        "seconds": 226
      }
    ],
    [
      24,
      20,
      {
        "cost": 271.56,
        "seconds": 584
      }
    ],
    [
      24,
      22,
      {
        "cost": 335.76,
        "seconds": 772
      }
    ],
    [
      24,
      30,
      {
        "cost": 347.28,
        "seconds": 771
      }
    ],
    [
      24,
      28,
      {
        "cost": 165.26999999999999,
        "seconds": 386
      }
    ],
    [
      25,
      1,
      {
        "cost": 208.53,
        "seconds": 521
      }
    ],
    [
      25,
      0,
      {
        "cost": 97.41,
        "seconds": 293
      }
    ],
    [
      25,
      3,
      {
        "cost": 212.54999999999999,
        "seconds": 596
      }
    ],
    [
      25,
      2,
      {
        "cost": 245.85,
        "seconds": 648
      }
    ],
    [
      25,
      5,
      {
        "cost": 268.62,
        "seconds": 721
      }
    ],
    [
      25,
      4,
      {
        "cost": 44.25,
        "seconds": 178
      }
    ],
    [
      25,
      7,
      {
        "cost": 314.21999999999999,
        "seconds": 780
      }
    ],
    [
      25,
      9,
      {
        "cost": 360.71999999999999,
        "seconds": 849
      }
    ],
    [
      25,
      11,
      {
        "cost": 354.0,
        "seconds": 833
      }
    ],
    [
      25,
      13,
      {
        "cost": 356.37,
        "seconds": 831
      }
    ],
    [
      25,
      12,
      {
        "cost": 171.93,
        "seconds": 492
      }
    ],
    [
      25,
      17,
      {
        "cost": 267.15,
        "seconds": 600
      }
    ],
    [
      25,
      16,
      {
        "cost": 359.58,
        "seconds": 833
      }
    ],
    [
      25,
      19,
      {
        "cost": 168.18,
        "seconds": 419
      }
    ],
    [
      25,
      18,
      {
        "cost": 260.43,
        "seconds": 633
      }
    ],
    [
      25,
      21,
      {
        "cost": 276.84,
        "seconds": 732
      }
    ],
    [
      25,
      20,
      {
        "cost": 159.12,
        "seconds": 429
      }
    ],
    [
      25,
      23,
      {
        "cost": 325.59,
        "seconds": 812
      }
    ],
    [
      25,
      30,
      {
        "cost": 89.07,
        "seconds": 299
      }
    ],
    [
      25,
      28,
      {
        "cost": 146.31,
        "seconds": 384
      }
    ],
    [
      25,
      31,
      {
        "cost": 207.6,
        "seconds": 513
      }
    ],
    [
      25,
      29,
      {
        "cost": 299.96999999999999,
        "seconds": 768
      }
    ],
    [
      25,
      24,
      {
        "cost": 250.32,
        "seconds": 616
      }
    ],
    [
      26,
      0,
      {
        "cost": 122.03999999999999,
        "seconds": 320
      }
    ],
    [
      26,
      4,
      {
        "cost": 233.48999999999999,
        "seconds": 510
      }
    ],
    [
      26,
      6,
      {
        "cost": 125.52,
        "seconds": 322
      }
    ],
    [
      26,
      8,
      {
        "cost": 119.00999999999999,
        "seconds": 285
      }
    ],
    [
      26,
      10,
      {
        "cost": 200.28,
        "seconds": 442
      }
    ],
    [
      26,
      12,
      {
        "cost": 66.89999999999999,
        "seconds": 207
      }
    ],
    [
      26,
      14,
      {
        "cost": 132.29999999999999,
        "seconds": 308
      }
    ],
    [
      26,
      18,
      {
        "cost": 274.40999999999999,
        "seconds": 594
      }
    ],
    [
      26,
      20,
      {
        "cost": 16.29,
        "seconds": 44
      }
    ],
    [
      26,
      22,
      {
        "cost": 101.46,
        "seconds": 280
      }
    ],
    [
      26,
      28,
      {
        "cost": 149.04,
        "seconds": 314
      }
    ],
    [
      26,
      30,
      {
        "cost": 207.92999999999999,
        "seconds": 433
      }
    ],
    [
      27,
      1,
      {
        "cost": 272.01,
        "seconds": 631
      }
    ],
    [
      27,
      0,
      {
        "cost": 436.89,
        "seconds": 889
      }
    ],
    [
      27,
      3,
      {
        "cost": 330.51,
        "seconds": 710
      }
    ],
    [
      27,
      2,
      {
        "cost": 332.49,
        "seconds": 746
      }
    ],
    [
      27,
      5,
      {
        "cost": 272.43,
        "seconds": 717
      }
    ],
    [
      27,
      4,
      {
        "cost": 505.44,
        "seconds": 1094
      }
    ],
    [
      27,
      7,
      {
        "cost": 98.34,
        "seconds": 268
      }
    ],
    [
      27,
      6,
      {
        "cost": 486.87,
        "seconds": 1051
      }
    ],
    [
      27,
      9,
      {
        "cost": 91.2,
        "seconds": 303
      }
    ],
    [
      27,
      8,
      {
        "cost": 463.83,
        "seconds": 944
      }
    ],
    [
      27,
      11,
      {
        "cost": 68.00999999999999,
        "seconds": 237
      }
    ],
    [
      27,
      10,
      {
        "cost": 493.14,
        "seconds": 1031
      }
    ],
    [
      27,
      13,
      {
        "cost": 98.19,
        "seconds": 216
      }
    ],
    [
      27,
      12,
      {
        "cost": 428.25,
        "seconds": 935
      }
    ],
    [
      27,
      15,
      {
        "cost": 276.12,
        "seconds": 757
      }
    ],
    [
      27,
      14,
      {
        "cost": 459.84,
        "seconds": 919
      }
    ],
    [
      27,
      17,
      {
        "cost": 205.56,
        "seconds": 483
      }
    ],
    [
      27,
      16,
      {
        "cost": 93.42,
        "seconds": 215
      }
    ],
    [
      27,
      19,
      {
        "cost": 327.69,
        "seconds": 730
      }
    ],
    [
      27,
      18,
      {
        "cost": 178.79999999999999,
        "seconds": 484
      }
    ],
    [
      27,
      21,
      {
        "cost": 332.43,
        "seconds": 774
      }
    ],
    [
      27,
      20,
      {
        "cost": 363.81,
        "seconds": 741
      }
    ],
    [
      27,
      23,
      {
        "cost": 226.29,
        "seconds": 603
      }
    ],
    [
      27,
      22,
      {
        "cost": 462.81,
        "seconds": 1009
      }
    ],
    [
      27,
      28,
      {
        "cost": 311.52,
        "seconds": 663
      }
    ],
    [
      27,
      30,
      {
        "cost": 479.88,
        "seconds": 1016
      }
    ],
    [
      27,
      29,
      {
        "cost": 283.08,
        "seconds": 696
      }
    ],
    [
      27,
      31,
      {
        "cost": 270.53999999999999,
        "seconds": 623
      }
    ],
    [
      27,
      26,
      {
        "cost": 361.38,
        "seconds": 728
      }
    ],
    [
      28,
      0,
      {
        "cost": 142.41,
        "seconds": 288
      }
    ],
    [
      28,
      1,
      {
        "cost": 77.03999999999999,
        "seconds": 199
      }
    ],
    [
      28,
      2,
      {
        "cost": 224.22,
        "seconds": 494
      }
    ],
    [
      28,
      3,
      {
        "cost": 148.89,
        "seconds": 328
      }
    ],
    [
      28,
      4,
      {
        "cost": 166.14,
        "seconds": 472
      }
    ],
    [
      28,
      6,
      {
        "cost": 222.09,
        "seconds": 468
      }
    ],
    [
      28,
      8,
      {
        "cost": 169.35,
        "seconds": 343
      }
    ],
    [
      28,
      10,
      {
        "cost": 198.66,
        "seconds": 430
      }
    ],
    [
      28,
      12,
      {
        "cost": 156.12,
        "seconds": 341
      }
    ],
    [
      28,
      14,
      {
        "cost": 165.35999999999999,
        "seconds": 318
      }
    ],
    [
      28,
      17,
      {
        "cost": 135.63,
        "seconds": 278
      }
    ],
    [
      28,
      16,
      {
        "cost": 228.06,
        "seconds": 511
      }
    ],
    [
      28,
      18,
      {
        "cost": 187.5,
        "seconds": 380
      }
    ],
    [
      28,
      19,
      {
        "cost": 75.06,
        "seconds": 161
      }
    ],
    [
      28,
      20,
      {
        "cost": 143.31,
        "seconds": 278
      }
    ],
    [
      28,
      22,
      {
        "cost": 198.03,
        "seconds": 426
      }
    ],
    [
      28,
      24,
      {
        "cost": 177.42,
        "seconds": 362
      }
    ],
    [
      28,
      25,
      {
        "cost": 135.15,
        "seconds": 353
      }
    ],
    [
      28,
      26,
      {
        "cost": 140.85,
        "seconds": 265
      }
    ],
    [
      28,
      30,
      {
        "cost": 185.4,
        "seconds": 415
      }
    ],
    [
      28,
      31,
      {
        "cost": 76.11,
        "seconds": 191
      }
    ],
    [
      29,
      1,
      {
        "cost": 178.62,
        "seconds": 420
      }
    ],
    [
      29,
      0,
      {
        "cost": 338.52,
        "seconds": 714
      }
    ],
    [
      29,
      3,
      {
        "cost": 103.28999999999999,
        "seconds": 234
      }
    ],
    [
      29,
      2,
      {
        "cost": 109.95,
        "seconds": 253
      }
    ],
    [
      29,
      5,
      {
        "cost": 75.57,
        "seconds": 180
      }
    ],
    [
      29,
      4,
      {
        "cost": 323.25,
        "seconds": 785
      }
    ],
    [
      29,
      7,
      {
        "cost": 199.89,
        "seconds": 519
      }
    ],
    [
      29,
      9,
      {
        "cost": 178.68,
        "seconds": 412
      }
    ],
    [
      29,
      11,
      {
        "cost": 191.82,
        "seconds": 442
      }
    ],
    [
      29,
      13,
      {
        "cost": 264.3,
        "seconds": 597
      }
    ],
    [
      29,
      12,
      {
        "cost": 328.08,
        "seconds": 756
      }
    ],
    [
      29,
      15,
      {
        "cost": 133.5,
        "seconds": 334
      }
    ],
    [
      29,
      17,
      {
        "cost": 246.6,
        "seconds": 559
      }
    ],
    [
      29,
      16,
      {
        "cost": 259.53,
        "seconds": 595
      }
    ],
    [
      29,
      19,
      {
        "cost": 233.73,
        "seconds": 523
      }
    ],
    [
      29,
      18,
      {
        "cost": 125.1,
        "seconds": 358
      }
    ],
    [
      29,
      21,
      {
        "cost": 134.94,
        "seconds": 337
      }
    ],
    [
      29,
      20,
      {
        "cost": 300.9,
        "seconds": 686
      }
    ],
    [
      29,
      23,
      {
        "cost": 87.84,
        "seconds": 226
      }
    ],
    [
      29,
      25,
      {
        "cost": 331.26,
        "seconds": 779
      }
    ],
    [
      29,
      24,
      {
        "cost": 187.17,
        "seconds": 442
      }
    ],
    [
      29,
      27,
      {
        "cost": 237.57,
        "seconds": 591
      }
    ],
    [
      29,
      26,
      {
        "cost": 298.46999999999999,
        "seconds": 673
      }
    ],
    [
      29,
      31,
      {
        "cost": 188.48999999999999,
        "seconds": 453
      }
    ],
    [
      29,
      28,
      {
        "cost": 199.5,
        "seconds": 456
      }
    ],
    [
      30,
      0,
      {
        "cost": 73.77,
        "seconds": 175
      }
    ],
    [
      30,
      4,
      {
        "cost": 51.3,
        "seconds": 157
      }
    ],
    [
      30,
      6,
      {
        "cost": 218.85,
        "seconds": 528
      }
    ],
    [
      30,
      8,
      {
        "cost": 132.39,
        "seconds": 350
      }
    ],
    [
      30,
      10,
      {
        "cost": 80.1,
        "seconds": 205
      }
    ],
    [
      30,
      12,
      {
        "cost": 197.07,
        "seconds": 461
      }
    ],
    [
      30,
      14,
      {
        "cost": 159.12,
        "seconds": 366
      }
    ],
    [
      30,
      20,
      {
        "cost": 185.82,
        "seconds": 388
      }
    ],
    [
      30,
      22,
      {
        "cost": 189.57,
        "seconds": 468
      }
    ],
    [
      30,
      24,
      {
        "cost": 377.21999999999999,
        "seconds": 804
      }
    ],
    [
      30,
      26,
      {
        "cost": 183.35999999999999,
        "seconds": 375
      }
    ],
    [
      30,
      28,
      {
        "cost": 262.38,
        "seconds": 555
      }
    ],
    [
      31,
      1,
      {
        "cost": 20.13,
        "seconds": 73
      }
    ],
    [
      31,
      0,
      {
        "cost": 231.84,
        "seconds": 519
      }
    ],
    [
      31,
      3,
      {
        "cost": 165.9,
        "seconds": 383
      }
    ],
    [
      31,
      2,
      {
        "cost": 241.23,
        "seconds": 549
      }
    ],
    [
      31,
      5,
      {
        "cost": 220.41,
        "seconds": 509
      }
    ],
    [
      31,
      4,
      {
        "cost": 300.39,
        "seconds": 724
      }
    ],
    [
      31,
      7,
      {
        "cost": 186.98999999999999,
        "seconds": 496
      }
    ],
    [
      31,
      9,
      {
        "cost": 233.51999999999999,
        "seconds": 566
      }
    ],
    [
      31,
      8,
      {
        "cost": 258.78,
        "seconds": 574
      }
    ],
    [
      31,
      11,
      {
        "cost": 226.79999999999999,
        "seconds": 549
      }
    ],
    [
      31,
      10,
      {
        "cost": 288.09,
        "seconds": 660
      }
    ],
    [
      31,
      13,
      {
        "cost": 173.16,
        "seconds": 454
      }
    ],
    [
      31,
      12,
      {
        "cost": 217.53,
        "seconds": 566
      }
    ],
    [
      31,
      15,
      {
        "cost": 279.59999999999999,
        "seconds": 655
      }
    ],
    [
      31,
      14,
      {
        "cost": 254.79,
        "seconds": 549
      }
    ],
    [
      31,
      17,
      {
        "cost": 83.91,
        "seconds": 223
      }
    ],
    [
      31,
      16,
      {
        "cost": 176.34,
        "seconds": 456
      }
    ],
    [
      31,
      19,
      {
        "cost": 123.17999999999999,
        "seconds": 333
      }
    ],
    [
      31,
      18,
      {
        "cost": 133.23,
        "seconds": 349
      }
    ],
    [
      31,
      21,
      {
        "cost": 266.21999999999999,
        "seconds": 633
      }
    ],
    [
      31,
      20,
      {
        "cost": 213.39,
        "seconds": 429
      }
    ],
    [
      31,
      23,
      {
        "cost": 233.94,
        "seconds": 548
      }
    ],
    [
      31,
      25,
      {
        "cost": 224.57999999999999,
        "seconds": 584
      }
    ],
    [
      31,
      24,
      {
        "cost": 123.11999999999999,
        "seconds": 332
      }
    ],
    [
      31,
      27,
      {
        "cost": 246.17999999999999,
        "seconds": 684
      }
    ],
    [
      31,
      26,
      {
        "cost": 210.92999999999999,
        "seconds": 417
      }
    ],
    [
      31,
      29,
      {
        "cost": 208.35,
        "seconds": 504
      }
    ],
    [
      31,
      28,
      {
        "cost": 106.47,
        "seconds": 293
      }
    ],
    [
      31,
      30,
      {
        "cost": 274.83,
        "seconds": 646
      }
    ],
    [
      30,
      33,
      {
        "cost": 108.69,
        "seconds": 288
      }
    ],
    [
      32,
      31,
      {
        "cost": 228.63,
        "seconds": 557
      }
    ],
    [
      30,
      32,
      {
        "cost": 422.84999999999999,
        "seconds": 930
      }
    ],
    [
      33,
      31,
      {
        "cost": 280.38,
        "seconds": 641
      }
    ],
    [
      28,
      33,
      {
        "cost": 212.01,
        "seconds": 513
      }
    ],
    [
      32,
      29,
      {
        "cost": 265.44,
        "seconds": 581
      }
    ],
    [
      28,
      32,
      {
        "cost": 254.42999999999999,
        "seconds": 586
      }
    ],
    [
      33,
      29,
      {
        "cost": 384.24,
        "seconds": 865
      }
    ],
    [
      26,
      33,
      {
        "cost": 290.88,
        "seconds": 641
      }
    ],
    [
      32,
      27,
      {
        "cost": 63.66,
        "seconds": 197
      }
    ],
    [
      26,
      32,
      {
        "cost": 308.37,
        "seconds": 703
      }
    ],
    [
      33,
      27,
      {
        "cost": 472.53,
        "seconds": 1110
      }
    ],
    [
      24,
      33,
      {
        "cost": 326.19,
        "seconds": 804
      }
    ],
    [
      32,
      25,
      {
        "cost": 387.71999999999999,
        "seconds": 888
      }
    ],
    [
      24,
      32,
      {
        "cost": 121.64999999999999,
        "seconds": 356
      }
    ],
    [
      33,
      25,
      {
        "cost": 119.78999999999999,
        "seconds": 376
      }
    ],
    [
      22,
      33,
      {
        "cost": 325.62,
        "seconds": 816
      }
    ],
    [
      32,
      23,
      {
        "cost": 208.65,
        "seconds": 488
      }
    ],
    [
      22,
      32,
      {
        "cost": 402.9,
        "seconds": 982
      }
    ],
    [
      33,
      23,
      {
        "cost": 398.37,
        "seconds": 940
      }
    ],
    [
      20,
      33,
      {
        "cost": 274.59,
        "seconds": 597
      }
    ],
    [
      32,
      21,
      {
        "cost": 314.78999999999999,
        "seconds": 659
      }
    ],
    [
      20,
      32,
      {
        "cost": 292.08,
        "seconds": 659
      }
    ],
    [
      33,
      21,
      {
        "cost": 295.11,
        "seconds": 740
      }
    ],
    [
      18,
      33,
      {
        "cost": 313.83,
        "seconds": 798
      }
    ],
    [
      32,
      19,
      {
        "cost": 285.78,
        "seconds": 664
      }
    ],
    [
      18,
      32,
      {
        "cost": 109.61999999999999,
        "seconds": 345
      }
    ],
    [
      33,
      19,
      {
        "cost": 240.57,
        "seconds": 548
      }
    ],
    [
      16,
      33,
      {
        "cost": 465.57,
        "seconds": 1046
      }
    ],
    [
      32,
      17,
      {
        "cost": 163.65,
        "seconds": 416
      }
    ],
    [
      16,
      32,
      {
        "cost": 37.47,
        "seconds": 117
      }
    ],
    [
      33,
      17,
      {
        "cost": 339.9,
        "seconds": 728
      }
    ],
    [
      14,
      33,
      {
        "cost": 270.78,
        "seconds": 669
      }
    ],
    [
      32,
      15,
      {
        "cost": 258.48,
        "seconds": 642
      }
    ],
    [
      14,
      32,
      {
        "cost": 389.01,
        "seconds": 849
      }
    ],
    [
      33,
      15,
      {
        "cost": 427.34999999999999,
        "seconds": 1039
      }
    ],
    [
      12,
      33,
      {
        "cost": 306.93,
        "seconds": 714
      }
    ],
    [
      32,
      13,
      {
        "cost": 56.28,
        "seconds": 149
      }
    ],
    [
      12,
      32,
      {
        "cost": 333.18,
        "seconds": 786
      }
    ],
    [
      33,
      13,
      {
        "cost": 429.15,
        "seconds": 959
      }
    ],
    [
      10,
      33,
      {
        "cost": 197.60999999999999,
        "seconds": 504
      }
    ],
    [
      32,
      11,
      {
        "cost": 50.37,
        "seconds": 122
      }
    ],
    [
      10,
      32,
      {
        "cost": 417.93,
        "seconds": 945
      }
    ],
    [
      33,
      11,
      {
        "cost": 426.78,
        "seconds": 961
      }
    ],
    [
      8,
      33,
      {
        "cost": 287.03999999999999,
        "seconds": 729
      }
    ],
    [
      32,
      9,
      {
        "cost": 73.56,
        "seconds": 188
      }
    ],
    [
      8,
      32,
      {
        "cost": 416.07,
        "seconds": 925
      }
    ],
    [
      33,
      9,
      {
        "cost": 433.5,
        "seconds": 978
      }
    ],
    [
      6,
      33,
      {
        "cost": 338.01,
        "seconds": 846
      }
    ],
    [
      32,
      7,
      {
        "cost": 31.08,
        "seconds": 119
      }
    ],
    [
      6,
      32,
      {
        "cost": 417.65999999999999,
        "seconds": 1017
      }
    ],
    [
      33,
      7,
      {
        "cost": 386.96999999999999,
        "seconds": 908
      }
    ],
    [
      4,
      33,
      {
        "cost": 80.07,
        "seconds": 237
      }
    ],
    [
      32,
      5,
      {
        "cost": 254.79,
        "seconds": 602
      }
    ],
    [
      4,
      32,
      {
        "cost": 370.91999999999998,
        "seconds": 945
      }
    ],
    [
      33,
      5,
      {
        "cost": 312.53999999999999,
        "seconds": 795
      }
    ],
    [
      2,
      33,
      {
        "cost": 260.76,
        "seconds": 602
      }
    ],
    [
      32,
      3,
      {
        "cost": 219.35999999999999,
        "seconds": 584
      }
    ],
    [
      2,
      32,
      {
        "cost": 279.24,
        "seconds": 597
      }
    ],
    [
      33,
      3,
      {
        "cost": 256.46999999999999,
        "seconds": 670
      }
    ],
    [
      0,
      33,
      {
        "cost": 176.79,
        "seconds": 442
      }
    ],
    [
      32,
      1,
      {
        "cost": 230.1,
        "seconds": 565
      }
    ],
    [
      0,
      32,
      {
        "cost": 368.34,
        "seconds": 818
      }
    ],
    [
      33,
      1,
      {
        "cost": 281.31,
        "seconds": 649
      }
    ]
  ]
}