{
  "nodes": [
    {
      "Delivery": {
        "bid": 877,
        "id": 25,
        "price": null,
        "cost": null,
        "direct_dist": 3888,
        "direct_cost": 117,
        "direct_time": 286
      }
    },
    {
      "Pickup": {
        "bid": 877,
        "id": 25,
        "price": null,
        "cost": null,
        "direct_dist": 3888,
        "direct_cost": 117,
        "direct_time": 286
      }
    },
    {
      "Delivery": {
        "bid": 419,
        "id": 24,
        "price": null,
        "cost": null,
        "direct_dist": 2535,
        "direct_cost": 77,
        "direct_time": 200
      }
    },
    {
      "Pickup": {
        "bid": 419,
        "id": 24,
        "price": null,
        "cost": null,
        "direct_dist": 2535,
        "direct_cost": 77,
        "direct_time": 200
      }
    },
    {
      "Delivery": {
        "bid": 1540,
        "id": 23,
        "price": null,
        "cost": null,
        "direct_dist": 5135,
        "direct_cost": 155,
        "direct_time": 410
      }
    },
    {
      "Pickup": {
        "bid": 1540,
        "id": 23,
        "price": null,
        "cost": null,
        "direct_dist": 5135,
        "direct_cost": 155,
        "direct_time": 410
      }
    },
    {
      "Delivery": {
        "bid": 864,
        "id": 22,
        "price": null,
        "cost": null,
        "direct_dist": 2880,
        "direct_cost": 87,
        "direct_time": 192
      }
    },
    {
      "Pickup": {
        "bid": 864,
        "id": 22,
        "price": null,
        "cost": null,
        "direct_dist": 2880,
        "direct_cost": 87,
        "direct_time": 192
      }
    },
    {
      "Delivery": {
        "bid": 4315,
        "id": 21,
        "price": null,
        "cost": null,
        "direct_dist": 14386,
        "direct_cost": 432,
        "direct_time": 1009
      }
    },
    {
      "Pickup": {
        "bid": 4315,
        "id": 21,
        "price": null,
        "cost": null,
        "direct_dist": 14386,
        "direct_cost": 432,
        "direct_time": 1009
      }
    },
    {
      "Delivery": {
        "bid": 2628,
        "id": 20,
        "price": null,
        "cost": null,
        "direct_dist": 8762,
        "direct_cost": 263,
        "direct_time": 597
      }
    },
    {
      "Pickup": {
        "bid": 2628,
        "id": 20,
        "price": null,
        "cost": null,
        "direct_dist": 8762,
        "direct_cost": 263,
        "direct_time": 597
      }
    },
    {
      "Delivery": {
        "bid": 1840,
        "id": 18,
        "price": null,
        "cost": null,
        "direct_dist": 6134,
        "direct_cost": 185,
        "direct_time": 472
      }
    },
    {
      "Pickup": {
        "bid": 1840,
        "id": 18,
        "price": null,
        "cost": null,
        "direct_dist": 6134,
        "direct_cost": 185,
        "direct_time": 472
      }
    },
    {
      "Delivery": {
        "bid": 2119,
        "id": 17,
        "price": null,
        "cost": null,
        "direct_dist": 7064,
        "direct_cost": 212,
        "direct_time": 435
      }
    },
    {
      "Pickup": {
        "bid": 2119,
        "id": 17,
        "price": null,
        "cost": null,
        "direct_dist": 7064,
        "direct_cost": 212,
        "direct_time": 435
      }
    },
    {
      "Delivery": {
        "bid": 1166,
        "id": 16,
        "price": null,
        "cost": null,
        "direct_dist": 3888,
        "direct_cost": 117,
        "direct_time": 283
      }
    },
    {
      "Pickup": {
        "bid": 1166,
        "id": 16,
        "price": null,
        "cost": null,
        "direct_dist": 3888,
        "direct_cost": 117,
        "direct_time": 283
      }
    },
    {
      "Delivery": {
        "bid": 4140,
        "id": 15,
        "price": null,
        "cost": null,
        "direct_dist": 13803,
        "direct_cost": 415,
        "direct_time": 872
      }
    },
    {
      "Pickup": {
        "bid": 4140,
        "id": 15,
        "price": null,
        "cost": null,
        "direct_dist": 13803,
        "direct_cost": 415,
        "direct_time": 872
      }
    },
    {
      "Delivery": {
        "bid": 3654,
        "id": 14,
        "price": null,
        "cost": null,
        "direct_dist": 12182,
        "direct_cost": 366,
        "direct_time": 694
      }
    },
    {
      "Pickup": {
        "bid": 3654,
        "id": 14,
        "price": null,
        "cost": null,
        "direct_dist": 12182,
        "direct_cost": 366,
        "direct_time": 694
      }
    },
    {
      "Delivery": {
        "bid": 923,
        "id": 12,
        "price": null,
        "cost": null,
        "direct_dist": 9544,
        "direct_cost": 287,
        "direct_time": 677
      }
    },
    {
      "Pickup": {
        "bid": 923,
        "id": 12,
        "price": null,
        "cost": null,
        "direct_dist": 9544,
        "direct_cost": 287,
        "direct_time": 677
      }
    },
    {
      "Delivery": {
        "bid": 575,
        "id": 11,
        "price": null,
        "cost": null,
        "direct_dist": 9955,
        "direct_cost": 299,
        "direct_time": 747
      }
    },
    {
      "Pickup": {
        "bid": 575,
        "id": 11,
        "price": null,
        "cost": null,
        "direct_dist": 9955,
        "direct_cost": 299,
        "direct_time": 747
      }
    },
    {
      "Delivery": {
        "bid": 2594,
        "id": 10,
        "price": null,
        "cost": null,
        "direct_dist": 10166,
        "direct_cost": 305,
        "direct_time": 670
      }
    },
    {
      "Pickup": {
        "bid": 2594,
        "id": 10,
        "price": null,
        "cost": null,
        "direct_dist": 10166,
        "direct_cost": 305,
        "direct_time": 670
      }
    },
    {
      "Delivery": {
        "bid": 710,
        "id": 6,
        "price": null,
        "cost": null,
        "direct_dist": 5574,
        "direct_cost": 168,
        "direct_time": 360
      }
    },
    {
      "Pickup": {
        "bid": 710,
        "id": 6,
        "price": null,
        "cost": null,
        "direct_dist": 5574,
        "direct_cost": 168,
        "direct_time": 360
      }
    },
    {
      "Delivery": {
        "bid": 1376,
        "id": 4,
        "price": null,
        "cost": null,
        "direct_dist": 4588,
        "direct_cost": 138,
        "direct_time": 348
      }
    },
    {
      "Pickup": {
        "bid": 1376,
        "id": 4,
        "price": null,
        "cost": null,
        "direct_dist": 4588,
        "direct_cost": 138,
        "direct_time": 348
      }
    },
    {
      "Delivery": {
        "bid": 300,
        "id": 1,
        "price": null,
        "cost": null,
        "direct_dist": 11030,
        "direct_cost": 331,
        "direct_time": 727
      }
    },
    {
      "Pickup": {
        "bid": 300,
        "id": 1,
        "price": null,
        "cost": null,
        "direct_dist": 11030,
        "direct_cost": 331,
        "direct_time": 727
      }
    },
    {
      "DriverStart": {
        "arrive_until": 2400,
        "direct_cost": 507
      }
    },
    {
      "DriverEnd": {
        "arrive_until": 2400,
        "direct_cost": 507
      }
    }
  ],
  "node_holes": [],
  "edge_property": "directed",
  "edges": [
    [
      0,
      10,
      {
        "cost": 231.0,
        "seconds": 527
      }
    ],
    [
      0,
      8,
      {
        "cost": 272.46,
        "seconds": 665
      }
    ],
    [
      0,
      14,
      {
        "cost": 173.1,
        "seconds": 398
      }
    ],
    [
      0,
      11,
      {
        "cost": 59.28,
        "seconds": 140
      }
    ],
    [
      0,
      20,
      {
        "cost": 253.26,
        "seconds": 553
      }
    ],
    [
      0,
      9,
      {
        "cost": 164.82,
        "seconds": 390
      }
    ],
    [
      0,
      6,
      {
        "cost": 154.92,
        "seconds": 318
      }
    ],
    [
      0,
      15,
      {
        "cost": 97.53,
        "seconds": 217
      }
    ],
    [
      0,
      21,
      {
        "cost": 141.84,
        "seconds": 325
      }
    ],
    [
      0,
      4,
      {
        "cost": 254.54999999999999,
        "seconds": 640
      }
    ],
    [
      0,
      7,
      {
        "cost": 208.35,
        "seconds": 465
      }
    ],
    [
      0,
      24,
      {
        "cost": 131.28,
        "seconds": 396
      }
    ],
    [
      0,
      25,
      {
        "cost": 233.04,
        "seconds": 520
      }
    ],
    [
      0,
      12,
      {
        "cost": 209.51999999999999,
        "seconds": 505
      }
    ],
    [
      0,
      18,
      {
        "cost": 329.4,
        "seconds": 676
      }
    ],
    [
      0,
      28,
      {
        "cost": 69.6,
        "seconds": 173
      }
    ],
    [
      0,
      32,
      {
        "cost": 183.84,
        "seconds": 425
      }
    ],
    [
      0,
      22,
      {
        "cost": 129.03,
        "seconds": 312
      }
    ],
    [
      0,
      29,
      {
        "cost": 212.91,
        "seconds": 448
      }
    ],
    [
      0,
      19,
      {
        "cost": 181.53,
        "seconds": 417
      }
    ],
    [
      0,
      13,
      {
        "cost": 165.23999999999999,
        "seconds": 350
      }
    ],
    [
      0,
      33,
      {
        "cost": 204.09,
        "seconds": 493
      }
    ],
    [
      0,
      2,
      {
        "cost": 228.98999999999999,
        "seconds": 496
      }
    ],
    [
      0,
      23,
      {
        "cost": 222.87,
        "seconds": 508
      }
    ],
    [
      0,
      16,
      {
        "cost": 193.17,
        "seconds": 454
      }
    ],
    [
      0,
      3,
      {
        "cost": 243.32999999999999,
        "seconds": 529
      }
    ],
    [
      0,
      30,
      {
        "cost": 250.14,
        "seconds": 561
      }
    ],
    [
      0,
      26,
      {
        "cost": 60.449999999999999,
        "seconds": 142
      }
    ],
    [
      0,
      17,
      {
        "cost": 206.07,
        "seconds": 499
      }
    ],
    [
      0,
      27,
      {
        "cost": 262.5,
        "seconds": 574
      }
    ],
    [
      0,
      31,
      {
        "cost": 235.85999999999999,
        "seconds": 553
      }
    ],
    [
      1,
      10,
      {
        "cost": 190.85999999999999,
        "seconds": 441
      }
    ],
    [
      1,
      14,
      {
        "cost": 290.76,
        "seconds": 632
      }
    ],
    [
      1,
      9,
      {
        "cost": 174.48,
        "seconds": 392
      }
    ],
    [
      1,
      11,
      {
        "cost": 132.45,
        "seconds": 333
      }
    ],
    [
      1,
      6,
      {
        "cost": 73.23,
        "seconds": 189
      }
    ],
    [
      1,
      15,
      {
        "cost": 159.93,
        "seconds": 349
      }
    ],
    [
      1,
      21,
      {
        "cost": 99.75,
        "seconds": 235
      }
    ],
    [
      1,
      24,
      {
        "cost": 232.32,
        "seconds": 600
      }
    ],
    [
      1,
      7,
      {
        "cost": 158.51999999999999,
        "seconds": 394
      }
    ],
    [
      1,
      12,
      {
        "cost": 233.45999999999999,
        "seconds": 527
      }
    ],
    [
      1,
      25,
      {
        "cost": 140.73,
        "seconds": 400
      }
    ],
    [
      1,
      5,
      {
        "cost": 237.12,
        "seconds": 515
      }
    ],
    [
      1,
      28,
      {
        "cost": 90.17999999999999,
        "seconds": 230
      }
    ],
    [
      1,
      22,
      {
        "cost": 225.35999999999999,
        "seconds": 497
      }
    ],
    [
      1,
      19,
      {
        "cost": 207.20999999999999,
        "seconds": 498
      }
    ],
    [
      1,
      33,
      {
        "cost": 228.03,
        "seconds": 515
      }
    ],
    [
      1,
      13,
      {
        "cost": 115.44,
        "seconds": 279
      }
    ],
    [
      1,
      29,
      {
        "cost": 163.10999999999999,
        "seconds": 376
      }
    ],
    [
      1,
      2,
      {
        "cost": 224.28,
        "seconds": 482
      }
    ],
    [
      1,
      16,
      {
        "cost": 139.76999999999999,
        "seconds": 380
      }
    ],
    [
      1,
      23,
      {
        "cost": 173.07,
        "seconds": 436
      }
    ],
    [
      1,
      30,
      {
        "cost": 137.22,
        "seconds": 391
      }
    ],
    [
      1,
      3,
      {
        "cost": 252.95999999999999,
        "seconds": 531
      }
    ],
    [
      1,
      26,
      {
        "cost": 132.09,
        "seconds": 328
      }
    ],
    [
      1,
      17,
      {
        "cost": 201.35999999999999,
        "seconds": 484
      }
    ],
    [
      1,
      31,
      {
        "cost": 195.75,
        "seconds": 467
      }
    ],
    [
      1,
      27,
      {
        "cost": 257.78999999999999,
        "seconds": 559
      }
    ],
    [
      1,
      0,
      {
        "cost": 116.64,
        "seconds": 286
      }
    ],
    [
      2,
      0,
      {
        "cost": 240.32999999999999,
        "seconds": 563
      }
    ],
    [
      2,
      1,
      {
        "cost": 209.79,
        "seconds": 520
      }
    ],
    [
      2,
      32,
      {
        "cost": 410.34,
        "seconds": 891
      }
    ],
    [
      2,
      16,
      {
        "cost": 133.92,
        "seconds": 336
      }
    ],
    [
      2,
      26,
      {
        "cost": 279.27,
        "seconds": 637
      }
    ],
    [
      2,
      33,
      {
        "cost": 183.75,
        "seconds": 421
      }
    ],
    [
      2,
      20,
      {
        "cost": 475.5,
        "seconds": 1040
      }
    ],
    [
      2,
      6,
      {
        "cost": 154.76999999999999,
        "seconds": 389
      }
    ],
    [
      2,
      17,
      {
        "cost": 71.88,
        "seconds": 205
      }
    ],
    [
      2,
      27,
      {
        "cost": 51.78,
        "seconds": 140
      }
    ],
    [
      2,
      30,
      {
        "cost": 225.45,
        "seconds": 546
      }
    ],
    [
      2,
      14,
      {
        "cost": 399.59999999999999,
        "seconds": 864
      }
    ],
    [
      2,
      7,
      {
        "cost": 146.94,
        "seconds": 363
      }
    ],
    [
      2,
      31,
      {
        "cost": 95.82,
        "seconds": 236
      }
    ],
    [
      2,
      21,
      {
        "cost": 315.21,
        "seconds": 640
      }
    ],
    [
      2,
      24,
      {
        "cost": 310.05,
        "seconds": 801
      }
    ],
    [
      2,
      15,
      {
        "cost": 237.69,
        "seconds": 550
      }
    ],
    [
      2,
      25,
      {
        "cost": 197.31,
        "seconds": 531
      }
    ],
    [
      2,
      4,
      {
        "cost": 65.67,
        "seconds": 256
      }
    ],
    [
      2,
      18,
      {
        "cost": 555.87,
        "seconds": 1141
      }
    ],
    [
      2,
      10,
      {
        "cost": 104.13,
        "seconds": 243
      }
    ],
    [
      2,
      22,
      {
        "cost": 294.96,
        "seconds": 697
      }
    ],
    [
      2,
      28,
      {
        "cost": 185.82,
        "seconds": 440
      }
    ],
    [
      2,
      12,
      {
        "cost": 175.17,
        "seconds": 428
      }
    ],
    [
      2,
      8,
      {
        "cost": 498.93,
        "seconds": 1130
      }
    ],
    [
      2,
      5,
      {
        "cost": 116.61,
        "seconds": 271
      }
    ],
    [
      2,
      13,
      {
        "cost": 141.09,
        "seconds": 419
      }
    ],
    [
      2,
      23,
      {
        "cost": 177.23999999999999,
        "seconds": 483
      }
    ],
    [
      2,
      29,
      {
        "cost": 138.09,
        "seconds": 358
      }
    ],
    [
      2,
      9,
      {
        "cost": 143.97,
        "seconds": 316
      }
    ],
    [
      2,
      11,
      {
        "cost": 278.07,
        "seconds": 636
      }
    ],
    [
      2,
      19,
      {
        "cost": 232.17,
        "seconds": 541
      }
    ],
    [
      3,
      1,
      {
        "cost": 252.0,
        "seconds": 615
      }
    ],
    [
      3,
      0,
      {
        "cost": 252.98999999999999,
        "seconds": 583
      }
    ],
    [
      3,
      16,
      {
        "cost": 176.16,
        "seconds": 431
      }
    ],
    [
      3,
      33,
      {
        "cost": 141.54,
        "seconds": 357
      }
    ],
    [
      3,
      6,
      {
        "cost": 197.01,
        "seconds": 484
      }
    ],
    [
      3,
      27,
      {
        "cost": 74.00999999999999,
        "seconds": 211
      }
    ],
    [
      3,
      17,
      {
        "cost": 106.14,
        "seconds": 245
      }
    ],
    [
      3,
      7,
      {
        "cost": 189.15,
        "seconds": 458
      }
    ],
    [
      3,
      31,
      {
        "cost": 157.29,
        "seconds": 363
      }
    ],
    [
      3,
      4,
      {
        "cost": 107.88,
        "seconds": 351
      }
    ],
    [
      3,
      25,
      {
        "cost": 258.78,
        "seconds": 658
      }
    ],
    [
      3,
      12,
      {
        "cost": 132.96,
        "seconds": 364
      }
    ],
    [
      3,
      10,
      {
        "cost": 153.29999999999999,
        "seconds": 350
      }
    ],
    [
      3,
      28,
      {
        "cost": 203.42999999999999,
        "seconds": 469
      }
    ],
    [
      3,
      5,
      {
        "cost": 178.89,
        "seconds": 368
      }
    ],
    [
      3,
      19,
      {
        "cost": 189.95999999999999,
        "seconds": 477
      }
    ],
    [
      3,
      23,
      {
        "cost": 238.67999999999999,
        "seconds": 610
      }
    ],
    [
      3,
      9,
      {
        "cost": 101.75999999999999,
        "seconds": 252
      }
    ],
    [
      3,
      29,
      {
        "cost": 199.56,
        "seconds": 485
      }
    ],
    [
      3,
      13,
      {
        "cost": 183.29999999999999,
        "seconds": 514
      }
    ],
    [
      3,
      11,
      {
        "cost": 298.86,
        "seconds": 658
      }
    ],
    [
      3,
      2,
      {
        "cost": 76.05,
        "seconds": 200
      }
    ],
    [
      4,
      0,
      {
        "cost": 254.48999999999999,
        "seconds": 684
      }
    ],
    [
      4,
      2,
      {
        "cost": 93.72,
        "seconds": 320
      }
    ],
    [
      4,
      3,
      {
        "cost": 120.33,
        "seconds": 357
      }
    ],
    [
      4,
      20,
      {
        "cost": 489.65999999999999,
        "seconds": 1161
      }
    ],
    [
      4,
      32,
      {
        "cost": 424.5,
        "seconds": 1012
      }
    ],
    [
      4,
      30,
      {
        "cost": 258.84,
        "seconds": 700
      }
    ],
    [
      4,
      26,
      {
        "cost": 293.43,
        "seconds": 759
      }
    ],
    [
      4,
      18,
      {
        "cost": 570.03,
        "seconds": 1263
      }
    ],
    [
      4,
      10,
      {
        "cost": 125.25,
        "seconds": 376
      }
    ],
    [
      4,
      31,
      {
        "cost": 129.24,
        "seconds": 389
      }
    ],
    [
      4,
      16,
      {
        "cost": 148.07999999999999,
        "seconds": 458
      }
    ],
    [
      4,
      27,
      {
        "cost": 127.22999999999999,
        "seconds": 397
      }
    ],
    [
      4,
      17,
      {
        "cost": 86.03999999999999,
        "seconds": 327
      }
    ],
    [
      4,
      6,
      {
        "cost": 189.23999999999999,
        "seconds": 549
      }
    ],
    [
      4,
      22,
      {
        "cost": 309.12,
        "seconds": 819
      }
    ],
    [
      4,
      8,
      {
        "cost": 513.09,
        "seconds": 1252
      }
    ],
    [
      4,
      24,
      {
        "cost": 324.24,
        "seconds": 922
      }
    ],
    [
      4,
      12,
      {
        "cost": 205.38,
        "seconds": 577
      }
    ],
    [
      4,
      28,
      {
        "cost": 199.98,
        "seconds": 562
      }
    ],
    [
      4,
      9,
      {
        "cost": 131.4,
        "seconds": 439
      }
    ],
    [
      5,
      1,
      {
        "cost": 225.72,
        "seconds": 567
      }
    ],
    [
      5,
      0,
      {
        "cost": 279.0,
        "seconds": 662
      }
    ],
    [
      5,
      3,
      {
        "cost": 165.72,
        "seconds": 382
      }
    ],
    [
      5,
      2,
      {
        "cost": 95.94,
        "seconds": 234
      }
    ],
    [
      5,
      30,
      {
        "cost": 138.75,
        "seconds": 400
      }
    ],
    [
      5,
      33,
      {
        "cost": 244.26,
        "seconds": 588
      }
    ],
    [
      5,
      10,
      {
        "cost": 51.96,
        "seconds": 130
      }
    ],
    [
      5,
      27,
      {
        "cost": 127.32,
        "seconds": 317
      }
    ],
    [
      5,
      16,
      {
        "cost": 106.08,
        "seconds": 281
      }
    ],
    [
      5,
      31,
      {
        "cost": 47.879999999999998,
        "seconds": 135
      }
    ],
    [
      5,
      11,
      {
        "cost": 316.77,
        "seconds": 735
      }
    ],
    [
      5,
      6,
      {
        "cost": 170.73,
        "seconds": 437
      }
    ],
    [
      5,
      17,
      {
        "cost": 149.28,
        "seconds": 396
      }
    ],
    [
      5,
      12,
      {
        "cost": 249.69,
        "seconds": 600
      }
    ],
    [
      5,
      28,
      {
        "cost": 224.48999999999999,
        "seconds": 540
      }
    ],
    [
      5,
      23,
      {
        "cost": 100.11,
        "seconds": 371
      }
    ],
    [
      5,
      7,
      {
        "cost": 119.1,
        "seconds": 308
      }
    ],
    [
      5,
      9,
      {
        "cost": 179.01,
        "seconds": 449
      }
    ],
    [
      5,
      25,
      {
        "cost": 141.18,
        "seconds": 422
      }
    ],
    [
      5,
      13,
      {
        "cost": 128.51999999999999,
        "seconds": 368
      }
    ],
    [
      5,
      29,
      {
        "cost": 81.96,
        "seconds": 249
      }
    ],
    [
      5,
      4,
      {
        "cost": 154.04999999999999,
        "seconds": 410
      }
    ],
    [
      6,
      0,
      {
        "cost": 112.32,
        "seconds": 250
      }
    ],
    [
      6,
      1,
      {
        "cost": 82.41,
        "seconds": 203
      }
    ],
    [
      6,
      2,
      {
        "cost": 174.03,
        "seconds": 370
      }
    ],
    [
      6,
      3,
      {
        "cost": 202.70999999999999,
        "seconds": 419
      }
    ],
    [
      6,
      4,
      {
        "cost": 199.59,
        "seconds": 514
      }
    ],
    [
      6,
      5,
      {
        "cost": 184.62,
        "seconds": 402
      }
    ],
    [
      6,
      32,
      {
        "cost": 282.33,
        "seconds": 578
      }
    ],
    [
      6,
      30,
      {
        "cost": 157.5,
        "seconds": 362
      }
    ],
    [
      6,
      33,
      {
        "cost": 177.78,
        "seconds": 402
      }
    ],
    [
      6,
      31,
      {
        "cost": 143.22,
        "seconds": 354
      }
    ],
    [
      6,
      26,
      {
        "cost": 151.26,
        "seconds": 325
      }
    ],
    [
      6,
      12,
      {
        "cost": 183.20999999999999,
        "seconds": 415
      }
    ],
    [
      6,
      13,
      {
        "cost": 72.63,
        "seconds": 152
      }
    ],
    [
      6,
      18,
      {
        "cost": 427.85999999999998,
        "seconds": 829
      }
    ],
    [
      6,
      27,
      {
        "cost": 207.54,
        "seconds": 447
      }
    ],
    [
      6,
      8,
      {
        "cost": 370.91999999999998,
        "seconds": 818
      }
    ],
    [
      6,
      28,
      {
        "cost": 57.809999999999998,
        "seconds": 128
      }
    ],
    [
      6,
      16,
      {
        "cost": 100.56,
        "seconds": 255
      }
    ],
    [
      6,
      20,
      {
        "cost": 347.49,
        "seconds": 727
      }
    ],
    [
      6,
      19,
      {
        "cost": 156.96,
        "seconds": 386
      }
    ],
    [
      6,
      24,
      {
        "cost": 182.04,
        "seconds": 488
      }
    ],
    [
      6,
      17,
      {
        "cost": 151.10999999999999,
        "seconds": 372
      }
    ],
    [
      6,
      29,
      {
        "cost": 120.3,
        "seconds": 249
      }
    ],
    [
      6,
      22,
      {
        "cost": 166.95,
        "seconds": 385
      }
    ],
    [
      6,
      10,
      {
        "cost": 138.35999999999999,
        "seconds": 328
      }
    ],
    [
      6,
      14,
      {
        "cost": 271.59,
        "seconds": 551
      }
    ],
    [
      6,
      9,
      {
        "cost": 124.19999999999999,
        "seconds": 280
      }
    ],
    [
      6,
      23,
      {
        "cost": 130.26,
        "seconds": 309
      }
    ],
    [
      6,
      21,
      {
        "cost": 171.03,
        "seconds": 360
      }
    ],
    [
      6,
      25,
      {
        "cost": 140.4,
        "seconds": 321
      }
    ],
    [
      6,
      11,
      {
        "cost": 150.06,
        "seconds": 323
      }
    ],
    [
      6,
      15,
      {
        "cost": 109.64999999999999,
        "seconds": 237
      }
    ],
    [
      7,
      1,
      {
        "cost": 151.53,
        "seconds": 389
      }
    ],
    [
      7,
      0,
      {
        "cost": 198.72,
        "seconds": 442
      }
    ],
    [
      7,
      3,
      {
        "cost": 193.07999999999999,
        "seconds": 466
      }
    ],
    [
      7,
      2,
      {
        "cost": 144.03,
        "seconds": 368
      }
    ],
    [
      7,
      5,
      {
        "cost": 119.82,
        "seconds": 320
      }
    ],
    [
      7,
      4,
      {
        "cost": 169.59,
        "seconds": 511
      }
    ],
    [
      7,
      30,
      {
        "cost": 94.08,
        "seconds": 286
      }
    ],
    [
      7,
      33,
      {
        "cost": 208.56,
        "seconds": 541
      }
    ],
    [
      7,
      31,
      {
        "cost": 74.39999999999999,
        "seconds": 206
      }
    ],
    [
      7,
      12,
      {
        "cost": 213.98999999999999,
        "seconds": 553
      }
    ],
    [
      7,
      27,
      {
        "cost": 177.54,
        "seconds": 445
      }
    ],
    [
      7,
      28,
      {
        "cost": 144.21,
        "seconds": 319
      }
    ],
    [
      7,
      13,
      {
        "cost": 32.79,
        "seconds": 127
      }
    ],
    [
      7,
      19,
      {
        "cost": 208.79999999999999,
        "seconds": 572
      }
    ],
    [
      7,
      16,
      {
        "cost": 35.76,
        "seconds": 133
      }
    ],
    [
      7,
      9,
      {
        "cost": 143.31,
        "seconds": 402
      }
    ],
    [
      7,
      21,
      {
        "cost": 214.07999999999999,
        "seconds": 507
      }
    ],
    [
      7,
      10,
      {
        "cost": 70.32,
        "seconds": 186
      }
    ],
    [
      7,
      17,
      {
        "cost": 126.75,
        "seconds": 370
      }
    ],
    [
      7,
      29,
      {
        "cost": 39.269999999999999,
        "seconds": 127
      }
    ],
    [
      7,
      25,
      {
        "cost": 76.98,
        "seconds": 244
      }
    ],
    [
      7,
      23,
      {
        "cost": 66.84,
        "seconds": 232
      }
    ],
    [
      7,
      15,
      {
        "cost": 196.07999999999999,
        "seconds": 429
      }
    ],
    [
      7,
      11,
      {
        "cost": 236.45999999999999,
        "seconds": 515
      }
    ],
    [
      7,
      6,
      {
        "cost": 86.39999999999999,
        "seconds": 192
      }
    ],
    [
      8,
      14,
      {
        "cost": 108.50999999999999,
        "seconds": 316
      }
    ],
    [
      8,
      20,
      {
        "cost": 171.72,
        "seconds": 437
      }
    ],
    [
      8,
      32,
      {
        "cost": 87.45,
        "seconds": 264
      }
    ],
    [
      8,
      18,
      {
        "cost": 104.13,
        "seconds": 262
      }
    ],
    [
      8,
      24,
      {
        "cost": 207.92999999999999,
        "seconds": 625
      }
    ],
    [
      9,
      1,
      {
        "cost": 167.57999999999999,
        "seconds": 424
      }
    ],
    [
      9,
      0,
      {
        "cost": 172.98,
        "seconds": 442
      }
    ],
    [
      9,
      3,
      {
        "cost": 94.17,
        "seconds": 233
      }
    ],
    [
      9,
      2,
      {
        "cost": 112.64999999999999,
        "seconds": 283
      }
    ],
    [
      9,
      5,
      {
        "cost": 175.65,
        "seconds": 378
      }
    ],
    [
      9,
      4,
      {
        "cost": 138.24,
        "seconds": 427
      }
    ],
    [
      9,
      7,
      {
        "cost": 142.98,
        "seconds": 394
      }
    ],
    [
      9,
      6,
      {
        "cost": 112.58999999999999,
        "seconds": 294
      }
    ],
    [
      9,
      22,
      {
        "cost": 217.79999999999999,
        "seconds": 566
      }
    ],
    [
      9,
      14,
      {
        "cost": 332.25,
        "seconds": 743
      }
    ],
    [
      9,
      30,
      {
        "cost": 212.34,
        "seconds": 571
      }
    ],
    [
      9,
      20,
      {
        "cost": 408.15,
        "seconds": 919
      }
    ],
    [
      9,
      23,
      {
        "cost": 185.1,
        "seconds": 518
      }
    ],
    [
      9,
      15,
      {
        "cost": 160.53,
        "seconds": 418
      }
    ],
    [
      9,
      12,
      {
        "cost": 113.64,
        "seconds": 325
      }
    ],
    [
      9,
      31,
      {
        "cost": 129.84,
        "seconds": 341
      }
    ],
    [
      9,
      32,
      {
        "cost": 342.99,
        "seconds": 770
      }
    ],
    [
      9,
      18,
      {
        "cost": 488.52,
        "seconds": 1020
      }
    ],
    [
      9,
      10,
      {
        "cost": 124.97999999999999,
        "seconds": 315
      }
    ],
    [
      9,
      21,
      {
        "cost": 241.64999999999999,
        "seconds": 543
      }
    ],
    [
      9,
      33,
      {
        "cost": 108.21,
        "seconds": 312
      }
    ],
    [
      9,
      13,
      {
        "cost": 118.05,
        "seconds": 334
      }
    ],
    [
      9,
      19,
      {
        "cost": 127.8,
        "seconds": 384
      }
    ],
    [
      9,
      16,
      {
        "cost": 92.67,
        "seconds": 342
      }
    ],
    [
      9,
      24,
      {
        "cost": 232.92,
        "seconds": 669
      }
    ],
    [
      9,
      28,
      {
        "cost": 118.47,
        "seconds": 319
      }
    ],
    [
      9,
      26,
      {
        "cost": 211.92,
        "seconds": 516
      }
    ],
    [
      9,
      11,
      {
        "cost": 210.72,
        "seconds": 515
      }
    ],
    [
      9,
      17,
      {
        "cost": 74.39999999999999,
        "seconds": 219
      }
    ],
    [
      9,
      27,
      {
        "cost": 146.19,
        "seconds": 360
      }
    ],
    [
      9,
      29,
      {
        "cost": 175.14,
        "seconds": 458
      }
    ],
    [
      9,
      25,
      {
        "cost": 195.23999999999999,
        "seconds": 530
      }
    ],
    [
      9,
      8,
      {
        "cost": 431.58,
        "seconds": 1009
      }
    ],
    [
      10,
      0,
      {
        "cost": 241.76999999999999,
        "seconds": 565
      }
    ],
    [
      10,
      2,
      {
        "cost": 79.35,
        "seconds": 187
      }
    ],
    [
      10,
      4,
      {
        "cost": 137.46,
        "seconds": 363
      }
    ],
    [
      10,
      5,
      {
        "cost": 45.12,
        "seconds": 135
      }
    ],
    [
      10,
      7,
      {
        "cost": 81.86999999999999,
        "seconds": 211
      }
    ],
    [
      10,
      6,
      {
        "cost": 133.47,
        "seconds": 340
      }
    ],
    [
      10,
      8,
      {
        "cost": 500.4,
        "seconds": 1132
      }
    ],
    [
      10,
      24,
      {
        "cost": 311.52,
        "seconds": 803
      }
    ],
    [
      10,
      16,
      {
        "cost": 68.85,
        "seconds": 183
      }
    ],
    [
      10,
      22,
      {
        "cost": 296.4,
        "seconds": 700
      }
    ],
    [
      10,
      17,
      {
        "cost": 112.05,
        "seconds": 299
      }
    ],
    [
      10,
      32,
      {
        "cost": 411.78,
        "seconds": 893
      }
    ],
    [
      10,
      23,
      {
        "cost": 94.17,
        "seconds": 284
      }
    ],
    [
      10,
      12,
      {
        "cost": 212.45999999999999,
        "seconds": 503
      }
    ],
    [
      10,
      28,
      {
        "cost": 187.26,
        "seconds": 443
      }
    ],
    [
      10,
      13,
      {
        "cost": 91.28999999999999,
        "seconds": 270
      }
    ],
    [
      10,
      18,
      {
        "cost": 557.31,
        "seconds": 1144
      }
    ],
    [
      10,
      29,
      {
        "cost": 55.05,
        "seconds": 159
      }
    ],
    [
      10,
      26,
      {
        "cost": 280.71,
        "seconds": 639
      }
    ],
    [
      10,
      30,
      {
        "cost": 142.41,
        "seconds": 347
      }
    ],
    [
      10,
      27,
      {
        "cost": 110.75999999999999,
        "seconds": 271
      }
    ],
    [
      10,
      31,
      {
        "cost": 9.18,
        "seconds": 32
      }
    ],
    [
      11,
      1,
      {
        "cost": 146.76,
        "seconds": 346
      }
    ],
    [
      11,
      0,
      {
        "cost": 31.89,
        "seconds": 71
      }
    ],
    [
      11,
      3,
      {
        "cost": 269.43,
        "seconds": 583
      }
    ],
    [
      11,
      2,
      {
        "cost": 260.84999999999999,
        "seconds": 567
      }
    ],
    [
      11,
      5,
      {
        "cost": 323.94,
        "seconds": 671
      }
    ],
    [
      11,
      4,
      {
        "cost": 286.44,
        "seconds": 711
      }
    ],
    [
      11,
      7,
      {
        "cost": 240.23999999999999,
        "seconds": 536
      }
    ],
    [
      11,
      6,
      {
        "cost": 186.81,
        "seconds": 389
      }
    ],
    [
      11,
      9,
      {
        "cost": 190.95,
        "seconds": 444
      }
    ],
    [
      11,
      24,
      {
        "cost": 157.38,
        "seconds": 450
      }
    ],
    [
      11,
      14,
      {
        "cost": 187.17,
        "seconds": 415
      }
    ],
    [
      11,
      16,
      {
        "cost": 225.06,
        "seconds": 525
      }
    ],
    [
      11,
      22,
      {
        "cost": 155.16,
        "seconds": 366
      }
    ],
    [
      11,
      17,
      {
        "cost": 237.95999999999999,
        "seconds": 569
      }
    ],
    [
      11,
      25,
      {
        "cost": 241.79999999999999,
        "seconds": 586
      }
    ],
    [
      11,
      12,
      {
        "cost": 235.62,
        "seconds": 559
      }
    ],
    [
      11,
      15,
      {
        "cost": 123.63,
        "seconds": 271
      }
    ],
    [
      11,
      23,
      {
        "cost": 254.76,
        "seconds": 578
      }
    ],
    [
      11,
      33,
      {
        "cost": 230.19,
        "seconds": 547
      }
    ],
    [
      11,
      28,
      {
        "cost": 101.49,
        "seconds": 244
      }
    ],
    [
      11,
      13,
      {
        "cost": 197.13,
        "seconds": 421
      }
    ],
    [
      11,
      29,
      {
        "cost": 244.79999999999999,
        "seconds": 518
      }
    ],
    [
      11,
      26,
      {
        "cost": 31.049999999999998,
        "seconds": 71
      }
    ],
    [
      11,
      19,
      {
        "cost": 207.66,
        "seconds": 471
      }
    ],
    [
      11,
      30,
      {
        "cost": 239.01,
        "seconds": 572
      }
    ],
    [
      11,
      27,
      {
        "cost": 294.39,
        "seconds": 644
      }
    ],
    [
      11,
      31,
      {
        "cost": 267.75,
        "seconds": 624
      }
    ],
    [
      11,
      10,
      {
        "cost": 262.86,
        "seconds": 597
      }
    ],
    [
      12,
      0,
      {
        "cost": 214.89,
        "seconds": 514
      }
    ],
    [
      12,
      2,
      {
        "cost": 179.64,
        "seconds": 472
      }
    ],
    [
      12,
      3,
      {
        "cost": 145.38,
        "seconds": 388
      }
    ],
    [
      12,
      4,
      {
        "cost": 207.6,
        "seconds": 629
      }
    ],
    [
      12,
      6,
      {
        "cost": 195.9,
        "seconds": 477
      }
    ],
    [
      12,
      8,
      {
        "cost": 437.76,
        "seconds": 977
      }
    ],
    [
      12,
      9,
      {
        "cost": 92.19,
        "seconds": 356
      }
    ],
    [
      12,
      10,
      {
        "cost": 231.0,
        "seconds": 539
      }
    ],
    [
      12,
      28,
      {
        "cost": 184.65,
        "seconds": 451
      }
    ],
    [
      12,
      32,
      {
        "cost": 349.16999999999998,
        "seconds": 737
      }
    ],
    [
      12,
      30,
      {
        "cost": 295.65,
        "seconds": 754
      }
    ],
    [
      12,
      33,
      {
        "cost": 18.45,
        "seconds": 72
      }
    ],
    [
      12,
      18,
      {
        "cost": 494.7,
        "seconds": 988
      }
    ],
    [
      12,
      26,
      {
        "cost": 254.39999999999999,
        "seconds": 596
      }
    ],
    [
      12,
      19,
      {
        "cost": 83.46,
        "seconds": 244
      }
    ],
    [
      12,
      14,
      {
        "cost": 338.43,
        "seconds": 710
      }
    ],
    [
      12,
      16,
      {
        "cost": 213.6,
        "seconds": 562
      }
    ],
    [
      12,
      22,
      {
        "cost": 179.7,
        "seconds": 452
      }
    ],
    [
      12,
      24,
      {
        "cost": 194.57999999999999,
        "seconds": 538
      }
    ],
    [
      12,
      20,
      {
        "cost": 285.9,
        "seconds": 807
      }
    ],
    [
      12,
      17,
      {
        "cost": 155.34,
        "seconds": 404
      }
    ],
    [
      12,
      15,
      {
        "cost": 126.81,
        "seconds": 356
      }
    ],
    [
      13,
      1,
      {
        "cost": 126.14999999999999,
        "seconds": 327
      }
    ],
    [
      13,
      0,
      {
        "cost": 173.34,
        "seconds": 380
      }
    ],
    [
      13,
      3,
      {
        "cost": 203.51999999999999,
        "seconds": 476
      }
    ],
    [
      13,
      2,
      {
        "cost": 143.51999999999999,
        "seconds": 408
      }
    ],
    [
      13,
      5,
      {
        "cost": 129.26999999999999,
        "seconds": 380
      }
    ],
    [
      13,
      4,
      {
        "cost": 169.07999999999999,
        "seconds": 552
      }
    ],
    [
      13,
      7,
      {
        "cost": 32.79,
        "seconds": 127
      }
    ],
    [
      13,
      6,
      {
        "cost": 61.019999999999999,
        "seconds": 129
      }
    ],
    [
      13,
      9,
      {
        "cost": 113.31,
        "seconds": 320
      }
    ],
    [
      13,
      11,
      {
        "cost": 211.07999999999999,
        "seconds": 452
      }
    ],
    [
      13,
      10,
      {
        "cost": 79.77,
        "seconds": 246
      }
    ],
    [
      13,
      28,
      {
        "cost": 118.83,
        "seconds": 257
      }
    ],
    [
      13,
      29,
      {
        "cost": 63.059999999999998,
        "seconds": 178
      }
    ],
    [
      13,
      33,
      {
        "cost": 178.59,
        "seconds": 459
      }
    ],
    [
      13,
      30,
      {
        "cost": 100.25999999999999,
        "seconds": 291
      }
    ],
    [
      13,
      26,
      {
        "cost": 212.28,
        "seconds": 454
      }
    ],
    [
      13,
      19,
      {
        "cost": 178.82999999999999,
        "seconds": 490
      }
    ],
    [
      13,
      31,
      {
        "cost": 83.85,
        "seconds": 266
      }
    ],
    [
      13,
      16,
      {
        "cost": 28.259999999999999,
        "seconds": 109
      }
    ],
    [
      13,
      27,
      {
        "cost": 177.03,
        "seconds": 485
      }
    ],
    [
      13,
      22,
      {
        "cost": 227.97,
        "seconds": 514
      }
    ],
    [
      13,
      24,
      {
        "cost": 243.09,
        "seconds": 618
      }
    ],
    [
      13,
      15,
      {
        "cost": 170.7,
        "seconds": 367
      }
    ],
    [
      13,
      21,
      {
        "cost": 231.6,
        "seconds": 447
      }
    ],
    [
      13,
      17,
      {
        "cost": 125.00999999999999,
        "seconds": 407
      }
    ],
    [
      13,
      23,
      {
        "cost": 73.02,
        "seconds": 238
      }
    ],
    [
      13,
      25,
      {
        "cost": 83.19,
        "seconds": 250
      }
    ],
    [
      13,
      12,
      {
        "cost": 184.01999999999999,
        "seconds": 472
      }
    ],
    [
      14,
      0,
      {
        "cost": 200.42999999999999,
        "seconds": 426
      }
    ],
    [
      14,
      8,
      {
        "cost": 104.00999999999999,
        "seconds": 327
      }
    ],
    [
      14,
      10,
      {
        "cost": 431.43,
        "seconds": 953
      }
    ],
    [
      14,
      11,
      {
        "cost": 169.5,
        "seconds": 360
      }
    ],
    [
      14,
      12,
      {
        "cost": 365.37,
        "seconds": 827
      }
    ],
    [
      14,
      32,
      {
        "cost": 72.66,
        "seconds": 206
      }
    ],
    [
      14,
      22,
      {
        "cost": 176.37,
        "seconds": 468
      }
    ],
    [
      14,
      28,
      {
        "cost": 270.06,
        "seconds": 599
      }
    ],
    [
      14,
      24,
      {
        "cost": 126.66,
        "seconds": 400
      }
    ],
    [
      14,
      26,
      {
        "cost": 199.59,
        "seconds": 427
      }
    ],
    [
      14,
      20,
      {
        "cost": 138.45,
        "seconds": 340
      }
    ],
    [
      14,
      18,
      {
        "cost": 160.92,
        "seconds": 338
      }
    ],
    [
      15,
      1,
      {
        "cost": 187.44,
        "seconds": 447
      }
    ],
    [
      15,
      0,
      {
        "cost": 89.49,
        "seconds": 190
      }
    ],
    [
      15,
      3,
      {
        "cost": 221.48999999999999,
        "seconds": 544
      }
    ],
    [
      15,
      7,
      {
        "cost": 220.76999999999999,
        "seconds": 510
      }
    ],
    [
      15,
      6,
      {
        "cost": 167.34,
        "seconds": 364
      }
    ],
    [
      15,
      9,
      {
        "cost": 161.97,
        "seconds": 407
      }
    ],
    [
      15,
      8,
      {
        "cost": 311.25,
        "seconds": 702
      }
    ],
    [
      15,
      11,
      {
        "cost": 127.83,
        "seconds": 271
      }
    ],
    [
      15,
      13,
      {
        "cost": 177.69,
        "seconds": 395
      }
    ],
    [
      15,
      12,
      {
        "cost": 141.21,
        "seconds": 412
      }
    ],
    [
      15,
      32,
      {
        "cost": 222.63,
        "seconds": 462
      }
    ],
    [
      15,
      22,
      {
        "cost": 61.86,
        "seconds": 165
      }
    ],
    [
      15,
      33,
      {
        "cost": 147.23999999999999,
        "seconds": 435
      }
    ],
    [
      15,
      28,
      {
        "cost": 102.57,
        "seconds": 261
      }
    ],
    [
      15,
      23,
      {
        "cost": 235.32,
        "seconds": 553
      }
    ],
    [
      15,
      24,
      {
        "cost": 94.08,
        "seconds": 281
      }
    ],
    [
      15,
      29,
      {
        "cost": 225.35999999999999,
        "seconds": 493
      }
    ],
    [
      15,
      31,
      {
        "cost": 248.28,
        "seconds": 598
      }
    ],
    [
      15,
      26,
      {
        "cost": 129.03,
        "seconds": 272
      }
    ],
    [
      15,
      18,
      {
        "cost": 368.19,
        "seconds": 713
      }
    ],
    [
      15,
      16,
      {
        "cost": 205.59,
        "seconds": 499
      }
    ],
    [
      15,
      20,
      {
        "cost": 287.82,
        "seconds": 611
      }
    ],
    [
      15,
      25,
      {
        "cost": 245.45999999999999,
        "seconds": 565
      }
    ],
    [
      15,
      27,
      {
        "cost": 280.46999999999999,
        "seconds": 638
      }
    ],
    [
      15,
      21,
      {
        "cost": 208.85999999999999,
        "seconds": 430
      }
    ],
    [
      15,
      19,
      {
        "cost": 82.05,
        "seconds": 278
      }
    ],
    [
      15,
      17,
      {
        "cost": 224.07,
        "seconds": 563
      }
    ],
    [
      15,
      14,
      {
        "cost": 211.92,
        "seconds": 435
      }
    ],
    [
      16,
      0,
      {
        "cost": 194.04,
        "seconds": 484
      }
    ],
    [
      16,
      1,
      {
        "cost": 138.87,
        "seconds": 378
      }
    ],
    [
      16,
      2,
      {
        "cost": 111.27,
        "seconds": 314
      }
    ],
    [
      16,
      3,
      {
        "cost": 160.35,
        "seconds": 412
      }
    ],
    [
      16,
      4,
      {
        "cost": 136.85999999999999,
        "seconds": 458
      }
    ],
    [
      16,
      5,
      {
        "cost": 116.1,
        "seconds": 316
      }
    ],
    [
      16,
      6,
      {
        "cost": 84.75,
        "seconds": 234
      }
    ],
    [
      16,
      7,
      {
        "cost": 44.04,
        "seconds": 171
      }
    ],
    [
      16,
      8,
      {
        "cost": 452.64,
        "seconds": 1051
      }
    ],
    [
      16,
      9,
      {
        "cost": 94.11,
        "seconds": 313
      }
    ],
    [
      16,
      10,
      {
        "cost": 66.6,
        "seconds": 181
      }
    ],
    [
      16,
      11,
      {
        "cost": 231.78,
        "seconds": 557
      }
    ],
    [
      16,
      12,
      {
        "cost": 164.79,
        "seconds": 465
      }
    ],
    [
      16,
      13,
      {
        "cost": 35.19,
        "seconds": 136
      }
    ],
    [
      16,
      14,
      {
        "cost": 353.31,
        "seconds": 785
      }
    ],
    [
      16,
      15,
      {
        "cost": 191.37,
        "seconds": 471
      }
    ],
    [
      16,
      24,
      {
        "cost": 263.76,
        "seconds": 722
      }
    ],
    [
      16,
      20,
      {
        "cost": 429.21,
        "seconds": 961
      }
    ],
    [
      16,
      26,
      {
        "cost": 232.95,
        "seconds": 558
      }
    ],
    [
      16,
      25,
      {
        "cost": 113.25,
        "seconds": 371
      }
    ],
    [
      16,
      22,
      {
        "cost": 248.67,
        "seconds": 618
      }
    ],
    [
      16,
      27,
      {
        "cost": 144.81,
        "seconds": 391
      }
    ],
    [
      16,
      21,
      {
        "cost": 244.29,
        "seconds": 498
      }
    ],
    [
      16,
      32,
      {
        "cost": 364.05,
        "seconds": 812
      }
    ],
    [
      16,
      23,
      {
        "cost": 103.11,
        "seconds": 359
      }
    ],
    [
      16,
      18,
      {
        "cost": 509.58,
        "seconds": 1062
      }
    ],
    [
      16,
      28,
      {
        "cost": 139.5,
        "seconds": 361
      }
    ],
    [
      16,
      33,
      {
        "cost": 159.35999999999999,
        "seconds": 452
      }
    ],
    [
      16,
      30,
      {
        "cost": 130.35,
        "seconds": 412
      }
    ],
    [
      16,
      29,
      {
        "cost": 72.17999999999999,
        "seconds": 239
      }
    ],
    [
      16,
      31,
      {
        "cost": 66.57,
        "seconds": 203
      }
    ],
    [
      16,
      19,
      {
        "cost": 178.29,
        "seconds": 497
      }
    ],
    [
      17,
      1,
      {
        "cost": 190.62,
        "seconds": 472
      }
    ],
    [
      17,
      0,
      {
        "cost": 202.67999999999999,
        "seconds": 477
      }
    ],
    [
      17,
      3,
      {
        "cost": 111.0,
        "seconds": 242
      }
    ],
    [
      17,
      2,
      {
        "cost": 62.28,
        "seconds": 145
      }
    ],
    [
      17,
      5,
      {
        "cost": 119.36999999999999,
        "seconds": 220
      }
    ],
    [
      17,
      4,
      {
        "cost": 87.84,
        "seconds": 289
      }
    ],
    [
      17,
      7,
      {
        "cost": 129.66,
        "seconds": 310
      }
    ],
    [
      17,
      6,
      {
        "cost": 135.63,
        "seconds": 341
      }
    ],
    [
      17,
      9,
      {
        "cost": 70.41,
        "seconds": 211
      }
    ],
    [
      17,
      11,
      {
        "cost": 240.42,
        "seconds": 550
      }
    ],
    [
      17,
      10,
      {
        "cost": 93.78,
        "seconds": 202
      }
    ],
    [
      17,
      13,
      {
        "cost": 139.04999999999999,
        "seconds": 370
      }
    ],
    [
      17,
      12,
      {
        "cost": 133.76999999999999,
        "seconds": 367
      }
    ],
    [
      17,
      15,
      {
        "cost": 200.01,
        "seconds": 464
      }
    ],
    [
      17,
      25,
      {
        "cost": 199.26,
        "seconds": 510
      }
    ],
    [
      17,
      21,
      {
        "cost": 271.34999999999999,
        "seconds": 579
      }
    ],
    [
      17,
      27,
      {
        "cost": 95.78999999999999,
        "seconds": 222
      }
    ],
    [
      17,
      23,
      {
        "cost": 179.19,
        "seconds": 462
      }
    ],
    [
      17,
      28,
      {
        "cost": 148.17,
        "seconds": 355
      }
    ],
    [
      17,
      33,
      {
        "cost": 142.35,
        "seconds": 359
      }
    ],
    [
      17,
      30,
      {
        "cost": 227.4,
        "seconds": 525
      }
    ],
    [
      17,
      19,
      {
        "cost": 177.32999999999999,
        "seconds": 459
      }
    ],
    [
      17,
      29,
      {
        "cost": 140.04,
        "seconds": 337
      }
    ],
    [
      17,
      31,
      {
        "cost": 97.8,
        "seconds": 215
      }
    ],
    [
      17,
      16,
      {
        "cost": 116.64,
        "seconds": 283
      }
    ],
    [
      18,
      8,
      {
        "cost": 90.11999999999999,
        "seconds": 209
      }
    ],
    [
      18,
      14,
      {
        "cost": 171.06,
        "seconds": 391
      }
    ],
    [
      18,
      24,
      {
        "cost": 229.01999999999999,
        "seconds": 658
      }
    ],
    [
      18,
      32,
      {
        "cost": 152.07,
        "seconds": 359
      }
    ],
    [
      18,
      26,
      {
        "cost": 339.36,
        "seconds": 691
      }
    ],
    [
      18,
      22,
      {
        "cost": 308.03999999999999,
        "seconds": 713
      }
    ],
    [
      18,
      20,
      {
        "cost": 111.3,
        "seconds": 288
      }
    ],
    [
      19,
      1,
      {
        "cost": 209.13,
        "seconds": 477
      }
    ],
    [
      19,
      0,
      {
        "cost": 135.39,
        "seconds": 349
      }
    ],
    [
      19,
      3,
      {
        "cost": 162.06,
        "seconds": 369
      }
    ],
    [
      19,
      2,
      {
        "cost": 192.0,
        "seconds": 441
      }
    ],
    [
      19,
      5,
      {
        "cost": 255.06,
        "seconds": 545
      }
    ],
    [
      19,
      7,
      {
        "cost": 184.79999999999999,
        "seconds": 503
      }
    ],
    [
      19,
      6,
      {
        "cost": 152.25,
        "seconds": 358
      }
    ],
    [
      19,
      9,
      {
        "cost": 99.27,
        "seconds": 258
      }
    ],
    [
      19,
      8,
      {
        "cost": 357.15,
        "seconds": 861
      }
    ],
    [
      19,
      11,
      {
        "cost": 183.9,
        "seconds": 405
      }
    ],
    [
      19,
      10,
      {
        "cost": 209.82,
        "seconds": 488
      }
    ],
    [
      19,
      13,
      {
        "cost": 157.73999999999999,
        "seconds": 398
      }
    ],
    [
      19,
      12,
      {
        "cost": 73.38,
        "seconds": 207
      }
    ],
    [
      19,
      15,
      {
        "cost": 62.489999999999998,
        "seconds": 191
      }
    ],
    [
      19,
      14,
      {
        "cost": 257.82,
        "seconds": 594
      }
    ],
    [
      19,
      17,
      {
        "cost": 178.59,
        "seconds": 406
      }
    ],
    [
      19,
      16,
      {
        "cost": 169.98,
        "seconds": 443
      }
    ],
    [
      19,
      24,
      {
        "cost": 128.57999999999999,
        "seconds": 433
      }
    ],
    [
      19,
      32,
      {
        "cost": 268.56,
        "seconds": 621
      }
    ],
    [
      19,
      25,
      {
        "cost": 234.92999999999999,
        "seconds": 594
      }
    ],
    [
      19,
      33,
      {
        "cost": 79.41,
        "seconds": 230
      }
    ],
    [
      19,
      26,
      {
        "cost": 174.93,
        "seconds": 431
      }
    ],
    [
      19,
      30,
      {
        "cost": 252.03,
        "seconds": 636
      }
    ],
    [
      19,
      28,
      {
        "cost": 119.07,
        "seconds": 292
      }
    ],
    [
      19,
      22,
      {
        "cost": 119.75999999999999,
        "seconds": 338
      }
    ],
    [
      19,
      20,
      {
        "cost": 267.06,
        "seconds": 743
      }
    ],
    [
      19,
      27,
      {
        "cost": 225.51,
        "seconds": 518
      }
    ],
    [
      19,
      31,
      {
        "cost": 214.67999999999999,
        "seconds": 514
      }
    ],
    [
      19,
      21,
      {
        "cost": 267.18,
        "seconds": 555
      }
    ],
    [
      19,
      29,
      {
        "cost": 214.82999999999999,
        "seconds": 522
      }
    ],
    [
      19,
      23,
      {
        "cost": 224.79,
        "seconds": 582
      }
    ],
    [
      19,
      18,
      {
        "cost": 414.09,
        "seconds": 872
      }
    ],
    [
      20,
      8,
      {
        "cost": 157.82999999999999,
        "seconds": 393
      }
    ],
    [
      20,
      14,
      {
        "cost": 134.31,
        "seconds": 348
      }
    ],
    [
      20,
      18,
      {
        "cost": 96.92999999999999,
        "seconds": 232
      }
    ],
    [
      20,
      32,
      {
        "cost": 208.07999999999999,
        "seconds": 429
      }
    ],
    [
      20,
      26,
      {
        "cost": 265.14,
        "seconds": 550
      }
    ],
    [
      20,
      22,
      {
        "cost": 192.12,
        "seconds": 586
      }
    ],
    [
      20,
      24,
      {
        "cost": 163.65,
        "seconds": 489
      }
    ],
    [
      21,
      1,
      {
        "cost": 95.28,
        "seconds": 250
      }
    ],
    [
      21,
      0,
      {
        "cost": 107.1,
        "seconds": 199
      }
    ],
    [
      21,
      3,
      {
        "cost": 322.17,
        "seconds": 652
      }
    ],
    [
      21,
      5,
      {
        "cost": 331.97999999999998,
        "seconds": 619
      }
    ],
    [
      21,
      7,
      {
        "cost": 219.84,
        "seconds": 506
      }
    ],
    [
      21,
      6,
      {
        "cost": 151.59,
        "seconds": 329
      }
    ],
    [
      21,
      9,
      {
        "cost": 259.26,
        "seconds": 511
      }
    ],
    [
      21,
      8,
      {
        "cost": 352.86,
        "seconds": 805
      }
    ],
    [
      21,
      13,
      {
        "cost": 193.76999999999999,
        "seconds": 418
      }
    ],
    [
      21,
      12,
      {
        "cost": 302.67,
        "seconds": 648
      }
    ],
    [
      21,
      15,
      {
        "cost": 189.95999999999999,
        "seconds": 388
      }
    ],
    [
      21,
      14,
      {
        "cost": 286.28999999999999,
        "seconds": 544
      }
    ],
    [
      21,
      17,
      {
        "cost": 288.78,
        "seconds": 598
      }
    ],
    [
      21,
      16,
      {
        "cost": 234.63,
        "seconds": 484
      }
    ],
    [
      21,
      19,
      {
        "cost": 282.87,
        "seconds": 600
      }
    ],
    [
      21,
      18,
      {
        "cost": 409.77,
        "seconds": 816
      }
    ],
    [
      21,
      32,
      {
        "cost": 297.03,
        "seconds": 571
      }
    ],
    [
      21,
      26,
      {
        "cost": 106.25999999999999,
        "seconds": 200
      }
    ],
    [
      21,
      33,
      {
        "cost": 297.24,
        "seconds": 636
      }
    ],
    [
      21,
      27,
      {
        "cost": 340.83,
        "seconds": 677
      }
    ],
    [
      21,
      22,
      {
        "cost": 234.32999999999999,
        "seconds": 486
      }
    ],
    [
      21,
      24,
      {
        "cost": 232.59,
        "seconds": 579
      }
    ],
    [
      21,
      28,
      {
        "cost": 137.31,
        "seconds": 322
      }
    ],
    [
      21,
      30,
      {
        "cost": 171.57,
        "seconds": 413
      }
    ],
    [
      21,
      23,
      {
        "cost": 211.32,
        "seconds": 522
      }
    ],
    [
      21,
      25,
      {
        "cost": 175.10999999999999,
        "seconds": 421
      }
    ],
    [
      21,
      31,
      {
        "cost": 290.58,
        "seconds": 571
      }
    ],
    [
      21,
      29,
      {
        "cost": 224.42999999999999,
        "seconds": 489
      }
    ],
    [
      21,
      20,
      {
        "cost": 365.46,
        "seconds": 694
      }
    ],
    [
      22,
      0,
      {
        "cost": 146.46,
        "seconds": 343
      }
    ],
    [
      22,
      8,
      {
        "cost": 262.34999999999999,
        "seconds": 672
      }
    ],
    [
      22,
      10,
      {
        "cost": 287.58,
        "seconds": 699
      }
    ],
    [
      22,
      12,
      {
        "cost": 186.18,
        "seconds": 531
      }
    ],
    [
      22,
      14,
      {
        "cost": 163.01999999999999,
        "seconds": 406
      }
    ],
    [
      22,
      18,
      {
        "cost": 319.28999999999999,
        "seconds": 684
      }
    ],
    [
      22,
      20,
      {
        "cost": 230.85,
        "seconds": 544
      }
    ],
    [
      22,
      32,
      {
        "cost": 173.76,
        "seconds": 433
      }
    ],
    [
      22,
      24,
      {
        "cost": 36.72,
        "seconds": 127
      }
    ],
    [
      22,
      26,
      {
        "cost": 169.04999999999999,
        "seconds": 392
      }
    ],
    [
      22,
      28,
      {
        "cost": 141.57,
        "seconds": 388
      }
    ],
    [
      23,
      1,
      {
        "cost": 168.72,
        "seconds": 456
      }
    ],
    [
      23,
      0,
      {
        "cost": 231.69,
        "seconds": 543
      }
    ],
    [
      23,
      3,
      {
        "cost": 223.65,
        "seconds": 575
      }
    ],
    [
      23,
      2,
      {
        "cost": 153.87,
        "seconds": 426
      }
    ],
    [
      23,
      5,
      {
        "cost": 101.97,
        "seconds": 366
      }
    ],
    [
      23,
      4,
      {
        "cost": 212.01,
        "seconds": 602
      }
    ],
    [
      23,
      7,
      {
        "cost": 77.28,
        "seconds": 260
      }
    ],
    [
      23,
      6,
      {
        "cost": 119.36999999999999,
        "seconds": 292
      }
    ],
    [
      23,
      9,
      {
        "cost": 176.28,
        "seconds": 503
      }
    ],
    [
      23,
      11,
      {
        "cost": 269.46,
        "seconds": 615
      }
    ],
    [
      23,
      10,
      {
        "cost": 99.50999999999999,
        "seconds": 316
      }
    ],
    [
      23,
      13,
      {
        "cost": 71.16,
        "seconds": 239
      }
    ],
    [
      23,
      12,
      {
        "cost": 246.95999999999999,
        "seconds": 654
      }
    ],
    [
      23,
      15,
      {
        "cost": 229.04999999999999,
        "seconds": 530
      }
    ],
    [
      23,
      14,
      {
        "cost": 390.96,
        "seconds": 843
      }
    ],
    [
      23,
      17,
      {
        "cost": 198.32999999999999,
        "seconds": 567
      }
    ],
    [
      23,
      16,
      {
        "cost": 94.25999999999999,
        "seconds": 333
      }
    ],
    [
      23,
      19,
      {
        "cost": 241.79999999999999,
        "seconds": 673
      }
    ],
    [
      23,
      21,
      {
        "cost": 211.65,
        "seconds": 496
      }
    ],
    [
      23,
      20,
      {
        "cost": 466.85999999999998,
        "seconds": 1019
      }
    ],
    [
      23,
      32,
      {
        "cost": 401.7,
        "seconds": 870
      }
    ],
    [
      23,
      24,
      {
        "cost": 301.44,
        "seconds": 781
      }
    ],
    [
      23,
      26,
      {
        "cost": 270.63,
        "seconds": 617
      }
    ],
    [
      23,
      28,
      {
        "cost": 177.18,
        "seconds": 420
      }
    ],
    [
      23,
      30,
      {
        "cost": 39.12,
        "seconds": 136
      }
    ],
    [
      23,
      33,
      {
        "cost": 241.53,
        "seconds": 642
      }
    ],
    [
      23,
      25,
      {
        "cost": 38.55,
        "seconds": 143
      }
    ],
    [
      23,
      27,
      {
        "cost": 185.28,
        "seconds": 510
      }
    ],
    [
      23,
      31,
      {
        "cost": 86.49,
        "seconds": 274
      }
    ],
    [
      23,
      29,
      {
        "cost": 42.15,
        "seconds": 144
      }
    ],
    [
      23,
      22,
      {
        "cost": 286.32,
        "seconds": 677
      }
    ],
    [
      24,
      0,
      {
        "cost": 159.6,
        "seconds": 354
      }
    ],
    [
      24,
      8,
      {
        "cost": 201.35999999999999,
        "seconds": 644
      }
    ],
    [
      24,
      10,
      {
        "cost": 300.69,
        "seconds": 710
      }
    ],
    [
      24,
      12,
      {
        "cost": 199.32,
        "seconds": 543
      }
    ],
    [
      24,
      14,
      {
        "cost": 139.71,
        "seconds": 451
      }
    ],
    [
      24,
      18,
      {
        "cost": 238.10999999999999,
        "seconds": 624
      }
    ],
    [
      24,
      20,
      {
        "cost": 179.45999999999999,
        "seconds": 483
      }
    ],
    [
      24,
      22,
      {
        "cost": 36.449999999999999,
        "seconds": 126
      }
    ],
    [
      24,
      32,
      {
        "cost": 185.79,
        "seconds": 489
      }
    ],
    [
      24,
      26,
      {
        "cost": 199.10999999999999,
        "seconds": 436
      }
    ],
    [
      24,
      28,
      {
        "cost": 154.71,
        "seconds": 400
      }
    ],
    [
      25,
      1,
      {
        "cost": 139.82999999999999,
        "seconds": 398
      }
    ],
    [
      25,
      0,
      {
        "cost": 228.92999999999999,
        "seconds": 508
      }
    ],
    [
      25,
      3,
      {
        "cost": 230.82,
        "seconds": 577
      }
    ],
    [
      25,
      2,
      {
        "cost": 161.04,
        "seconds": 428
      }
    ],
    [
      25,
      5,
      {
        "cost": 117.57,
        "seconds": 382
      }
    ],
    [
      25,
      4,
      {
        "cost": 219.15,
        "seconds": 604
      }
    ],
    [
      25,
      7,
      {
        "cost": 74.49,
        "seconds": 226
      }
    ],
    [
      25,
      6,
      {
        "cost": 116.61,
        "seconds": 258
      }
    ],
    [
      25,
      9,
      {
        "cost": 173.51999999999999,
        "seconds": 468
      }
    ],
    [
      25,
      11,
      {
        "cost": 266.67,
        "seconds": 581
      }
    ],
    [
      25,
      10,
      {
        "cost": 106.64999999999999,
        "seconds": 318
      }
    ],
    [
      25,
      13,
      {
        "cost": 68.37,
        "seconds": 205
      }
    ],
    [
      25,
      12,
      {
        "cost": 244.2,
        "seconds": 620
      }
    ],
    [
      25,
      15,
      {
        "cost": 226.26,
        "seconds": 495
      }
    ],
    [
      25,
      14,
      {
        "cost": 388.2,
        "seconds": 809
      }
    ],
    [
      25,
      17,
      {
        "cost": 185.91,
        "seconds": 536
      }
    ],
    [
      25,
      16,
      {
        "cost": 91.47,
        "seconds": 299
      }
    ],
    [
      25,
      19,
      {
        "cost": 239.01,
        "seconds": 639
      }
    ],
    [
      25,
      21,
      {
        "cost": 188.48999999999999,
        "seconds": 452
      }
    ],
    [
      25,
      20,
      {
        "cost": 464.09999999999999,
        "seconds": 985
      }
    ],
    [
      25,
      23,
      {
        "cost": 31.86,
        "seconds": 121
      }
    ],
    [
      25,
      22,
      {
        "cost": 283.56,
        "seconds": 643
      }
    ],
    [
      25,
      32,
      {
        "cost": 398.90999999999999,
        "seconds": 836
      }
    ],
    [
      25,
      30,
      {
        "cost": 28.56,
        "seconds": 86
      }
    ],
    [
      25,
      28,
      {
        "cost": 174.39,
        "seconds": 386
      }
    ],
    [
      25,
      26,
      {
        "cost": 241.76999999999999,
        "seconds": 580
      }
    ],
    [
      25,
      33,
      {
        "cost": 238.76999999999999,
        "seconds": 608
      }
    ],
    [
      25,
      31,
      {
        "cost": 93.66,
        "seconds": 275
      }
    ],
    [
      25,
      27,
      {
        "cost": 192.42,
        "seconds": 512
      }
    ],
    [
      25,
      29,
      {
        "cost": 49.29,
        "seconds": 146
      }
    ],
    [
      25,
      24,
      {
        "cost": 298.65,
        "seconds": 747
      }
    ],
    [
      26,
      0,
      {
        "cost": 48.6,
        "seconds": 125
      }
    ],
    [
      26,
      8,
      {
        "cost": 273.63,
        "seconds": 682
      }
    ],
    [
      26,
      10,
      {
        "cost": 279.59999999999999,
        "seconds": 652
      }
    ],
    [
      26,
      11,
      {
        "cost": 46.559999999999998,
        "seconds": 124
      }
    ],
    [
      26,
      12,
      {
        "cost": 260.46,
        "seconds": 592
      }
    ],
    [
      26,
      14,
      {
        "cost": 174.29999999999999,
        "seconds": 416
      }
    ],
    [
      26,
      18,
      {
        "cost": 330.57,
        "seconds": 693
      }
    ],
    [
      26,
      20,
      {
        "cost": 254.42999999999999,
        "seconds": 571
      }
    ],
    [
      26,
      22,
      {
        "cost": 113.31,
        "seconds": 336
      }
    ],
    [
      26,
      24,
      {
        "cost": 132.45,
        "seconds": 414
      }
    ],
    [
      26,
      28,
      {
        "cost": 118.19999999999999,
        "seconds": 298
      }
    ],
    [
      26,
      32,
      {
        "cost": 185.04,
        "seconds": 443
      }
    ],
    [
      27,
      1,
      {
        "cost": 235.5,
        "seconds": 553
      }
    ],
    [
      27,
      0,
      {
        "cost": 266.03999999999999,
        "seconds": 596
      }
    ],
    [
      27,
      3,
      {
        "cost": 91.53,
        "seconds": 195
      }
    ],
    [
      27,
      2,
      {
        "cost": 46.5,
        "seconds": 110
      }
    ],
    [
      27,
      5,
      {
        "cost": 136.68,
        "seconds": 299
      }
    ],
    [
      27,
      4,
      {
        "cost": 91.38,
        "seconds": 289
      }
    ],
    [
      27,
      7,
      {
        "cost": 172.65,
        "seconds": 396
      }
    ],
    [
      27,
      6,
      {
        "cost": 180.51,
        "seconds": 423
      }
    ],
    [
      27,
      9,
      {
        "cost": 142.98,
        "seconds": 351
      }
    ],
    [
      27,
      11,
      {
        "cost": 303.81,
        "seconds": 669
      }
    ],
    [
      27,
      10,
      {
        "cost": 124.17,
        "seconds": 271
      }
    ],
    [
      27,
      13,
      {
        "cost": 166.82999999999999,
        "seconds": 452
      }
    ],
    [
      27,
      12,
      {
        "cost": 198.12,
        "seconds": 478
      }
    ],
    [
      27,
      15,
      {
        "cost": 263.4,
        "seconds": 583
      }
    ],
    [
      27,
      14,
      {
        "cost": 425.31,
        "seconds": 897
      }
    ],
    [
      27,
      17,
      {
        "cost": 97.59,
        "seconds": 238
      }
    ],
    [
      27,
      16,
      {
        "cost": 159.66,
        "seconds": 369
      }
    ],
    [
      27,
      19,
      {
        "cost": 241.38,
        "seconds": 584
      }
    ],
    [
      27,
      21,
      {
        "cost": 340.91999999999998,
        "seconds": 673
      }
    ],
    [
      27,
      23,
      {
        "cost": 197.28,
        "seconds": 512
      }
    ],
    [
      27,
      22,
      {
        "cost": 320.67,
        "seconds": 731
      }
    ],
    [
      27,
      25,
      {
        "cost": 217.35,
        "seconds": 559
      }
    ],
    [
      27,
      24,
      {
        "cost": 335.78999999999999,
        "seconds": 834
      }
    ],
    [
      27,
      28,
      {
        "cost": 211.53,
        "seconds": 474
      }
    ],
    [
      27,
      32,
      {
        "cost": 436.05,
        "seconds": 924
      }
    ],
    [
      27,
      30,
      {
        "cost": 245.48999999999999,
        "seconds": 575
      }
    ],
    [
      27,
      29,
      {
        "cost": 158.13,
        "seconds": 387
      }
    ],
    [
      27,
      33,
      {
        "cost": 206.7,
        "seconds": 471
      }
    ],
    [
      27,
      31,
      {
        "cost": 115.89,
        "seconds": 264
      }
    ],
    [
      27,
      26,
      {
        "cost": 304.97999999999998,
        "seconds": 670
      }
    ],
    [
      28,
      0,
      {
        "cost": 81.6,
        "seconds": 240
      }
    ],
    [
      28,
      1,
      {
        "cost": 103.38,
        "seconds": 292
      }
    ],
    [
      28,
      2,
      {
        "cost": 171.18,
        "seconds": 390
      }
    ],
    [
      28,
      3,
      {
        "cost": 202.17,
        "seconds": 456
      }
    ],
    [
      28,
      4,
      {
        "cost": 196.76999999999999,
        "seconds": 534
      }
    ],
    [
      28,
      5,
      {
        "cost": 234.26999999999999,
        "seconds": 494
      }
    ],
    [
      28,
      7,
      {
        "cost": 148.65,
        "seconds": 361
      }
    ],
    [
      28,
      6,
      {
        "cost": 95.22,
        "seconds": 214
      }
    ],
    [
      28,
      9,
      {
        "cost": 111.83999999999999,
        "seconds": 300
      }
    ],
    [
      28,
      8,
      {
        "cost": 340.22999999999998,
        "seconds": 808
      }
    ],
    [
      28,
      10,
      {
        "cost": 171.29999999999999,
        "seconds": 423
      }
    ],
    [
      28,
      11,
      {
        "cost": 119.36999999999999,
        "seconds": 313
      }
    ],
    [
      28,
      12,
      {
        "cost": 182.67,
        "seconds": 452
      }
    ],
    [
      28,
      13,
      {
        "cost": 105.57,
        "seconds": 246
      }
    ],
    [
      28,
      15,
      {
        "cost": 109.14,
        "seconds": 274
      }
    ],
    [
      28,
      14,
      {
        "cost": 240.89999999999999,
        "seconds": 541
      }
    ],
    [
      28,
      16,
      {
        "cost": 133.5,
        "seconds": 350
      }
    ],
    [
      28,
      17,
      {
        "cost": 148.29,
        "seconds": 392
      }
    ],
    [
      28,
      18,
      {
        "cost": 397.16999999999998,
        "seconds": 819
      }
    ],
    [
      28,
      19,
      {
        "cost": 156.42,
        "seconds": 423
      }
    ],
    [
      28,
      21,
      {
        "cost": 161.54999999999999,
        "seconds": 354
      }
    ],
    [
      28,
      20,
      {
        "cost": 316.8,
        "seconds": 717
      }
    ],
    [
      28,
      22,
      {
        "cost": 175.5,
        "seconds": 406
      }
    ],
    [
      28,
      23,
      {
        "cost": 163.2,
        "seconds": 403
      }
    ],
    [
      28,
      25,
      {
        "cost": 173.34,
        "seconds": 415
      }
    ],
    [
      28,
      24,
      {
        "cost": 207.72,
        "seconds": 521
      }
    ],
    [
      28,
      26,
      {
        "cost": 120.53999999999999,
        "seconds": 315
      }
    ],
    [
      28,
      27,
      {
        "cost": 204.72,
        "seconds": 467
      }
    ],
    [
      28,
      30,
      {
        "cost": 190.44,
        "seconds": 457
      }
    ],
    [
      28,
      32,
      {
        "cost": 251.60999999999999,
        "seconds": 568
      }
    ],
    [
      28,
      31,
      {
        "cost": 176.16,
        "seconds": 449
      }
    ],
    [
      28,
      33,
      {
        "cost": 177.23999999999999,
        "seconds": 440
      }
    ],
    [
      29,
      1,
      {
        "cost": 174.57,
        "seconds": 430
      }
    ],
    [
      29,
      0,
      {
        "cost": 221.73,
        "seconds": 483
      }
    ],
    [
      29,
      3,
      {
        "cost": 184.17,
        "seconds": 448
      }
    ],
    [
      29,
      2,
      {
        "cost": 114.39,
        "seconds": 300
      }
    ],
    [
      29,
      5,
      {
        "cost": 70.95,
        "seconds": 253
      }
    ],
    [
      29,
      4,
      {
        "cost": 172.5,
        "seconds": 476
      }
    ],
    [
      29,
      7,
      {
        "cost": 38.49,
        "seconds": 125
      }
    ],
    [
      29,
      6,
      {
        "cost": 109.41,
        "seconds": 232
      }
    ],
    [
      29,
      9,
      {
        "cost": 166.32,
        "seconds": 443
      }
    ],
    [
      29,
      11,
      {
        "cost": 259.5,
        "seconds": 555
      }
    ],
    [
      29,
      10,
      {
        "cost": 60.03,
        "seconds": 190
      }
    ],
    [
      29,
      13,
      {
        "cost": 61.199999999999999,
        "seconds": 179
      }
    ],
    [
      29,
      12,
      {
        "cost": 237.0,
        "seconds": 594
      }
    ],
    [
      29,
      15,
      {
        "cost": 219.09,
        "seconds": 470
      }
    ],
    [
      29,
      17,
      {
        "cost": 149.91,
        "seconds": 435
      }
    ],
    [
      29,
      16,
      {
        "cost": 58.89,
        "seconds": 198
      }
    ],
    [
      29,
      19,
      {
        "cost": 231.84,
        "seconds": 613
      }
    ],
    [
      29,
      21,
      {
        "cost": 237.09,
        "seconds": 548
      }
    ],
    [
      29,
      23,
      {
        "cost": 42.15,
        "seconds": 144
      }
    ],
    [
      29,
      22,
      {
        "cost": 276.36,
        "seconds": 617
      }
    ],
    [
      29,
      25,
      {
        "cost": 62.22,
        "seconds": 192
      }
    ],
    [
      29,
      24,
      {
        "cost": 291.47999999999998,
        "seconds": 721
      }
    ],
    [
      29,
      27,
      {
        "cost": 145.79999999999999,
        "seconds": 383
      }
    ],
    [
      29,
      26,
      {
        "cost": 260.67,
        "seconds": 557
      }
    ],
    [
      29,
      30,
      {
        "cost": 79.32,
        "seconds": 234
      }
    ],
    [
      29,
      33,
      {
        "cost": 231.57,
        "seconds": 582
      }
    ],
    [
      29,
      31,
      {
        "cost": 47.01,
        "seconds": 147
      }
    ],
    [
      29,
      28,
      {
        "cost": 167.22,
        "seconds": 360
      }
    ],
    [
      30,
      1,
      {
        "cost": 129.18,
        "seconds": 339
      }
    ],
    [
      30,
      0,
      {
        "cost": 203.91,
        "seconds": 461
      }
    ],
    [
      30,
      2,
      {
        "cost": 203.25,
        "seconds": 487
      }
    ],
    [
      30,
      4,
      {
        "cost": 261.36,
        "seconds": 663
      }
    ],
    [
      30,
      5,
      {
        "cost": 151.01999999999999,
        "seconds": 386
      }
    ],
    [
      30,
      6,
      {
        "cost": 140.01,
        "seconds": 328
      }
    ],
    [
      30,
      7,
      {
        "cost": 97.92,
        "seconds": 295
      }
    ],
    [
      30,
      8,
      {
        "cost": 483.53999999999999,
        "seconds": 1051
      }
    ],
    [
      30,
      9,
      {
        "cost": 196.92,
        "seconds": 538
      }
    ],
    [
      30,
      10,
      {
        "cost": 159.26999999999999,
        "seconds": 383
      }
    ],
    [
      30,
      11,
      {
        "cost": 225.78,
        "seconds": 511
      }
    ],
    [
      30,
      12,
      {
        "cost": 267.59999999999999,
        "seconds": 690
      }
    ],
    [
      30,
      13,
      {
        "cost": 91.8,
        "seconds": 275
      }
    ],
    [
      30,
      14,
      {
        "cost": 384.21,
        "seconds": 784
      }
    ],
    [
      30,
      16,
      {
        "cost": 114.89999999999999,
        "seconds": 368
      }
    ],
    [
      30,
      18,
      {
        "cost": 540.48,
        "seconds": 1062
      }
    ],
    [
      30,
      20,
      {
        "cost": 460.10999999999998,
        "seconds": 960
      }
    ],
    [
      30,
      21,
      {
        "cost": 172.14,
        "seconds": 379
      }
    ],
    [
      30,
      22,
      {
        "cost": 318.81,
        "seconds": 649
      }
    ],
    [
      30,
      23,
      {
        "cost": 40.53,
        "seconds": 155
      }
    ],
    [
      30,
      24,
      {
        "cost": 351.03,
        "seconds": 765
      }
    ],
    [
      30,
      25,
      {
        "cost": 34.89,
        "seconds": 114
      }
    ],
    [
      30,
      26,
      {
        "cost": 225.42,
        "seconds": 506
      }
    ],
    [
      30,
      28,
      {
        "cost": 197.82,
        "seconds": 456
      }
    ],
    [
      30,
      29,
      {
        "cost": 72.72,
        "seconds": 216
      }
    ],
    [
      30,
      32,
      {
        "cost": 394.91999999999998,
        "seconds": 811
      }
    ],
    [
      31,
      1,
      {
        "cost": 189.51,
        "seconds": 488
      }
    ],
    [
      31,
      0,
      {
        "cost": 242.79,
        "seconds": 583
      }
    ],
    [
      31,
      3,
      {
        "cost": 146.16,
        "seconds": 338
      }
    ],
    [
      31,
      2,
      {
        "cost": 76.38,
        "seconds": 189
      }
    ],
    [
      31,
      5,
      {
        "cost": 43.8,
        "seconds": 145
      }
    ],
    [
      31,
      4,
      {
        "cost": 134.51999999999999,
        "seconds": 365
      }
    ],
    [
      31,
      7,
      {
        "cost": 74.42999999999999,
        "seconds": 206
      }
    ],
    [
      31,
      6,
      {
        "cost": 150.03,
        "seconds": 352
      }
    ],
    [
      31,
      9,
      {
        "cost": 142.79999999999999,
        "seconds": 370
      }
    ],
    [
      31,
      11,
      {
        "cost": 280.56,
        "seconds": 656
      }
    ],
    [
      31,
      10,
      {
        "cost": 12.99,
        "seconds": 43
      }
    ],
    [
      31,
      13,
      {
        "cost": 83.85,
        "seconds": 266
      }
    ],
    [
      31,
      17,
      {
        "cost": 113.07,
        "seconds": 317
      }
    ],
    [
      31,
      16,
      {
        "cost": 61.44,
        "seconds": 179
      }
    ],
    [
      31,
      19,
      {
        "cost": 220.53,
        "seconds": 577
      }
    ],
    [
      31,
      21,
      {
        "cost": 294.93,
        "seconds": 608
      }
    ],
    [
      31,
      23,
      {
        "cost": 86.16,
        "seconds": 272
      }
    ],
    [
      31,
      25,
      {
        "cost": 106.22999999999999,
        "seconds": 320
      }
    ],
    [
      31,
      27,
      {
        "cost": 107.78999999999999,
        "seconds": 273
      }
    ],
    [
      31,
      29,
      {
        "cost": 47.01,
        "seconds": 147
      }
    ],
    [
      31,
      28,
      {
        "cost": 188.28,
        "seconds": 461
      }
    ],
    [
      31,
      33,
      {
        "cost": 208.04999999999999,
        "seconds": 509
      }
    ],
    [
      31,
      30,
      {
        "cost": 137.64,
        "seconds": 348
      }
    ],
    [
      32,
      8,
      {
        "cost": 90.09,
        "seconds": 274
      }
    ],
    [
      32,
      14,
      {
        "cost": 64.98,
        "seconds": 184
      }
    ],
    [
      32,
      18,
      {
        "cost": 184.38,
        "seconds": 384
      }
    ],
    [
      32,
      20,
      {
        "cost": 200.4,
        "seconds": 417
      }
    ],
    [
      32,
      22,
      {
        "cost": 170.51999999999999,
        "seconds": 466
      }
    ],
    [
      32,
      24,
      {
        "cost": 188.94,
        "seconds": 525
      }
    ],
    [
      32,
      26,
      {
        "cost": 201.84,
        "seconds": 443
      }
    ],
    [
      33,
      1,
      {
        "cost": 252.09,
        "seconds": 576
      }
    ],
    [
      33,
      0,
      {
        "cost": 193.53,
        "seconds": 451
      }
    ],
    [
      33,
      3,
      {
        "cost": 149.76,
        "seconds": 361
      }
    ],
    [
      33,
      2,
      {
        "cost": 184.01999999999999,
        "seconds": 445
      }
    ],
    [
      33,
      5,
      {
        "cost": 260.94,
        "seconds": 530
      }
    ],
    [
      33,
      4,
      {
        "cost": 211.95,
        "seconds": 603
      }
    ],
    [
      33,
      7,
      {
        "cost": 219.63,
        "seconds": 599
      }
    ],
    [
      33,
      6,
      {
        "cost": 187.07999999999999,
        "seconds": 454
      }
    ],
    [
      33,
      9,
      {
        "cost": 87.45,
        "seconds": 302
      }
    ],
    [
      33,
      8,
      {
        "cost": 419.49,
        "seconds": 966
      }
    ],
    [
      33,
      11,
      {
        "cost": 228.15,
        "seconds": 501
      }
    ],
    [
      33,
      10,
      {
        "cost": 235.35,
        "seconds": 512
      }
    ],
    [
      33,
      13,
      {
        "cost": 192.57,
        "seconds": 494
      }
    ],
    [
      33,
      12,
      {
        "cost": 29.61,
        "seconds": 115
      }
    ],
    [
      33,
      15,
      {
        "cost": 120.11999999999999,
        "seconds": 343
      }
    ],
    [
      33,
      14,
      {
        "cost": 320.15999999999999,
        "seconds": 700
      }
    ],
    [
      33,
      17,
      {
        "cost": 159.69,
        "seconds": 377
      }
    ],
    [
      33,
      16,
      {
        "cost": 204.81,
        "seconds": 539
      }
    ],
    [
      33,
      19,
      {
        "cost": 99.89999999999999,
        "seconds": 251
      }
    ],
    [
      33,
      18,
      {
        "cost": 365.07,
        "seconds": 973
      }
    ],
    [
      33,
      21,
      {
        "cost": 310.14,
        "seconds": 654
      }
    ],
    [
      33,
      20,
      {
        "cost": 283.83,
        "seconds": 767
      }
    ],
    [
      33,
      23,
      {
        "cost": 259.62,
        "seconds": 678
      }
    ],
    [
      33,
      22,
      {
        "cost": 196.17,
        "seconds": 459
      }
    ],
    [
      33,
      25,
      {
        "cost": 269.76,
        "seconds": 690
      }
    ],
    [
      33,
      24,
      {
        "cost": 211.04999999999999,
        "seconds": 544
      }
    ],
    [
      33,
      27,
      {
        "cost": 213.63,
        "seconds": 524
      }
    ],
    [
      33,
      26,
      {
        "cost": 233.04,
        "seconds": 533
      }
    ],
    [
      33,
      29,
      {
        "cost": 249.66,
        "seconds": 618
      }
    ],
    [
      33,
      28,
      {
        "cost": 162.03,
        "seconds": 391
      }
    ],
    [
      33,
      31,
      {
        "cost": 239.34,
        "seconds": 525
      }
    ],
    [
      33,
      30,
      {
        "cost": 286.86,
        "seconds": 731
      }
    ],
    [
      33,
      32,
      {
        "cost": 330.9,
        "seconds": 727
      }
    ],
    [
      32,
      35,
      {
        "cost": 188.13,
        "seconds": 427
      }
    ],
    [
      34,
      33,
      {
        "cost": 199.32,
        "seconds": 491
      }
    ],
    [
      32,
      34,
      {
        "cost": 456.45,
        "seconds": 1067
      }
    ],
    [
      35,
      33,
      {
        "cost": 432.12,
        "seconds": 954
      }
    ],
    [
      30,
      35,
      {
        "cost": 410.28,
        "seconds": 880
      }
    ],
    [
      34,
      31,
      {
        "cost": 153.9,
        "seconds": 367
      }
    ],
    [
      30,
      34,
      {
        "cost": 269.58,
        "seconds": 696
      }
    ],
    [
      35,
      31,
      {
        "cost": 473.43,
        "seconds": 1071
      }
    ],
    [
      28,
      35,
      {
        "cost": 308.84999999999999,
        "seconds": 726
      }
    ],
    [
      34,
      29,
      {
        "cost": 196.17,
        "seconds": 489
      }
    ],
    [
      28,
      34,
      {
        "cost": 215.60999999999999,
        "seconds": 531
      }
    ],
    [
      35,
      29,
      {
        "cost": 450.51,
        "seconds": 965
      }
    ],
    [
      26,
      35,
      {
        "cost": 249.92999999999999,
        "seconds": 570
      }
    ],
    [
      34,
      27,
      {
        "cost": 51.809999999999998,
        "seconds": 178
      }
    ],
    [
      26,
      34,
      {
        "cost": 322.02,
        "seconds": 763
      }
    ],
    [
      35,
      27,
      {
        "cost": 500.09999999999999,
        "seconds": 1091
      }
    ],
    [
      24,
      35,
      {
        "cost": 266.90999999999999,
        "seconds": 656
      }
    ],
    [
      34,
      25,
      {
        "cost": 255.39,
        "seconds": 662
      }
    ],
    [
      24,
      34,
      {
        "cost": 343.53,
        "seconds": 841
      }
    ],
    [
      35,
      25,
      {
        "cost": 447.51,
        "seconds": 1033
      }
    ],
    [
      22,
      35,
      {
        "cost": 254.88,
        "seconds": 600
      }
    ],
    [
      34,
      23,
      {
        "cost": 235.29,
        "seconds": 614
      }
    ],
    [
      22,
      34,
      {
        "cost": 330.42,
        "seconds": 829
      }
    ],
    [
      35,
      23,
      {
        "cost": 460.46999999999999,
        "seconds": 1025
      }
    ],
    [
      20,
      35,
      {
        "cost": 343.38,
        "seconds": 698
      }
    ],
    [
      34,
      21,
      {
        "cost": 354.03,
        "seconds": 739
      }
    ],
    [
      20,
      34,
      {
        "cost": 539.4,
        "seconds": 1188
      }
    ],
    [
      35,
      21,
      {
        "cost": 285.45,
        "seconds": 636
      }
    ],
    [
      18,
      35,
      {
        "cost": 270.84,
        "seconds": 525
      }
    ],
    [
      34,
      19,
      {
        "cost": 247.76999999999999,
        "seconds": 611
      }
    ],
    [
      18,
      34,
      {
        "cost": 593.97,
        "seconds": 1315
      }
    ],
    [
      35,
      19,
      {
        "cost": 395.25,
        "seconds": 856
      }
    ],
    [
      16,
      35,
      {
        "cost": 421.26,
        "seconds": 969
      }
    ],
    [
      34,
      17,
      {
        "cost": 110.7,
        "seconds": 304
      }
    ],
    [
      16,
      34,
      {
        "cost": 155.73,
        "seconds": 455
      }
    ],
    [
      35,
      17,
      {
        "cost": 443.66999999999998,
        "seconds": 1016
      }
    ],
    [
      14,
      35,
      {
        "cost": 207.92999999999999,
        "seconds": 475
      }
    ],
    [
      34,
      15,
      {
        "cost": 276.51,
        "seconds": 649
      }
    ],
    [
      14,
      34,
      {
        "cost": 473.84999999999999,
        "seconds": 1064
      }
    ],
    [
      35,
      15,
      {
        "cost": 332.67,
        "seconds": 709
      }
    ],
    [
      12,
      35,
      {
        "cost": 430.56,
        "seconds": 905
      }
    ],
    [
      34,
      13,
      {
        "cost": 179.91,
        "seconds": 518
      }
    ],
    [
      12,
      34,
      {
        "cost": 190.26,
        "seconds": 551
      }
    ],
    [
      35,
      13,
      {
        "cost": 402.84,
        "seconds": 868
      }
    ],
    [
      10,
      35,
      {
        "cost": 469.02,
        "seconds": 1050
      }
    ],
    [
      34,
      11,
      {
        "cost": 316.89,
        "seconds": 735
      }
    ],
    [
      10,
      34,
      {
        "cost": 145.68,
        "seconds": 397
      }
    ],
    [
      35,
      11,
      {
        "cost": 206.64,
        "seconds": 453
      }
    ],
    [
      8,
      35,
      {
        "cost": 219.72,
        "seconds": 467
      }
    ],
    [
      34,
      9,
      {
        "cost": 159.54,
        "seconds": 386
      }
    ],
    [
      8,
      34,
      {
        "cost": 531.39,
        "seconds": 1240
      }
    ],
    [
      35,
      9,
      {
        "cost": 396.65999999999999,
        "seconds": 891
      }
    ],
    [
      6,
      35,
      {
        "cost": 339.53999999999999,
        "seconds": 736
      }
    ],
    [
      34,
      7,
      {
        "cost": 185.76,
        "seconds": 462
      }
    ],
    [
      6,
      34,
      {
        "cost": 218.45999999999999,
        "seconds": 511
      }
    ],
    [
      35,
      7,
      {
        "cost": 445.91999999999998,
        "seconds": 983
      }
    ],
    [
      4,
      35,
      {
        "cost": 481.71,
        "seconds": 1170
      }
    ],
    [
      34,
      5,
      {
        "cost": 175.5,
        "seconds": 372
      }
    ],
    [
      4,
      34,
      {
        "cost": 138.15,
        "seconds": 461
      }
    ],
    [
      35,
      5,
      {
        "cost": 529.65,
        "seconds": 1118
      }
    ],
    [
      2,
      35,
      {
        "cost": 467.54999999999998,
        "seconds": 1048
      }
    ],
    [
      34,
      3,
      {
        "cost": 51.72,
        "seconds": 200
      }
    ],
    [
      2,
      34,
      {
        "cost": 80.61,
        "seconds": 237
      }
    ],
    [
      35,
      3,
      {
        "cost": 480.51,
        "seconds": 1028
      }
    ],
    [
      0,
      35,
      {
        "cost": 248.76,
        "seconds": 553
      }
    ],
    [
      34,
      1,
      {
        "cost": 248.60999999999999,
        "seconds": 619
      }
    ],
    [
      0,
      34,
      {
        "cost": 273.42,
        "seconds": 638
      }
    ],
    [
      35,
      1,
      {
        "cost": 352.46999999999999,
        "seconds": 793
      }
    ]
  ]
}