{
  "nodes": [
    {
      "Delivery": {
        "bid": 779,
        "id": 25,
        "price": null,
        "cost": null,
        "direct_dist": 2598,
        "direct_cost": 78,
        "direct_time": 203
      }
    },
    {
      "Pickup": {
        "bid": 779,
        "id": 25,
        "price": null,
        "cost": null,
        "direct_dist": 2598,
        "direct_cost": 78,
        "direct_time": 203
      }
    },
    {
      "Delivery": {
        "bid": 2625,
        "id": 24,
        "price": null,
        "cost": null,
        "direct_dist": 9053,
        "direct_cost": 272,
        "direct_time": 566
      }
    },
    {
      "Pickup": {
        "bid": 2625,
        "id": 24,
        "price": null,
        "cost": null,
        "direct_dist": 9053,
        "direct_cost": 272,
        "direct_time": 566
      }
    },
    {
      "Delivery": {
        "bid": 773,
        "id": 23,
        "price": null,
        "cost": null,
        "direct_dist": 5554,
        "direct_cost": 167,
        "direct_time": 500
      }
    },
    {
      "Pickup": {
        "bid": 773,
        "id": 23,
        "price": null,
        "cost": null,
        "direct_dist": 5554,
        "direct_cost": 167,
        "direct_time": 500
      }
    },
    {
      "Delivery": {
        "bid": 369,
        "id": 22,
        "price": null,
        "cost": null,
        "direct_dist": 8099,
        "direct_cost": 243,
        "direct_time": 527
      }
    },
    {
      "Pickup": {
        "bid": 369,
        "id": 22,
        "price": null,
        "cost": null,
        "direct_dist": 8099,
        "direct_cost": 243,
        "direct_time": 527
      }
    },
    {
      "Delivery": {
        "bid": 1195,
        "id": 21,
        "price": null,
        "cost": null,
        "direct_dist": 5171,
        "direct_cost": 156,
        "direct_time": 352
      }
    },
    {
      "Pickup": {
        "bid": 1195,
        "id": 21,
        "price": null,
        "cost": null,
        "direct_dist": 5171,
        "direct_cost": 156,
        "direct_time": 352
      }
    },
    {
      "Delivery": {
        "bid": 181,
        "id": 19,
        "price": null,
        "cost": null,
        "direct_dist": 4671,
        "direct_cost": 141,
        "direct_time": 329
      }
    },
    {
      "Pickup": {
        "bid": 181,
        "id": 19,
        "price": null,
        "cost": null,
        "direct_dist": 4671,
        "direct_cost": 141,
        "direct_time": 329
      }
    },
    {
      "Delivery": {
        "bid": 2077,
        "id": 15,
        "price": null,
        "cost": null,
        "direct_dist": 13128,
        "direct_cost": 394,
        "direct_time": 816
      }
    },
    {
      "Pickup": {
        "bid": 2077,
        "id": 15,
        "price": null,
        "cost": null,
        "direct_dist": 13128,
        "direct_cost": 394,
        "direct_time": 816
      }
    },
    {
      "Delivery": {
        "bid": 1462,
        "id": 9,
        "price": null,
        "cost": null,
        "direct_dist": 7432,
        "direct_cost": 223,
        "direct_time": 523
      }
    },
    {
      "Pickup": {
        "bid": 1462,
        "id": 9,
        "price": null,
        "cost": null,
        "direct_dist": 7432,
        "direct_cost": 223,
        "direct_time": 523
      }
    },
    {
      "Delivery": {
        "bid": 727,
        "id": 8,
        "price": null,
        "cost": null,
        "direct_dist": 9174,
        "direct_cost": 276,
        "direct_time": 616
      }
    },
    {
      "Pickup": {
        "bid": 727,
        "id": 8,
        "price": null,
        "cost": null,
        "direct_dist": 9174,
        "direct_cost": 276,
        "direct_time": 616
      }
    },
    {
      "Delivery": {
        "bid": 2000,
        "id": 7,
        "price": null,
        "cost": null,
        "direct_dist": 7415,
        "direct_cost": 223,
        "direct_time": 600
      }
    },
    {
      "Pickup": {
        "bid": 2000,
        "id": 7,
        "price": null,
        "cost": null,
        "direct_dist": 7415,
        "direct_cost": 223,
        "direct_time": 600
      }
    },
    {
      "Delivery": {
        "bid": 2655,
        "id": 6,
        "price": null,
        "cost": null,
        "direct_dist": 8853,
        "direct_cost": 266,
        "direct_time": 616
      }
    },
    {
      "Pickup": {
        "bid": 2655,
        "id": 6,
        "price": null,
        "cost": null,
        "direct_dist": 8853,
        "direct_cost": 266,
        "direct_time": 616
      }
    },
    {
      "Delivery": {
        "bid": 2049,
        "id": 5,
        "price": null,
        "cost": null,
        "direct_dist": 6830,
        "direct_cost": 205,
        "direct_time": 512
      }
    },
    {
      "Pickup": {
        "bid": 2049,
        "id": 5,
        "price": null,
        "cost": null,
        "direct_dist": 6830,
        "direct_cost": 205,
        "direct_time": 512
      }
    },
    {
      "Delivery": {
        "bid": 1777,
        "id": 4,
        "price": null,
        "cost": null,
        "direct_dist": 5924,
        "direct_cost": 178,
        "direct_time": 420
      }
    },
    {
      "Pickup": {
        "bid": 1777,
        "id": 4,
        "price": null,
        "cost": null,
        "direct_dist": 5924,
        "direct_cost": 178,
        "direct_time": 420
      }
    },
    {
      "Delivery": {
        "bid": 3905,
        "id": 2,
        "price": null,
        "cost": null,
        "direct_dist": 13017,
        "direct_cost": 391,
        "direct_time": 820
      }
    },
    {
      "Pickup": {
        "bid": 3905,
        "id": 2,
        "price": null,
        "cost": null,
        "direct_dist": 13017,
        "direct_cost": 391,
        "direct_time": 820
      }
    },
    {
      "DriverStart": {
        "arrive_until": 2400,
        "direct_cost": 398
      }
    },
    {
      "DriverEnd": {
        "arrive_until": 2400,
        "direct_cost": 398
      }
    }
  ],
  "node_holes": [],
  "edge_property": "directed",
  "edges": [
    [
      0,
      24,
      {
        "cost": 341.66999999999998,
        "seconds": 751
      }
    ],
    [
      0,
      26,
      {
        "cost": 226.07999999999999,
        "seconds": 501
      }
    ],
    [
      0,
      27,
      {
        "cost": 304.97999999999998,
        "seconds": 626
      }
    ],
    [
      0,
      16,
      {
        "cost": 291.36,
        "seconds": 618
      }
    ],
    [
      0,
      22,
      {
        "cost": 138.75,
        "seconds": 334
      }
    ],
    [
      0,
      25,
      {
        "cost": 278.90999999999999,
        "seconds": 615
      }
    ],
    [
      0,
      12,
      {
        "cost": 288.3,
        "seconds": 610
      }
    ],
    [
      0,
      4,
      {
        "cost": 134.88,
        "seconds": 342
      }
    ],
    [
      0,
      23,
      {
        "cost": 94.86,
        "seconds": 245
      }
    ],
    [
      0,
      17,
      {
        "cost": 116.07,
        "seconds": 319
      }
    ],
    [
      0,
      8,
      {
        "cost": 167.82,
        "seconds": 389
      }
    ],
    [
      0,
      13,
      {
        "cost": 250.29,
        "seconds": 543
      }
    ],
    [
      0,
      5,
      {
        "cost": 265.56,
        "seconds": 539
      }
    ],
    [
      0,
      14,
      {
        "cost": 434.25,
        "seconds": 962
      }
    ],
    [
      0,
      10,
      {
        "cost": 352.97999999999998,
        "seconds": 780
      }
    ],
    [
      0,
      20,
      {
        "cost": 208.98,
        "seconds": 495
      }
    ],
    [
      0,
      9,
      {
        "cost": 109.28999999999999,
        "seconds": 271
      }
    ],
    [
      0,
      21,
      {
        "cost": 174.63,
        "seconds": 450
      }
    ],
    [
      0,
      15,
      {
        "cost": 266.52,
        "seconds": 579
      }
    ],
    [
      0,
      2,
      {
        "cost": 74.31,
        "seconds": 207
      }
    ],
    [
      0,
      11,
      {
        "cost": 268.86,
        "seconds": 574
      }
    ],
    [
      0,
      6,
      {
        "cost": 177.75,
        "seconds": 400
      }
    ],
    [
      0,
      18,
      {
        "cost": 111.06,
        "seconds": 285
      }
    ],
    [
      0,
      3,
      {
        "cost": 290.96999999999999,
        "seconds": 636
      }
    ],
    [
      0,
      7,
      {
        "cost": 206.34,
        "seconds": 458
      }
    ],
    [
      0,
      19,
      {
        "cost": 124.97999999999999,
        "seconds": 322
      }
    ],
    [
      1,
      27,
      {
        "cost": 315.18,
        "seconds": 659
      }
    ],
    [
      1,
      22,
      {
        "cost": 127.8,
        "seconds": 313
      }
    ],
    [
      1,
      4,
      {
        "cost": 92.46,
        "seconds": 219
      }
    ],
    [
      1,
      17,
      {
        "cost": 175.73999999999999,
        "seconds": 407
      }
    ],
    [
      1,
      23,
      {
        "cost": 72.14999999999999,
        "seconds": 176
      }
    ],
    [
      1,
      8,
      {
        "cost": 223.29,
        "seconds": 534
      }
    ],
    [
      1,
      13,
      {
        "cost": 274.46999999999999,
        "seconds": 625
      }
    ],
    [
      1,
      5,
      {
        "cost": 275.78999999999999,
        "seconds": 572
      }
    ],
    [
      1,
      9,
      {
        "cost": 164.76,
        "seconds": 416
      }
    ],
    [
      1,
      21,
      {
        "cost": 225.6,
        "seconds": 556
      }
    ],
    [
      1,
      2,
      {
        "cost": 31.89,
        "seconds": 85
      }
    ],
    [
      1,
      6,
      {
        "cost": 187.98,
        "seconds": 433
      }
    ],
    [
      1,
      18,
      {
        "cost": 166.53,
        "seconds": 429
      }
    ],
    [
      1,
      3,
      {
        "cost": 302.82,
        "seconds": 668
      }
    ],
    [
      1,
      7,
      {
        "cost": 261.81,
        "seconds": 603
      }
    ],
    [
      1,
      19,
      {
        "cost": 82.56,
        "seconds": 200
      }
    ],
    [
      1,
      0,
      {
        "cost": 77.94,
        "seconds": 203
      }
    ],
    [
      2,
      0,
      {
        "cost": 83.61,
        "seconds": 217
      }
    ],
    [
      2,
      1,
      {
        "cost": 29.16,
        "seconds": 74
      }
    ],
    [
      2,
      12,
      {
        "cost": 349.46999999999999,
        "seconds": 768
      }
    ],
    [
      2,
      22,
      {
        "cost": 114.03,
        "seconds": 289
      }
    ],
    [
      2,
      18,
      {
        "cost": 172.23,
        "seconds": 443
      }
    ],
    [
      2,
      23,
      {
        "cost": 77.82,
        "seconds": 190
      }
    ],
    [
      2,
      19,
      {
        "cost": 68.78999999999999,
        "seconds": 175
      }
    ],
    [
      2,
      4,
      {
        "cost": 78.69,
        "seconds": 195
      }
    ],
    [
      2,
      20,
      {
        "cost": 152.79,
        "seconds": 348
      }
    ],
    [
      2,
      26,
      {
        "cost": 287.21999999999999,
        "seconds": 660
      }
    ],
    [
      2,
      8,
      {
        "cost": 228.95999999999999,
        "seconds": 547
      }
    ],
    [
      2,
      16,
      {
        "cost": 264.24,
        "seconds": 635
      }
    ],
    [
      3,
      1,
      {
        "cost": 281.52,
        "seconds": 595
      }
    ],
    [
      3,
      0,
      {
        "cost": 300.18,
        "seconds": 627
      }
    ],
    [
      3,
      13,
      {
        "cost": 158.91,
        "seconds": 429
      }
    ],
    [
      3,
      18,
      {
        "cost": 383.64,
        "seconds": 839
      }
    ],
    [
      3,
      22,
      {
        "cost": 250.5,
        "seconds": 544
      }
    ],
    [
      3,
      23,
      {
        "cost": 309.84,
        "seconds": 693
      }
    ],
    [
      3,
      20,
      {
        "cost": 179.45999999999999,
        "seconds": 473
      }
    ],
    [
      3,
      4,
      {
        "cost": 193.26,
        "seconds": 480
      }
    ],
    [
      3,
      19,
      {
        "cost": 261.33,
        "seconds": 644
      }
    ],
    [
      3,
      8,
      {
        "cost": 382.16999999999998,
        "seconds": 836
      }
    ],
    [
      3,
      5,
      {
        "cost": 108.81,
        "seconds": 303
      }
    ],
    [
      3,
      16,
      {
        "cost": 23.22,
        "seconds": 74
      }
    ],
    [
      3,
      27,
      {
        "cost": 148.2,
        "seconds": 390
      }
    ],
    [
      3,
      21,
      {
        "cost": 324.96,
        "seconds": 757
      }
    ],
    [
      3,
      9,
      {
        "cost": 394.77,
        "seconds": 829
      }
    ],
    [
      3,
      17,
      {
        "cost": 264.03,
        "seconds": 565
      }
    ],
    [
      3,
      2,
      {
        "cost": 271.59,
        "seconds": 566
      }
    ],
    [
      4,
      0,
      {
        "cost": 161.48999999999999,
        "seconds": 382
      }
    ],
    [
      4,
      1,
      {
        "cost": 100.2,
        "seconds": 270
      }
    ],
    [
      4,
      2,
      {
        "cost": 71.03999999999999,
        "seconds": 196
      }
    ],
    [
      4,
      20,
      {
        "cost": 57.059999999999998,
        "seconds": 177
      }
    ],
    [
      4,
      12,
      {
        "cost": 393.53999999999999,
        "seconds": 807
      }
    ],
    [
      4,
      18,
      {
        "cost": 262.86,
        "seconds": 589
      }
    ],
    [
      4,
      8,
      {
        "cost": 273.03,
        "seconds": 586
      }
    ],
    [
      4,
      19,
      {
        "cost": 88.89,
        "seconds": 243
      }
    ],
    [
      4,
      26,
      {
        "cost": 339.21,
        "seconds": 713
      }
    ],
    [
      4,
      6,
      {
        "cost": 141.12,
        "seconds": 355
      }
    ],
    [
      4,
      16,
      {
        "cost": 203.31,
        "seconds": 502
      }
    ],
    [
      4,
      22,
      {
        "cost": 112.92,
        "seconds": 271
      }
    ],
    [
      4,
      17,
      {
        "cost": 141.98999999999999,
        "seconds": 356
      }
    ],
    [
      5,
      1,
      {
        "cost": 223.47,
        "seconds": 533
      }
    ],
    [
      5,
      0,
      {
        "cost": 227.64,
        "seconds": 560
      }
    ],
    [
      5,
      3,
      {
        "cost": 122.69999999999999,
        "seconds": 306
      }
    ],
    [
      5,
      2,
      {
        "cost": 213.51,
        "seconds": 504
      }
    ],
    [
      5,
      20,
      {
        "cost": 236.64,
        "seconds": 524
      }
    ],
    [
      5,
      21,
      {
        "cost": 171.72,
        "seconds": 514
      }
    ],
    [
      5,
      11,
      {
        "cost": 381.03,
        "seconds": 775
      }
    ],
    [
      5,
      18,
      {
        "cost": 261.81,
        "seconds": 581
      }
    ],
    [
      5,
      13,
      {
        "cost": 53.61,
        "seconds": 158
      }
    ],
    [
      5,
      8,
      {
        "cost": 279.99,
        "seconds": 590
      }
    ],
    [
      5,
      19,
      {
        "cost": 257.52,
        "seconds": 612
      }
    ],
    [
      5,
      25,
      {
        "cost": 391.08,
        "seconds": 817
      }
    ],
    [
      5,
      9,
      {
        "cost": 272.94,
        "seconds": 570
      }
    ],
    [
      5,
      27,
      {
        "cost": 58.349999999999997,
        "seconds": 151
      }
    ],
    [
      5,
      6,
      {
        "cost": 119.42999999999999,
        "seconds": 262
      }
    ],
    [
      5,
      16,
      {
        "cost": 123.08999999999999,
        "seconds": 287
      }
    ],
    [
      5,
      22,
      {
        "cost": 176.13,
        "seconds": 424
      }
    ],
    [
      5,
      7,
      {
        "cost": 318.51,
        "seconds": 659
      }
    ],
    [
      5,
      17,
      {
        "cost": 139.62,
        "seconds": 312
      }
    ],
    [
      5,
      23,
      {
        "cost": 286.44,
        "seconds": 668
      }
    ],
    [
      5,
      4,
      {
        "cost": 166.62,
        "seconds": 500
      }
    ],
    [
      6,
      0,
      {
        "cost": 157.68,
        "seconds": 361
      }
    ],
    [
      6,
      1,
      {
        "cost": 137.4,
        "seconds": 338
      }
    ],
    [
      6,
      4,
      {
        "cost": 134.82,
        "seconds": 334
      }
    ],
    [
      6,
      18,
      {
        "cost": 148.53,
        "seconds": 361
      }
    ],
    [
      6,
      16,
      {
        "cost": 260.90999999999999,
        "seconds": 578
      }
    ],
    [
      6,
      24,
      {
        "cost": 335.19,
        "seconds": 735
      }
    ],
    [
      6,
      12,
      {
        "cost": 287.19,
        "seconds": 592
      }
    ],
    [
      6,
      17,
      {
        "cost": 53.37,
        "seconds": 154
      }
    ],
    [
      6,
      26,
      {
        "cost": 224.94,
        "seconds": 483
      }
    ],
    [
      6,
      22,
      {
        "cost": 73.02,
        "seconds": 215
      }
    ],
    [
      6,
      20,
      {
        "cost": 202.01999999999999,
        "seconds": 505
      }
    ],
    [
      6,
      8,
      {
        "cost": 166.68,
        "seconds": 371
      }
    ],
    [
      6,
      9,
      {
        "cost": 159.66,
        "seconds": 351
      }
    ],
    [
      6,
      21,
      {
        "cost": 93.36,
        "seconds": 293
      }
    ],
    [
      7,
      1,
      {
        "cost": 256.86,
        "seconds": 556
      }
    ],
    [
      7,
      0,
      {
        "cost": 193.10999999999999,
        "seconds": 404
      }
    ],
    [
      7,
      5,
      {
        "cost": 315.33,
        "seconds": 700
      }
    ],
    [
      7,
      4,
      {
        "cost": 327.9,
        "seconds": 683
      }
    ],
    [
      7,
      18,
      {
        "cost": 107.00999999999999,
        "seconds": 269
      }
    ],
    [
      7,
      16,
      {
        "cost": 416.88,
        "seconds": 916
      }
    ],
    [
      7,
      24,
      {
        "cost": 246.69,
        "seconds": 507
      }
    ],
    [
      7,
      19,
      {
        "cost": 322.65,
        "seconds": 696
      }
    ],
    [
      7,
      17,
      {
        "cost": 246.66,
        "seconds": 515
      }
    ],
    [
      7,
      13,
      {
        "cost": 298.62,
        "seconds": 668
      }
    ],
    [
      7,
      10,
      {
        "cost": 207.29999999999999,
        "seconds": 463
      }
    ],
    [
      7,
      26,
      {
        "cost": 57.33,
        "seconds": 143
      }
    ],
    [
      7,
      25,
      {
        "cost": 133.2,
        "seconds": 298
      }
    ],
    [
      7,
      22,
      {
        "cost": 266.09999999999999,
        "seconds": 564
      }
    ],
    [
      7,
      27,
      {
        "cost": 376.97999999999998,
        "seconds": 822
      }
    ],
    [
      7,
      11,
      {
        "cost": 75.06,
        "seconds": 162
      }
    ],
    [
      7,
      23,
      {
        "cost": 292.74,
        "seconds": 630
      }
    ],
    [
      7,
      8,
      {
        "cost": 105.69,
        "seconds": 260
      }
    ],
    [
      7,
      20,
      {
        "cost": 395.09999999999999,
        "seconds": 854
      }
    ],
    [
      7,
      21,
      {
        "cost": 199.98,
        "seconds": 481
      }
    ],
    [
      7,
      9,
      {
        "cost": 153.72,
        "seconds": 307
      }
    ],
    [
      7,
      6,
      {
        "cost": 242.97,
        "seconds": 527
      }
    ],
    [
      8,
      0,
      {
        "cost": 173.37,
        "seconds": 444
      }
    ],
    [
      8,
      1,
      {
        "cost": 214.70999999999999,
        "seconds": 514
      }
    ],
    [
      8,
      2,
      {
        "cost": 220.59,
        "seconds": 519
      }
    ],
    [
      8,
      4,
      {
        "cost": 279.75,
        "seconds": 587
      }
    ],
    [
      8,
      6,
      {
        "cost": 194.82,
        "seconds": 430
      }
    ],
    [
      8,
      7,
      {
        "cost": 97.61999999999999,
        "seconds": 241
      }
    ],
    [
      8,
      14,
      {
        "cost": 291.12,
        "seconds": 659
      }
    ],
    [
      8,
      12,
      {
        "cost": 145.17,
        "seconds": 307
      }
    ],
    [
      8,
      24,
      {
        "cost": 199.32,
        "seconds": 493
      }
    ],
    [
      8,
      15,
      {
        "cost": 123.36,
        "seconds": 276
      }
    ],
    [
      8,
      10,
      {
        "cost": 209.85,
        "seconds": 477
      }
    ],
    [
      8,
      26,
      {
        "cost": 133.56,
        "seconds": 315
      }
    ],
    [
      8,
      25,
      {
        "cost": 135.78,
        "seconds": 312
      }
    ],
    [
      8,
      11,
      {
        "cost": 74.00999999999999,
        "seconds": 238
      }
    ],
    [
      8,
      22,
      {
        "cost": 217.95,
        "seconds": 468
      }
    ],
    [
      8,
      18,
      {
        "cost": 93.3,
        "seconds": 251
      }
    ],
    [
      8,
      16,
      {
        "cost": 368.72999999999998,
        "seconds": 819
      }
    ],
    [
      8,
      20,
      {
        "cost": 346.95,
        "seconds": 758
      }
    ],
    [
      8,
      17,
      {
        "cost": 198.54,
        "seconds": 418
      }
    ],
    [
      8,
      21,
      {
        "cost": 151.82999999999999,
        "seconds": 384
      }
    ],
    [
      9,
      1,
      {
        "cost": 120.83999999999999,
        "seconds": 312
      }
    ],
    [
      9,
      0,
      {
        "cost": 57.089999999999999,
        "seconds": 160
      }
    ],
    [
      9,
      3,
      {
        "cost": 355.46999999999999,
        "seconds": 773
      }
    ],
    [
      9,
      2,
      {
        "cost": 131.4,
        "seconds": 367
      }
    ],
    [
      9,
      5,
      {
        "cost": 254.31,
        "seconds": 538
      }
    ],
    [
      9,
      4,
      {
        "cost": 191.97,
        "seconds": 501
      }
    ],
    [
      9,
      7,
      {
        "cost": 193.65,
        "seconds": 421
      }
    ],
    [
      9,
      6,
      {
        "cost": 178.68,
        "seconds": 391
      }
    ],
    [
      9,
      12,
      {
        "cost": 275.61,
        "seconds": 573
      }
    ],
    [
      9,
      10,
      {
        "cost": 340.28999999999999,
        "seconds": 743
      }
    ],
    [
      9,
      24,
      {
        "cost": 323.46,
        "seconds": 706
      }
    ],
    [
      9,
      15,
      {
        "cost": 253.82999999999999,
        "seconds": 542
      }
    ],
    [
      9,
      26,
      {
        "cost": 139.14,
        "seconds": 348
      }
    ],
    [
      9,
      13,
      {
        "cost": 237.6,
        "seconds": 506
      }
    ],
    [
      9,
      25,
      {
        "cost": 266.21999999999999,
        "seconds": 578
      }
    ],
    [
      9,
      11,
      {
        "cost": 234.12,
        "seconds": 529
      }
    ],
    [
      9,
      27,
      {
        "cost": 315.96,
        "seconds": 660
      }
    ],
    [
      9,
      22,
      {
        "cost": 201.81,
        "seconds": 428
      }
    ],
    [
      9,
      18,
      {
        "cost": 70.98,
        "seconds": 192
      }
    ],
    [
      9,
      23,
      {
        "cost": 156.72,
        "seconds": 386
      }
    ],
    [
      9,
      19,
      {
        "cost": 182.07,
        "seconds": 482
      }
    ],
    [
      9,
      17,
      {
        "cost": 134.60999999999999,
        "seconds": 353
      }
    ],
    [
      9,
      21,
      {
        "cost": 161.94,
        "seconds": 413
      }
    ],
    [
      9,
      8,
      {
        "cost": 155.13,
        "seconds": 352
      }
    ],
    [
      10,
      4,
      {
        "cost": 444.35999999999998,
        "seconds": 928
      }
    ],
    [
      10,
      6,
      {
        "cost": 359.43,
        "seconds": 772
      }
    ],
    [
      10,
      8,
      {
        "cost": 226.85999999999999,
        "seconds": 510
      }
    ],
    [
      10,
      20,
      {
        "cost": 511.56,
        "seconds": 1099
      }
    ],
    [
      10,
      24,
      {
        "cost": 153.0,
        "seconds": 404
      }
    ],
    [
      10,
      12,
      {
        "cost": 69.36,
        "seconds": 196
      }
    ],
    [
      10,
      25,
      {
        "cost": 86.78999999999999,
        "seconds": 263
      }
    ],
    [
      10,
      18,
      {
        "cost": 297.53999999999999,
        "seconds": 692
      }
    ],
    [
      10,
      22,
      {
        "cost": 382.56,
        "seconds": 809
      }
    ],
    [
      10,
      14,
      {
        "cost": 217.17,
        "seconds": 547
      }
    ],
    [
      10,
      16,
      {
        "cost": 533.34,
        "seconds": 1160
      }
    ],
    [
      10,
      26,
      {
        "cost": 263.07,
        "seconds": 620
      }
    ],
    [
      10,
      15,
      {
        "cost": 93.17999999999999,
        "seconds": 225
      }
    ],
    [
      11,
      1,
      {
        "cost": 287.37,
        "seconds": 632
      }
    ],
    [
      11,
      7,
      {
        "cost": 90.81,
        "seconds": 226
      }
    ],
    [
      11,
      9,
      {
        "cost": 213.09,
        "seconds": 421
      }
    ],
    [
      11,
      8,
      {
        "cost": 66.48,
        "seconds": 233
      }
    ],
    [
      11,
      24,
      {
        "cost": 187.2,
        "seconds": 406
      }
    ],
    [
      11,
      12,
      {
        "cost": 75.45,
        "seconds": 159
      }
    ],
    [
      11,
      25,
      {
        "cost": 66.06,
        "seconds": 164
      }
    ],
    [
      11,
      13,
      {
        "cost": 319.26,
        "seconds": 694
      }
    ],
    [
      11,
      14,
      {
        "cost": 265.05,
        "seconds": 581
      }
    ],
    [
      11,
      27,
      {
        "cost": 397.62,
        "seconds": 848
      }
    ],
    [
      11,
      15,
      {
        "cost": 53.669999999999998,
        "seconds": 128
      }
    ],
    [
      11,
      10,
      {
        "cost": 140.13,
        "seconds": 329
      }
    ],
    [
      12,
      8,
      {
        "cost": 162.21,
        "seconds": 338
      }
    ],
    [
      12,
      10,
      {
        "cost": 68.97,
        "seconds": 189
      }
    ],
    [
      12,
      26,
      {
        "cost": 198.42,
        "seconds": 448
      }
    ],
    [
      12,
      18,
      {
        "cost": 232.85999999999999,
        "seconds": 521
      }
    ],
    [
      12,
      14,
      {
        "cost": 231.12,
        "seconds": 559
      }
    ],
    [
      12,
      24,
      {
        "cost": 166.73999999999999,
        "seconds": 401
      }
    ],
    [
      12,
      15,
      {
        "cost": 28.529999999999999,
        "seconds": 53
      }
    ],
    [
      13,
      1,
      {
        "cost": 228.32999999999999,
        "seconds": 563
      }
    ],
    [
      13,
      0,
      {
        "cost": 264.33,
        "seconds": 585
      }
    ],
    [
      13,
      3,
      {
        "cost": 129.93,
        "seconds": 339
      }
    ],
    [
      13,
      2,
      {
        "cost": 218.37,
        "seconds": 534
      }
    ],
    [
      13,
      5,
      {
        "cost": 34.65,
        "seconds": 115
      }
    ],
    [
      13,
      4,
      {
        "cost": 213.29999999999999,
        "seconds": 543
      }
    ],
    [
      13,
      7,
      {
        "cost": 311.88,
        "seconds": 664
      }
    ],
    [
      13,
      6,
      {
        "cost": 111.24,
        "seconds": 267
      }
    ],
    [
      13,
      9,
      {
        "cost": 266.31,
        "seconds": 575
      }
    ],
    [
      13,
      8,
      {
        "cost": 273.36,
        "seconds": 595
      }
    ],
    [
      13,
      11,
      {
        "cost": 374.43,
        "seconds": 780
      }
    ],
    [
      13,
      10,
      {
        "cost": 456.96,
        "seconds": 987
      }
    ],
    [
      13,
      22,
      {
        "cost": 181.01999999999999,
        "seconds": 454
      }
    ],
    [
      13,
      26,
      {
        "cost": 330.03,
        "seconds": 708
      }
    ],
    [
      13,
      14,
      {
        "cost": 538.1999999999999,
        "seconds": 1168
      }
    ],
    [
      13,
      18,
      {
        "cost": 255.17999999999999,
        "seconds": 586
      }
    ],
    [
      13,
      23,
      {
        "cost": 291.3,
        "seconds": 698
      }
    ],
    [
      13,
      24,
      {
        "cost": 379.77,
        "seconds": 938
      }
    ],
    [
      13,
      16,
      {
        "cost": 130.35,
        "seconds": 321
      }
    ],
    [
      13,
      27,
      {
        "cost": 80.31,
        "seconds": 238
      }
    ],
    [
      13,
      20,
      {
        "cost": 243.89999999999999,
        "seconds": 558
      }
    ],
    [
      13,
      19,
      {
        "cost": 262.38,
        "seconds": 642
      }
    ],
    [
      13,
      15,
      {
        "cost": 370.46999999999999,
        "seconds": 785
      }
    ],
    [
      13,
      25,
      {
        "cost": 382.89,
        "seconds": 822
      }
    ],
    [
      13,
      17,
      {
        "cost": 144.48,
        "seconds": 342
      }
    ],
    [
      13,
      21,
      {
        "cost": 153.39,
        "seconds": 473
      }
    ],
    [
      13,
      12,
      {
        "cost": 393.84,
        "seconds": 816
      }
    ],
    [
      14,
      8,
      {
        "cost": 306.09,
        "seconds": 699
      }
    ],
    [
      14,
      10,
      {
        "cost": 213.35999999999999,
        "seconds": 522
      }
    ],
    [
      14,
      12,
      {
        "cost": 215.94,
        "seconds": 555
      }
    ],
    [
      14,
      24,
      {
        "cost": 138.93,
        "seconds": 365
      }
    ],
    [
      14,
      18,
      {
        "cost": 376.74,
        "seconds": 882
      }
    ],
    [
      14,
      26,
      {
        "cost": 369.51,
        "seconds": 806
      }
    ],
    [
      15,
      1,
      {
        "cost": 290.01,
        "seconds": 625
      }
    ],
    [
      15,
      9,
      {
        "cost": 283.11,
        "seconds": 522
      }
    ],
    [
      15,
      8,
      {
        "cost": 133.68,
        "seconds": 285
      }
    ],
    [
      15,
      11,
      {
        "cost": 58.949999999999999,
        "seconds": 163
      }
    ],
    [
      15,
      10,
      {
        "cost": 120.0,
        "seconds": 288
      }
    ],
    [
      15,
      13,
      {
        "cost": 321.9,
        "seconds": 687
      }
    ],
    [
      15,
      12,
      {
        "cost": 55.32,
        "seconds": 118
      }
    ],
    [
      15,
      24,
      {
        "cost": 158.60999999999999,
        "seconds": 365
      }
    ],
    [
      15,
      25,
      {
        "cost": 45.93,
        "seconds": 123
      }
    ],
    [
      15,
      14,
      {
        "cost": 222.95999999999999,
        "seconds": 523
      }
    ],
    [
      16,
      3,
      {
        "cost": 18.45,
        "seconds": 71
      }
    ],
    [
      16,
      2,
      {
        "cost": 259.68,
        "seconds": 536
      }
    ],
    [
      16,
      4,
      {
        "cost": 206.48999999999999,
        "seconds": 508
      }
    ],
    [
      16,
      6,
      {
        "cost": 212.82,
        "seconds": 502
      }
    ],
    [
      16,
      12,
      {
        "cost": 490.74,
        "seconds": 1027
      }
    ],
    [
      16,
      18,
      {
        "cost": 371.76,
        "seconds": 809
      }
    ],
    [
      16,
      22,
      {
        "cost": 238.62,
        "seconds": 514
      }
    ],
    [
      16,
      26,
      {
        "cost": 448.16999999999998,
        "seconds": 931
      }
    ],
    [
      16,
      20,
      {
        "cost": 192.69,
        "seconds": 501
      }
    ],
    [
      17,
      1,
      {
        "cost": 98.91,
        "seconds": 267
      }
    ],
    [
      17,
      0,
      {
        "cost": 88.02,
        "seconds": 248
      }
    ],
    [
      17,
      3,
      {
        "cost": 274.83,
        "seconds": 634
      }
    ],
    [
      17,
      2,
      {
        "cost": 104.75999999999999,
        "seconds": 272
      }
    ],
    [
      17,
      5,
      {
        "cost": 170.57999999999999,
        "seconds": 433
      }
    ],
    [
      17,
      4,
      {
        "cost": 149.1,
        "seconds": 372
      }
    ],
    [
      17,
      7,
      {
        "cost": 185.34,
        "seconds": 414
      }
    ],
    [
      17,
      6,
      {
        "cost": 63.96,
        "seconds": 204
      }
    ],
    [
      17,
      9,
      {
        "cost": 136.76999999999999,
        "seconds": 320
      }
    ],
    [
      17,
      8,
      {
        "cost": 146.82,
        "seconds": 345
      }
    ],
    [
      17,
      11,
      {
        "cost": 247.89,
        "seconds": 530
      }
    ],
    [
      17,
      13,
      {
        "cost": 168.23999999999999,
        "seconds": 435
      }
    ],
    [
      17,
      18,
      {
        "cost": 127.71,
        "seconds": 331
      }
    ],
    [
      17,
      19,
      {
        "cost": 155.43,
        "seconds": 388
      }
    ],
    [
      17,
      22,
      {
        "cost": 87.3,
        "seconds": 253
      }
    ],
    [
      17,
      20,
      {
        "cost": 216.32999999999999,
        "seconds": 543
      }
    ],
    [
      17,
      27,
      {
        "cost": 220.35,
        "seconds": 543
      }
    ],
    [
      17,
      23,
      {
        "cost": 161.88,
        "seconds": 402
      }
    ],
    [
      17,
      21,
      {
        "cost": 127.11,
        "seconds": 386
      }
    ],
    [
      17,
      16,
      {
        "cost": 275.21999999999999,
        "seconds": 616
      }
    ],
    [
      18,
      0,
      {
        "cost": 119.16,
        "seconds": 287
      }
    ],
    [
      18,
      2,
      {
        "cost": 171.66,
        "seconds": 450
      }
    ],
    [
      18,
      4,
      {
        "cost": 232.23,
        "seconds": 585
      }
    ],
    [
      18,
      6,
      {
        "cost": 202.70999999999999,
        "seconds": 462
      }
    ],
    [
      18,
      8,
      {
        "cost": 115.67999999999999,
        "seconds": 303
      }
    ],
    [
      18,
      9,
      {
        "cost": 79.77,
        "seconds": 191
      }
    ],
    [
      18,
      12,
      {
        "cost": 236.19,
        "seconds": 525
      }
    ],
    [
      18,
      16,
      {
        "cost": 379.91999999999998,
        "seconds": 825
      }
    ],
    [
      18,
      24,
      {
        "cost": 284.19,
        "seconds": 668
      }
    ],
    [
      18,
      26,
      {
        "cost": 78.06,
        "seconds": 219
      }
    ],
    [
      18,
      22,
      {
        "cost": 225.84,
        "seconds": 499
      }
    ],
    [
      18,
      20,
      {
        "cost": 306.33,
        "seconds": 739
      }
    ],
    [
      19,
      1,
      {
        "cost": 79.38,
        "seconds": 231
      }
    ],
    [
      19,
      0,
      {
        "cost": 133.82999999999999,
        "seconds": 374
      }
    ],
    [
      19,
      3,
      {
        "cost": 234.89999999999999,
        "seconds": 548
      }
    ],
    [
      19,
      2,
      {
        "cost": 50.22,
        "seconds": 158
      }
    ],
    [
      19,
      5,
      {
        "cost": 260.82,
        "seconds": 568
      }
    ],
    [
      19,
      4,
      {
        "cost": 85.28999999999999,
        "seconds": 214
      }
    ],
    [
      19,
      7,
      {
        "cost": 333.99,
        "seconds": 700
      }
    ],
    [
      19,
      6,
      {
        "cost": 172.38,
        "seconds": 427
      }
    ],
    [
      19,
      9,
      {
        "cost": 220.65,
        "seconds": 587
      }
    ],
    [
      19,
      8,
      {
        "cost": 287.58,
        "seconds": 617
      }
    ],
    [
      19,
      11,
      {
        "cost": 396.53999999999999,
        "seconds": 816
      }
    ],
    [
      19,
      13,
      {
        "cost": 276.0,
        "seconds": 655
      }
    ],
    [
      19,
      12,
      {
        "cost": 408.06,
        "seconds": 838
      }
    ],
    [
      19,
      15,
      {
        "cost": 386.28,
        "seconds": 807
      }
    ],
    [
      19,
      17,
      {
        "cost": 175.44,
        "seconds": 395
      }
    ],
    [
      19,
      16,
      {
        "cost": 249.87,
        "seconds": 600
      }
    ],
    [
      19,
      26,
      {
        "cost": 353.72999999999998,
        "seconds": 743
      }
    ],
    [
      19,
      22,
      {
        "cost": 127.47,
        "seconds": 302
      }
    ],
    [
      19,
      20,
      {
        "cost": 98.64,
        "seconds": 254
      }
    ],
    [
      19,
      25,
      {
        "cost": 398.66999999999998,
        "seconds": 843
      }
    ],
    [
      19,
      27,
      {
        "cost": 300.21,
        "seconds": 655
      }
    ],
    [
      19,
      23,
      {
        "cost": 108.6,
        "seconds": 263
      }
    ],
    [
      19,
      21,
      {
        "cost": 228.6,
        "seconds": 545
      }
    ],
    [
      19,
      18,
      {
        "cost": 222.45,
        "seconds": 600
      }
    ],
    [
      20,
      2,
      {
        "cost": 138.9,
        "seconds": 361
      }
    ],
    [
      20,
      4,
      {
        "cost": 62.099999999999997,
        "seconds": 197
      }
    ],
    [
      20,
      6,
      {
        "cost": 190.2,
        "seconds": 507
      }
    ],
    [
      20,
      12,
      {
        "cost": 444.96,
        "seconds": 925
      }
    ],
    [
      20,
      16,
      {
        "cost": 212.25,
        "seconds": 562
      }
    ],
    [
      20,
      18,
      {
        "cost": 314.28,
        "seconds": 706
      }
    ],
    [
      20,
      22,
      {
        "cost": 164.37,
        "seconds": 389
      }
    ],
    [
      20,
      26,
      {
        "cost": 390.63,
        "seconds": 830
      }
    ],
    [
      21,
      1,
      {
        "cost": 161.1,
        "seconds": 377
      }
    ],
    [
      21,
      0,
      {
        "cost": 161.16,
        "seconds": 394
      }
    ],
    [
      21,
      3,
      {
        "cost": 278.88,
        "seconds": 659
      }
    ],
    [
      21,
      2,
      {
        "cost": 166.98,
        "seconds": 382
      }
    ],
    [
      21,
      5,
      {
        "cost": 177.72,
        "seconds": 424
      }
    ],
    [
      21,
      4,
      {
        "cost": 198.39,
        "seconds": 445
      }
    ],
    [
      21,
      7,
      {
        "cost": 196.26,
        "seconds": 474
      }
    ],
    [
      21,
      6,
      {
        "cost": 113.46,
        "seconds": 289
      }
    ],
    [
      21,
      9,
      {
        "cost": 172.85999999999999,
        "seconds": 384
      }
    ],
    [
      21,
      8,
      {
        "cost": 124.38,
        "seconds": 330
      }
    ],
    [
      21,
      11,
      {
        "cost": 239.57999999999999,
        "seconds": 539
      }
    ],
    [
      21,
      13,
      {
        "cost": 161.04,
        "seconds": 392
      }
    ],
    [
      21,
      17,
      {
        "cost": 117.17999999999999,
        "seconds": 277
      }
    ],
    [
      21,
      16,
      {
        "cost": 279.3,
        "seconds": 640
      }
    ],
    [
      21,
      19,
      {
        "cost": 217.65,
        "seconds": 498
      }
    ],
    [
      21,
      18,
      {
        "cost": 163.79999999999999,
        "seconds": 396
      }
    ],
    [
      21,
      22,
      {
        "cost": 136.59,
        "seconds": 326
      }
    ],
    [
      21,
      27,
      {
        "cost": 239.39999999999999,
        "seconds": 546
      }
    ],
    [
      21,
      25,
      {
        "cost": 232.89,
        "seconds": 529
      }
    ],
    [
      21,
      23,
      {
        "cost": 224.07,
        "seconds": 512
      }
    ],
    [
      21,
      20,
      {
        "cost": 265.59,
        "seconds": 616
      }
    ],
    [
      22,
      0,
      {
        "cost": 120.0,
        "seconds": 284
      }
    ],
    [
      22,
      1,
      {
        "cost": 101.33999999999999,
        "seconds": 251
      }
    ],
    [
      22,
      2,
      {
        "cost": 91.41,
        "seconds": 223
      }
    ],
    [
      22,
      4,
      {
        "cost": 98.75999999999999,
        "seconds": 248
      }
    ],
    [
      22,
      6,
      {
        "cost": 83.46,
        "seconds": 234
      }
    ],
    [
      22,
      8,
      {
        "cost": 199.04999999999999,
        "seconds": 427
      }
    ],
    [
      22,
      12,
      {
        "cost": 319.56,
        "seconds": 648
      }
    ],
    [
      22,
      16,
      {
        "cost": 232.76999999999999,
        "seconds": 534
      }
    ],
    [
      22,
      17,
      {
        "cost": 86.52,
        "seconds": 202
      }
    ],
    [
      22,
      18,
      {
        "cost": 188.48999999999999,
        "seconds": 426
      }
    ],
    [
      22,
      19,
      {
        "cost": 118.35,
        "seconds": 316
      }
    ],
    [
      22,
      20,
      {
        "cost": 165.96,
        "seconds": 419
      }
    ],
    [
      22,
      21,
      {
        "cost": 140.1,
        "seconds": 356
      }
    ],
    [
      22,
      26,
      {
        "cost": 264.84,
        "seconds": 550
      }
    ],
    [
      23,
      1,
      {
        "cost": 79.38,
        "seconds": 206
      }
    ],
    [
      23,
      0,
      {
        "cost": 119.72999999999999,
        "seconds": 287
      }
    ],
    [
      23,
      3,
      {
        "cost": 340.91999999999998,
        "seconds": 781
      }
    ],
    [
      23,
      2,
      {
        "cost": 111.27,
        "seconds": 291
      }
    ],
    [
      23,
      5,
      {
        "cost": 331.71,
        "seconds": 718
      }
    ],
    [
      23,
      4,
      {
        "cost": 171.87,
        "seconds": 426
      }
    ],
    [
      23,
      7,
      {
        "cost": 314.03999999999999,
        "seconds": 697
      }
    ],
    [
      23,
      6,
      {
        "cost": 243.89999999999999,
        "seconds": 579
      }
    ],
    [
      23,
      9,
      {
        "cost": 200.73,
        "seconds": 481
      }
    ],
    [
      23,
      8,
      {
        "cost": 275.52,
        "seconds": 628
      }
    ],
    [
      23,
      11,
      {
        "cost": 376.59,
        "seconds": 813
      }
    ],
    [
      23,
      13,
      {
        "cost": 330.36,
        "seconds": 771
      }
    ],
    [
      23,
      17,
      {
        "cost": 223.76999999999999,
        "seconds": 558
      }
    ],
    [
      23,
      16,
      {
        "cost": 357.51,
        "seconds": 797
      }
    ],
    [
      23,
      19,
      {
        "cost": 139.04999999999999,
        "seconds": 333
      }
    ],
    [
      23,
      18,
      {
        "cost": 218.76,
        "seconds": 524
      }
    ],
    [
      23,
      21,
      {
        "cost": 282.36,
        "seconds": 689
      }
    ],
    [
      23,
      20,
      {
        "cost": 204.63,
        "seconds": 487
      }
    ],
    [
      23,
      26,
      {
        "cost": 307.68,
        "seconds": 717
      }
    ],
    [
      23,
      25,
      {
        "cost": 386.61,
        "seconds": 854
      }
    ],
    [
      23,
      27,
      {
        "cost": 371.09999999999999,
        "seconds": 805
      }
    ],
    [
      23,
      22,
      {
        "cost": 204.9,
        "seconds": 512
      }
    ],
    [
      24,
      4,
      {
        "cost": 409.71,
        "seconds": 914
      }
    ],
    [
      24,
      6,
      {
        "cost": 324.78,
        "seconds": 757
      }
    ],
    [
      24,
      8,
      {
        "cost": 207.78,
        "seconds": 517
      }
    ],
    [
      24,
      10,
      {
        "cost": 162.93,
        "seconds": 391
      }
    ],
    [
      24,
      12,
      {
        "cost": 180.32999999999999,
        "seconds": 463
      }
    ],
    [
      24,
      14,
      {
        "cost": 126.50999999999999,
        "seconds": 326
      }
    ],
    [
      24,
      15,
      {
        "cost": 184.17,
        "seconds": 457
      }
    ],
    [
      24,
      18,
      {
        "cost": 289.83,
        "seconds": 725
      }
    ],
    [
      24,
      20,
      {
        "cost": 476.90999999999999,
        "seconds": 1084
      }
    ],
    [
      24,
      22,
      {
        "cost": 347.90999999999999,
        "seconds": 795
      }
    ],
    [
      25,
      1,
      {
        "cost": 309.12,
        "seconds": 680
      }
    ],
    [
      25,
      7,
      {
        "cost": 140.07,
        "seconds": 416
      }
    ],
    [
      25,
      9,
      {
        "cost": 258.99,
        "seconds": 569
      }
    ],
    [
      25,
      8,
      {
        "cost": 152.79,
        "seconds": 340
      }
    ],
    [
      25,
      11,
      {
        "cost": 78.06,
        "seconds": 217
      }
    ],
    [
      25,
      10,
      {
        "cost": 84.50999999999999,
        "seconds": 228
      }
    ],
    [
      25,
      13,
      {
        "cost": 341.01,
        "seconds": 742
      }
    ],
    [
      25,
      12,
      {
        "cost": 19.83,
        "seconds": 57
      }
    ],
    [
      25,
      15,
      {
        "cost": 19.11,
        "seconds": 54
      }
    ],
    [
      25,
      14,
      {
        "cost": 242.07,
        "seconds": 578
      }
    ],
    [
      25,
      19,
      {
        "cost": 365.66999999999998,
        "seconds": 801
      }
    ],
    [
      25,
      18,
      {
        "cost": 223.47,
        "seconds": 522
      }
    ],
    [
      25,
      24,
      {
        "cost": 177.72,
        "seconds": 420
      }
    ],
    [
      26,
      2,
      {
        "cost": 262.46999999999999,
        "seconds": 564
      }
    ],
    [
      26,
      6,
      {
        "cost": 263.61,
        "seconds": 551
      }
    ],
    [
      26,
      8,
      {
        "cost": 126.33,
        "seconds": 284
      }
    ],
    [
      26,
      12,
      {
        "cost": 162.54,
        "seconds": 312
      }
    ],
    [
      26,
      18,
      {
        "cost": 87.03,
        "seconds": 240
      }
    ],
    [
      26,
      22,
      {
        "cost": 286.74,
        "seconds": 588
      }
    ],
    [
      27,
      1,
      {
        "cost": 302.15999999999999,
        "seconds": 640
      }
    ],
    [
      27,
      0,
      {
        "cost": 279.81,
        "seconds": 670
      }
    ],
    [
      27,
      3,
      {
        "cost": 138.87,
        "seconds": 370
      }
    ],
    [
      27,
      2,
      {
        "cost": 292.22999999999998,
        "seconds": 611
      }
    ],
    [
      27,
      5,
      {
        "cost": 59.97,
        "seconds": 148
      }
    ],
    [
      27,
      4,
      {
        "cost": 226.38,
        "seconds": 591
      }
    ],
    [
      27,
      7,
      {
        "cost": 370.77,
        "seconds": 776
      }
    ],
    [
      27,
      6,
      {
        "cost": 171.72,
        "seconds": 379
      }
    ],
    [
      27,
      9,
      {
        "cost": 325.2,
        "seconds": 687
      }
    ],
    [
      27,
      8,
      {
        "cost": 332.25,
        "seconds": 707
      }
    ],
    [
      27,
      11,
      {
        "cost": 433.32,
        "seconds": 892
      }
    ],
    [
      27,
      10,
      {
        "cost": 517.4399999999999,
        "seconds": 1099
      }
    ],
    [
      27,
      13,
      {
        "cost": 104.13,
        "seconds": 298
      }
    ],
    [
      27,
      12,
      {
        "cost": 452.72999999999998,
        "seconds": 928
      }
    ],
    [
      27,
      15,
      {
        "cost": 430.95,
        "seconds": 897
      }
    ],
    [
      27,
      17,
      {
        "cost": 191.79,
        "seconds": 422
      }
    ],
    [
      27,
      16,
      {
        "cost": 139.29,
        "seconds": 352
      }
    ],
    [
      27,
      19,
      {
        "cost": 309.69,
        "seconds": 722
      }
    ],
    [
      27,
      18,
      {
        "cost": 314.09999999999999,
        "seconds": 698
      }
    ],
    [
      27,
      21,
      {
        "cost": 224.01,
        "seconds": 631
      }
    ],
    [
      27,
      20,
      {
        "cost": 252.81,
        "seconds": 589
      }
    ],
    [
      27,
      23,
      {
        "cost": 365.13,
        "seconds": 775
      }
    ],
    [
      27,
      22,
      {
        "cost": 228.29999999999999,
        "seconds": 534
      }
    ],
    [
      27,
      26,
      {
        "cost": 390.51,
        "seconds": 820
      }
    ],
    [
      26,
      29,
      {
        "cost": 202.53,
        "seconds": 398
      }
    ],
    [
      28,
      27,
      {
        "cost": 384.24,
        "seconds": 841
      }
    ],
    [
      26,
      28,
      {
        "cost": 320.25,
        "seconds": 737
      }
    ],
    [
      29,
      27,
      {
        "cost": 325.74,
        "seconds": 895
      }
    ],
    [
      24,
      29,
      {
        "cost": 84.50999999999999,
        "seconds": 244
      }
    ],
    [
      28,
      25,
      {
        "cost": 399.75,
        "seconds": 890
      }
    ],
    [
      24,
      28,
      {
        "cost": 472.71,
        "seconds": 1104
      }
    ],
    [
      29,
      25,
      {
        "cost": 108.75,
        "seconds": 267
      }
    ],
    [
      22,
      29,
      {
        "cost": 315.57,
        "seconds": 683
      }
    ],
    [
      28,
      23,
      {
        "cost": 44.25,
        "seconds": 136
      }
    ],
    [
      22,
      28,
      {
        "cost": 201.35999999999999,
        "seconds": 510
      }
    ],
    [
      29,
      23,
      {
        "cost": 352.65,
        "seconds": 812
      }
    ],
    [
      20,
      29,
      {
        "cost": 441.35999999999998,
        "seconds": 963
      }
    ],
    [
      28,
      21,
      {
        "cost": 295.5,
        "seconds": 724
      }
    ],
    [
      20,
      28,
      {
        "cost": 199.62,
        "seconds": 496
      }
    ],
    [
      29,
      21,
      {
        "cost": 199.29,
        "seconds": 507
      }
    ],
    [
      18,
      29,
      {
        "cost": 224.67,
        "seconds": 549
      }
    ],
    [
      28,
      19,
      {
        "cost": 152.19,
        "seconds": 369
      }
    ],
    [
      18,
      28,
      {
        "cost": 255.81,
        "seconds": 636
      }
    ],
    [
      29,
      19,
      {
        "cost": 346.22999999999998,
        "seconds": 798
      }
    ],
    [
      16,
      29,
      {
        "cost": 498.9,
        "seconds": 1064
      }
    ],
    [
      28,
      17,
      {
        "cost": 236.91,
        "seconds": 593
      }
    ],
    [
      16,
      28,
      {
        "cost": 369.63,
        "seconds": 823
      }
    ],
    [
      29,
      17,
      {
        "cost": 247.44,
        "seconds": 589
      }
    ],
    [
      14,
      29,
      {
        "cost": 191.82,
        "seconds": 431
      }
    ],
    [
      28,
      15,
      {
        "cost": 387.36,
        "seconds": 853
      }
    ],
    [
      14,
      28,
      {
        "cost": 562.41,
        "seconds": 1298
      }
    ],
    [
      29,
      15,
      {
        "cost": 96.36,
        "seconds": 231
      }
    ],
    [
      12,
      29,
      {
        "cost": 100.5,
        "seconds": 255
      }
    ],
    [
      28,
      13,
      {
        "cost": 343.53,
        "seconds": 807
      }
    ],
    [
      12,
      28,
      {
        "cost": 418.53,
        "seconds": 937
      }
    ],
    [
      29,
      13,
      {
        "cost": 318.15,
        "seconds": 748
      }
    ],
    [
      10,
      29,
      {
        "cost": 142.44,
        "seconds": 379
      }
    ],
    [
      28,
      11,
      {
        "cost": 389.72999999999998,
        "seconds": 848
      }
    ],
    [
      10,
      28,
      {
        "cost": 483.21,
        "seconds": 1109
      }
    ],
    [
      29,
      11,
      {
        "cost": 114.99,
        "seconds": 268
      }
    ],
    [
      8,
      29,
      {
        "cost": 149.16,
        "seconds": 354
      }
    ],
    [
      28,
      9,
      {
        "cost": 213.9,
        "seconds": 516
      }
    ],
    [
      8,
      28,
      {
        "cost": 314.72999999999998,
        "seconds": 772
      }
    ],
    [
      29,
      9,
      {
        "cost": 266.46,
        "seconds": 580
      }
    ],
    [
      6,
      29,
      {
        "cost": 275.67,
        "seconds": 616
      }
    ],
    [
      28,
      7,
      {
        "cost": 327.18,
        "seconds": 732
      }
    ],
    [
      6,
      28,
      {
        "cost": 237.39,
        "seconds": 596
      }
    ],
    [
      29,
      7,
      {
        "cost": 185.48999999999999,
        "seconds": 430
      }
    ],
    [
      4,
      29,
      {
        "cost": 389.94,
        "seconds": 846
      }
    ],
    [
      28,
      5,
      {
        "cost": 344.84999999999999,
        "seconds": 753
      }
    ],
    [
      4,
      28,
      {
        "cost": 204.92999999999999,
        "seconds": 501
      }
    ],
    [
      29,
      5,
      {
        "cost": 334.86,
        "seconds": 781
      }
    ],
    [
      2,
      29,
      {
        "cost": 337.95,
        "seconds": 793
      }
    ],
    [
      28,
      3,
      {
        "cost": 354.06,
        "seconds": 816
      }
    ],
    [
      2,
      28,
      {
        "cost": 114.86999999999999,
        "seconds": 313
      }
    ],
    [
      29,
      3,
      {
        "cost": 435.99,
        "seconds": 1015
      }
    ],
    [
      0,
      29,
      {
        "cost": 276.78,
        "seconds": 635
      }
    ],
    [
      28,
      1,
      {
        "cost": 92.55,
        "seconds": 242
      }
    ],
    [
      0,
      28,
      {
        "cost": 131.91,
        "seconds": 369
      }
    ],
    [
      29,
      1,
      {
        "cost": 289.71,
        "seconds": 677
      }
    ]
  ]
}