{
  "nodes": [
    {
      "Delivery": {
        "bid": 959,
        "id": 25,
        "price": null,
        "cost": null,
        "direct_dist": 7879,
        "direct_cost": 237,
        "direct_time": 603
      }
    },
    {
      "Pickup": {
        "bid": 959,
        "id": 25,
        "price": null,
        "cost": null,
        "direct_dist": 7879,
        "direct_cost": 237,
        "direct_time": 603
      }
    },
    {
      "Delivery": {
        "bid": 2542,
        "id": 24,
        "price": null,
        "cost": null,
        "direct_dist": 9890,
        "direct_cost": 297,
        "direct_time": 581
      }
    },
    {
      "Pickup": {
        "bid": 2542,
        "id": 24,
        "price": null,
        "cost": null,
        "direct_dist": 9890,
        "direct_cost": 297,
        "direct_time": 581
      }
    },
    {
      "Delivery": {
        "bid": 2179,
        "id": 23,
        "price": null,
        "cost": null,
        "direct_dist": 7265,
        "direct_cost": 218,
        "direct_time": 475
      }
    },
    {
      "Pickup": {
        "bid": 2179,
        "id": 23,
        "price": null,
        "cost": null,
        "direct_dist": 7265,
        "direct_cost": 218,
        "direct_time": 475
      }
    },
    {
      "Delivery": {
        "bid": 1232,
        "id": 22,
        "price": null,
        "cost": null,
        "direct_dist": 16430,
        "direct_cost": 493,
        "direct_time": 1105
      }
    },
    {
      "Pickup": {
        "bid": 1232,
        "id": 22,
        "price": null,
        "cost": null,
        "direct_dist": 16430,
        "direct_cost": 493,
        "direct_time": 1105
      }
    },
    {
      "Delivery": {
        "bid": 1998,
        "id": 21,
        "price": null,
        "cost": null,
        "direct_dist": 6663,
        "direct_cost": 200,
        "direct_time": 477
      }
    },
    {
      "Pickup": {
        "bid": 1998,
        "id": 21,
        "price": null,
        "cost": null,
        "direct_dist": 6663,
        "direct_cost": 200,
        "direct_time": 477
      }
    },
    {
      "Delivery": {
        "bid": 1120,
        "id": 19,
        "price": null,
        "cost": null,
        "direct_dist": 10360,
        "direct_cost": 311,
        "direct_time": 695
      }
    },
    {
      "Pickup": {
        "bid": 1120,
        "id": 19,
        "price": null,
        "cost": null,
        "direct_dist": 10360,
        "direct_cost": 311,
        "direct_time": 695
      }
    },
    {
      "Delivery": {
        "bid": 2608,
        "id": 17,
        "price": null,
        "cost": null,
        "direct_dist": 9546,
        "direct_cost": 287,
        "direct_time": 634
      }
    },
    {
      "Pickup": {
        "bid": 2608,
        "id": 17,
        "price": null,
        "cost": null,
        "direct_dist": 9546,
        "direct_cost": 287,
        "direct_time": 634
      }
    },
    {
      "Delivery": {
        "bid": 1866,
        "id": 16,
        "price": null,
        "cost": null,
        "direct_dist": 6223,
        "direct_cost": 187,
        "direct_time": 422
      }
    },
    {
      "Pickup": {
        "bid": 1866,
        "id": 16,
        "price": null,
        "cost": null,
        "direct_dist": 6223,
        "direct_cost": 187,
        "direct_time": 422
      }
    },
    {
      "Delivery": {
        "bid": 1004,
        "id": 14,
        "price": null,
        "cost": null,
        "direct_dist": 10004,
        "direct_cost": 301,
        "direct_time": 688
      }
    },
    {
      "Pickup": {
        "bid": 1004,
        "id": 14,
        "price": null,
        "cost": null,
        "direct_dist": 10004,
        "direct_cost": 301,
        "direct_time": 688
      }
    },
    {
      "Delivery": {
        "bid": 2080,
        "id": 13,
        "price": null,
        "cost": null,
        "direct_dist": 6935,
        "direct_cost": 209,
        "direct_time": 672
      }
    },
    {
      "Pickup": {
        "bid": 2080,
        "id": 13,
        "price": null,
        "cost": null,
        "direct_dist": 6935,
        "direct_cost": 209,
        "direct_time": 672
      }
    },
    {
      "Delivery": {
        "bid": 157,
        "id": 11,
        "price": null,
        "cost": null,
        "direct_dist": 1318,
        "direct_cost": 40,
        "direct_time": 101
      }
    },
    {
      "Pickup": {
        "bid": 157,
        "id": 11,
        "price": null,
        "cost": null,
        "direct_dist": 1318,
        "direct_cost": 40,
        "direct_time": 101
      }
    },
    {
      "Delivery": {
        "bid": 2667,
        "id": 9,
        "price": null,
        "cost": null,
        "direct_dist": 9427,
        "direct_cost": 283,
        "direct_time": 620
      }
    },
    {
      "Pickup": {
        "bid": 2667,
        "id": 9,
        "price": null,
        "cost": null,
        "direct_dist": 9427,
        "direct_cost": 283,
        "direct_time": 620
      }
    },
    {
      "Delivery": {
        "bid": 46,
        "id": 8,
        "price": null,
        "cost": null,
        "direct_dist": 7652,
        "direct_cost": 230,
        "direct_time": 465
      }
    },
    {
      "Pickup": {
        "bid": 46,
        "id": 8,
        "price": null,
        "cost": null,
        "direct_dist": 7652,
        "direct_cost": 230,
        "direct_time": 465
      }
    },
    {
      "Delivery": {
        "bid": 1003,
        "id": 7,
        "price": null,
        "cost": null,
        "direct_dist": 3346,
        "direct_cost": 101,
        "direct_time": 293
      }
    },
    {
      "Pickup": {
        "bid": 1003,
        "id": 7,
        "price": null,
        "cost": null,
        "direct_dist": 3346,
        "direct_cost": 101,
        "direct_time": 293
      }
    },
    {
      "Delivery": {
        "bid": 1179,
        "id": 2,
        "price": null,
        "cost": null,
        "direct_dist": 11349,
        "direct_cost": 341,
        "direct_time": 728
      }
    },
    {
      "Pickup": {
        "bid": 1179,
        "id": 2,
        "price": null,
        "cost": null,
        "direct_dist": 11349,
        "direct_cost": 341,
        "direct_time": 728
      }
    },
    {
      "Delivery": {
        "bid": 5629,
        "id": 1,
        "price": null,
        "cost": null,
        "direct_dist": 18766,
        "direct_cost": 563,
        "direct_time": 1124
      }
    },
    {
      "Pickup": {
        "bid": 5629,
        "id": 1,
        "price": null,
        "cost": null,
        "direct_dist": 18766,
        "direct_cost": 563,
        "direct_time": 1124
      }
    },
    {
      "DriverStart": {
        "arrive_until": 2400,
        "direct_cost": 472
      }
    },
    {
      "DriverEnd": {
        "arrive_until": 2400,
        "direct_cost": 472
      }
    }
  ],
  "node_holes": [],
  "edge_property": "directed",
  "edges": [
    [
      0,
      12,
      {
        "cost": 371.25,
        "seconds": 894
      }
    ],
    [
      0,
      16,
      {
        "cost": 319.5,
        "seconds": 822
      }
    ],
    [
      0,
      24,
      {
        "cost": 198.72,
        "seconds": 481
      }
    ],
    [
      0,
      22,
      {
        "cost": 301.34999999999999,
        "seconds": 694
      }
    ],
    [
      0,
      8,
      {
        "cost": 134.13,
        "seconds": 372
      }
    ],
    [
      0,
      4,
      {
        "cost": 167.1,
        "seconds": 442
      }
    ],
    [
      0,
      30,
      {
        "cost": 235.04999999999999,
        "seconds": 578
      }
    ],
    [
      0,
      2,
      {
        "cost": 325.65,
        "seconds": 825
      }
    ],
    [
      0,
      6,
      {
        "cost": 181.70999999999999,
        "seconds": 506
      }
    ],
    [
      0,
      10,
      {
        "cost": 307.77,
        "seconds": 739
      }
    ],
    [
      0,
      26,
      {
        "cost": 79.28999999999999,
        "seconds": 275
      }
    ],
    [
      0,
      28,
      {
        "cost": 148.10999999999999,
        "seconds": 359
      }
    ],
    [
      0,
      18,
      {
        "cost": 193.44,
        "seconds": 597
      }
    ],
    [
      0,
      19,
      {
        "cost": 57.39,
        "seconds": 197
      }
    ],
    [
      1,
      12,
      {
        "cost": 167.64,
        "seconds": 383
      }
    ],
    [
      1,
      14,
      {
        "cost": 155.60999999999999,
        "seconds": 413
      }
    ],
    [
      1,
      24,
      {
        "cost": 293.61,
        "seconds": 602
      }
    ],
    [
      1,
      16,
      {
        "cost": 117.44999999999999,
        "seconds": 316
      }
    ],
    [
      1,
      22,
      {
        "cost": 308.15999999999999,
        "seconds": 711
      }
    ],
    [
      1,
      20,
      {
        "cost": 245.25,
        "seconds": 556
      }
    ],
    [
      1,
      17,
      {
        "cost": 237.95999999999999,
        "seconds": 588
      }
    ],
    [
      1,
      13,
      {
        "cost": 198.95999999999999,
        "seconds": 464
      }
    ],
    [
      1,
      15,
      {
        "cost": 107.31,
        "seconds": 304
      }
    ],
    [
      1,
      25,
      {
        "cost": 192.03,
        "seconds": 453
      }
    ],
    [
      1,
      8,
      {
        "cost": 306.84,
        "seconds": 671
      }
    ],
    [
      1,
      23,
      {
        "cost": 194.13,
        "seconds": 411
      }
    ],
    [
      1,
      4,
      {
        "cost": 126.81,
        "seconds": 339
      }
    ],
    [
      1,
      21,
      {
        "cost": 247.32,
        "seconds": 584
      }
    ],
    [
      1,
      9,
      {
        "cost": 172.35,
        "seconds": 442
      }
    ],
    [
      1,
      31,
      {
        "cost": 248.85,
        "seconds": 560
      }
    ],
    [
      1,
      5,
      {
        "cost": 289.65,
        "seconds": 593
      }
    ],
    [
      1,
      26,
      {
        "cost": 201.78,
        "seconds": 550
      }
    ],
    [
      1,
      2,
      {
        "cost": 123.6,
        "seconds": 319
      }
    ],
    [
      1,
      18,
      {
        "cost": 84.84,
        "seconds": 307
      }
    ],
    [
      1,
      28,
      {
        "cost": 329.55,
        "seconds": 762
      }
    ],
    [
      1,
      7,
      {
        "cost": 165.78,
        "seconds": 389
      }
    ],
    [
      1,
      11,
      {
        "cost": 36.96,
        "seconds": 137
      }
    ],
    [
      1,
      29,
      {
        "cost": 78.0,
        "seconds": 183
      }
    ],
    [
      1,
      3,
      {
        "cost": 214.35,
        "seconds": 436
      }
    ],
    [
      1,
      19,
      {
        "cost": 290.82,
        "seconds": 687
      }
    ],
    [
      1,
      27,
      {
        "cost": 135.54,
        "seconds": 365
      }
    ],
    [
      1,
      0,
      {
        "cost": 236.37,
        "seconds": 603
      }
    ],
    [
      2,
      0,
      {
        "cost": 348.84,
        "seconds": 853
      }
    ],
    [
      2,
      30,
      {
        "cost": 579.12,
        "seconds": 1205
      }
    ],
    [
      2,
      28,
      {
        "cost": 444.84,
        "seconds": 988
      }
    ],
    [
      2,
      22,
      {
        "cost": 436.91999999999998,
        "seconds": 904
      }
    ],
    [
      2,
      29,
      {
        "cost": 117.75,
        "seconds": 293
      }
    ],
    [
      2,
      10,
      {
        "cost": 451.71,
        "seconds": 1017
      }
    ],
    [
      2,
      4,
      {
        "cost": 258.71999999999999,
        "seconds": 587
      }
    ],
    [
      2,
      14,
      {
        "cost": 149.88,
        "seconds": 440
      }
    ],
    [
      2,
      6,
      {
        "cost": 464.88,
        "seconds": 1054
      }
    ],
    [
      2,
      7,
      {
        "cost": 119.33999999999999,
        "seconds": 268
      }
    ],
    [
      2,
      18,
      {
        "cost": 222.17999999999999,
        "seconds": 557
      }
    ],
    [
      2,
      12,
      {
        "cost": 141.69,
        "seconds": 327
      }
    ],
    [
      2,
      16,
      {
        "cost": 42.629999999999998,
        "seconds": 103
      }
    ],
    [
      3,
      1,
      {
        "cost": 222.92999999999999,
        "seconds": 474
      }
    ],
    [
      3,
      26,
      {
        "cost": 205.23,
        "seconds": 510
      }
    ],
    [
      3,
      24,
      {
        "cost": 244.01999999999999,
        "seconds": 496
      }
    ],
    [
      3,
      27,
      {
        "cost": 136.44,
        "seconds": 293
      }
    ],
    [
      3,
      22,
      {
        "cost": 156.03,
        "seconds": 387
      }
    ],
    [
      3,
      31,
      {
        "cost": 209.13,
        "seconds": 482
      }
    ],
    [
      3,
      29,
      {
        "cost": 236.91,
        "seconds": 435
      }
    ],
    [
      3,
      25,
      {
        "cost": 44.01,
        "seconds": 85
      }
    ],
    [
      3,
      23,
      {
        "cost": 154.41,
        "seconds": 333
      }
    ],
    [
      3,
      14,
      {
        "cost": 180.93,
        "seconds": 389
      }
    ],
    [
      3,
      20,
      {
        "cost": 126.69,
        "seconds": 265
      }
    ],
    [
      3,
      4,
      {
        "cost": 138.72,
        "seconds": 296
      }
    ],
    [
      3,
      11,
      {
        "cost": 188.13,
        "seconds": 401
      }
    ],
    [
      3,
      15,
      {
        "cost": 112.17,
        "seconds": 278
      }
    ],
    [
      3,
      7,
      {
        "cost": 308.4,
        "seconds": 704
      }
    ],
    [
      3,
      21,
      {
        "cost": 140.28,
        "seconds": 318
      }
    ],
    [
      3,
      12,
      {
        "cost": 306.71999999999999,
        "seconds": 701
      }
    ],
    [
      3,
      5,
      {
        "cost": 240.06,
        "seconds": 487
      }
    ],
    [
      3,
      18,
      {
        "cost": 213.75,
        "seconds": 511
      }
    ],
    [
      3,
      8,
      {
        "cost": 257.25,
        "seconds": 565
      }
    ],
    [
      3,
      16,
      {
        "cost": 290.55,
        "seconds": 578
      }
    ],
    [
      3,
      19,
      {
        "cost": 265.05,
        "seconds": 561
      }
    ],
    [
      3,
      9,
      {
        "cost": 66.84,
        "seconds": 127
      }
    ],
    [
      3,
      17,
      {
        "cost": 212.19,
        "seconds": 463
      }
    ],
    [
      3,
      13,
      {
        "cost": 80.19,
        "seconds": 161
      }
    ],
    [
      3,
      2,
      {
        "cost": 296.7,
        "seconds": 581
      }
    ],
    [
      4,
      0,
      {
        "cost": 172.56,
        "seconds": 457
      }
    ],
    [
      4,
      1,
      {
        "cost": 162.57,
        "seconds": 388
      }
    ],
    [
      4,
      2,
      {
        "cost": 243.17999999999999,
        "seconds": 560
      }
    ],
    [
      4,
      30,
      {
        "cost": 387.9,
        "seconds": 800
      }
    ],
    [
      4,
      28,
      {
        "cost": 243.23999999999999,
        "seconds": 580
      }
    ],
    [
      4,
      26,
      {
        "cost": 106.71,
        "seconds": 289
      }
    ],
    [
      4,
      29,
      {
        "cost": 167.31,
        "seconds": 393
      }
    ],
    [
      4,
      12,
      {
        "cost": 278.88,
        "seconds": 658
      }
    ],
    [
      4,
      27,
      {
        "cost": 46.62,
        "seconds": 153
      }
    ],
    [
      4,
      22,
      {
        "cost": 221.28,
        "seconds": 554
      }
    ],
    [
      4,
      13,
      {
        "cost": 140.91,
        "seconds": 348
      }
    ],
    [
      4,
      14,
      {
        "cost": 244.92,
        "seconds": 544
      }
    ],
    [
      4,
      20,
      {
        "cost": 164.97,
        "seconds": 388
      }
    ],
    [
      4,
      24,
      {
        "cost": 198.12,
        "seconds": 422
      }
    ],
    [
      4,
      15,
      {
        "cost": 103.22999999999999,
        "seconds": 271
      }
    ],
    [
      4,
      21,
      {
        "cost": 167.01,
        "seconds": 416
      }
    ],
    [
      4,
      25,
      {
        "cost": 140.94,
        "seconds": 341
      }
    ],
    [
      4,
      16,
      {
        "cost": 237.03,
        "seconds": 557
      }
    ],
    [
      4,
      10,
      {
        "cost": 253.53,
        "seconds": 600
      }
    ],
    [
      4,
      18,
      {
        "cost": 105.42,
        "seconds": 318
      }
    ],
    [
      4,
      6,
      {
        "cost": 273.69,
        "seconds": 649
      }
    ],
    [
      4,
      8,
      {
        "cost": 211.35,
        "seconds": 491
      }
    ],
    [
      4,
      17,
      {
        "cost": 151.62,
        "seconds": 407
      }
    ],
    [
      4,
      11,
      {
        "cost": 127.74,
        "seconds": 315
      }
    ],
    [
      4,
      9,
      {
        "cost": 133.01999999999999,
        "seconds": 330
      }
    ],
    [
      5,
      1,
      {
        "cost": 310.92,
        "seconds": 701
      }
    ],
    [
      5,
      0,
      {
        "cost": 205.41,
        "seconds": 474
      }
    ],
    [
      5,
      3,
      {
        "cost": 255.17999999999999,
        "seconds": 513
      }
    ],
    [
      5,
      26,
      {
        "cost": 168.57,
        "seconds": 463
      }
    ],
    [
      5,
      31,
      {
        "cost": 388.8,
        "seconds": 854
      }
    ],
    [
      5,
      28,
      {
        "cost": 154.35,
        "seconds": 342
      }
    ],
    [
      5,
      29,
      {
        "cost": 314.55,
        "seconds": 680
      }
    ],
    [
      5,
      22,
      {
        "cost": 131.88,
        "seconds": 291
      }
    ],
    [
      5,
      27,
      {
        "cost": 184.85999999999999,
        "seconds": 413
      }
    ],
    [
      5,
      14,
      {
        "cost": 377.09999999999999,
        "seconds": 810
      }
    ],
    [
      5,
      20,
      {
        "cost": 150.45,
        "seconds": 336
      }
    ],
    [
      5,
      24,
      {
        "cost": 3.9899999999999999,
        "seconds": 9
      }
    ],
    [
      5,
      13,
      {
        "cost": 176.34,
        "seconds": 364
      }
    ],
    [
      5,
      23,
      {
        "cost": 334.08,
        "seconds": 705
      }
    ],
    [
      5,
      15,
      {
        "cost": 229.29,
        "seconds": 496
      }
    ],
    [
      5,
      25,
      {
        "cost": 241.35,
        "seconds": 498
      }
    ],
    [
      5,
      21,
      {
        "cost": 124.67999999999999,
        "seconds": 311
      }
    ],
    [
      5,
      18,
      {
        "cost": 273.3,
        "seconds": 692
      }
    ],
    [
      5,
      10,
      {
        "cost": 144.39,
        "seconds": 310
      }
    ],
    [
      5,
      16,
      {
        "cost": 384.3,
        "seconds": 844
      }
    ],
    [
      5,
      8,
      {
        "cost": 40.47,
        "seconds": 96
      }
    ],
    [
      5,
      17,
      {
        "cost": 98.7,
        "seconds": 234
      }
    ],
    [
      5,
      19,
      {
        "cost": 151.53,
        "seconds": 347
      }
    ],
    [
      5,
      11,
      {
        "cost": 276.09,
        "seconds": 628
      }
    ],
    [
      5,
      9,
      {
        "cost": 188.51999999999999,
        "seconds": 391
      }
    ],
    [
      5,
      4,
      {
        "cost": 217.95,
        "seconds": 475
      }
    ],
    [
      6,
      30,
      {
        "cost": 97.74,
        "seconds": 266
      }
    ],
    [
      6,
      28,
      {
        "cost": 168.48,
        "seconds": 378
      }
    ],
    [
      6,
      24,
      {
        "cost": 87.3,
        "seconds": 232
      }
    ],
    [
      6,
      8,
      {
        "cost": 95.88,
        "seconds": 229
      }
    ],
    [
      6,
      10,
      {
        "cost": 193.59,
        "seconds": 420
      }
    ],
    [
      7,
      1,
      {
        "cost": 173.43,
        "seconds": 418
      }
    ],
    [
      7,
      0,
      {
        "cost": 365.46,
        "seconds": 881
      }
    ],
    [
      7,
      3,
      {
        "cost": 344.28,
        "seconds": 688
      }
    ],
    [
      7,
      2,
      {
        "cost": 108.66,
        "seconds": 272
      }
    ],
    [
      7,
      5,
      {
        "cost": 413.37,
        "seconds": 870
      }
    ],
    [
      7,
      30,
      {
        "cost": 607.11,
        "seconds": 1256
      }
    ],
    [
      7,
      28,
      {
        "cost": 472.85999999999998,
        "seconds": 1039
      }
    ],
    [
      7,
      14,
      {
        "cost": 236.57999999999999,
        "seconds": 626
      }
    ],
    [
      7,
      24,
      {
        "cost": 417.35999999999998,
        "seconds": 878
      }
    ],
    [
      7,
      8,
      {
        "cost": 430.56,
        "seconds": 947
      }
    ],
    [
      7,
      31,
      {
        "cost": 255.45,
        "seconds": 615
      }
    ],
    [
      7,
      29,
      {
        "cost": 168.51,
        "seconds": 397
      }
    ],
    [
      7,
      16,
      {
        "cost": 122.39999999999999,
        "seconds": 299
      }
    ],
    [
      7,
      15,
      {
        "cost": 243.29999999999999,
        "seconds": 601
      }
    ],
    [
      7,
      26,
      {
        "cost": 347.84999999999999,
        "seconds": 855
      }
    ],
    [
      7,
      10,
      {
        "cost": 479.72999999999998,
        "seconds": 1069
      }
    ],
    [
      7,
      20,
      {
        "cost": 377.66999999999998,
        "seconds": 849
      }
    ],
    [
      7,
      25,
      {
        "cost": 315.75,
        "seconds": 730
      }
    ],
    [
      7,
      12,
      {
        "cost": 36.629999999999998,
        "seconds": 136
      }
    ],
    [
      7,
      17,
      {
        "cost": 377.82,
        "seconds": 875
      }
    ],
    [
      7,
      22,
      {
        "cost": 440.58,
        "seconds": 1005
      }
    ],
    [
      7,
      27,
      {
        "cost": 281.58,
        "seconds": 669
      }
    ],
    [
      7,
      21,
      {
        "cost": 379.71,
        "seconds": 877
      }
    ],
    [
      7,
      11,
      {
        "cost": 187.35,
        "seconds": 460
      }
    ],
    [
      7,
      9,
      {
        "cost": 296.07,
        "seconds": 718
      }
    ],
    [
      7,
      13,
      {
        "cost": 322.68,
        "seconds": 740
      }
    ],
    [
      7,
      23,
      {
        "cost": 284.64,
        "seconds": 625
      }
    ],
    [
      7,
      6,
      {
        "cost": 492.9,
        "seconds": 1105
      }
    ],
    [
      8,
      0,
      {
        "cost": 159.81,
        "seconds": 411
      }
    ],
    [
      8,
      2,
      {
        "cost": 373.59,
        "seconds": 879
      }
    ],
    [
      8,
      4,
      {
        "cost": 201.12,
        "seconds": 506
      }
    ],
    [
      8,
      5,
      {
        "cost": 49.019999999999999,
        "seconds": 155
      }
    ],
    [
      8,
      6,
      {
        "cost": 76.35,
        "seconds": 255
      }
    ],
    [
      8,
      12,
      {
        "cost": 417.75,
        "seconds": 960
      }
    ],
    [
      8,
      13,
      {
        "cost": 171.18,
        "seconds": 395
      }
    ],
    [
      8,
      10,
      {
        "cost": 189.23999999999999,
        "seconds": 427
      }
    ],
    [
      8,
      18,
      {
        "cost": 256.46999999999999,
        "seconds": 723
      }
    ],
    [
      8,
      22,
      {
        "cost": 176.7,
        "seconds": 408
      }
    ],
    [
      8,
      30,
      {
        "cost": 175.47,
        "seconds": 395
      }
    ],
    [
      8,
      19,
      {
        "cost": 105.96,
        "seconds": 283
      }
    ],
    [
      8,
      28,
      {
        "cost": 108.75,
        "seconds": 278
      }
    ],
    [
      8,
      16,
      {
        "cost": 367.46999999999999,
        "seconds": 876
      }
    ],
    [
      8,
      17,
      {
        "cost": 96.03,
        "seconds": 261
      }
    ],
    [
      8,
      14,
      {
        "cost": 372.03,
        "seconds": 839
      }
    ],
    [
      8,
      26,
      {
        "cost": 145.32,
        "seconds": 471
      }
    ],
    [
      8,
      24,
      {
        "cost": 53.01,
        "seconds": 164
      }
    ],
    [
      8,
      20,
      {
        "cost": 169.53,
        "seconds": 377
      }
    ],
    [
      8,
      21,
      {
        "cost": 171.6,
        "seconds": 404
      }
    ],
    [
      9,
      1,
      {
        "cost": 165.57,
        "seconds": 386
      }
    ],
    [
      9,
      0,
      {
        "cost": 261.87,
        "seconds": 602
      }
    ],
    [
      9,
      3,
      {
        "cost": 82.35,
        "seconds": 169
      }
    ],
    [
      9,
      5,
      {
        "cost": 182.7,
        "seconds": 399
      }
    ],
    [
      9,
      4,
      {
        "cost": 90.24,
        "seconds": 219
      }
    ],
    [
      9,
      7,
      {
        "cost": 282.51,
        "seconds": 631
      }
    ],
    [
      9,
      6,
      {
        "cost": 262.23,
        "seconds": 635
      }
    ],
    [
      9,
      13,
      {
        "cost": 37.92,
        "seconds": 113
      }
    ],
    [
      9,
      10,
      {
        "cost": 241.41,
        "seconds": 541
      }
    ],
    [
      9,
      18,
      {
        "cost": 156.39,
        "seconds": 423
      }
    ],
    [
      9,
      22,
      {
        "cost": 163.59,
        "seconds": 386
      }
    ],
    [
      9,
      11,
      {
        "cost": 130.76999999999999,
        "seconds": 313
      }
    ],
    [
      9,
      19,
      {
        "cost": 207.69,
        "seconds": 473
      }
    ],
    [
      9,
      31,
      {
        "cost": 217.44,
        "seconds": 525
      }
    ],
    [
      9,
      23,
      {
        "cost": 162.75,
        "seconds": 377
      }
    ],
    [
      9,
      28,
      {
        "cost": 246.42,
        "seconds": 548
      }
    ],
    [
      9,
      14,
      {
        "cost": 236.22,
        "seconds": 480
      }
    ],
    [
      9,
      29,
      {
        "cost": 160.79999999999999,
        "seconds": 379
      }
    ],
    [
      9,
      17,
      {
        "cost": 154.82999999999999,
        "seconds": 375
      }
    ],
    [
      9,
      26,
      {
        "cost": 147.87,
        "seconds": 422
      }
    ],
    [
      9,
      24,
      {
        "cost": 186.66,
        "seconds": 408
      }
    ],
    [
      9,
      20,
      {
        "cost": 100.67999999999999,
        "seconds": 231
      }
    ],
    [
      9,
      15,
      {
        "cost": 75.53999999999999,
        "seconds": 194
      }
    ],
    [
      9,
      27,
      {
        "cost": 79.08,
        "seconds": 205
      }
    ],
    [
      9,
      25,
      {
        "cost": 70.02,
        "seconds": 169
      }
    ],
    [
      9,
      21,
      {
        "cost": 102.75,
        "seconds": 259
      }
    ],
    [
      9,
      8,
      {
        "cost": 199.89,
        "seconds": 477
      }
    ],
    [
      10,
      4,
      {
        "cost": 300.71999999999999,
        "seconds": 659
      }
    ],
    [
      10,
      6,
      {
        "cost": 243.09,
        "seconds": 544
      }
    ],
    [
      10,
      8,
      {
        "cost": 203.48999999999999,
        "seconds": 471
      }
    ],
    [
      10,
      30,
      {
        "cost": 281.46,
        "seconds": 577
      }
    ],
    [
      10,
      24,
      {
        "cost": 177.12,
        "seconds": 433
      }
    ],
    [
      10,
      28,
      {
        "cost": 317.37,
        "seconds": 717
      }
    ],
    [
      10,
      22,
      {
        "cost": 104.7,
        "seconds": 215
      }
    ],
    [
      10,
      18,
      {
        "cost": 366.0,
        "seconds": 835
      }
    ],
    [
      11,
      1,
      {
        "cost": 35.519999999999999,
        "seconds": 134
      }
    ],
    [
      11,
      0,
      {
        "cost": 225.29999999999999,
        "seconds": 592
      }
    ],
    [
      11,
      3,
      {
        "cost": 194.48999999999999,
        "seconds": 398
      }
    ],
    [
      11,
      2,
      {
        "cost": 140.57999999999999,
        "seconds": 369
      }
    ],
    [
      11,
      5,
      {
        "cost": 244.47,
        "seconds": 496
      }
    ],
    [
      11,
      4,
      {
        "cost": 117.83999999999999,
        "seconds": 265
      }
    ],
    [
      11,
      7,
      {
        "cost": 175.26,
        "seconds": 439
      }
    ],
    [
      11,
      6,
      {
        "cost": 324.0,
        "seconds": 732
      }
    ],
    [
      11,
      9,
      {
        "cost": 127.17,
        "seconds": 345
      }
    ],
    [
      11,
      8,
      {
        "cost": 261.65999999999999,
        "seconds": 574
      }
    ],
    [
      11,
      26,
      {
        "cost": 178.92,
        "seconds": 482
      }
    ],
    [
      11,
      24,
      {
        "cost": 248.42999999999999,
        "seconds": 505
      }
    ],
    [
      11,
      14,
      {
        "cost": 169.17,
        "seconds": 388
      }
    ],
    [
      11,
      27,
      {
        "cost": 112.64999999999999,
        "seconds": 296
      }
    ],
    [
      11,
      31,
      {
        "cost": 228.0,
        "seconds": 558
      }
    ],
    [
      11,
      28,
      {
        "cost": 303.96,
        "seconds": 666
      }
    ],
    [
      11,
      22,
      {
        "cost": 271.68,
        "seconds": 631
      }
    ],
    [
      11,
      18,
      {
        "cost": 91.56,
        "seconds": 265
      }
    ],
    [
      11,
      25,
      {
        "cost": 151.2,
        "seconds": 369
      }
    ],
    [
      11,
      29,
      {
        "cost": 91.56,
        "seconds": 237
      }
    ],
    [
      11,
      15,
      {
        "cost": 74.39999999999999,
        "seconds": 228
      }
    ],
    [
      11,
      23,
      {
        "cost": 206.76,
        "seconds": 450
      }
    ],
    [
      11,
      19,
      {
        "cost": 265.23,
        "seconds": 591
      }
    ],
    [
      11,
      20,
      {
        "cost": 208.73999999999999,
        "seconds": 476
      }
    ],
    [
      11,
      21,
      {
        "cost": 210.81,
        "seconds": 504
      }
    ],
    [
      11,
      10,
      {
        "cost": 310.8,
        "seconds": 695
      }
    ],
    [
      12,
      0,
      {
        "cost": 329.90999999999999,
        "seconds": 768
      }
    ],
    [
      12,
      2,
      {
        "cost": 94.41,
        "seconds": 233
      }
    ],
    [
      12,
      4,
      {
        "cost": 251.25,
        "seconds": 569
      }
    ],
    [
      12,
      7,
      {
        "cost": 56.19,
        "seconds": 145
      }
    ],
    [
      12,
      6,
      {
        "cost": 474.69,
        "seconds": 1061
      }
    ],
    [
      12,
      16,
      {
        "cost": 108.14999999999999,
        "seconds": 261
      }
    ],
    [
      12,
      14,
      {
        "cost": 222.35999999999999,
        "seconds": 587
      }
    ],
    [
      12,
      30,
      {
        "cost": 588.9,
        "seconds": 1212
      }
    ],
    [
      12,
      18,
      {
        "cost": 205.47,
        "seconds": 488
      }
    ],
    [
      12,
      28,
      {
        "cost": 454.65,
        "seconds": 995
      }
    ],
    [
      13,
      1,
      {
        "cost": 171.15,
        "seconds": 392
      }
    ],
    [
      13,
      0,
      {
        "cost": 248.97,
        "seconds": 553
      }
    ],
    [
      13,
      3,
      {
        "cost": 99.11999999999999,
        "seconds": 203
      }
    ],
    [
      13,
      2,
      {
        "cost": 242.25,
        "seconds": 552
      }
    ],
    [
      13,
      5,
      {
        "cost": 169.79999999999999,
        "seconds": 351
      }
    ],
    [
      13,
      4,
      {
        "cost": 95.78999999999999,
        "seconds": 226
      }
    ],
    [
      13,
      7,
      {
        "cost": 288.09,
        "seconds": 637
      }
    ],
    [
      13,
      9,
      {
        "cost": 32.46,
        "seconds": 81
      }
    ],
    [
      13,
      8,
      {
        "cost": 186.98999999999999,
        "seconds": 428
      }
    ],
    [
      13,
      24,
      {
        "cost": 173.76,
        "seconds": 359
      }
    ],
    [
      13,
      16,
      {
        "cost": 236.1,
        "seconds": 550
      }
    ],
    [
      13,
      20,
      {
        "cost": 69.12,
        "seconds": 168
      }
    ],
    [
      13,
      17,
      {
        "cost": 137.13,
        "seconds": 330
      }
    ],
    [
      13,
      25,
      {
        "cost": 85.32,
        "seconds": 188
      }
    ],
    [
      13,
      14,
      {
        "cost": 221.04,
        "seconds": 499
      }
    ],
    [
      13,
      21,
      {
        "cost": 71.19,
        "seconds": 196
      }
    ],
    [
      13,
      22,
      {
        "cost": 125.46,
        "seconds": 334
      }
    ],
    [
      13,
      26,
      {
        "cost": 153.42,
        "seconds": 429
      }
    ],
    [
      13,
      18,
      {
        "cost": 161.94,
        "seconds": 429
      }
    ],
    [
      13,
      31,
      {
        "cost": 232.73999999999999,
        "seconds": 544
      }
    ],
    [
      13,
      15,
      {
        "cost": 81.11999999999999,
        "seconds": 201
      }
    ],
    [
      13,
      29,
      {
        "cost": 166.38,
        "seconds": 385
      }
    ],
    [
      13,
      23,
      {
        "cost": 178.01999999999999,
        "seconds": 395
      }
    ],
    [
      13,
      19,
      {
        "cost": 194.79,
        "seconds": 425
      }
    ],
    [
      13,
      27,
      {
        "cost": 84.63,
        "seconds": 211
      }
    ],
    [
      13,
      12,
      {
        "cost": 286.38,
        "seconds": 634
      }
    ],
    [
      14,
      0,
      {
        "cost": 335.25,
        "seconds": 781
      }
    ],
    [
      14,
      1,
      {
        "cost": 146.22,
        "seconds": 367
      }
    ],
    [
      14,
      2,
      {
        "cost": 156.51,
        "seconds": 379
      }
    ],
    [
      14,
      3,
      {
        "cost": 158.28,
        "seconds": 339
      }
    ],
    [
      14,
      4,
      {
        "cost": 227.76,
        "seconds": 453
      }
    ],
    [
      14,
      6,
      {
        "cost": 433.91999999999998,
        "seconds": 921
      }
    ],
    [
      14,
      8,
      {
        "cost": 371.58,
        "seconds": 762
      }
    ],
    [
      14,
      10,
      {
        "cost": 379.46999999999999,
        "seconds": 812
      }
    ],
    [
      14,
      11,
      {
        "cost": 155.64,
        "seconds": 333
      }
    ],
    [
      14,
      12,
      {
        "cost": 224.25,
        "seconds": 547
      }
    ],
    [
      14,
      30,
      {
        "cost": 548.13,
        "seconds": 1072
      }
    ],
    [
      14,
      26,
      {
        "cost": 288.87,
        "seconds": 670
      }
    ],
    [
      14,
      28,
      {
        "cost": 413.88,
        "seconds": 854
      }
    ],
    [
      14,
      31,
      {
        "cost": 85.02,
        "seconds": 266
      }
    ],
    [
      14,
      18,
      {
        "cost": 201.51,
        "seconds": 453
      }
    ],
    [
      14,
      29,
      {
        "cost": 92.91,
        "seconds": 202
      }
    ],
    [
      14,
      24,
      {
        "cost": 358.38,
        "seconds": 694
      }
    ],
    [
      14,
      20,
      {
        "cost": 272.34,
        "seconds": 537
      }
    ],
    [
      14,
      22,
      {
        "cost": 301.68,
        "seconds": 658
      }
    ],
    [
      14,
      16,
      {
        "cost": 120.89999999999999,
        "seconds": 329
      }
    ],
    [
      14,
      23,
      {
        "cost": 87.92999999999999,
        "seconds": 228
      }
    ],
    [
      15,
      1,
      {
        "cost": 107.03999999999999,
        "seconds": 320
      }
    ],
    [
      15,
      3,
      {
        "cost": 121.17,
        "seconds": 303
      }
    ],
    [
      15,
      2,
      {
        "cost": 184.95,
        "seconds": 438
      }
    ],
    [
      15,
      5,
      {
        "cost": 196.62,
        "seconds": 399
      }
    ],
    [
      15,
      4,
      {
        "cost": 69.99,
        "seconds": 167
      }
    ],
    [
      15,
      7,
      {
        "cost": 230.76,
        "seconds": 523
      }
    ],
    [
      15,
      9,
      {
        "cost": 63.599999999999997,
        "seconds": 206
      }
    ],
    [
      15,
      8,
      {
        "cost": 213.81,
        "seconds": 476
      }
    ],
    [
      15,
      11,
      {
        "cost": 85.17,
        "seconds": 248
      }
    ],
    [
      15,
      13,
      {
        "cost": 87.21,
        "seconds": 250
      }
    ],
    [
      15,
      12,
      {
        "cost": 229.07999999999999,
        "seconds": 520
      }
    ],
    [
      15,
      26,
      {
        "cost": 170.34,
        "seconds": 415
      }
    ],
    [
      15,
      31,
      {
        "cost": 232.64999999999999,
        "seconds": 587
      }
    ],
    [
      15,
      18,
      {
        "cost": 139.56,
        "seconds": 373
      }
    ],
    [
      15,
      27,
      {
        "cost": 85.08,
        "seconds": 210
      }
    ],
    [
      15,
      29,
      {
        "cost": 109.05,
        "seconds": 271
      }
    ],
    [
      15,
      24,
      {
        "cost": 200.60999999999999,
        "seconds": 408
      }
    ],
    [
      15,
      19,
      {
        "cost": 217.38,
        "seconds": 494
      }
    ],
    [
      15,
      20,
      {
        "cost": 148.76999999999999,
        "seconds": 390
      }
    ],
    [
      15,
      16,
      {
        "cost": 178.79999999999999,
        "seconds": 435
      }
    ],
    [
      15,
      25,
      {
        "cost": 85.22999999999999,
        "seconds": 231
      }
    ],
    [
      15,
      23,
      {
        "cost": 177.95999999999999,
        "seconds": 438
      }
    ],
    [
      15,
      21,
      {
        "cost": 150.84,
        "seconds": 418
      }
    ],
    [
      15,
      17,
      {
        "cost": 185.25,
        "seconds": 414
      }
    ],
    [
      15,
      14,
      {
        "cost": 186.69,
        "seconds": 422
      }
    ],
    [
      16,
      0,
      {
        "cost": 313.11,
        "seconds": 773
      }
    ],
    [
      16,
      2,
      {
        "cost": 52.379999999999998,
        "seconds": 140
      }
    ],
    [
      16,
      4,
      {
        "cost": 223.01999999999999,
        "seconds": 507
      }
    ],
    [
      16,
      6,
      {
        "cost": 429.18,
        "seconds": 974
      }
    ],
    [
      16,
      12,
      {
        "cost": 120.08999999999999,
        "seconds": 308
      }
    ],
    [
      16,
      14,
      {
        "cost": 140.85,
        "seconds": 389
      }
    ],
    [
      16,
      22,
      {
        "cost": 401.19,
        "seconds": 824
      }
    ],
    [
      16,
      30,
      {
        "cost": 543.39,
        "seconds": 1125
      }
    ],
    [
      16,
      28,
      {
        "cost": 409.14,
        "seconds": 908
      }
    ],
    [
      16,
      18,
      {
        "cost": 186.45,
        "seconds": 477
      }
    ],
    [
      17,
      1,
      {
        "cost": 235.14,
        "seconds": 531
      }
    ],
    [
      17,
      0,
      {
        "cost": 240.42,
        "seconds": 526
      }
    ],
    [
      17,
      3,
      {
        "cost": 163.10999999999999,
        "seconds": 341
      }
    ],
    [
      17,
      2,
      {
        "cost": 306.27,
        "seconds": 691
      }
    ],
    [
      17,
      5,
      {
        "cost": 92.91,
        "seconds": 246
      }
    ],
    [
      17,
      4,
      {
        "cost": 159.78,
        "seconds": 364
      }
    ],
    [
      17,
      7,
      {
        "cost": 352.08,
        "seconds": 776
      }
    ],
    [
      17,
      9,
      {
        "cost": 96.47999999999999,
        "seconds": 219
      }
    ],
    [
      17,
      8,
      {
        "cost": 109.89,
        "seconds": 312
      }
    ],
    [
      17,
      13,
      {
        "cost": 83.25,
        "seconds": 190
      }
    ],
    [
      17,
      12,
      {
        "cost": 350.4,
        "seconds": 773
      }
    ],
    [
      17,
      15,
      {
        "cost": 145.10999999999999,
        "seconds": 339
      }
    ],
    [
      17,
      14,
      {
        "cost": 285.03,
        "seconds": 638
      }
    ],
    [
      17,
      24,
      {
        "cost": 96.89999999999999,
        "seconds": 254
      }
    ],
    [
      17,
      22,
      {
        "cost": 96.63,
        "seconds": 280
      }
    ],
    [
      17,
      23,
      {
        "cost": 242.04,
        "seconds": 533
      }
    ],
    [
      17,
      25,
      {
        "cost": 149.31,
        "seconds": 326
      }
    ],
    [
      17,
      20,
      {
        "cost": 79.53,
        "seconds": 171
      }
    ],
    [
      17,
      28,
      {
        "cost": 174.57,
        "seconds": 448
      }
    ],
    [
      17,
      21,
      {
        "cost": 53.43,
        "seconds": 165
      }
    ],
    [
      17,
      31,
      {
        "cost": 296.72999999999998,
        "seconds": 682
      }
    ],
    [
      17,
      26,
      {
        "cost": 154.65,
        "seconds": 427
      }
    ],
    [
      17,
      18,
      {
        "cost": 221.01,
        "seconds": 543
      }
    ],
    [
      17,
      29,
      {
        "cost": 230.37,
        "seconds": 524
      }
    ],
    [
      17,
      19,
      {
        "cost": 186.23999999999999,
        "seconds": 398
      }
    ],
    [
      17,
      27,
      {
        "cost": 134.85,
        "seconds": 337
      }
    ],
    [
      17,
      16,
      {
        "cost": 300.12,
        "seconds": 688
      }
    ],
    [
      18,
      0,
      {
        "cost": 204.48,
        "seconds": 538
      }
    ],
    [
      18,
      2,
      {
        "cost": 178.35,
        "seconds": 439
      }
    ],
    [
      18,
      4,
      {
        "cost": 89.88,
        "seconds": 242
      }
    ],
    [
      18,
      8,
      {
        "cost": 250.95,
        "seconds": 577
      }
    ],
    [
      18,
      10,
      {
        "cost": 324.27,
        "seconds": 708
      }
    ],
    [
      18,
      12,
      {
        "cost": 192.87,
        "seconds": 448
      }
    ],
    [
      18,
      14,
      {
        "cost": 213.75,
        "seconds": 485
      }
    ],
    [
      18,
      16,
      {
        "cost": 176.88,
        "seconds": 438
      }
    ],
    [
      18,
      30,
      {
        "cost": 427.5,
        "seconds": 886
      }
    ],
    [
      18,
      28,
      {
        "cost": 293.25,
        "seconds": 669
      }
    ],
    [
      18,
      26,
      {
        "cost": 141.0,
        "seconds": 434
      }
    ],
    [
      18,
      22,
      {
        "cost": 271.23,
        "seconds": 615
      }
    ],
    [
      18,
      24,
      {
        "cost": 237.75,
        "seconds": 508
      }
    ],
    [
      19,
      1,
      {
        "cost": 296.64,
        "seconds": 742
      }
    ],
    [
      19,
      0,
      {
        "cost": 57.18,
        "seconds": 169
      }
    ],
    [
      19,
      3,
      {
        "cost": 270.84,
        "seconds": 553
      }
    ],
    [
      19,
      2,
      {
        "cost": 340.26,
        "seconds": 900
      }
    ],
    [
      19,
      5,
      {
        "cost": 144.23999999999999,
        "seconds": 346
      }
    ],
    [
      19,
      4,
      {
        "cost": 181.70999999999999,
        "seconds": 517
      }
    ],
    [
      19,
      9,
      {
        "cost": 204.17999999999999,
        "seconds": 431
      }
    ],
    [
      19,
      8,
      {
        "cost": 92.78999999999999,
        "seconds": 272
      }
    ],
    [
      19,
      11,
      {
        "cost": 230.39999999999999,
        "seconds": 669
      }
    ],
    [
      19,
      10,
      {
        "cost": 276.42,
        "seconds": 610
      }
    ],
    [
      19,
      13,
      {
        "cost": 191.91,
        "seconds": 406
      }
    ],
    [
      19,
      12,
      {
        "cost": 458.09999999999999,
        "seconds": 984
      }
    ],
    [
      19,
      15,
      {
        "cost": 252.84,
        "seconds": 551
      }
    ],
    [
      19,
      14,
      {
        "cost": 392.76,
        "seconds": 850
      }
    ],
    [
      19,
      17,
      {
        "cost": 131.22,
        "seconds": 320
      }
    ],
    [
      19,
      16,
      {
        "cost": 334.11,
        "seconds": 897
      }
    ],
    [
      19,
      28,
      {
        "cost": 106.77,
        "seconds": 259
      }
    ],
    [
      19,
      26,
      {
        "cost": 79.67999999999999,
        "seconds": 306
      }
    ],
    [
      19,
      31,
      {
        "cost": 404.46,
        "seconds": 894
      }
    ],
    [
      19,
      29,
      {
        "cost": 264.36,
        "seconds": 733
      }
    ],
    [
      19,
      22,
      {
        "cost": 246.6,
        "seconds": 554
      }
    ],
    [
      19,
      20,
      {
        "cost": 190.26,
        "seconds": 387
      }
    ],
    [
      19,
      24,
      {
        "cost": 148.23,
        "seconds": 355
      }
    ],
    [
      19,
      27,
      {
        "cost": 206.64,
        "seconds": 486
      }
    ],
    [
      19,
      21,
      {
        "cost": 192.32999999999999,
        "seconds": 415
      }
    ],
    [
      19,
      23,
      {
        "cost": 349.74,
        "seconds": 745
      }
    ],
    [
      19,
      25,
      {
        "cost": 257.03999999999999,
        "seconds": 538
      }
    ],
    [
      19,
      18,
      {
        "cost": 208.04999999999999,
        "seconds": 672
      }
    ],
    [
      20,
      0,
      {
        "cost": 279.51,
        "seconds": 562
      }
    ],
    [
      20,
      1,
      {
        "cost": 261.63,
        "seconds": 555
      }
    ],
    [
      20,
      2,
      {
        "cost": 336.59999999999999,
        "seconds": 716
      }
    ],
    [
      20,
      3,
      {
        "cost": 122.19,
        "seconds": 269
      }
    ],
    [
      20,
      4,
      {
        "cost": 181.70999999999999,
        "seconds": 369
      }
    ],
    [
      20,
      5,
      {
        "cost": 200.34,
        "seconds": 359
      }
    ],
    [
      20,
      6,
      {
        "cost": 279.87,
        "seconds": 595
      }
    ],
    [
      20,
      9,
      {
        "cost": 126.81,
        "seconds": 244
      }
    ],
    [
      20,
      8,
      {
        "cost": 217.56,
        "seconds": 436
      }
    ],
    [
      20,
      10,
      {
        "cost": 167.79,
        "seconds": 373
      }
    ],
    [
      20,
      11,
      {
        "cost": 226.82999999999999,
        "seconds": 482
      }
    ],
    [
      20,
      12,
      {
        "cost": 380.72999999999998,
        "seconds": 798
      }
    ],
    [
      20,
      13,
      {
        "cost": 89.7,
        "seconds": 179
      }
    ],
    [
      20,
      14,
      {
        "cost": 276.09,
        "seconds": 579
      }
    ],
    [
      20,
      15,
      {
        "cost": 175.44,
        "seconds": 364
      }
    ],
    [
      20,
      16,
      {
        "cost": 330.45,
        "seconds": 713
      }
    ],
    [
      20,
      17,
      {
        "cost": 139.2,
        "seconds": 336
      }
    ],
    [
      20,
      18,
      {
        "cost": 246.98999999999999,
        "seconds": 544
      }
    ],
    [
      20,
      19,
      {
        "cost": 225.35999999999999,
        "seconds": 433
      }
    ],
    [
      20,
      24,
      {
        "cost": 204.32999999999999,
        "seconds": 367
      }
    ],
    [
      20,
      26,
      {
        "cost": 193.73999999999999,
        "seconds": 462
      }
    ],
    [
      20,
      25,
      {
        "cost": 179.64,
        "seconds": 351
      }
    ],
    [
      20,
      27,
      {
        "cost": 160.82999999999999,
        "seconds": 338
      }
    ],
    [
      20,
      22,
      {
        "cost": 90.0,
        "seconds": 219
      }
    ],
    [
      20,
      30,
      {
        "cost": 365.84999999999999,
        "seconds": 740
      }
    ],
    [
      20,
      28,
      {
        "cost": 263.13,
        "seconds": 503
      }
    ],
    [
      20,
      31,
      {
        "cost": 304.28999999999999,
        "seconds": 672
      }
    ],
    [
      20,
      23,
      {
        "cost": 249.57,
        "seconds": 523
      }
    ],
    [
      20,
      29,
      {
        "cost": 260.7,
        "seconds": 549
      }
    ],
    [
      21,
      1,
      {
        "cost": 243.6,
        "seconds": 553
      }
    ],
    [
      21,
      3,
      {
        "cost": 171.57,
        "seconds": 364
      }
    ],
    [
      21,
      5,
      {
        "cost": 103.38,
        "seconds": 260
      }
    ],
    [
      21,
      4,
      {
        "cost": 165.32999999999999,
        "seconds": 375
      }
    ],
    [
      21,
      7,
      {
        "cost": 360.53999999999999,
        "seconds": 798
      }
    ],
    [
      21,
      9,
      {
        "cost": 104.91,
        "seconds": 241
      }
    ],
    [
      21,
      8,
      {
        "cost": 133.74,
        "seconds": 306
      }
    ],
    [
      21,
      11,
      {
        "cost": 208.76999999999999,
        "seconds": 480
      }
    ],
    [
      21,
      13,
      {
        "cost": 73.35,
        "seconds": 185
      }
    ],
    [
      21,
      15,
      {
        "cost": 153.57,
        "seconds": 362
      }
    ],
    [
      21,
      17,
      {
        "cost": 74.94,
        "seconds": 215
      }
    ],
    [
      21,
      19,
      {
        "cost": 203.45999999999999,
        "seconds": 430
      }
    ],
    [
      21,
      24,
      {
        "cost": 107.33999999999999,
        "seconds": 268
      }
    ],
    [
      21,
      26,
      {
        "cost": 171.87,
        "seconds": 460
      }
    ],
    [
      21,
      25,
      {
        "cost": 157.76999999999999,
        "seconds": 349
      }
    ],
    [
      21,
      27,
      {
        "cost": 144.45,
        "seconds": 344
      }
    ],
    [
      21,
      22,
      {
        "cost": 69.53999999999999,
        "seconds": 201
      }
    ],
    [
      21,
      31,
      {
        "cost": 305.19,
        "seconds": 705
      }
    ],
    [
      21,
      29,
      {
        "cost": 238.82999999999999,
        "seconds": 546
      }
    ],
    [
      21,
      23,
      {
        "cost": 250.47,
        "seconds": 556
      }
    ],
    [
      21,
      20,
      {
        "cost": 39.54,
        "seconds": 101
      }
    ],
    [
      22,
      0,
      {
        "cost": 288.3,
        "seconds": 629
      }
    ],
    [
      22,
      2,
      {
        "cost": 345.39,
        "seconds": 783
      }
    ],
    [
      22,
      4,
      {
        "cost": 196.01999999999999,
        "seconds": 445
      }
    ],
    [
      22,
      6,
      {
        "cost": 204.78,
        "seconds": 510
      }
    ],
    [
      22,
      8,
      {
        "cost": 150.6,
        "seconds": 359
      }
    ],
    [
      22,
      10,
      {
        "cost": 98.7,
        "seconds": 228
      }
    ],
    [
      22,
      12,
      {
        "cost": 389.52,
        "seconds": 865
      }
    ],
    [
      22,
      16,
      {
        "cost": 339.24,
        "seconds": 780
      }
    ],
    [
      22,
      18,
      {
        "cost": 261.3,
        "seconds": 620
      }
    ],
    [
      22,
      20,
      {
        "cost": 70.2,
        "seconds": 170
      }
    ],
    [
      22,
      21,
      {
        "cost": 55.23,
        "seconds": 164
      }
    ],
    [
      22,
      30,
      {
        "cost": 296.76,
        "seconds": 595
      }
    ],
    [
      22,
      24,
      {
        "cost": 124.22999999999999,
        "seconds": 321
      }
    ],
    [
      22,
      26,
      {
        "cost": 202.56,
        "seconds": 530
      }
    ],
    [
      22,
      28,
      {
        "cost": 271.92,
        "seconds": 570
      }
    ],
    [
      23,
      1,
      {
        "cost": 196.47,
        "seconds": 501
      }
    ],
    [
      23,
      0,
      {
        "cost": 375.71999999999999,
        "seconds": 848
      }
    ],
    [
      23,
      3,
      {
        "cost": 139.41,
        "seconds": 300
      }
    ],
    [
      23,
      2,
      {
        "cost": 218.54999999999999,
        "seconds": 476
      }
    ],
    [
      23,
      5,
      {
        "cost": 336.15,
        "seconds": 664
      }
    ],
    [
      23,
      4,
      {
        "cost": 209.51999999999999,
        "seconds": 432
      }
    ],
    [
      23,
      7,
      {
        "cost": 287.96999999999999,
        "seconds": 646
      }
    ],
    [
      23,
      9,
      {
        "cost": 172.35,
        "seconds": 406
      }
    ],
    [
      23,
      8,
      {
        "cost": 353.34,
        "seconds": 741
      }
    ],
    [
      23,
      11,
      {
        "cost": 212.45999999999999,
        "seconds": 480
      }
    ],
    [
      23,
      10,
      {
        "cost": 360.59999999999999,
        "seconds": 774
      }
    ],
    [
      23,
      13,
      {
        "cost": 219.6,
        "seconds": 461
      }
    ],
    [
      23,
      15,
      {
        "cost": 197.51999999999999,
        "seconds": 441
      }
    ],
    [
      23,
      14,
      {
        "cost": 62.19,
        "seconds": 172
      }
    ],
    [
      23,
      17,
      {
        "cost": 324.75,
        "seconds": 679
      }
    ],
    [
      23,
      16,
      {
        "cost": 212.42999999999999,
        "seconds": 473
      }
    ],
    [
      23,
      19,
      {
        "cost": 356.90999999999999,
        "seconds": 759
      }
    ],
    [
      23,
      18,
      {
        "cost": 258.3,
        "seconds": 601
      }
    ],
    [
      23,
      21,
      {
        "cost": 267.03,
        "seconds": 551
      }
    ],
    [
      23,
      20,
      {
        "cost": 253.47,
        "seconds": 498
      }
    ],
    [
      23,
      24,
      {
        "cost": 340.14,
        "seconds": 672
      }
    ],
    [
      23,
      26,
      {
        "cost": 309.87,
        "seconds": 680
      }
    ],
    [
      23,
      28,
      {
        "cost": 395.64,
        "seconds": 833
      }
    ],
    [
      23,
      31,
      {
        "cost": 64.71,
        "seconds": 188
      }
    ],
    [
      23,
      25,
      {
        "cost": 134.79,
        "seconds": 379
      }
    ],
    [
      23,
      27,
      {
        "cost": 224.60999999999999,
        "seconds": 474
      }
    ],
    [
      23,
      29,
      {
        "cost": 158.79,
        "seconds": 330
      }
    ],
    [
      23,
      22,
      {
        "cost": 282.81,
        "seconds": 620
      }
    ],
    [
      24,
      0,
      {
        "cost": 201.42,
        "seconds": 465
      }
    ],
    [
      24,
      2,
      {
        "cost": 386.46,
        "seconds": 838
      }
    ],
    [
      24,
      5,
      {
        "cost": 20.279999999999999,
        "seconds": 68
      }
    ],
    [
      24,
      4,
      {
        "cost": 213.98999999999999,
        "seconds": 466
      }
    ],
    [
      24,
      6,
      {
        "cost": 75.57,
        "seconds": 227
      }
    ],
    [
      24,
      8,
      {
        "cost": 36.51,
        "seconds": 87
      }
    ],
    [
      24,
      9,
      {
        "cost": 184.56,
        "seconds": 382
      }
    ],
    [
      24,
      10,
      {
        "cost": 140.43,
        "seconds": 302
      }
    ],
    [
      24,
      12,
      {
        "cost": 430.59,
        "seconds": 920
      }
    ],
    [
      24,
      13,
      {
        "cost": 172.35,
        "seconds": 355
      }
    ],
    [
      24,
      14,
      {
        "cost": 373.11,
        "seconds": 801
      }
    ],
    [
      24,
      16,
      {
        "cost": 380.31,
        "seconds": 836
      }
    ],
    [
      24,
      17,
      {
        "cost": 94.71,
        "seconds": 226
      }
    ],
    [
      24,
      19,
      {
        "cost": 147.57,
        "seconds": 338
      }
    ],
    [
      24,
      18,
      {
        "cost": 269.34,
        "seconds": 683
      }
    ],
    [
      24,
      20,
      {
        "cost": 146.46,
        "seconds": 327
      }
    ],
    [
      24,
      21,
      {
        "cost": 120.72,
        "seconds": 302
      }
    ],
    [
      24,
      22,
      {
        "cost": 127.89,
        "seconds": 282
      }
    ],
    [
      24,
      30,
      {
        "cost": 189.78,
        "seconds": 378
      }
    ],
    [
      24,
      28,
      {
        "cost": 150.35999999999999,
        "seconds": 333
      }
    ],
    [
      24,
      26,
      {
        "cost": 164.57999999999999,
        "seconds": 454
      }
    ],
    [
      24,
      27,
      {
        "cost": 180.9,
        "seconds": 404
      }
    ],
    [
      25,
      1,
      {
        "cost": 144.93,
        "seconds": 431
      }
    ],
    [
      25,
      0,
      {
        "cost": 265.14,
        "seconds": 641
      }
    ],
    [
      25,
      3,
      {
        "cost": 76.89,
        "seconds": 175
      }
    ],
    [
      25,
      5,
      {
        "cost": 225.57,
        "seconds": 457
      }
    ],
    [
      25,
      4,
      {
        "cost": 98.94,
        "seconds": 225
      }
    ],
    [
      25,
      7,
      {
        "cost": 268.62,
        "seconds": 633
      }
    ],
    [
      25,
      6,
      {
        "cost": 305.09999999999999,
        "seconds": 692
      }
    ],
    [
      25,
      9,
      {
        "cost": 62.73,
        "seconds": 151
      }
    ],
    [
      25,
      8,
      {
        "cost": 242.76,
        "seconds": 534
      }
    ],
    [
      25,
      11,
      {
        "cost": 125.49,
        "seconds": 359
      }
    ],
    [
      25,
      10,
      {
        "cost": 282.21,
        "seconds": 642
      }
    ],
    [
      25,
      13,
      {
        "cost": 84.96,
        "seconds": 217
      }
    ],
    [
      25,
      15,
      {
        "cost": 72.39,
        "seconds": 207
      }
    ],
    [
      25,
      14,
      {
        "cost": 158.79,
        "seconds": 382
      }
    ],
    [
      25,
      17,
      {
        "cost": 192.66,
        "seconds": 449
      }
    ],
    [
      25,
      19,
      {
        "cost": 245.51999999999999,
        "seconds": 547
      }
    ],
    [
      25,
      18,
      {
        "cost": 174.98999999999999,
        "seconds": 459
      }
    ],
    [
      25,
      21,
      {
        "cost": 155.97,
        "seconds": 370
      }
    ],
    [
      25,
      20,
      {
        "cost": 153.93,
        "seconds": 342
      }
    ],
    [
      25,
      23,
      {
        "cost": 115.77,
        "seconds": 277
      }
    ],
    [
      25,
      22,
      {
        "cost": 204.39,
        "seconds": 488
      }
    ],
    [
      25,
      28,
      {
        "cost": 284.25,
        "seconds": 622
      }
    ],
    [
      25,
      31,
      {
        "cost": 170.48999999999999,
        "seconds": 426
      }
    ],
    [
      25,
      26,
      {
        "cost": 199.29,
        "seconds": 473
      }
    ],
    [
      25,
      29,
      {
        "cost": 175.62,
        "seconds": 366
      }
    ],
    [
      25,
      27,
      {
        "cost": 114.03,
        "seconds": 267
      }
    ],
    [
      25,
      24,
      {
        "cost": 229.56,
        "seconds": 465
      }
    ],
    [
      26,
      1,
      {
        "cost": 199.10999999999999,
        "seconds": 491
      }
    ],
    [
      26,
      0,
      {
        "cost": 80.94,
        "seconds": 287
      }
    ],
    [
      26,
      2,
      {
        "cost": 274.17,
        "seconds": 648
      }
    ],
    [
      26,
      3,
      {
        "cost": 239.79,
        "seconds": 546
      }
    ],
    [
      26,
      4,
      {
        "cost": 115.61999999999999,
        "seconds": 265
      }
    ],
    [
      26,
      5,
      {
        "cost": 154.71,
        "seconds": 381
      }
    ],
    [
      26,
      6,
      {
        "cost": 184.68,
        "seconds": 584
      }
    ],
    [
      26,
      8,
      {
        "cost": 137.1,
        "seconds": 450
      }
    ],
    [
      26,
      9,
      {
        "cost": 173.16,
        "seconds": 424
      }
    ],
    [
      26,
      10,
      {
        "cost": 244.95,
        "seconds": 590
      }
    ],
    [
      26,
      11,
      {
        "cost": 164.31,
        "seconds": 417
      }
    ],
    [
      26,
      13,
      {
        "cost": 160.95,
        "seconds": 397
      }
    ],
    [
      26,
      12,
      {
        "cost": 318.71999999999999,
        "seconds": 749
      }
    ],
    [
      26,
      14,
      {
        "cost": 275.90999999999999,
        "seconds": 632
      }
    ],
    [
      26,
      15,
      {
        "cost": 174.20999999999999,
        "seconds": 393
      }
    ],
    [
      26,
      16,
      {
        "cost": 268.02,
        "seconds": 646
      }
    ],
    [
      26,
      17,
      {
        "cost": 143.04,
        "seconds": 397
      }
    ],
    [
      26,
      18,
      {
        "cost": 141.98999999999999,
        "seconds": 420
      }
    ],
    [
      26,
      19,
      {
        "cost": 79.92,
        "seconds": 311
      }
    ],
    [
      26,
      20,
      {
        "cost": 157.23,
        "seconds": 378
      }
    ],
    [
      26,
      21,
      {
        "cost": 159.26999999999999,
        "seconds": 406
      }
    ],
    [
      26,
      22,
      {
        "cost": 213.54,
        "seconds": 544
      }
    ],
    [
      26,
      25,
      {
        "cost": 211.92,
        "seconds": 464
      }
    ],
    [
      26,
      24,
      {
        "cost": 158.67,
        "seconds": 390
      }
    ],
    [
      26,
      30,
      {
        "cost": 263.61,
        "seconds": 692
      }
    ],
    [
      26,
      28,
      {
        "cost": 151.07999999999999,
        "seconds": 436
      }
    ],
    [
      26,
      29,
      {
        "cost": 198.29999999999999,
        "seconds": 481
      }
    ],
    [
      27,
      1,
      {
        "cost": 155.79,
        "seconds": 368
      }
    ],
    [
      27,
      0,
      {
        "cost": 177.66,
        "seconds": 491
      }
    ],
    [
      27,
      3,
      {
        "cost": 156.23999999999999,
        "seconds": 390
      }
    ],
    [
      27,
      5,
      {
        "cost": 140.60999999999999,
        "seconds": 310
      }
    ],
    [
      27,
      4,
      {
        "cost": 22.14,
        "seconds": 86
      }
    ],
    [
      27,
      7,
      {
        "cost": 287.78999999999999,
        "seconds": 644
      }
    ],
    [
      27,
      9,
      {
        "cost": 113.33999999999999,
        "seconds": 277
      }
    ],
    [
      27,
      8,
      {
        "cost": 157.82999999999999,
        "seconds": 388
      }
    ],
    [
      27,
      11,
      {
        "cost": 120.99,
        "seconds": 295
      }
    ],
    [
      27,
      13,
      {
        "cost": 102.08999999999999,
        "seconds": 254
      }
    ],
    [
      27,
      15,
      {
        "cost": 83.55,
        "seconds": 218
      }
    ],
    [
      27,
      14,
      {
        "cost": 243.84,
        "seconds": 525
      }
    ],
    [
      27,
      17,
      {
        "cost": 112.74,
        "seconds": 286
      }
    ],
    [
      27,
      19,
      {
        "cost": 165.63,
        "seconds": 385
      }
    ],
    [
      27,
      18,
      {
        "cost": 101.61,
        "seconds": 345
      }
    ],
    [
      27,
      21,
      {
        "cost": 128.13,
        "seconds": 295
      }
    ],
    [
      27,
      20,
      {
        "cost": 126.08999999999999,
        "seconds": 267
      }
    ],
    [
      27,
      23,
      {
        "cost": 210.84,
        "seconds": 481
      }
    ],
    [
      27,
      22,
      {
        "cost": 182.4,
        "seconds": 433
      }
    ],
    [
      27,
      25,
      {
        "cost": 121.25999999999999,
        "seconds": 288
      }
    ],
    [
      27,
      24,
      {
        "cost": 144.6,
        "seconds": 319
      }
    ],
    [
      27,
      28,
      {
        "cost": 204.35999999999999,
        "seconds": 459
      }
    ],
    [
      27,
      31,
      {
        "cost": 265.53,
        "seconds": 630
      }
    ],
    [
      27,
      29,
      {
        "cost": 166.2,
        "seconds": 374
      }
    ],
    [
      27,
      26,
      {
        "cost": 100.38,
        "seconds": 293
      }
    ],
    [
      28,
      0,
      {
        "cost": 125.67,
        "seconds": 302
      }
    ],
    [
      28,
      4,
      {
        "cost": 216.78,
        "seconds": 482
      }
    ],
    [
      28,
      6,
      {
        "cost": 102.21,
        "seconds": 291
      }
    ],
    [
      28,
      8,
      {
        "cost": 54.629999999999998,
        "seconds": 156
      }
    ],
    [
      28,
      10,
      {
        "cost": 228.26999999999999,
        "seconds": 523
      }
    ],
    [
      28,
      16,
      {
        "cost": 384.87,
        "seconds": 834
      }
    ],
    [
      28,
      18,
      {
        "cost": 305.78999999999999,
        "seconds": 688
      }
    ],
    [
      28,
      22,
      {
        "cost": 223.62,
        "seconds": 488
      }
    ],
    [
      28,
      24,
      {
        "cost": 119.22,
        "seconds": 265
      }
    ],
    [
      28,
      26,
      {
        "cost": 111.17999999999999,
        "seconds": 362
      }
    ],
    [
      28,
      30,
      {
        "cost": 201.32999999999999,
        "seconds": 431
      }
    ],
    [
      29,
      1,
      {
        "cost": 83.61,
        "seconds": 249
      }
    ],
    [
      29,
      0,
      {
        "cost": 261.84,
        "seconds": 654
      }
    ],
    [
      29,
      3,
      {
        "cost": 175.76999999999999,
        "seconds": 292
      }
    ],
    [
      29,
      2,
      {
        "cost": 111.47999999999999,
        "seconds": 233
      }
    ],
    [
      29,
      5,
      {
        "cost": 280.97999999999998,
        "seconds": 558
      }
    ],
    [
      29,
      4,
      {
        "cost": 154.35,
        "seconds": 327
      }
    ],
    [
      29,
      7,
      {
        "cost": 180.9,
        "seconds": 404
      }
    ],
    [
      29,
      6,
      {
        "cost": 360.51,
        "seconds": 794
      }
    ],
    [
      29,
      9,
      {
        "cost": 176.19,
        "seconds": 404
      }
    ],
    [
      29,
      8,
      {
        "cost": 298.17,
        "seconds": 636
      }
    ],
    [
      29,
      11,
      {
        "cost": 82.23,
        "seconds": 207
      }
    ],
    [
      29,
      10,
      {
        "cost": 347.31,
        "seconds": 758
      }
    ],
    [
      29,
      13,
      {
        "cost": 190.29,
        "seconds": 429
      }
    ],
    [
      29,
      12,
      {
        "cost": 179.22,
        "seconds": 400
      }
    ],
    [
      29,
      15,
      {
        "cost": 110.91,
        "seconds": 290
      }
    ],
    [
      29,
      14,
      {
        "cost": 109.41,
        "seconds": 259
      }
    ],
    [
      29,
      17,
      {
        "cost": 245.42999999999999,
        "seconds": 564
      }
    ],
    [
      29,
      16,
      {
        "cost": 105.36,
        "seconds": 230
      }
    ],
    [
      29,
      19,
      {
        "cost": 301.74,
        "seconds": 653
      }
    ],
    [
      29,
      18,
      {
        "cost": 128.1,
        "seconds": 327
      }
    ],
    [
      29,
      21,
      {
        "cost": 303.39,
        "seconds": 542
      }
    ],
    [
      29,
      20,
      {
        "cost": 289.83,
        "seconds": 490
      }
    ],
    [
      29,
      23,
      {
        "cost": 116.13,
        "seconds": 228
      }
    ],
    [
      29,
      22,
      {
        "cost": 319.17,
        "seconds": 611
      }
    ],
    [
      29,
      25,
      {
        "cost": 136.65,
        "seconds": 346
      }
    ],
    [
      29,
      24,
      {
        "cost": 284.94,
        "seconds": 567
      }
    ],
    [
      29,
      27,
      {
        "cost": 149.19,
        "seconds": 358
      }
    ],
    [
      29,
      26,
      {
        "cost": 215.45999999999999,
        "seconds": 544
      }
    ],
    [
      29,
      30,
      {
        "cost": 474.71999999999999,
        "seconds": 945
      }
    ],
    [
      29,
      31,
      {
        "cost": 170.82,
        "seconds": 377
      }
    ],
    [
      29,
      28,
      {
        "cost": 340.46999999999999,
        "seconds": 728
      }
    ],
    [
      30,
      6,
      {
        "cost": 118.67999999999999,
        "seconds": 300
      }
    ],
    [
      30,
      28,
      {
        "cost": 140.7,
        "seconds": 345
      }
    ],
    [
      31,
      1,
      {
        "cost": 223.47,
        "seconds": 574
      }
    ],
    [
      31,
      0,
      {
        "cost": 408.81,
        "seconds": 921
      }
    ],
    [
      31,
      3,
      {
        "cost": 172.47,
        "seconds": 374
      }
    ],
    [
      31,
      2,
      {
        "cost": 227.04,
        "seconds": 535
      }
    ],
    [
      31,
      5,
      {
        "cost": 369.24,
        "seconds": 737
      }
    ],
    [
      31,
      4,
      {
        "cost": 242.60999999999999,
        "seconds": 506
      }
    ],
    [
      31,
      7,
      {
        "cost": 223.70999999999999,
        "seconds": 553
      }
    ],
    [
      31,
      6,
      {
        "cost": 448.77,
        "seconds": 973
      }
    ],
    [
      31,
      9,
      {
        "cost": 205.41,
        "seconds": 480
      }
    ],
    [
      31,
      8,
      {
        "cost": 386.43,
        "seconds": 815
      }
    ],
    [
      31,
      11,
      {
        "cost": 232.89,
        "seconds": 540
      }
    ],
    [
      31,
      10,
      {
        "cost": 393.69,
        "seconds": 848
      }
    ],
    [
      31,
      13,
      {
        "cost": 252.66,
        "seconds": 535
      }
    ],
    [
      31,
      12,
      {
        "cost": 246.06,
        "seconds": 612
      }
    ],
    [
      31,
      15,
      {
        "cost": 230.60999999999999,
        "seconds": 515
      }
    ],
    [
      31,
      14,
      {
        "cost": 80.91,
        "seconds": 221
      }
    ],
    [
      31,
      17,
      {
        "cost": 357.84,
        "seconds": 753
      }
    ],
    [
      31,
      16,
      {
        "cost": 187.26,
        "seconds": 444
      }
    ],
    [
      31,
      19,
      {
        "cost": 390.0,
        "seconds": 832
      }
    ],
    [
      31,
      18,
      {
        "cost": 278.76,
        "seconds": 660
      }
    ],
    [
      31,
      21,
      {
        "cost": 300.12,
        "seconds": 624
      }
    ],
    [
      31,
      20,
      {
        "cost": 286.53,
        "seconds": 572
      }
    ],
    [
      31,
      23,
      {
        "cost": 67.59,
        "seconds": 175
      }
    ],
    [
      31,
      22,
      {
        "cost": 315.87,
        "seconds": 693
      }
    ],
    [
      31,
      25,
      {
        "cost": 167.85,
        "seconds": 453
      }
    ],
    [
      31,
      24,
      {
        "cost": 373.2,
        "seconds": 746
      }
    ],
    [
      31,
      27,
      {
        "cost": 257.7,
        "seconds": 548
      }
    ],
    [
      31,
      26,
      {
        "cost": 342.96,
        "seconds": 754
      }
    ],
    [
      31,
      29,
      {
        "cost": 191.88,
        "seconds": 403
      }
    ],
    [
      31,
      28,
      {
        "cost": 428.72999999999998,
        "seconds": 907
      }
    ],
    [
      31,
      30,
      {
        "cost": 562.98,
        "seconds": 1124
      }
    ],
    [
      30,
      33,
      {
        "cost": 106.41,
        "seconds": 270
      }
    ],
    [
      32,
      31,
      {
        "cost": 342.3,
        "seconds": 705
      }
    ],
    [
      30,
      32,
      {
        "cost": 541.71,
        "seconds": 1153
      }
    ],
    [
      33,
      31,
      {
        "cost": 422.72999999999998,
        "seconds": 961
      }
    ],
    [
      28,
      33,
      {
        "cost": 66.99,
        "seconds": 165
      }
    ],
    [
      32,
      29,
      {
        "cost": 219.63,
        "seconds": 427
      }
    ],
    [
      28,
      32,
      {
        "cost": 411.84,
        "seconds": 850
      }
    ],
    [
      33,
      29,
      {
        "cost": 356.37,
        "seconds": 802
      }
    ],
    [
      26,
      33,
      {
        "cost": 149.46,
        "seconds": 459
      }
    ],
    [
      32,
      27,
      {
        "cost": 260.7,
        "seconds": 560
      }
    ],
    [
      26,
      32,
      {
        "cost": 295.38,
        "seconds": 681
      }
    ],
    [
      33,
      27,
      {
        "cost": 199.89,
        "seconds": 540
      }
    ],
    [
      24,
      33,
      {
        "cost": 71.46,
        "seconds": 151
      }
    ],
    [
      32,
      25,
      {
        "cost": 327.21,
        "seconds": 690
      }
    ],
    [
      24,
      32,
      {
        "cost": 407.28,
        "seconds": 852
      }
    ],
    [
      33,
      25,
      {
        "cost": 275.31,
        "seconds": 605
      }
    ],
    [
      22,
      33,
      {
        "cost": 185.54999999999999,
        "seconds": 423
      }
    ],
    [
      32,
      23,
      {
        "cost": 335.76,
        "seconds": 655
      }
    ],
    [
      22,
      32,
      {
        "cost": 366.21,
        "seconds": 796
      }
    ],
    [
      33,
      23,
      {
        "cost": 368.03999999999999,
        "seconds": 812
      }
    ],
    [
      20,
      33,
      {
        "cost": 243.0,
        "seconds": 513
      }
    ],
    [
      32,
      21,
      {
        "cost": 372.47999999999998,
        "seconds": 779
      }
    ],
    [
      20,
      32,
      {
        "cost": 357.39,
        "seconds": 729
      }
    ],
    [
      33,
      21,
      {
        "cost": 200.88,
        "seconds": 482
      }
    ],
    [
      18,
      33,
      {
        "cost": 309.18,
        "seconds": 659
      }
    ],
    [
      32,
      19,
      {
        "cost": 372.59999999999999,
        "seconds": 875
      }
    ],
    [
      18,
      32,
      {
        "cost": 187.98,
        "seconds": 437
      }
    ],
    [
      33,
      19,
      {
        "cost": 118.5,
        "seconds": 309
      }
    ],
    [
      16,
      33,
      {
        "cost": 425.07,
        "seconds": 898
      }
    ],
    [
      32,
      17,
      {
        "cost": 384.47999999999998,
        "seconds": 807
      }
    ],
    [
      16,
      32,
      {
        "cost": 96.78,
        "seconds": 239
      }
    ],
    [
      33,
      17,
      {
        "cost": 130.98,
        "seconds": 318
      }
    ],
    [
      14,
      33,
      {
        "cost": 429.81,
        "seconds": 844
      }
    ],
    [
      32,
      15,
      {
        "cost": 245.7,
        "seconds": 533
      }
    ],
    [
      14,
      32,
      {
        "cost": 200.91,
        "seconds": 478
      }
    ],
    [
      33,
      15,
      {
        "cost": 271.11,
        "seconds": 618
      }
    ],
    [
      12,
      33,
      {
        "cost": 470.58,
        "seconds": 985
      }
    ],
    [
      32,
      13,
      {
        "cost": 333.9,
        "seconds": 691
      }
    ],
    [
      12,
      32,
      {
        "cost": 52.8,
        "seconds": 124
      }
    ],
    [
      33,
      13,
      {
        "cost": 210.20999999999999,
        "seconds": 473
      }
    ],
    [
      10,
      33,
      {
        "cost": 238.44,
        "seconds": 535
      }
    ],
    [
      32,
      11,
      {
        "cost": 190.35,
        "seconds": 391
      }
    ],
    [
      10,
      32,
      {
        "cost": 470.90999999999999,
        "seconds": 1011
      }
    ],
    [
      33,
      11,
      {
        "cost": 326.34,
        "seconds": 736
      }
    ],
    [
      8,
      33,
      {
        "cost": 57.15,
        "seconds": 167
      }
    ],
    [
      32,
      9,
      {
        "cost": 319.26,
        "seconds": 678
      }
    ],
    [
      8,
      32,
      {
        "cost": 394.40999999999999,
        "seconds": 892
      }
    ],
    [
      33,
      9,
      {
        "cost": 222.48,
        "seconds": 498
      }
    ],
    [
      6,
      33,
      {
        "cost": 77.61,
        "seconds": 207
      }
    ],
    [
      32,
      7,
      {
        "cost": 147.96,
        "seconds": 315
      }
    ],
    [
      6,
      32,
      {
        "cost": 449.21999999999999,
        "seconds": 1004
      }
    ],
    [
      33,
      7,
      {
        "cost": 478.08,
        "seconds": 1054
      }
    ],
    [
      4,
      33,
      {
        "cost": 269.58,
        "seconds": 573
      }
    ],
    [
      32,
      5,
      {
        "cost": 395.88,
        "seconds": 791
      }
    ],
    [
      4,
      32,
      {
        "cost": 269.55,
        "seconds": 592
      }
    ],
    [
      33,
      5,
      {
        "cost": 93.36,
        "seconds": 230
      }
    ],
    [
      2,
      33,
      {
        "cost": 460.79999999999998,
        "seconds": 978
      }
    ],
    [
      32,
      3,
      {
        "cost": 371.84999999999999,
        "seconds": 710
      }
    ],
    [
      2,
      32,
      {
        "cost": 129.0,
        "seconds": 222
      }
    ],
    [
      33,
      3,
      {
        "cost": 289.11,
        "seconds": 620
      }
    ],
    [
      0,
      33,
      {
        "cost": 146.48999999999999,
        "seconds": 381
      }
    ],
    [
      32,
      1,
      {
        "cost": 165.75,
        "seconds": 336
      }
    ],
    [
      0,
      32,
      {
        "cost": 346.86,
        "seconds": 858
      }
    ],
    [
      33,
      1,
      {
        "cost": 361.16999999999998,
        "seconds": 810
      }
    ]
  ]
}