{
  "nodes": [
    {
      "Delivery": {
        "bid": 429,
        "id": 24,
        "price": null,
        "cost": null,
        "direct_dist": 2695,
        "direct_cost": 81,
        "direct_time": 204
      }
    },
    {
      "Pickup": {
        "bid": 429,
        "id": 24,
        "price": null,
        "cost": null,
        "direct_dist": 2695,
        "direct_cost": 81,
        "direct_time": 204
      }
    },
    {
      "Delivery": {
        "bid": 465,
        "id": 23,
        "price": null,
        "cost": null,
        "direct_dist": 1553,
        "direct_cost": 47,
        "direct_time": 175
      }
    },
    {
      "Pickup": {
        "bid": 465,
        "id": 23,
        "price": null,
        "cost": null,
        "direct_dist": 1553,
        "direct_cost": 47,
        "direct_time": 175
      }
    },
    {
      "Delivery": {
        "bid": 354,
        "id": 22,
        "price": null,
        "cost": null,
        "direct_dist": 15138,
        "direct_cost": 455,
        "direct_time": 1020
      }
    },
    {
      "Pickup": {
        "bid": 354,
        "id": 22,
        "price": null,
        "cost": null,
        "direct_dist": 15138,
        "direct_cost": 455,
        "direct_time": 1020
      }
    },
    {
      "Delivery": {
        "bid": 5099,
        "id": 20,
        "price": null,
        "cost": null,
        "direct_dist": 16997,
        "direct_cost": 510,
        "direct_time": 1132
      }
    },
    {
      "Pickup": {
        "bid": 5099,
        "id": 20,
        "price": null,
        "cost": null,
        "direct_dist": 16997,
        "direct_cost": 510,
        "direct_time": 1132
      }
    },
    {
      "Delivery": {
        "bid": 2067,
        "id": 19,
        "price": null,
        "cost": null,
        "direct_dist": 6892,
        "direct_cost": 207,
        "direct_time": 430
      }
    },
    {
      "Pickup": {
        "bid": 2067,
        "id": 19,
        "price": null,
        "cost": null,
        "direct_dist": 6892,
        "direct_cost": 207,
        "direct_time": 430
      }
    },
    {
      "Delivery": {
        "bid": 2009,
        "id": 17,
        "price": null,
        "cost": null,
        "direct_dist": 8612,
        "direct_cost": 259,
        "direct_time": 661
      }
    },
    {
      "Pickup": {
        "bid": 2009,
        "id": 17,
        "price": null,
        "cost": null,
        "direct_dist": 8612,
        "direct_cost": 259,
        "direct_time": 661
      }
    },
    {
      "Delivery": {
        "bid": 461,
        "id": 16,
        "price": null,
        "cost": null,
        "direct_dist": 7380,
        "direct_cost": 222,
        "direct_time": 560
      }
    },
    {
      "Pickup": {
        "bid": 461,
        "id": 16,
        "price": null,
        "cost": null,
        "direct_dist": 7380,
        "direct_cost": 222,
        "direct_time": 560
      }
    },
    {
      "Delivery": {
        "bid": 3311,
        "id": 15,
        "price": null,
        "cost": null,
        "direct_dist": 11039,
        "direct_cost": 332,
        "direct_time": 711
      }
    },
    {
      "Pickup": {
        "bid": 3311,
        "id": 15,
        "price": null,
        "cost": null,
        "direct_dist": 11039,
        "direct_cost": 332,
        "direct_time": 711
      }
    },
    {
      "Delivery": {
        "bid": 4000,
        "id": 13,
        "price": null,
        "cost": null,
        "direct_dist": 13335,
        "direct_cost": 401,
        "direct_time": 868
      }
    },
    {
      "Pickup": {
        "bid": 4000,
        "id": 13,
        "price": null,
        "cost": null,
        "direct_dist": 13335,
        "direct_cost": 401,
        "direct_time": 868
      }
    },
    {
      "Delivery": {
        "bid": 1818,
        "id": 10,
        "price": null,
        "cost": null,
        "direct_dist": 6063,
        "direct_cost": 182,
        "direct_time": 498
      }
    },
    {
      "Pickup": {
        "bid": 1818,
        "id": 10,
        "price": null,
        "cost": null,
        "direct_dist": 6063,
        "direct_cost": 182,
        "direct_time": 498
      }
    },
    {
      "Delivery": {
        "bid": 1660,
        "id": 9,
        "price": null,
        "cost": null,
        "direct_dist": 5534,
        "direct_cost": 167,
        "direct_time": 423
      }
    },
    {
      "Pickup": {
        "bid": 1660,
        "id": 9,
        "price": null,
        "cost": null,
        "direct_dist": 5534,
        "direct_cost": 167,
        "direct_time": 423
      }
    },
    {
      "Delivery": {
        "bid": 1400,
        "id": 8,
        "price": null,
        "cost": null,
        "direct_dist": 4668,
        "direct_cost": 141,
        "direct_time": 310
      }
    },
    {
      "Pickup": {
        "bid": 1400,
        "id": 8,
        "price": null,
        "cost": null,
        "direct_dist": 4668,
        "direct_cost": 141,
        "direct_time": 310
      }
    },
    {
      "Delivery": {
        "bid": 4006,
        "id": 7,
        "price": null,
        "cost": null,
        "direct_dist": 13356,
        "direct_cost": 401,
        "direct_time": 896
      }
    },
    {
      "Pickup": {
        "bid": 4006,
        "id": 7,
        "price": null,
        "cost": null,
        "direct_dist": 13356,
        "direct_cost": 401,
        "direct_time": 896
      }
    },
    {
      "Delivery": {
        "bid": 680,
        "id": 6,
        "price": null,
        "cost": null,
        "direct_dist": 8188,
        "direct_cost": 246,
        "direct_time": 608
      }
    },
    {
      "Pickup": {
        "bid": 680,
        "id": 6,
        "price": null,
        "cost": null,
        "direct_dist": 8188,
        "direct_cost": 246,
        "direct_time": 608
      }
    },
    {
      "DriverStart": {
        "arrive_until": 2400,
        "direct_cost": 393
      }
    },
    {
      "DriverEnd": {
        "arrive_until": 2400,
        "direct_cost": 393
      }
    }
  ],
  "node_holes": [],
  "edge_property": "directed",
  "edges": [
    [
      0,
      20,
      {
        "cost": 258.18,
        "seconds": 568
      }
    ],
    [
      0,
      22,
      {
        "cost": 309.12,
        "seconds": 666
      }
    ],
    [
      0,
      24,
      {
        "cost": 452.96999999999999,
        "seconds": 990
      }
    ],
    [
      0,
      18,
      {
        "cost": 175.73999999999999,
        "seconds": 467
      }
    ],
    [
      0,
      23,
      {
        "cost": 242.67,
        "seconds": 620
      }
    ],
    [
      0,
      25,
      {
        "cost": 162.93,
        "seconds": 448
      }
    ],
    [
      0,
      19,
      {
        "cost": 56.85,
        "seconds": 157
      }
    ],
    [
      0,
      16,
      {
        "cost": 425.21999999999999,
        "seconds": 972
      }
    ],
    [
      0,
      12,
      {
        "cost": 246.48,
        "seconds": 553
      }
    ],
    [
      0,
      17,
      {
        "cost": 107.67,
        "seconds": 253
      }
    ],
    [
      0,
      14,
      {
        "cost": 307.34999999999999,
        "seconds": 651
      }
    ],
    [
      0,
      13,
      {
        "cost": 210.32999999999999,
        "seconds": 456
      }
    ],
    [
      0,
      8,
      {
        "cost": 318.36,
        "seconds": 697
      }
    ],
    [
      0,
      15,
      {
        "cost": 86.97,
        "seconds": 234
      }
    ],
    [
      0,
      2,
      {
        "cost": 192.09,
        "seconds": 516
      }
    ],
    [
      0,
      9,
      {
        "cost": 227.64,
        "seconds": 583
      }
    ],
    [
      0,
      10,
      {
        "cost": 303.75,
        "seconds": 676
      }
    ],
    [
      0,
      26,
      {
        "cost": 190.73999999999999,
        "seconds": 429
      }
    ],
    [
      0,
      4,
      {
        "cost": 442.68,
        "seconds": 1008
      }
    ],
    [
      0,
      6,
      {
        "cost": 349.91999999999998,
        "seconds": 851
      }
    ],
    [
      0,
      11,
      {
        "cost": 81.3,
        "seconds": 175
      }
    ],
    [
      0,
      3,
      {
        "cost": 225.66,
        "seconds": 550
      }
    ],
    [
      0,
      5,
      {
        "cost": 254.7,
        "seconds": 578
      }
    ],
    [
      0,
      27,
      {
        "cost": 165.0,
        "seconds": 434
      }
    ],
    [
      0,
      7,
      {
        "cost": 251.39999999999999,
        "seconds": 503
      }
    ],
    [
      1,
      20,
      {
        "cost": 136.10999999999999,
        "seconds": 316
      }
    ],
    [
      1,
      22,
      {
        "cost": 207.75,
        "seconds": 445
      }
    ],
    [
      1,
      18,
      {
        "cost": 173.48999999999999,
        "seconds": 425
      }
    ],
    [
      1,
      25,
      {
        "cost": 81.48,
        "seconds": 193
      }
    ],
    [
      1,
      23,
      {
        "cost": 161.19,
        "seconds": 365
      }
    ],
    [
      1,
      21,
      {
        "cost": 252.03,
        "seconds": 661
      }
    ],
    [
      1,
      19,
      {
        "cost": 127.32,
        "seconds": 294
      }
    ],
    [
      1,
      12,
      {
        "cost": 124.38,
        "seconds": 302
      }
    ],
    [
      1,
      17,
      {
        "cost": 156.18,
        "seconds": 369
      }
    ],
    [
      1,
      13,
      {
        "cost": 134.16,
        "seconds": 330
      }
    ],
    [
      1,
      15,
      {
        "cost": 87.57,
        "seconds": 211
      }
    ],
    [
      1,
      2,
      {
        "cost": 110.61,
        "seconds": 261
      }
    ],
    [
      1,
      9,
      {
        "cost": 151.2,
        "seconds": 400
      }
    ],
    [
      1,
      26,
      {
        "cost": 89.36999999999999,
        "seconds": 208
      }
    ],
    [
      1,
      11,
      {
        "cost": 92.75999999999999,
        "seconds": 215
      }
    ],
    [
      1,
      3,
      {
        "cost": 144.21,
        "seconds": 295
      }
    ],
    [
      1,
      5,
      {
        "cost": 132.6,
        "seconds": 327
      }
    ],
    [
      1,
      7,
      {
        "cost": 181.23,
        "seconds": 412
      }
    ],
    [
      1,
      27,
      {
        "cost": 190.44,
        "seconds": 443
      }
    ],
    [
      1,
      0,
      {
        "cost": 80.85,
        "seconds": 204
      }
    ],
    [
      2,
      0,
      {
        "cost": 173.19,
        "seconds": 438
      }
    ],
    [
      2,
      1,
      {
        "cost": 101.82,
        "seconds": 272
      }
    ],
    [
      2,
      18,
      {
        "cost": 247.98,
        "seconds": 599
      }
    ],
    [
      2,
      24,
      {
        "cost": 442.2,
        "seconds": 935
      }
    ],
    [
      2,
      22,
      {
        "cost": 191.4,
        "seconds": 397
      }
    ],
    [
      2,
      25,
      {
        "cost": 67.05,
        "seconds": 143
      }
    ],
    [
      2,
      19,
      {
        "cost": 219.63,
        "seconds": 527
      }
    ],
    [
      2,
      20,
      {
        "cost": 53.61,
        "seconds": 121
      }
    ],
    [
      2,
      23,
      {
        "cost": 56.07,
        "seconds": 132
      }
    ],
    [
      2,
      26,
      {
        "cost": 148.82999999999999,
        "seconds": 289
      }
    ],
    [
      2,
      21,
      {
        "cost": 156.69,
        "seconds": 433
      }
    ],
    [
      2,
      16,
      {
        "cost": 438.59999999999999,
        "seconds": 927
      }
    ],
    [
      2,
      27,
      {
        "cost": 244.56,
        "seconds": 666
      }
    ],
    [
      2,
      17,
      {
        "cost": 248.73,
        "seconds": 592
      }
    ],
    [
      2,
      10,
      {
        "cost": 101.19,
        "seconds": 274
      }
    ],
    [
      2,
      12,
      {
        "cost": 41.22,
        "seconds": 155
      }
    ],
    [
      2,
      14,
      {
        "cost": 247.56,
        "seconds": 513
      }
    ],
    [
      2,
      8,
      {
        "cost": 331.71,
        "seconds": 652
      }
    ],
    [
      2,
      4,
      {
        "cost": 456.06,
        "seconds": 962
      }
    ],
    [
      2,
      6,
      {
        "cost": 409.44,
        "seconds": 847
      }
    ],
    [
      2,
      11,
      {
        "cost": 165.72,
        "seconds": 407
      }
    ],
    [
      2,
      13,
      {
        "cost": 194.54999999999999,
        "seconds": 498
      }
    ],
    [
      2,
      7,
      {
        "cost": 109.05,
        "seconds": 340
      }
    ],
    [
      2,
      5,
      {
        "cost": 59.129999999999998,
        "seconds": 205
      }
    ],
    [
      2,
      15,
      {
        "cost": 179.88,
        "seconds": 445
      }
    ],
    [
      2,
      9,
      {
        "cost": 185.34,
        "seconds": 423
      }
    ],
    [
      3,
      1,
      {
        "cost": 107.49,
        "seconds": 250
      }
    ],
    [
      3,
      0,
      {
        "cost": 178.85999999999999,
        "seconds": 416
      }
    ],
    [
      3,
      19,
      {
        "cost": 225.29999999999999,
        "seconds": 506
      }
    ],
    [
      3,
      25,
      {
        "cost": 60.93,
        "seconds": 158
      }
    ],
    [
      3,
      22,
      {
        "cost": 182.64,
        "seconds": 384
      }
    ],
    [
      3,
      20,
      {
        "cost": 22.95,
        "seconds": 65
      }
    ],
    [
      3,
      26,
      {
        "cost": 99.03,
        "seconds": 292
      }
    ],
    [
      3,
      23,
      {
        "cost": 49.89,
        "seconds": 149
      }
    ],
    [
      3,
      21,
      {
        "cost": 179.94,
        "seconds": 541
      }
    ],
    [
      3,
      27,
      {
        "cost": 250.23,
        "seconds": 644
      }
    ],
    [
      3,
      10,
      {
        "cost": 142.44,
        "seconds": 417
      }
    ],
    [
      3,
      17,
      {
        "cost": 254.39999999999999,
        "seconds": 570
      }
    ],
    [
      3,
      12,
      {
        "cost": 14.25,
        "seconds": 54
      }
    ],
    [
      3,
      11,
      {
        "cost": 171.39,
        "seconds": 386
      }
    ],
    [
      3,
      15,
      {
        "cost": 185.54999999999999,
        "seconds": 423
      }
    ],
    [
      3,
      9,
      {
        "cost": 172.2,
        "seconds": 413
      }
    ],
    [
      3,
      5,
      {
        "cost": 12.51,
        "seconds": 48
      }
    ],
    [
      3,
      7,
      {
        "cost": 205.73999999999999,
        "seconds": 463
      }
    ],
    [
      3,
      13,
      {
        "cost": 214.29,
        "seconds": 482
      }
    ],
    [
      3,
      2,
      {
        "cost": 46.589999999999999,
        "seconds": 175
      }
    ],
    [
      4,
      6,
      {
        "cost": 98.49,
        "seconds": 281
      }
    ],
    [
      4,
      16,
      {
        "cost": 49.65,
        "seconds": 187
      }
    ],
    [
      4,
      24,
      {
        "cost": 194.67,
        "seconds": 448
      }
    ],
    [
      5,
      1,
      {
        "cost": 120.0,
        "seconds": 298
      }
    ],
    [
      5,
      0,
      {
        "cost": 191.34,
        "seconds": 464
      }
    ],
    [
      5,
      3,
      {
        "cost": 12.51,
        "seconds": 48
      }
    ],
    [
      5,
      2,
      {
        "cost": 53.19,
        "seconds": 200
      }
    ],
    [
      5,
      8,
      {
        "cost": 329.78999999999999,
        "seconds": 710
      }
    ],
    [
      5,
      14,
      {
        "cost": 231.81,
        "seconds": 467
      }
    ],
    [
      5,
      9,
      {
        "cost": 169.82999999999999,
        "seconds": 404
      }
    ],
    [
      5,
      6,
      {
        "cost": 407.49,
        "seconds": 905
      }
    ],
    [
      5,
      15,
      {
        "cost": 198.06,
        "seconds": 472
      }
    ],
    [
      5,
      12,
      {
        "cost": 20.849999999999999,
        "seconds": 80
      }
    ],
    [
      5,
      10,
      {
        "cost": 149.01,
        "seconds": 442
      }
    ],
    [
      5,
      16,
      {
        "cost": 436.65,
        "seconds": 984
      }
    ],
    [
      5,
      19,
      {
        "cost": 237.81,
        "seconds": 554
      }
    ],
    [
      5,
      7,
      {
        "cost": 156.87,
        "seconds": 508
      }
    ],
    [
      5,
      22,
      {
        "cost": 180.26999999999999,
        "seconds": 375
      }
    ],
    [
      5,
      13,
      {
        "cost": 226.79999999999999,
        "seconds": 531
      }
    ],
    [
      5,
      17,
      {
        "cost": 266.90999999999999,
        "seconds": 618
      }
    ],
    [
      5,
      26,
      {
        "cost": 96.69,
        "seconds": 282
      }
    ],
    [
      5,
      23,
      {
        "cost": 56.46,
        "seconds": 174
      }
    ],
    [
      5,
      20,
      {
        "cost": 29.52,
        "seconds": 91
      }
    ],
    [
      5,
      24,
      {
        "cost": 446.37,
        "seconds": 925
      }
    ],
    [
      5,
      11,
      {
        "cost": 183.9,
        "seconds": 434
      }
    ],
    [
      5,
      27,
      {
        "cost": 262.74,
        "seconds": 693
      }
    ],
    [
      5,
      25,
      {
        "cost": 65.1,
        "seconds": 200
      }
    ],
    [
      5,
      21,
      {
        "cost": 186.51,
        "seconds": 566
      }
    ],
    [
      5,
      4,
      {
        "cost": 454.14,
        "seconds": 1020
      }
    ],
    [
      6,
      4,
      {
        "cost": 144.54,
        "seconds": 353
      }
    ],
    [
      6,
      24,
      {
        "cost": 242.79,
        "seconds": 616
      }
    ],
    [
      6,
      8,
      {
        "cost": 82.95,
        "seconds": 215
      }
    ],
    [
      6,
      16,
      {
        "cost": 128.16,
        "seconds": 387
      }
    ],
    [
      7,
      1,
      {
        "cost": 148.2,
        "seconds": 345
      }
    ],
    [
      7,
      0,
      {
        "cost": 278.28,
        "seconds": 545
      }
    ],
    [
      7,
      3,
      {
        "cost": 156.78,
        "seconds": 494
      }
    ],
    [
      7,
      2,
      {
        "cost": 110.61,
        "seconds": 356
      }
    ],
    [
      7,
      5,
      {
        "cost": 163.35,
        "seconds": 519
      }
    ],
    [
      7,
      4,
      {
        "cost": 556.53,
        "seconds": 1248
      }
    ],
    [
      7,
      26,
      {
        "cost": 226.41,
        "seconds": 521
      }
    ],
    [
      7,
      10,
      {
        "cost": 92.19,
        "seconds": 290
      }
    ],
    [
      7,
      12,
      {
        "cost": 145.53,
        "seconds": 470
      }
    ],
    [
      7,
      20,
      {
        "cost": 164.25,
        "seconds": 477
      }
    ],
    [
      7,
      22,
      {
        "cost": 309.03,
        "seconds": 714
      }
    ],
    [
      7,
      24,
      {
        "cost": 542.67,
        "seconds": 1220
      }
    ],
    [
      7,
      13,
      {
        "cost": 131.28,
        "seconds": 318
      }
    ],
    [
      7,
      11,
      {
        "cost": 233.85,
        "seconds": 556
      }
    ],
    [
      7,
      27,
      {
        "cost": 191.22,
        "seconds": 542
      }
    ],
    [
      7,
      21,
      {
        "cost": 130.41,
        "seconds": 400
      }
    ],
    [
      7,
      23,
      {
        "cost": 166.68,
        "seconds": 488
      }
    ],
    [
      7,
      25,
      {
        "cost": 168.21,
        "seconds": 424
      }
    ],
    [
      7,
      8,
      {
        "cost": 432.18,
        "seconds": 937
      }
    ],
    [
      7,
      14,
      {
        "cost": 401.90999999999999,
        "seconds": 811
      }
    ],
    [
      7,
      18,
      {
        "cost": 194.64,
        "seconds": 475
      }
    ],
    [
      7,
      16,
      {
        "cost": 539.0699999999999,
        "seconds": 1212
      }
    ],
    [
      7,
      19,
      {
        "cost": 289.89,
        "seconds": 573
      }
    ],
    [
      7,
      9,
      {
        "cost": 285.81,
        "seconds": 709
      }
    ],
    [
      7,
      15,
      {
        "cost": 221.85,
        "seconds": 432
      }
    ],
    [
      7,
      17,
      {
        "cost": 304.40999999999999,
        "seconds": 715
      }
    ],
    [
      7,
      6,
      {
        "cost": 509.90999999999999,
        "seconds": 1132
      }
    ],
    [
      8,
      4,
      {
        "cost": 142.56,
        "seconds": 472
      }
    ],
    [
      8,
      6,
      {
        "cost": 92.91,
        "seconds": 262
      }
    ],
    [
      8,
      26,
      {
        "cost": 263.49,
        "seconds": 589
      }
    ],
    [
      8,
      12,
      {
        "cost": 319.22999999999998,
        "seconds": 712
      }
    ],
    [
      8,
      10,
      {
        "cost": 403.2,
        "seconds": 934
      }
    ],
    [
      8,
      20,
      {
        "cost": 330.93,
        "seconds": 727
      }
    ],
    [
      8,
      16,
      {
        "cost": 157.2,
        "seconds": 447
      }
    ],
    [
      8,
      24,
      {
        "cost": 251.07,
        "seconds": 560
      }
    ],
    [
      8,
      14,
      {
        "cost": 198.20999999999999,
        "seconds": 429
      }
    ],
    [
      8,
      22,
      {
        "cost": 269.82,
        "seconds": 555
      }
    ],
    [
      9,
      1,
      {
        "cost": 177.93,
        "seconds": 409
      }
    ],
    [
      9,
      0,
      {
        "cost": 204.32999999999999,
        "seconds": 491
      }
    ],
    [
      9,
      3,
      {
        "cost": 180.45,
        "seconds": 406
      }
    ],
    [
      9,
      2,
      {
        "cost": 190.68,
        "seconds": 390
      }
    ],
    [
      9,
      5,
      {
        "cost": 187.01999999999999,
        "seconds": 431
      }
    ],
    [
      9,
      7,
      {
        "cost": 295.17,
        "seconds": 691
      }
    ],
    [
      9,
      6,
      {
        "cost": 284.46,
        "seconds": 626
      }
    ],
    [
      9,
      26,
      {
        "cost": 123.06,
        "seconds": 282
      }
    ],
    [
      9,
      12,
      {
        "cost": 178.79999999999999,
        "seconds": 406
      }
    ],
    [
      9,
      13,
      {
        "cost": 280.14,
        "seconds": 625
      }
    ],
    [
      9,
      27,
      {
        "cost": 337.38,
        "seconds": 787
      }
    ],
    [
      9,
      11,
      {
        "cost": 187.32,
        "seconds": 454
      }
    ],
    [
      9,
      20,
      {
        "cost": 190.5,
        "seconds": 421
      }
    ],
    [
      9,
      16,
      {
        "cost": 313.62,
        "seconds": 705
      }
    ],
    [
      9,
      17,
      {
        "cost": 253.47,
        "seconds": 557
      }
    ],
    [
      9,
      21,
      {
        "cost": 275.67,
        "seconds": 732
      }
    ],
    [
      9,
      25,
      {
        "cost": 133.76999999999999,
        "seconds": 308
      }
    ],
    [
      9,
      14,
      {
        "cost": 90.11999999999999,
        "seconds": 244
      }
    ],
    [
      9,
      22,
      {
        "cost": 83.46,
        "seconds": 250
      }
    ],
    [
      9,
      23,
      {
        "cost": 170.51999999999999,
        "seconds": 430
      }
    ],
    [
      9,
      15,
      {
        "cost": 234.51,
        "seconds": 556
      }
    ],
    [
      9,
      8,
      {
        "cost": 206.76,
        "seconds": 430
      }
    ],
    [
      10,
      2,
      {
        "cost": 102.57,
        "seconds": 290
      }
    ],
    [
      10,
      4,
      {
        "cost": 538.05,
        "seconds": 1179
      }
    ],
    [
      10,
      6,
      {
        "cost": 491.43,
        "seconds": 1064
      }
    ],
    [
      10,
      26,
      {
        "cost": 234.32999999999999,
        "seconds": 525
      }
    ],
    [
      10,
      24,
      {
        "cost": 493.08,
        "seconds": 1070
      }
    ],
    [
      10,
      22,
      {
        "cost": 218.28,
        "seconds": 483
      }
    ],
    [
      10,
      12,
      {
        "cost": 122.46,
        "seconds": 374
      }
    ],
    [
      10,
      14,
      {
        "cost": 278.49,
        "seconds": 612
      }
    ],
    [
      10,
      18,
      {
        "cost": 253.35,
        "seconds": 668
      }
    ],
    [
      10,
      20,
      {
        "cost": 105.33,
        "seconds": 329
      }
    ],
    [
      11,
      1,
      {
        "cost": 131.19,
        "seconds": 319
      }
    ],
    [
      11,
      0,
      {
        "cost": 58.739999999999998,
        "seconds": 187
      }
    ],
    [
      11,
      3,
      {
        "cost": 204.81,
        "seconds": 446
      }
    ],
    [
      11,
      2,
      {
        "cost": 172.47,
        "seconds": 420
      }
    ],
    [
      11,
      5,
      {
        "cost": 211.38,
        "seconds": 471
      }
    ],
    [
      11,
      7,
      {
        "cost": 251.51999999999999,
        "seconds": 614
      }
    ],
    [
      11,
      9,
      {
        "cost": 184.32,
        "seconds": 476
      }
    ],
    [
      11,
      8,
      {
        "cost": 255.51,
        "seconds": 589
      }
    ],
    [
      11,
      26,
      {
        "cost": 147.42,
        "seconds": 323
      }
    ],
    [
      11,
      27,
      {
        "cost": 235.44,
        "seconds": 568
      }
    ],
    [
      11,
      22,
      {
        "cost": 265.83,
        "seconds": 560
      }
    ],
    [
      11,
      12,
      {
        "cost": 203.16,
        "seconds": 446
      }
    ],
    [
      11,
      25,
      {
        "cost": 158.13,
        "seconds": 348
      }
    ],
    [
      11,
      23,
      {
        "cost": 223.04999999999999,
        "seconds": 524
      }
    ],
    [
      11,
      14,
      {
        "cost": 262.8,
        "seconds": 547
      }
    ],
    [
      11,
      18,
      {
        "cost": 246.17999999999999,
        "seconds": 600
      }
    ],
    [
      11,
      13,
      {
        "cost": 233.39999999999999,
        "seconds": 534
      }
    ],
    [
      11,
      20,
      {
        "cost": 214.85999999999999,
        "seconds": 461
      }
    ],
    [
      11,
      19,
      {
        "cost": 108.75,
        "seconds": 282
      }
    ],
    [
      11,
      15,
      {
        "cost": 132.57,
        "seconds": 336
      }
    ],
    [
      11,
      21,
      {
        "cost": 313.86,
        "seconds": 820
      }
    ],
    [
      11,
      10,
      {
        "cost": 258.36,
        "seconds": 661
      }
    ],
    [
      12,
      0,
      {
        "cost": 174.78,
        "seconds": 435
      }
    ],
    [
      12,
      1,
      {
        "cost": 103.41,
        "seconds": 268
      }
    ],
    [
      12,
      2,
      {
        "cost": 32.46,
        "seconds": 121
      }
    ],
    [
      12,
      3,
      {
        "cost": 23.46,
        "seconds": 72
      }
    ],
    [
      12,
      5,
      {
        "cost": 30.029999999999999,
        "seconds": 97
      }
    ],
    [
      12,
      4,
      {
        "cost": 433.28999999999999,
        "seconds": 940
      }
    ],
    [
      12,
      6,
      {
        "cost": 386.66999999999998,
        "seconds": 825
      }
    ],
    [
      12,
      8,
      {
        "cost": 308.94,
        "seconds": 630
      }
    ],
    [
      12,
      10,
      {
        "cost": 128.28,
        "seconds": 363
      }
    ],
    [
      12,
      20,
      {
        "cost": 24.96,
        "seconds": 83
      }
    ],
    [
      12,
      18,
      {
        "cost": 249.57,
        "seconds": 596
      }
    ],
    [
      12,
      16,
      {
        "cost": 415.83,
        "seconds": 905
      }
    ],
    [
      12,
      14,
      {
        "cost": 219.72,
        "seconds": 506
      }
    ],
    [
      12,
      26,
      {
        "cost": 126.06,
        "seconds": 267
      }
    ],
    [
      12,
      22,
      {
        "cost": 168.18,
        "seconds": 414
      }
    ],
    [
      12,
      24,
      {
        "cost": 419.43,
        "seconds": 913
      }
    ],
    [
      12,
      23,
      {
        "cost": 51.9,
        "seconds": 166
      }
    ],
    [
      12,
      25,
      {
        "cost": 44.28,
        "seconds": 120
      }
    ],
    [
      13,
      1,
      {
        "cost": 131.76,
        "seconds": 311
      }
    ],
    [
      13,
      0,
      {
        "cost": 216.23999999999999,
        "seconds": 467
      }
    ],
    [
      13,
      3,
      {
        "cost": 241.23,
        "seconds": 553
      }
    ],
    [
      13,
      2,
      {
        "cost": 198.09,
        "seconds": 518
      }
    ],
    [
      13,
      5,
      {
        "cost": 229.62,
        "seconds": 585
      }
    ],
    [
      13,
      7,
      {
        "cost": 184.35,
        "seconds": 403
      }
    ],
    [
      13,
      9,
      {
        "cost": 273.36,
        "seconds": 684
      }
    ],
    [
      13,
      11,
      {
        "cost": 218.97,
        "seconds": 526
      }
    ],
    [
      13,
      10,
      {
        "cost": 236.7,
        "seconds": 576
      }
    ],
    [
      13,
      20,
      {
        "cost": 233.13,
        "seconds": 575
      }
    ],
    [
      13,
      18,
      {
        "cost": 128.73,
        "seconds": 331
      }
    ],
    [
      13,
      21,
      {
        "cost": 270.36,
        "seconds": 691
      }
    ],
    [
      13,
      14,
      {
        "cost": 343.32,
        "seconds": 823
      }
    ],
    [
      13,
      26,
      {
        "cost": 211.53,
        "seconds": 491
      }
    ],
    [
      13,
      17,
      {
        "cost": 293.43,
        "seconds": 650
      }
    ],
    [
      13,
      19,
      {
        "cost": 227.85,
        "seconds": 494
      }
    ],
    [
      13,
      22,
      {
        "cost": 329.90999999999999,
        "seconds": 728
      }
    ],
    [
      13,
      15,
      {
        "cost": 159.78,
        "seconds": 353
      }
    ],
    [
      13,
      27,
      {
        "cost": 125.31,
        "seconds": 398
      }
    ],
    [
      13,
      23,
      {
        "cost": 258.21,
        "seconds": 623
      }
    ],
    [
      13,
      25,
      {
        "cost": 178.5,
        "seconds": 452
      }
    ],
    [
      13,
      12,
      {
        "cost": 221.4,
        "seconds": 560
      }
    ],
    [
      14,
      4,
      {
        "cost": 314.64,
        "seconds": 695
      }
    ],
    [
      14,
      6,
      {
        "cost": 281.19,
        "seconds": 586
      }
    ],
    [
      14,
      8,
      {
        "cost": 200.19,
        "seconds": 416
      }
    ],
    [
      14,
      10,
      {
        "cost": 297.71999999999999,
        "seconds": 724
      }
    ],
    [
      14,
      12,
      {
        "cost": 266.52,
        "seconds": 559
      }
    ],
    [
      14,
      16,
      {
        "cost": 294.24,
        "seconds": 656
      }
    ],
    [
      14,
      20,
      {
        "cost": 214.70999999999999,
        "seconds": 515
      }
    ],
    [
      14,
      26,
      {
        "cost": 210.78,
        "seconds": 435
      }
    ],
    [
      14,
      24,
      {
        "cost": 241.01999999999999,
        "seconds": 549
      }
    ],
    [
      14,
      22,
      {
        "cost": 143.07,
        "seconds": 385
      }
    ],
    [
      15,
      1,
      {
        "cost": 109.74,
        "seconds": 271
      }
    ],
    [
      15,
      0,
      {
        "cost": 79.5,
        "seconds": 187
      }
    ],
    [
      15,
      3,
      {
        "cost": 234.81,
        "seconds": 516
      }
    ],
    [
      15,
      2,
      {
        "cost": 201.20999999999999,
        "seconds": 483
      }
    ],
    [
      15,
      5,
      {
        "cost": 223.2,
        "seconds": 548
      }
    ],
    [
      15,
      7,
      {
        "cost": 212.37,
        "seconds": 408
      }
    ],
    [
      15,
      9,
      {
        "cost": 224.67,
        "seconds": 574
      }
    ],
    [
      15,
      8,
      {
        "cost": 342.15,
        "seconds": 758
      }
    ],
    [
      15,
      11,
      {
        "cost": 135.48,
        "seconds": 293
      }
    ],
    [
      15,
      10,
      {
        "cost": 264.71999999999999,
        "seconds": 581
      }
    ],
    [
      15,
      13,
      {
        "cost": 171.29999999999999,
        "seconds": 361
      }
    ],
    [
      15,
      12,
      {
        "cost": 215.01,
        "seconds": 523
      }
    ],
    [
      15,
      20,
      {
        "cost": 226.70999999999999,
        "seconds": 538
      }
    ],
    [
      15,
      17,
      {
        "cost": 156.66,
        "seconds": 371
      }
    ],
    [
      15,
      26,
      {
        "cost": 187.76999999999999,
        "seconds": 421
      }
    ],
    [
      15,
      18,
      {
        "cost": 159.9,
        "seconds": 399
      }
    ],
    [
      15,
      21,
      {
        "cost": 298.38,
        "seconds": 695
      }
    ],
    [
      15,
      19,
      {
        "cost": 91.11,
        "seconds": 215
      }
    ],
    [
      15,
      24,
      {
        "cost": 476.78999999999999,
        "seconds": 1050
      }
    ],
    [
      15,
      22,
      {
        "cost": 306.15,
        "seconds": 658
      }
    ],
    [
      15,
      27,
      {
        "cost": 149.16,
        "seconds": 366
      }
    ],
    [
      15,
      25,
      {
        "cost": 172.07999999999999,
        "seconds": 415
      }
    ],
    [
      15,
      23,
      {
        "cost": 251.79,
        "seconds": 586
      }
    ],
    [
      15,
      14,
      {
        "cost": 331.17,
        "seconds": 711
      }
    ],
    [
      16,
      4,
      {
        "cost": 47.97,
        "seconds": 157
      }
    ],
    [
      16,
      6,
      {
        "cost": 138.63,
        "seconds": 388
      }
    ],
    [
      16,
      8,
      {
        "cost": 154.65,
        "seconds": 409
      }
    ],
    [
      16,
      14,
      {
        "cost": 332.46,
        "seconds": 714
      }
    ],
    [
      16,
      24,
      {
        "cost": 165.66,
        "seconds": 358
      }
    ],
    [
      17,
      1,
      {
        "cost": 209.25,
        "seconds": 511
      }
    ],
    [
      17,
      0,
      {
        "cost": 128.94,
        "seconds": 312
      }
    ],
    [
      17,
      3,
      {
        "cost": 290.82,
        "seconds": 635
      }
    ],
    [
      17,
      2,
      {
        "cost": 257.21999999999999,
        "seconds": 601
      }
    ],
    [
      17,
      5,
      {
        "cost": 279.21,
        "seconds": 666
      }
    ],
    [
      17,
      4,
      {
        "cost": 417.51,
        "seconds": 904
      }
    ],
    [
      17,
      7,
      {
        "cost": 349.44,
        "seconds": 721
      }
    ],
    [
      17,
      6,
      {
        "cost": 284.43,
        "seconds": 742
      }
    ],
    [
      17,
      9,
      {
        "cost": 263.46,
        "seconds": 596
      }
    ],
    [
      17,
      8,
      {
        "cost": 293.19,
        "seconds": 594
      }
    ],
    [
      17,
      13,
      {
        "cost": 308.37,
        "seconds": 674
      }
    ],
    [
      17,
      12,
      {
        "cost": 270.99,
        "seconds": 641
      }
    ],
    [
      17,
      15,
      {
        "cost": 185.54999999999999,
        "seconds": 453
      }
    ],
    [
      17,
      14,
      {
        "cost": 312.06,
        "seconds": 600
      }
    ],
    [
      17,
      22,
      {
        "cost": 328.46999999999999,
        "seconds": 683
      }
    ],
    [
      17,
      26,
      {
        "cost": 226.44,
        "seconds": 518
      }
    ],
    [
      17,
      23,
      {
        "cost": 307.8,
        "seconds": 705
      }
    ],
    [
      17,
      24,
      {
        "cost": 427.83,
        "seconds": 886
      }
    ],
    [
      17,
      27,
      {
        "cost": 263.03999999999999,
        "seconds": 652
      }
    ],
    [
      17,
      25,
      {
        "cost": 228.09,
        "seconds": 533
      }
    ],
    [
      17,
      19,
      {
        "cost": 102.21,
        "seconds": 241
      }
    ],
    [
      17,
      16,
      {
        "cost": 400.05,
        "seconds": 868
      }
    ],
    [
      18,
      0,
      {
        "cost": 184.95,
        "seconds": 463
      }
    ],
    [
      18,
      4,
      {
        "cost": 582.39,
        "seconds": 1295
      }
    ],
    [
      18,
      6,
      {
        "cost": 535.74,
        "seconds": 1180
      }
    ],
    [
      18,
      10,
      {
        "cost": 275.01,
        "seconds": 648
      }
    ],
    [
      18,
      12,
      {
        "cost": 259.71,
        "seconds": 632
      }
    ],
    [
      18,
      13,
      {
        "cost": 120.47999999999999,
        "seconds": 285
      }
    ],
    [
      18,
      14,
      {
        "cost": 381.63,
        "seconds": 895
      }
    ],
    [
      18,
      16,
      {
        "cost": 564.9,
        "seconds": 1259
      }
    ],
    [
      18,
      26,
      {
        "cost": 249.84,
        "seconds": 563
      }
    ],
    [
      18,
      20,
      {
        "cost": 271.44,
        "seconds": 647
      }
    ],
    [
      18,
      27,
      {
        "cost": 25.02,
        "seconds": 96
      }
    ],
    [
      19,
      1,
      {
        "cost": 149.57999999999999,
        "seconds": 377
      }
    ],
    [
      19,
      0,
      {
        "cost": 75.03,
        "seconds": 200
      }
    ],
    [
      19,
      3,
      {
        "cost": 274.65,
        "seconds": 622
      }
    ],
    [
      19,
      2,
      {
        "cost": 241.07999999999999,
        "seconds": 588
      }
    ],
    [
      19,
      7,
      {
        "cost": 257.55,
        "seconds": 534
      }
    ],
    [
      19,
      11,
      {
        "cost": 114.86999999999999,
        "seconds": 250
      }
    ],
    [
      19,
      10,
      {
        "cost": 309.9,
        "seconds": 707
      }
    ],
    [
      19,
      13,
      {
        "cost": 216.48,
        "seconds": 487
      }
    ],
    [
      19,
      12,
      {
        "cost": 254.85,
        "seconds": 628
      }
    ],
    [
      19,
      15,
      {
        "cost": 93.66,
        "seconds": 266
      }
    ],
    [
      19,
      26,
      {
        "cost": 226.01999999999999,
        "seconds": 515
      }
    ],
    [
      19,
      20,
      {
        "cost": 266.55,
        "seconds": 643
      }
    ],
    [
      19,
      22,
      {
        "cost": 344.43,
        "seconds": 753
      }
    ],
    [
      19,
      27,
      {
        "cost": 171.15,
        "seconds": 465
      }
    ],
    [
      19,
      23,
      {
        "cost": 291.65999999999999,
        "seconds": 692
      }
    ],
    [
      19,
      21,
      {
        "cost": 343.56,
        "seconds": 822
      }
    ],
    [
      19,
      18,
      {
        "cost": 181.89,
        "seconds": 498
      }
    ],
    [
      20,
      0,
      {
        "cost": 204.84,
        "seconds": 491
      }
    ],
    [
      20,
      1,
      {
        "cost": 133.47,
        "seconds": 324
      }
    ],
    [
      20,
      2,
      {
        "cost": 39.75,
        "seconds": 145
      }
    ],
    [
      20,
      3,
      {
        "cost": 30.93,
        "seconds": 99
      }
    ],
    [
      20,
      5,
      {
        "cost": 31.41,
        "seconds": 122
      }
    ],
    [
      20,
      4,
      {
        "cost": 454.14,
        "seconds": 1007
      }
    ],
    [
      20,
      6,
      {
        "cost": 407.52,
        "seconds": 892
      }
    ],
    [
      20,
      8,
      {
        "cost": 329.78999999999999,
        "seconds": 697
      }
    ],
    [
      20,
      9,
      {
        "cost": 138.72,
        "seconds": 378
      }
    ],
    [
      20,
      10,
      {
        "cost": 115.83,
        "seconds": 368
      }
    ],
    [
      20,
      12,
      {
        "cost": 20.849999999999999,
        "seconds": 67
      }
    ],
    [
      20,
      14,
      {
        "cost": 200.7,
        "seconds": 442
      }
    ],
    [
      20,
      18,
      {
        "cost": 279.63,
        "seconds": 652
      }
    ],
    [
      20,
      26,
      {
        "cost": 98.1,
        "seconds": 296
      }
    ],
    [
      20,
      24,
      {
        "cost": 415.26,
        "seconds": 899
      }
    ],
    [
      20,
      22,
      {
        "cost": 149.16,
        "seconds": 350
      }
    ],
    [
      20,
      25,
      {
        "cost": 65.13,
        "seconds": 187
      }
    ],
    [
      20,
      23,
      {
        "cost": 29.7,
        "seconds": 98
      }
    ],
    [
      21,
      1,
      {
        "cost": 241.92,
        "seconds": 649
      }
    ],
    [
      21,
      3,
      {
        "cost": 193.23,
        "seconds": 501
      }
    ],
    [
      21,
      2,
      {
        "cost": 183.72,
        "seconds": 431
      }
    ],
    [
      21,
      5,
      {
        "cost": 199.79999999999999,
        "seconds": 526
      }
    ],
    [
      21,
      7,
      {
        "cost": 126.53999999999999,
        "seconds": 399
      }
    ],
    [
      21,
      9,
      {
        "cost": 247.17,
        "seconds": 572
      }
    ],
    [
      21,
      11,
      {
        "cost": 367.32,
        "seconds": 802
      }
    ],
    [
      21,
      10,
      {
        "cost": 93.84,
        "seconds": 238
      }
    ],
    [
      21,
      13,
      {
        "cost": 231.57,
        "seconds": 628
      }
    ],
    [
      21,
      12,
      {
        "cost": 183.15,
        "seconds": 468
      }
    ],
    [
      21,
      15,
      {
        "cost": 322.11,
        "seconds": 743
      }
    ],
    [
      21,
      14,
      {
        "cost": 317.82,
        "seconds": 673
      }
    ],
    [
      21,
      19,
      {
        "cost": 390.18,
        "seconds": 883
      }
    ],
    [
      21,
      26,
      {
        "cost": 274.77,
        "seconds": 588
      }
    ],
    [
      21,
      22,
      {
        "cost": 257.61,
        "seconds": 544
      }
    ],
    [
      21,
      27,
      {
        "cost": 291.51,
        "seconds": 852
      }
    ],
    [
      21,
      25,
      {
        "cost": 221.34,
        "seconds": 540
      }
    ],
    [
      21,
      23,
      {
        "cost": 146.25,
        "seconds": 355
      }
    ],
    [
      21,
      20,
      {
        "cost": 166.01999999999999,
        "seconds": 423
      }
    ],
    [
      22,
      0,
      {
        "cost": 193.01999999999999,
        "seconds": 446
      }
    ],
    [
      22,
      1,
      {
        "cost": 166.95,
        "seconds": 370
      }
    ],
    [
      22,
      3,
      {
        "cost": 169.47,
        "seconds": 367
      }
    ],
    [
      22,
      2,
      {
        "cost": 179.7,
        "seconds": 351
      }
    ],
    [
      22,
      4,
      {
        "cost": 319.77,
        "seconds": 696
      }
    ],
    [
      22,
      5,
      {
        "cost": 176.04,
        "seconds": 392
      }
    ],
    [
      22,
      6,
      {
        "cost": 273.15,
        "seconds": 581
      }
    ],
    [
      22,
      9,
      {
        "cost": 70.59,
        "seconds": 202
      }
    ],
    [
      22,
      8,
      {
        "cost": 195.42,
        "seconds": 385
      }
    ],
    [
      22,
      10,
      {
        "cost": 265.59,
        "seconds": 592
      }
    ],
    [
      22,
      11,
      {
        "cost": 176.01,
        "seconds": 409
      }
    ],
    [
      22,
      12,
      {
        "cost": 167.82,
        "seconds": 367
      }
    ],
    [
      22,
      15,
      {
        "cost": 223.17,
        "seconds": 511
      }
    ],
    [
      22,
      14,
      {
        "cost": 125.22,
        "seconds": 332
      }
    ],
    [
      22,
      16,
      {
        "cost": 302.31,
        "seconds": 660
      }
    ],
    [
      22,
      17,
      {
        "cost": 242.13,
        "seconds": 512
      }
    ],
    [
      22,
      18,
      {
        "cost": 308.49,
        "seconds": 681
      }
    ],
    [
      22,
      19,
      {
        "cost": 239.45999999999999,
        "seconds": 536
      }
    ],
    [
      22,
      20,
      {
        "cost": 179.51999999999999,
        "seconds": 382
      }
    ],
    [
      22,
      24,
      {
        "cost": 330.06,
        "seconds": 678
      }
    ],
    [
      22,
      26,
      {
        "cost": 112.08,
        "seconds": 243
      }
    ],
    [
      22,
      25,
      {
        "cost": 122.78999999999999,
        "seconds": 268
      }
    ],
    [
      23,
      1,
      {
        "cost": 171.57,
        "seconds": 371
      }
    ],
    [
      23,
      0,
      {
        "cost": 242.91,
        "seconds": 538
      }
    ],
    [
      23,
      3,
      {
        "cost": 59.099999999999997,
        "seconds": 180
      }
    ],
    [
      23,
      2,
      {
        "cost": 56.46,
        "seconds": 150
      }
    ],
    [
      23,
      5,
      {
        "cost": 65.7,
        "seconds": 206
      }
    ],
    [
      23,
      7,
      {
        "cost": 165.51,
        "seconds": 490
      }
    ],
    [
      23,
      9,
      {
        "cost": 129.63,
        "seconds": 339
      }
    ],
    [
      23,
      8,
      {
        "cost": 335.49,
        "seconds": 696
      }
    ],
    [
      23,
      11,
      {
        "cost": 235.47,
        "seconds": 507
      }
    ],
    [
      23,
      10,
      {
        "cost": 98.46,
        "seconds": 322
      }
    ],
    [
      23,
      13,
      {
        "cost": 278.37,
        "seconds": 604
      }
    ],
    [
      23,
      12,
      {
        "cost": 49.019999999999999,
        "seconds": 148
      }
    ],
    [
      23,
      15,
      {
        "cost": 249.63,
        "seconds": 545
      }
    ],
    [
      23,
      14,
      {
        "cost": 191.57999999999999,
        "seconds": 402
      }
    ],
    [
      23,
      17,
      {
        "cost": 318.47999999999998,
        "seconds": 691
      }
    ],
    [
      23,
      19,
      {
        "cost": 289.38,
        "seconds": 627
      }
    ],
    [
      23,
      21,
      {
        "cost": 142.38,
        "seconds": 444
      }
    ],
    [
      23,
      20,
      {
        "cost": 31.919999999999999,
        "seconds": 103
      }
    ],
    [
      23,
      26,
      {
        "cost": 127.8,
        "seconds": 310
      }
    ],
    [
      23,
      25,
      {
        "cost": 93.3,
        "seconds": 268
      }
    ],
    [
      23,
      27,
      {
        "cost": 314.31,
        "seconds": 766
      }
    ],
    [
      23,
      22,
      {
        "cost": 140.04,
        "seconds": 310
      }
    ],
    [
      24,
      4,
      {
        "cost": 189.03,
        "seconds": 392
      }
    ],
    [
      24,
      6,
      {
        "cost": 271.68,
        "seconds": 613
      }
    ],
    [
      24,
      14,
      {
        "cost": 251.31,
        "seconds": 568
      }
    ],
    [
      24,
      16,
      {
        "cost": 168.63,
        "seconds": 353
      }
    ],
    [
      25,
      1,
      {
        "cost": 63.12,
        "seconds": 171
      }
    ],
    [
      25,
      0,
      {
        "cost": 134.49,
        "seconds": 337
      }
    ],
    [
      25,
      3,
      {
        "cost": 66.75,
        "seconds": 183
      }
    ],
    [
      25,
      2,
      {
        "cost": 76.98,
        "seconds": 168
      }
    ],
    [
      25,
      5,
      {
        "cost": 73.35,
        "seconds": 209
      }
    ],
    [
      25,
      4,
      {
        "cost": 414.53999999999999,
        "seconds": 924
      }
    ],
    [
      25,
      7,
      {
        "cost": 161.4,
        "seconds": 384
      }
    ],
    [
      25,
      6,
      {
        "cost": 367.91999999999998,
        "seconds": 808
      }
    ],
    [
      25,
      9,
      {
        "cost": 153.39,
        "seconds": 383
      }
    ],
    [
      25,
      8,
      {
        "cost": 290.21999999999999,
        "seconds": 613
      }
    ],
    [
      25,
      11,
      {
        "cost": 127.02,
        "seconds": 307
      }
    ],
    [
      25,
      10,
      {
        "cost": 162.9,
        "seconds": 409
      }
    ],
    [
      25,
      13,
      {
        "cost": 169.95,
        "seconds": 403
      }
    ],
    [
      25,
      12,
      {
        "cost": 65.13,
        "seconds": 184
      }
    ],
    [
      25,
      15,
      {
        "cost": 141.18,
        "seconds": 344
      }
    ],
    [
      25,
      14,
      {
        "cost": 256.56,
        "seconds": 478
      }
    ],
    [
      25,
      17,
      {
        "cost": 210.03,
        "seconds": 491
      }
    ],
    [
      25,
      16,
      {
        "cost": 397.08,
        "seconds": 888
      }
    ],
    [
      25,
      21,
      {
        "cost": 218.4,
        "seconds": 567
      }
    ],
    [
      25,
      20,
      {
        "cost": 76.83,
        "seconds": 198
      }
    ],
    [
      25,
      23,
      {
        "cost": 102.6,
        "seconds": 262
      }
    ],
    [
      25,
      22,
      {
        "cost": 163.71,
        "seconds": 380
      }
    ],
    [
      25,
      26,
      {
        "cost": 89.55,
        "seconds": 207
      }
    ],
    [
      25,
      27,
      {
        "cost": 205.85999999999999,
        "seconds": 565
      }
    ],
    [
      25,
      24,
      {
        "cost": 400.68,
        "seconds": 896
      }
    ],
    [
      26,
      0,
      {
        "cost": 150.39,
        "seconds": 348
      }
    ],
    [
      26,
      1,
      {
        "cost": 97.08,
        "seconds": 216
      }
    ],
    [
      26,
      2,
      {
        "cost": 97.22999999999999,
        "seconds": 163
      }
    ],
    [
      26,
      3,
      {
        "cost": 87.03,
        "seconds": 179
      }
    ],
    [
      26,
      5,
      {
        "cost": 93.6,
        "seconds": 204
      }
    ],
    [
      26,
      4,
      {
        "cost": 377.64,
        "seconds": 820
      }
    ],
    [
      26,
      6,
      {
        "cost": 331.02,
        "seconds": 705
      }
    ],
    [
      26,
      8,
      {
        "cost": 253.29,
        "seconds": 510
      }
    ],
    [
      26,
      10,
      {
        "cost": 183.15,
        "seconds": 404
      }
    ],
    [
      26,
      12,
      {
        "cost": 85.38,
        "seconds": 179
      }
    ],
    [
      26,
      14,
      {
        "cost": 176.88,
        "seconds": 420
      }
    ],
    [
      26,
      16,
      {
        "cost": 360.18,
        "seconds": 784
      }
    ],
    [
      26,
      18,
      {
        "cost": 238.64999999999999,
        "seconds": 527
      }
    ],
    [
      26,
      20,
      {
        "cost": 97.08,
        "seconds": 194
      }
    ],
    [
      26,
      22,
      {
        "cost": 147.93,
        "seconds": 292
      }
    ],
    [
      26,
      25,
      {
        "cost": 40.35,
        "seconds": 81
      }
    ],
    [
      26,
      24,
      {
        "cost": 363.78,
        "seconds": 792
      }
    ],
    [
      27,
      1,
      {
        "cost": 165.87,
        "seconds": 427
      }
    ],
    [
      27,
      0,
      {
        "cost": 181.76999999999999,
        "seconds": 441
      }
    ],
    [
      27,
      3,
      {
        "cost": 275.31,
        "seconds": 670
      }
    ],
    [
      27,
      2,
      {
        "cost": 232.2,
        "seconds": 635
      }
    ],
    [
      27,
      5,
      {
        "cost": 263.73,
        "seconds": 701
      }
    ],
    [
      27,
      7,
      {
        "cost": 218.42999999999999,
        "seconds": 520
      }
    ],
    [
      27,
      9,
      {
        "cost": 314.72999999999998,
        "seconds": 779
      }
    ],
    [
      27,
      11,
      {
        "cost": 217.04999999999999,
        "seconds": 519
      }
    ],
    [
      27,
      10,
      {
        "cost": 270.81,
        "seconds": 693
      }
    ],
    [
      27,
      13,
      {
        "cost": 116.28,
        "seconds": 330
      }
    ],
    [
      27,
      12,
      {
        "cost": 255.51,
        "seconds": 676
      }
    ],
    [
      27,
      15,
      {
        "cost": 125.31,
        "seconds": 328
      }
    ],
    [
      27,
      14,
      {
        "cost": 423.81,
        "seconds": 925
      }
    ],
    [
      27,
      17,
      {
        "cost": 258.93,
        "seconds": 625
      }
    ],
    [
      27,
      19,
      {
        "cost": 193.38,
        "seconds": 469
      }
    ],
    [
      27,
      18,
      {
        "cost": 25.02,
        "seconds": 96
      }
    ],
    [
      27,
      21,
      {
        "cost": 304.46999999999999,
        "seconds": 807
      }
    ],
    [
      27,
      20,
      {
        "cost": 267.21,
        "seconds": 691
      }
    ],
    [
      27,
      23,
      {
        "cost": 292.32,
        "seconds": 740
      }
    ],
    [
      27,
      22,
      {
        "cost": 364.02,
        "seconds": 845
      }
    ],
    [
      27,
      25,
      {
        "cost": 212.57999999999999,
        "seconds": 568
      }
    ],
    [
      27,
      26,
      {
        "cost": 245.64,
        "seconds": 608
      }
    ],
    [
      26,
      29,
      {
        "cost": 217.04999999999999,
        "seconds": 586
      }
    ],
    [
      28,
      27,
      {
        "cost": 44.129999999999998,
        "seconds": 182
      }
    ],
    [
      26,
      28,
      {
        "cost": 272.88,
        "seconds": 664
      }
    ],
    [
      29,
      27,
      {
        "cost": 374.58,
        "seconds": 1014
      }
    ],
    [
      24,
      29,
      {
        "cost": 366.81,
        "seconds": 881
      }
    ],
    [
      28,
      25,
      {
        "cost": 235.89,
        "seconds": 610
      }
    ],
    [
      24,
      28,
      {
        "cost": 613.11,
        "seconds": 1389
      }
    ],
    [
      29,
      25,
      {
        "cost": 225.06,
        "seconds": 580
      }
    ],
    [
      22,
      29,
      {
        "cost": 210.32999999999999,
        "seconds": 540
      }
    ],
    [
      28,
      23,
      {
        "cost": 315.63,
        "seconds": 782
      }
    ],
    [
      22,
      28,
      {
        "cost": 342.71999999999999,
        "seconds": 818
      }
    ],
    [
      29,
      23,
      {
        "cost": 308.72999999999998,
        "seconds": 777
      }
    ],
    [
      20,
      29,
      {
        "cost": 293.52,
        "seconds": 773
      }
    ],
    [
      28,
      21,
      {
        "cost": 327.75,
        "seconds": 850
      }
    ],
    [
      20,
      28,
      {
        "cost": 313.86,
        "seconds": 789
      }
    ],
    [
      29,
      21,
      {
        "cost": 423.35999999999998,
        "seconds": 1062
      }
    ],
    [
      18,
      29,
      {
        "cost": 373.26,
        "seconds": 921
      }
    ],
    [
      28,
      19,
      {
        "cost": 205.23,
        "seconds": 575
      }
    ],
    [
      18,
      28,
      {
        "cost": 38.97,
        "seconds": 155
      }
    ],
    [
      29,
      19,
      {
        "cost": 242.82,
        "seconds": 673
      }
    ],
    [
      16,
      29,
      {
        "cost": 265.38,
        "seconds": 705
      }
    ],
    [
      28,
      17,
      {
        "cost": 281.21999999999999,
        "seconds": 733
      }
    ],
    [
      16,
      28,
      {
        "cost": 638.76,
        "seconds": 1441
      }
    ],
    [
      29,
      17,
      {
        "cost": 169.82999999999999,
        "seconds": 526
      }
    ],
    [
      14,
      29,
      {
        "cost": 269.07,
        "seconds": 595
      }
    ],
    [
      28,
      15,
      {
        "cost": 154.62,
        "seconds": 447
      }
    ],
    [
      14,
      28,
      {
        "cost": 422.64,
        "seconds": 974
      }
    ],
    [
      29,
      15,
      {
        "cost": 286.17,
        "seconds": 788
      }
    ],
    [
      12,
      29,
      {
        "cost": 272.67,
        "seconds": 706
      }
    ],
    [
      28,
      13,
      {
        "cost": 139.59,
        "seconds": 372
      }
    ],
    [
      12,
      28,
      {
        "cost": 283.8,
        "seconds": 733
      }
    ],
    [
      29,
      13,
      {
        "cost": 371.82,
        "seconds": 917
      }
    ],
    [
      10,
      29,
      {
        "cost": 380.94,
        "seconds": 964
      }
    ],
    [
      28,
      11,
      {
        "cost": 246.39,
        "seconds": 638
      }
    ],
    [
      10,
      28,
      {
        "cost": 287.58,
        "seconds": 805
      }
    ],
    [
      29,
      11,
      {
        "cost": 181.65,
        "seconds": 514
      }
    ],
    [
      8,
      29,
      {
        "cost": 115.5,
        "seconds": 307
      }
    ],
    [
      28,
      9,
      {
        "cost": 330.75,
        "seconds": 843
      }
    ],
    [
      8,
      28,
      {
        "cost": 503.15999999999999,
        "seconds": 1155
      }
    ],
    [
      29,
      9,
      {
        "cost": 234.03,
        "seconds": 610
      }
    ],
    [
      6,
      29,
      {
        "cost": 130.95,
        "seconds": 350
      }
    ],
    [
      28,
      7,
      {
        "cost": 241.73999999999999,
        "seconds": 562
      }
    ],
    [
      6,
      28,
      {
        "cost": 593.49,
        "seconds": 1329
      }
    ],
    [
      29,
      7,
      {
        "cost": 386.46,
        "seconds": 964
      }
    ],
    [
      4,
      29,
      {
        "cost": 220.23,
        "seconds": 610
      }
    ],
    [
      28,
      5,
      {
        "cost": 287.03999999999999,
        "seconds": 744
      }
    ],
    [
      4,
      28,
      {
        "cost": 615.3,
        "seconds": 1488
      }
    ],
    [
      29,
      5,
      {
        "cost": 278.31,
        "seconds": 704
      }
    ],
    [
      2,
      29,
      {
        "cost": 295.44,
        "seconds": 728
      }
    ],
    [
      28,
      3,
      {
        "cost": 298.62,
        "seconds": 712
      }
    ],
    [
      2,
      28,
      {
        "cost": 282.21,
        "seconds": 736
      }
    ],
    [
      29,
      3,
      {
        "cost": 271.74,
        "seconds": 678
      }
    ],
    [
      0,
      29,
      {
        "cost": 213.6,
        "seconds": 527
      }
    ],
    [
      28,
      1,
      {
        "cost": 189.18,
        "seconds": 470
      }
    ],
    [
      0,
      28,
      {
        "cost": 190.73999999999999,
        "seconds": 532
      }
    ],
    [
      29,
      1,
      {
        "cost": 269.61,
        "seconds": 701
      }
    ]
  ]
}