{
  "nodes": [
    {
      "Delivery": {
        "bid": 4350,
        "id": 23,
        "price": null,
        "cost": null,
        "direct_dist": 14501,
        "direct_cost": 436,
        "direct_time": 933
      }
    },
    {
      "Pickup": {
        "bid": 4350,
        "id": 23,
        "price": null,
        "cost": null,
        "direct_dist": 14501,
        "direct_cost": 436,
        "direct_time": 933
      }
    },
    {
      "Delivery": {
        "bid": 2405,
        "id": 21,
        "price": null,
        "cost": null,
        "direct_dist": 9062,
        "direct_cost": 272,
        "direct_time": 562
      }
    },
    {
      "Pickup": {
        "bid": 2405,
        "id": 21,
        "price": null,
        "cost": null,
        "direct_dist": 9062,
        "direct_cost": 272,
        "direct_time": 562
      }
    },
    {
      "Delivery": {
        "bid": 5050,
        "id": 18,
        "price": null,
        "cost": null,
        "direct_dist": 16834,
        "direct_cost": 506,
        "direct_time": 1232
      }
    },
    {
      "Pickup": {
        "bid": 5050,
        "id": 18,
        "price": null,
        "cost": null,
        "direct_dist": 16834,
        "direct_cost": 506,
        "direct_time": 1232
      }
    },
    {
      "Delivery": {
        "bid": 1641,
        "id": 16,
        "price": null,
        "cost": null,
        "direct_dist": 5471,
        "direct_cost": 165,
        "direct_time": 330
      }
    },
    {
      "Pickup": {
        "bid": 1641,
        "id": 16,
        "price": null,
        "cost": null,
        "direct_dist": 5471,
        "direct_cost": 165,
        "direct_time": 330
      }
    },
    {
      "Delivery": {
        "bid": 3520,
        "id": 15,
        "price": null,
        "cost": null,
        "direct_dist": 11736,
        "direct_cost": 353,
        "direct_time": 741
      }
    },
    {
      "Pickup": {
        "bid": 3520,
        "id": 15,
        "price": null,
        "cost": null,
        "direct_dist": 11736,
        "direct_cost": 353,
        "direct_time": 741
      }
    },
    {
      "Delivery": {
        "bid": 2382,
        "id": 14,
        "price": null,
        "cost": null,
        "direct_dist": 7943,
        "direct_cost": 239,
        "direct_time": 492
      }
    },
    {
      "Pickup": {
        "bid": 2382,
        "id": 14,
        "price": null,
        "cost": null,
        "direct_dist": 7943,
        "direct_cost": 239,
        "direct_time": 492
      }
    },
    {
      "Delivery": {
        "bid": 2308,
        "id": 12,
        "price": null,
        "cost": null,
        "direct_dist": 7695,
        "direct_cost": 231,
        "direct_time": 576
      }
    },
    {
      "Pickup": {
        "bid": 2308,
        "id": 12,
        "price": null,
        "cost": null,
        "direct_dist": 7695,
        "direct_cost": 231,
        "direct_time": 576
      }
    },
    {
      "Delivery": {
        "bid": 527,
        "id": 9,
        "price": null,
        "cost": null,
        "direct_dist": 1759,
        "direct_cost": 53,
        "direct_time": 127
      }
    },
    {
      "Pickup": {
        "bid": 527,
        "id": 9,
        "price": null,
        "cost": null,
        "direct_dist": 1759,
        "direct_cost": 53,
        "direct_time": 127
      }
    },
    {
      "Delivery": {
        "bid": 1378,
        "id": 8,
        "price": null,
        "cost": null,
        "direct_dist": 14817,
        "direct_cost": 445,
        "direct_time": 977
      }
    },
    {
      "Pickup": {
        "bid": 1378,
        "id": 8,
        "price": null,
        "cost": null,
        "direct_dist": 14817,
        "direct_cost": 445,
        "direct_time": 977
      }
    },
    {
      "Delivery": {
        "bid": 880,
        "id": 5,
        "price": null,
        "cost": null,
        "direct_dist": 2935,
        "direct_cost": 89,
        "direct_time": 234
      }
    },
    {
      "Pickup": {
        "bid": 880,
        "id": 5,
        "price": null,
        "cost": null,
        "direct_dist": 2935,
        "direct_cost": 89,
        "direct_time": 234
      }
    },
    {
      "DriverStart": {
        "arrive_until": 2400,
        "direct_cost": 475
      }
    },
    {
      "DriverEnd": {
        "arrive_until": 2400,
        "direct_cost": 475
      }
    }
  ],
  "node_holes": [],
  "edge_property": "directed",
  "edges": [
    [
      0,
      6,
      {
        "cost": 101.31,
        "seconds": 240
      }
    ],
    [
      0,
      8,
      {
        "cost": 279.42,
        "seconds": 570
      }
    ],
    [
      0,
      4,
      {
        "cost": 286.59,
        "seconds": 721
      }
    ],
    [
      0,
      12,
      {
        "cost": 59.04,
        "seconds": 171
      }
    ],
    [
      0,
      16,
      {
        "cost": 192.87,
        "seconds": 459
      }
    ],
    [
      1,
      10,
      {
        "cost": 249.06,
        "seconds": 504
      }
    ],
    [
      1,
      6,
      {
        "cost": 394.05,
        "seconds": 799
      }
    ],
    [
      1,
      8,
      {
        "cost": 438.96,
        "seconds": 875
      }
    ],
    [
      1,
      11,
      {
        "cost": 26.91,
        "seconds": 75
      }
    ],
    [
      1,
      2,
      {
        "cost": 184.98,
        "seconds": 375
      }
    ],
    [
      1,
      14,
      {
        "cost": 166.01999999999999,
        "seconds": 339
      }
    ],
    [
      1,
      7,
      {
        "cost": 406.97999999999998,
        "seconds": 814
      }
    ],
    [
      1,
      9,
      {
        "cost": 111.57,
        "seconds": 271
      }
    ],
    [
      1,
      12,
      {
        "cost": 356.15999999999999,
        "seconds": 855
      }
    ],
    [
      1,
      5,
      {
        "cost": 106.02,
        "seconds": 269
      }
    ],
    [
      1,
      18,
      {
        "cost": 256.59,
        "seconds": 559
      }
    ],
    [
      1,
      16,
      {
        "cost": 514.92,
        "seconds": 1097
      }
    ],
    [
      1,
      15,
      {
        "cost": 196.73999999999999,
        "seconds": 370
      }
    ],
    [
      1,
      19,
      {
        "cost": 315.21,
        "seconds": 634
      }
    ],
    [
      1,
      13,
      {
        "cost": 262.5,
        "seconds": 525
      }
    ],
    [
      1,
      17,
      {
        "cost": 78.27,
        "seconds": 212
      }
    ],
    [
      1,
      0,
      {
        "cost": 435.03,
        "seconds": 933
      }
    ],
    [
      2,
      0,
      {
        "cost": 280.14,
        "seconds": 654
      }
    ],
    [
      2,
      14,
      {
        "cost": 71.00999999999999,
        "seconds": 190
      }
    ],
    [
      2,
      4,
      {
        "cost": 398.76,
        "seconds": 936
      }
    ],
    [
      2,
      15,
      {
        "cost": 126.83999999999999,
        "seconds": 290
      }
    ],
    [
      2,
      18,
      {
        "cost": 98.07,
        "seconds": 257
      }
    ],
    [
      2,
      16,
      {
        "cost": 376.05,
        "seconds": 808
      }
    ],
    [
      2,
      6,
      {
        "cost": 235.56,
        "seconds": 498
      }
    ],
    [
      2,
      12,
      {
        "cost": 201.26999999999999,
        "seconds": 575
      }
    ],
    [
      2,
      8,
      {
        "cost": 280.46999999999999,
        "seconds": 573
      }
    ],
    [
      2,
      17,
      {
        "cost": 100.8,
        "seconds": 263
      }
    ],
    [
      2,
      10,
      {
        "cost": 108.33,
        "seconds": 307
      }
    ],
    [
      2,
      13,
      {
        "cost": 104.00999999999999,
        "seconds": 224
      }
    ],
    [
      3,
      1,
      {
        "cost": 445.28999999999999,
        "seconds": 866
      }
    ],
    [
      3,
      14,
      {
        "cost": 286.95,
        "seconds": 578
      }
    ],
    [
      3,
      15,
      {
        "cost": 305.01,
        "seconds": 615
      }
    ],
    [
      3,
      5,
      {
        "cost": 410.64,
        "seconds": 873
      }
    ],
    [
      3,
      18,
      {
        "cost": 196.04999999999999,
        "seconds": 491
      }
    ],
    [
      3,
      12,
      {
        "cost": 217.65,
        "seconds": 507
      }
    ],
    [
      3,
      8,
      {
        "cost": 80.42999999999999,
        "seconds": 223
      }
    ],
    [
      3,
      6,
      {
        "cost": 162.48,
        "seconds": 350
      }
    ],
    [
      3,
      19,
      {
        "cost": 109.5,
        "seconds": 270
      }
    ],
    [
      3,
      17,
      {
        "cost": 345.12,
        "seconds": 734
      }
    ],
    [
      3,
      7,
      {
        "cost": 20.61,
        "seconds": 83
      }
    ],
    [
      3,
      13,
      {
        "cost": 188.76,
        "seconds": 500
      }
    ],
    [
      3,
      9,
      {
        "cost": 342.9,
        "seconds": 738
      }
    ],
    [
      3,
      11,
      {
        "cost": 423.03,
        "seconds": 802
      }
    ],
    [
      3,
      2,
      {
        "cost": 271.86,
        "seconds": 562
      }
    ],
    [
      4,
      16,
      {
        "cost": 173.22,
        "seconds": 451
      }
    ],
    [
      5,
      1,
      {
        "cost": 111.75,
        "seconds": 276
      }
    ],
    [
      5,
      0,
      {
        "cost": 286.59,
        "seconds": 790
      }
    ],
    [
      5,
      2,
      {
        "cost": 165.09,
        "seconds": 393
      }
    ],
    [
      5,
      16,
      {
        "cost": 447.21,
        "seconds": 1116
      }
    ],
    [
      5,
      8,
      {
        "cost": 430.56,
        "seconds": 907
      }
    ],
    [
      5,
      17,
      {
        "cost": 126.42,
        "seconds": 314
      }
    ],
    [
      5,
      14,
      {
        "cost": 214.23,
        "seconds": 508
      }
    ],
    [
      5,
      12,
      {
        "cost": 274.59,
        "seconds": 760
      }
    ],
    [
      5,
      9,
      {
        "cost": 195.09,
        "seconds": 467
      }
    ],
    [
      5,
      6,
      {
        "cost": 302.37,
        "seconds": 789
      }
    ],
    [
      5,
      10,
      {
        "cost": 251.57999999999999,
        "seconds": 625
      }
    ],
    [
      5,
      18,
      {
        "cost": 248.51999999999999,
        "seconds": 600
      }
    ],
    [
      5,
      15,
      {
        "cost": 280.26,
        "seconds": 566
      }
    ],
    [
      5,
      7,
      {
        "cost": 398.58,
        "seconds": 846
      }
    ],
    [
      5,
      11,
      {
        "cost": 95.46,
        "seconds": 246
      }
    ],
    [
      5,
      13,
      {
        "cost": 254.45999999999999,
        "seconds": 567
      }
    ],
    [
      5,
      19,
      {
        "cost": 306.81,
        "seconds": 666
      }
    ],
    [
      5,
      4,
      {
        "cost": 505.02,
        "seconds": 1232
      }
    ],
    [
      6,
      0,
      {
        "cost": 88.77,
        "seconds": 206
      }
    ],
    [
      6,
      2,
      {
        "cost": 206.16,
        "seconds": 451
      }
    ],
    [
      6,
      3,
      {
        "cost": 183.51,
        "seconds": 405
      }
    ],
    [
      6,
      4,
      {
        "cost": 241.23,
        "seconds": 525
      }
    ],
    [
      6,
      14,
      {
        "cost": 221.28,
        "seconds": 468
      }
    ],
    [
      6,
      18,
      {
        "cost": 137.57999999999999,
        "seconds": 336
      }
    ],
    [
      6,
      15,
      {
        "cost": 217.98,
        "seconds": 482
      }
    ],
    [
      6,
      19,
      {
        "cost": 112.67999999999999,
        "seconds": 279
      }
    ],
    [
      6,
      16,
      {
        "cost": 163.32,
        "seconds": 371
      }
    ],
    [
      6,
      12,
      {
        "cost": 73.56,
        "seconds": 197
      }
    ],
    [
      6,
      8,
      {
        "cost": 228.26999999999999,
        "seconds": 434
      }
    ],
    [
      6,
      10,
      {
        "cost": 210.6,
        "seconds": 494
      }
    ],
    [
      6,
      13,
      {
        "cost": 179.79,
        "seconds": 403
      }
    ],
    [
      7,
      1,
      {
        "cost": 446.94,
        "seconds": 846
      }
    ],
    [
      7,
      0,
      {
        "cost": 227.54999999999999,
        "seconds": 467
      }
    ],
    [
      7,
      3,
      {
        "cost": 29.189999999999999,
        "seconds": 114
      }
    ],
    [
      7,
      2,
      {
        "cost": 273.51,
        "seconds": 542
      }
    ],
    [
      7,
      5,
      {
        "cost": 412.32,
        "seconds": 853
      }
    ],
    [
      7,
      14,
      {
        "cost": 288.63,
        "seconds": 558
      }
    ],
    [
      7,
      18,
      {
        "cost": 197.73,
        "seconds": 471
      }
    ],
    [
      7,
      15,
      {
        "cost": 273.18,
        "seconds": 594
      }
    ],
    [
      7,
      19,
      {
        "cost": 111.14999999999999,
        "seconds": 250
      }
    ],
    [
      7,
      12,
      {
        "cost": 219.32999999999999,
        "seconds": 487
      }
    ],
    [
      7,
      8,
      {
        "cost": 81.0,
        "seconds": 180
      }
    ],
    [
      7,
      10,
      {
        "cost": 228.6,
        "seconds": 499
      }
    ],
    [
      7,
      17,
      {
        "cost": 346.8,
        "seconds": 714
      }
    ],
    [
      7,
      13,
      {
        "cost": 226.70999999999999,
        "seconds": 456
      }
    ],
    [
      7,
      9,
      {
        "cost": 344.58,
        "seconds": 718
      }
    ],
    [
      7,
      11,
      {
        "cost": 424.68,
        "seconds": 782
      }
    ],
    [
      7,
      6,
      {
        "cost": 164.13,
        "seconds": 330
      }
    ],
    [
      8,
      0,
      {
        "cost": 293.25,
        "seconds": 621
      }
    ],
    [
      8,
      2,
      {
        "cost": 318.87,
        "seconds": 646
      }
    ],
    [
      8,
      4,
      {
        "cost": 239.22,
        "seconds": 634
      }
    ],
    [
      8,
      6,
      {
        "cost": 204.48,
        "seconds": 415
      }
    ],
    [
      8,
      10,
      {
        "cost": 222.6,
        "seconds": 499
      }
    ],
    [
      8,
      12,
      {
        "cost": 259.65,
        "seconds": 572
      }
    ],
    [
      8,
      16,
      {
        "cost": 318.15,
        "seconds": 683
      }
    ],
    [
      9,
      1,
      {
        "cost": 128.73,
        "seconds": 296
      }
    ],
    [
      9,
      0,
      {
        "cost": 348.15,
        "seconds": 800
      }
    ],
    [
      9,
      3,
      {
        "cost": 349.28999999999999,
        "seconds": 794
      }
    ],
    [
      9,
      2,
      {
        "cost": 98.1,
        "seconds": 242
      }
    ],
    [
      9,
      5,
      {
        "cost": 190.47,
        "seconds": 437
      }
    ],
    [
      9,
      7,
      {
        "cost": 320.09999999999999,
        "seconds": 680
      }
    ],
    [
      9,
      6,
      {
        "cost": 307.17,
        "seconds": 666
      }
    ],
    [
      9,
      18,
      {
        "cost": 169.70999999999999,
        "seconds": 425
      }
    ],
    [
      9,
      10,
      {
        "cost": 162.21,
        "seconds": 371
      }
    ],
    [
      9,
      14,
      {
        "cost": 79.14,
        "seconds": 205
      }
    ],
    [
      9,
      19,
      {
        "cost": 228.32999999999999,
        "seconds": 500
      }
    ],
    [
      9,
      12,
      {
        "cost": 269.28,
        "seconds": 721
      }
    ],
    [
      9,
      16,
      {
        "cost": 428.03999999999999,
        "seconds": 963
      }
    ],
    [
      9,
      11,
      {
        "cost": 106.47,
        "seconds": 232
      }
    ],
    [
      9,
      15,
      {
        "cost": 109.86,
        "seconds": 236
      }
    ],
    [
      9,
      13,
      {
        "cost": 175.62,
        "seconds": 392
      }
    ],
    [
      9,
      17,
      {
        "cost": 65.94,
        "seconds": 214
      }
    ],
    [
      9,
      8,
      {
        "cost": 352.08,
        "seconds": 741
      }
    ],
    [
      10,
      0,
      {
        "cost": 274.53,
        "seconds": 615
      }
    ],
    [
      10,
      2,
      {
        "cost": 99.14999999999999,
        "seconds": 277
      }
    ],
    [
      10,
      4,
      {
        "cost": 360.33,
        "seconds": 877
      }
    ],
    [
      10,
      6,
      {
        "cost": 197.13,
        "seconds": 439
      }
    ],
    [
      10,
      8,
      {
        "cost": 242.04,
        "seconds": 515
      }
    ],
    [
      10,
      14,
      {
        "cost": 108.86999999999999,
        "seconds": 281
      }
    ],
    [
      10,
      12,
      {
        "cost": 235.44,
        "seconds": 568
      }
    ],
    [
      10,
      16,
      {
        "cost": 337.65,
        "seconds": 749
      }
    ],
    [
      10,
      15,
      {
        "cost": 56.1,
        "seconds": 154
      }
    ],
    [
      10,
      13,
      {
        "cost": 62.04,
        "seconds": 156
      }
    ],
    [
      10,
      18,
      {
        "cost": 103.74,
        "seconds": 287
      }
    ],
    [
      10,
      19,
      {
        "cost": 118.28999999999999,
        "seconds": 274
      }
    ],
    [
      11,
      1,
      {
        "cost": 54.66,
        "seconds": 171
      }
    ],
    [
      11,
      2,
      {
        "cost": 146.76,
        "seconds": 336
      }
    ],
    [
      11,
      5,
      {
        "cost": 88.56,
        "seconds": 223
      }
    ],
    [
      11,
      7,
      {
        "cost": 380.25,
        "seconds": 790
      }
    ],
    [
      11,
      6,
      {
        "cost": 367.32,
        "seconds": 775
      }
    ],
    [
      11,
      9,
      {
        "cost": 100.77,
        "seconds": 258
      }
    ],
    [
      11,
      8,
      {
        "cost": 412.22999999999998,
        "seconds": 851
      }
    ],
    [
      11,
      14,
      {
        "cost": 155.25,
        "seconds": 326
      }
    ],
    [
      11,
      12,
      {
        "cost": 345.39,
        "seconds": 842
      }
    ],
    [
      11,
      17,
      {
        "cost": 60.39,
        "seconds": 160
      }
    ],
    [
      11,
      15,
      {
        "cost": 185.94,
        "seconds": 357
      }
    ],
    [
      11,
      13,
      {
        "cost": 236.1,
        "seconds": 510
      }
    ],
    [
      11,
      18,
      {
        "cost": 230.19,
        "seconds": 544
      }
    ],
    [
      11,
      19,
      {
        "cost": 288.45,
        "seconds": 610
      }
    ],
    [
      11,
      10,
      {
        "cost": 238.29,
        "seconds": 492
      }
    ],
    [
      12,
      0,
      {
        "cost": 71.13,
        "seconds": 202
      }
    ],
    [
      12,
      2,
      {
        "cost": 217.2,
        "seconds": 512
      }
    ],
    [
      12,
      4,
      {
        "cost": 285.69,
        "seconds": 712
      }
    ],
    [
      12,
      6,
      {
        "cost": 76.64999999999999,
        "seconds": 189
      }
    ],
    [
      12,
      8,
      {
        "cost": 278.52,
        "seconds": 561
      }
    ],
    [
      12,
      10,
      {
        "cost": 211.85999999999999,
        "seconds": 555
      }
    ],
    [
      12,
      18,
      {
        "cost": 138.84,
        "seconds": 397
      }
    ],
    [
      12,
      16,
      {
        "cost": 188.57999999999999,
        "seconds": 447
      }
    ],
    [
      13,
      1,
      {
        "cost": 271.23,
        "seconds": 546
      }
    ],
    [
      13,
      0,
      {
        "cost": 269.94,
        "seconds": 623
      }
    ],
    [
      13,
      3,
      {
        "cost": 235.82999999999999,
        "seconds": 560
      }
    ],
    [
      13,
      2,
      {
        "cost": 79.47,
        "seconds": 239
      }
    ],
    [
      13,
      5,
      {
        "cost": 290.09999999999999,
        "seconds": 614
      }
    ],
    [
      13,
      7,
      {
        "cost": 206.64,
        "seconds": 446
      }
    ],
    [
      13,
      6,
      {
        "cost": 193.70999999999999,
        "seconds": 431
      }
    ],
    [
      13,
      9,
      {
        "cost": 150.75,
        "seconds": 427
      }
    ],
    [
      13,
      8,
      {
        "cost": 238.62,
        "seconds": 507
      }
    ],
    [
      13,
      11,
      {
        "cost": 248.97,
        "seconds": 482
      }
    ],
    [
      13,
      10,
      {
        "cost": 64.44,
        "seconds": 203
      }
    ],
    [
      13,
      18,
      {
        "cost": 91.32,
        "seconds": 263
      }
    ],
    [
      13,
      19,
      {
        "cost": 114.86999999999999,
        "seconds": 266
      }
    ],
    [
      13,
      14,
      {
        "cost": 94.8,
        "seconds": 267
      }
    ],
    [
      13,
      17,
      {
        "cost": 152.73,
        "seconds": 411
      }
    ],
    [
      13,
      15,
      {
        "cost": 78.89999999999999,
        "seconds": 195
      }
    ],
    [
      13,
      12,
      {
        "cost": 230.85,
        "seconds": 576
      }
    ],
    [
      14,
      0,
      {
        "cost": 297.87,
        "seconds": 646
      }
    ],
    [
      14,
      1,
      {
        "cost": 168.87,
        "seconds": 339
      }
    ],
    [
      14,
      2,
      {
        "cost": 61.53,
        "seconds": 180
      }
    ],
    [
      14,
      3,
      {
        "cost": 287.21999999999999,
        "seconds": 644
      }
    ],
    [
      14,
      4,
      {
        "cost": 435.96,
        "seconds": 945
      }
    ],
    [
      14,
      5,
      {
        "cost": 230.64,
        "seconds": 480
      }
    ],
    [
      14,
      6,
      {
        "cost": 228.81,
        "seconds": 513
      }
    ],
    [
      14,
      7,
      {
        "cost": 258.06,
        "seconds": 530
      }
    ],
    [
      14,
      9,
      {
        "cost": 66.50999999999999,
        "seconds": 211
      }
    ],
    [
      14,
      8,
      {
        "cost": 290.03999999999999,
        "seconds": 591
      }
    ],
    [
      14,
      10,
      {
        "cost": 117.14999999999999,
        "seconds": 289
      }
    ],
    [
      14,
      11,
      {
        "cost": 146.60999999999999,
        "seconds": 275
      }
    ],
    [
      14,
      12,
      {
        "cost": 219.0,
        "seconds": 567
      }
    ],
    [
      14,
      13,
      {
        "cost": 113.46,
        "seconds": 237
      }
    ],
    [
      14,
      16,
      {
        "cost": 377.76,
        "seconds": 810
      }
    ],
    [
      14,
      18,
      {
        "cost": 107.55,
        "seconds": 271
      }
    ],
    [
      14,
      17,
      {
        "cost": 91.77,
        "seconds": 221
      }
    ],
    [
      14,
      19,
      {
        "cost": 166.26,
        "seconds": 350
      }
    ],
    [
      15,
      1,
      {
        "cost": 192.32999999999999,
        "seconds": 351
      }
    ],
    [
      15,
      3,
      {
        "cost": 275.55,
        "seconds": 661
      }
    ],
    [
      15,
      2,
      {
        "cost": 106.44,
        "seconds": 223
      }
    ],
    [
      15,
      5,
      {
        "cost": 254.07,
        "seconds": 492
      }
    ],
    [
      15,
      7,
      {
        "cost": 246.35999999999999,
        "seconds": 547
      }
    ],
    [
      15,
      6,
      {
        "cost": 233.42999999999999,
        "seconds": 532
      }
    ],
    [
      15,
      9,
      {
        "cost": 91.61999999999999,
        "seconds": 234
      }
    ],
    [
      15,
      11,
      {
        "cost": 170.07,
        "seconds": 287
      }
    ],
    [
      15,
      10,
      {
        "cost": 71.78999999999999,
        "seconds": 189
      }
    ],
    [
      15,
      13,
      {
        "cost": 100.77,
        "seconds": 252
      }
    ],
    [
      15,
      17,
      {
        "cost": 115.22999999999999,
        "seconds": 233
      }
    ],
    [
      15,
      18,
      {
        "cost": 131.04,
        "seconds": 363
      }
    ],
    [
      15,
      19,
      {
        "cost": 154.59,
        "seconds": 367
      }
    ],
    [
      15,
      14,
      {
        "cost": 52.769999999999999,
        "seconds": 127
      }
    ],
    [
      16,
      0,
      {
        "cost": 161.13,
        "seconds": 362
      }
    ],
    [
      16,
      4,
      {
        "cost": 207.81,
        "seconds": 496
      }
    ],
    [
      16,
      8,
      {
        "cost": 279.33,
        "seconds": 572
      }
    ],
    [
      17,
      1,
      {
        "cost": 89.67,
        "seconds": 257
      }
    ],
    [
      17,
      0,
      {
        "cost": 353.07,
        "seconds": 820
      }
    ],
    [
      17,
      3,
      {
        "cost": 346.14,
        "seconds": 796
      }
    ],
    [
      17,
      2,
      {
        "cost": 83.55,
        "seconds": 219
      }
    ],
    [
      17,
      5,
      {
        "cost": 132.75,
        "seconds": 338
      }
    ],
    [
      17,
      4,
      {
        "cost": 467.21999999999999,
        "seconds": 1105
      }
    ],
    [
      17,
      7,
      {
        "cost": 316.95,
        "seconds": 682
      }
    ],
    [
      17,
      6,
      {
        "cost": 304.02,
        "seconds": 667
      }
    ],
    [
      17,
      9,
      {
        "cost": 66.24,
        "seconds": 241
      }
    ],
    [
      17,
      8,
      {
        "cost": 348.93,
        "seconds": 743
      }
    ],
    [
      17,
      11,
      {
        "cost": 84.11999999999999,
        "seconds": 207
      }
    ],
    [
      17,
      10,
      {
        "cost": 167.51999999999999,
        "seconds": 439
      }
    ],
    [
      17,
      13,
      {
        "cost": 172.47,
        "seconds": 393
      }
    ],
    [
      17,
      12,
      {
        "cost": 274.2,
        "seconds": 741
      }
    ],
    [
      17,
      15,
      {
        "cost": 140.16,
        "seconds": 335
      }
    ],
    [
      17,
      14,
      {
        "cost": 80.52,
        "seconds": 286
      }
    ],
    [
      17,
      18,
      {
        "cost": 166.53,
        "seconds": 426
      }
    ],
    [
      17,
      19,
      {
        "cost": 225.15,
        "seconds": 502
      }
    ],
    [
      17,
      16,
      {
        "cost": 444.51,
        "seconds": 977
      }
    ],
    [
      18,
      1,
      {
        "cost": 250.79999999999999,
        "seconds": 486
      }
    ],
    [
      18,
      0,
      {
        "cost": 236.28,
        "seconds": 547
      }
    ],
    [
      18,
      2,
      {
        "cost": 77.39999999999999,
        "seconds": 181
      }
    ],
    [
      18,
      3,
      {
        "cost": 248.39999999999999,
        "seconds": 560
      }
    ],
    [
      18,
      5,
      {
        "cost": 220.41,
        "seconds": 471
      }
    ],
    [
      18,
      4,
      {
        "cost": 374.37,
        "seconds": 845
      }
    ],
    [
      18,
      6,
      {
        "cost": 167.22,
        "seconds": 414
      }
    ],
    [
      18,
      7,
      {
        "cost": 219.20999999999999,
        "seconds": 446
      }
    ],
    [
      18,
      8,
      {
        "cost": 251.19,
        "seconds": 507
      }
    ],
    [
      18,
      9,
      {
        "cost": 148.44,
        "seconds": 358
      }
    ],
    [
      18,
      11,
      {
        "cost": 228.54,
        "seconds": 421
      }
    ],
    [
      18,
      10,
      {
        "cost": 102.89999999999999,
        "seconds": 246
      }
    ],
    [
      18,
      12,
      {
        "cost": 157.41,
        "seconds": 468
      }
    ],
    [
      18,
      13,
      {
        "cost": 74.64,
        "seconds": 153
      }
    ],
    [
      18,
      15,
      {
        "cost": 110.25,
        "seconds": 234
      }
    ],
    [
      18,
      14,
      {
        "cost": 92.49,
        "seconds": 197
      }
    ],
    [
      18,
      16,
      {
        "cost": 316.17,
        "seconds": 710
      }
    ],
    [
      18,
      17,
      {
        "cost": 148.71,
        "seconds": 342
      }
    ],
    [
      19,
      1,
      {
        "cost": 325.17,
        "seconds": 671
      }
    ],
    [
      19,
      3,
      {
        "cost": 135.06,
        "seconds": 351
      }
    ],
    [
      19,
      2,
      {
        "cost": 151.76999999999999,
        "seconds": 367
      }
    ],
    [
      19,
      5,
      {
        "cost": 294.78,
        "seconds": 657
      }
    ],
    [
      19,
      7,
      {
        "cost": 105.86999999999999,
        "seconds": 237
      }
    ],
    [
      19,
      6,
      {
        "cost": 106.41,
        "seconds": 249
      }
    ],
    [
      19,
      9,
      {
        "cost": 222.81,
        "seconds": 544
      }
    ],
    [
      19,
      11,
      {
        "cost": 302.90999999999999,
        "seconds": 607
      }
    ],
    [
      19,
      10,
      {
        "cost": 141.15,
        "seconds": 373
      }
    ],
    [
      19,
      13,
      {
        "cost": 87.78,
        "seconds": 273
      }
    ],
    [
      19,
      12,
      {
        "cost": 151.17,
        "seconds": 376
      }
    ],
    [
      19,
      15,
      {
        "cost": 168.42,
        "seconds": 380
      }
    ],
    [
      19,
      14,
      {
        "cost": 166.85999999999999,
        "seconds": 383
      }
    ],
    [
      19,
      17,
      {
        "cost": 223.07999999999999,
        "seconds": 528
      }
    ],
    [
      19,
      18,
      {
        "cost": 88.05,
        "seconds": 234
      }
    ],
    [
      18,
      21,
      {
        "cost": 289.62,
        "seconds": 683
      }
    ],
    [
      20,
      19,
      {
        "cost": 282.0,
        "seconds": 592
      }
    ],
    [
      18,
      20,
      {
        "cost": 186.35999999999999,
        "seconds": 421
      }
    ],
    [
      21,
      19,
      {
        "cost": 221.88,
        "seconds": 546
      }
    ],
    [
      16,
      21,
      {
        "cost": 70.89,
        "seconds": 193
      }
    ],
    [
      20,
      17,
      {
        "cost": 58.739999999999998,
        "seconds": 156
      }
    ],
    [
      16,
      20,
      {
        "cost": 465.69,
        "seconds": 1033
      }
    ],
    [
      21,
      17,
      {
        "cost": 402.3,
        "seconds": 903
      }
    ],
    [
      14,
      21,
      {
        "cost": 351.21,
        "seconds": 782
      }
    ],
    [
      20,
      15,
      {
        "cost": 198.75,
        "seconds": 438
      }
    ],
    [
      14,
      20,
      {
        "cost": 168.0,
        "seconds": 348
      }
    ],
    [
      21,
      15,
      {
        "cost": 338.03999999999999,
        "seconds": 775
      }
    ],
    [
      12,
      21,
      {
        "cost": 173.22,
        "seconds": 435
      }
    ],
    [
      20,
      13,
      {
        "cost": 229.65,
        "seconds": 492
      }
    ],
    [
      12,
      20,
      {
        "cost": 311.52,
        "seconds": 770
      }
    ],
    [
      21,
      13,
      {
        "cost": 299.84999999999999,
        "seconds": 696
      }
    ],
    [
      10,
      21,
      {
        "cost": 311.09999999999999,
        "seconds": 722
      }
    ],
    [
      20,
      11,
      {
        "cost": 52.769999999999999,
        "seconds": 167
      }
    ],
    [
      10,
      20,
      {
        "cost": 247.56,
        "seconds": 514
      }
    ],
    [
      21,
      11,
      {
        "cost": 480.21,
        "seconds": 972
      }
    ],
    [
      8,
      21,
      {
        "cost": 268.02,
        "seconds": 569
      }
    ],
    [
      20,
      9,
      {
        "cost": 113.58,
        "seconds": 339
      }
    ],
    [
      8,
      20,
      {
        "cost": 426.9,
        "seconds": 881
      }
    ],
    [
      21,
      9,
      {
        "cost": 400.08,
        "seconds": 908
      }
    ],
    [
      6,
      21,
      {
        "cost": 147.96,
        "seconds": 358
      }
    ],
    [
      20,
      7,
      {
        "cost": 373.8,
        "seconds": 772
      }
    ],
    [
      6,
      20,
      {
        "cost": 310.26,
        "seconds": 709
      }
    ],
    [
      21,
      7,
      {
        "cost": 180.09,
        "seconds": 395
      }
    ],
    [
      4,
      21,
      {
        "cost": 155.82,
        "seconds": 406
      }
    ],
    [
      20,
      5,
      {
        "cost": 110.88,
        "seconds": 284
      }
    ],
    [
      4,
      20,
      {
        "cost": 519.39,
        "seconds": 1148
      }
    ],
    [
      21,
      5,
      {
        "cost": 390.47999999999998,
        "seconds": 1025
      }
    ],
    [
      2,
      21,
      {
        "cost": 349.53,
        "seconds": 781
      }
    ],
    [
      20,
      3,
      {
        "cost": 402.96,
        "seconds": 886
      }
    ],
    [
      2,
      20,
      {
        "cost": 138.32999999999999,
        "seconds": 369
      }
    ],
    [
      21,
      3,
      {
        "cost": 179.91,
        "seconds": 450
      }
    ],
    [
      0,
      21,
      {
        "cost": 159.69,
        "seconds": 443
      }
    ],
    [
      20,
      1,
      {
        "cost": 67.83,
        "seconds": 203
      }
    ],
    [
      0,
      20,
      {
        "cost": 334.95,
        "seconds": 840
      }
    ],
    [
      21,
      1,
      {
        "cost": 502.46999999999999,
        "seconds": 1036
      }
    ]
  ]
}