{
  "nodes": [
    {
      "Delivery": {
        "bid": 2504,
        "id": 24,
        "price": null,
        "cost": null,
        "direct_dist": 9812,
        "direct_cost": 295,
        "direct_time": 648
      }
    },
    {
      "Pickup": {
        "bid": 2504,
        "id": 24,
        "price": null,
        "cost": null,
        "direct_dist": 9812,
        "direct_cost": 295,
        "direct_time": 648
      }
    },
    {
      "Delivery": {
        "bid": 2258,
        "id": 23,
        "price": null,
        "cost": null,
        "direct_dist": 8932,
        "direct_cost": 268,
        "direct_time": 632
      }
    },
    {
      "Pickup": {
        "bid": 2258,
        "id": 23,
        "price": null,
        "cost": null,
        "direct_dist": 8932,
        "direct_cost": 268,
        "direct_time": 632
      }
    },
    {
      "Delivery": {
        "bid": 962,
        "id": 21,
        "price": null,
        "cost": null,
        "direct_dist": 3207,
        "direct_cost": 97,
        "direct_time": 285
      }
    },
    {
      "Pickup": {
        "bid": 962,
        "id": 21,
        "price": null,
        "cost": null,
        "direct_dist": 3207,
        "direct_cost": 97,
        "direct_time": 285
      }
    },
    {
      "Delivery": {
        "bid": 351,
        "id": 19,
        "price": null,
        "cost": null,
        "direct_dist": 1170,
        "direct_cost": 36,
        "direct_time": 109
      }
    },
    {
      "Pickup": {
        "bid": 351,
        "id": 19,
        "price": null,
        "cost": null,
        "direct_dist": 1170,
        "direct_cost": 36,
        "direct_time": 109
      }
    },
    {
      "Delivery": {
        "bid": 1423,
        "id": 18,
        "price": null,
        "cost": null,
        "direct_dist": 13481,
        "direct_cost": 405,
        "direct_time": 931
      }
    },
    {
      "Pickup": {
        "bid": 1423,
        "id": 18,
        "price": null,
        "cost": null,
        "direct_dist": 13481,
        "direct_cost": 405,
        "direct_time": 931
      }
    },
    {
      "Delivery": {
        "bid": 1230,
        "id": 17,
        "price": null,
        "cost": null,
        "direct_dist": 10140,
        "direct_cost": 305,
        "direct_time": 597
      }
    },
    {
      "Pickup": {
        "bid": 1230,
        "id": 17,
        "price": null,
        "cost": null,
        "direct_dist": 10140,
        "direct_cost": 305,
        "direct_time": 597
      }
    },
    {
      "Delivery": {
        "bid": 2761,
        "id": 16,
        "price": null,
        "cost": null,
        "direct_dist": 9206,
        "direct_cost": 277,
        "direct_time": 675
      }
    },
    {
      "Pickup": {
        "bid": 2761,
        "id": 16,
        "price": null,
        "cost": null,
        "direct_dist": 9206,
        "direct_cost": 277,
        "direct_time": 675
      }
    },
    {
      "Delivery": {
        "bid": 483,
        "id": 15,
        "price": null,
        "cost": null,
        "direct_dist": 4181,
        "direct_cost": 126,
        "direct_time": 295
      }
    },
    {
      "Pickup": {
        "bid": 483,
        "id": 15,
        "price": null,
        "cost": null,
        "direct_dist": 4181,
        "direct_cost": 126,
        "direct_time": 295
      }
    },
    {
      "Delivery": {
        "bid": 1136,
        "id": 13,
        "price": null,
        "cost": null,
        "direct_dist": 3789,
        "direct_cost": 114,
        "direct_time": 270
      }
    },
    {
      "Pickup": {
        "bid": 1136,
        "id": 13,
        "price": null,
        "cost": null,
        "direct_dist": 3789,
        "direct_cost": 114,
        "direct_time": 270
      }
    },
    {
      "Delivery": {
        "bid": 2535,
        "id": 12,
        "price": null,
        "cost": null,
        "direct_dist": 8453,
        "direct_cost": 254,
        "direct_time": 586
      }
    },
    {
      "Pickup": {
        "bid": 2535,
        "id": 12,
        "price": null,
        "cost": null,
        "direct_dist": 8453,
        "direct_cost": 254,
        "direct_time": 586
      }
    },
    {
      "Delivery": {
        "bid": 474,
        "id": 10,
        "price": null,
        "cost": null,
        "direct_dist": 9627,
        "direct_cost": 289,
        "direct_time": 696
      }
    },
    {
      "Pickup": {
        "bid": 474,
        "id": 10,
        "price": null,
        "cost": null,
        "direct_dist": 9627,
        "direct_cost": 289,
        "direct_time": 696
      }
    },
    {
      "Delivery": {
        "bid": 2331,
        "id": 9,
        "price": null,
        "cost": null,
        "direct_dist": 7772,
        "direct_cost": 234,
        "direct_time": 557
      }
    },
    {
      "Pickup": {
        "bid": 2331,
        "id": 9,
        "price": null,
        "cost": null,
        "direct_dist": 7772,
        "direct_cost": 234,
        "direct_time": 557
      }
    },
    {
      "Delivery": {
        "bid": 2912,
        "id": 8,
        "price": null,
        "cost": null,
        "direct_dist": 10063,
        "direct_cost": 302,
        "direct_time": 626
      }
    },
    {
      "Pickup": {
        "bid": 2912,
        "id": 8,
        "price": null,
        "cost": null,
        "direct_dist": 10063,
        "direct_cost": 302,
        "direct_time": 626
      }
    },
    {
      "Delivery": {
        "bid": 88,
        "id": 7,
        "price": null,
        "cost": null,
        "direct_dist": 1452,
        "direct_cost": 44,
        "direct_time": 143
      }
    },
    {
      "Pickup": {
        "bid": 88,
        "id": 7,
        "price": null,
        "cost": null,
        "direct_dist": 1452,
        "direct_cost": 44,
        "direct_time": 143
      }
    },
    {
      "Delivery": {
        "bid": 428,
        "id": 6,
        "price": null,
        "cost": null,
        "direct_dist": 4336,
        "direct_cost": 131,
        "direct_time": 379
      }
    },
    {
      "Pickup": {
        "bid": 428,
        "id": 6,
        "price": null,
        "cost": null,
        "direct_dist": 4336,
        "direct_cost": 131,
        "direct_time": 379
      }
    },
    {
      "Delivery": {
        "bid": 1265,
        "id": 5,
        "price": null,
        "cost": null,
        "direct_dist": 4217,
        "direct_cost": 127,
        "direct_time": 338
      }
    },
    {
      "Pickup": {
        "bid": 1265,
        "id": 5,
        "price": null,
        "cost": null,
        "direct_dist": 4217,
        "direct_cost": 127,
        "direct_time": 338
      }
    },
    {
      "Delivery": {
        "bid": 5001,
        "id": 3,
        "price": null,
        "cost": null,
        "direct_dist": 16671,
        "direct_cost": 501,
        "direct_time": 1049
      }
    },
    {
      "Pickup": {
        "bid": 5001,
        "id": 3,
        "price": null,
        "cost": null,
        "direct_dist": 16671,
        "direct_cost": 501,
        "direct_time": 1049
      }
    },
    {
      "Delivery": {
        "bid": 170,
        "id": 2,
        "price": null,
        "cost": null,
        "direct_dist": 3845,
        "direct_cost": 116,
        "direct_time": 298
      }
    },
    {
      "Pickup": {
        "bid": 170,
        "id": 2,
        "price": null,
        "cost": null,
        "direct_dist": 3845,
        "direct_cost": 116,
        "direct_time": 298
      }
    },
    {
      "Delivery": {
        "bid": 2445,
        "id": 1,
        "price": null,
        "cost": null,
        "direct_dist": 8284,
        "direct_cost": 249,
        "direct_time": 602
      }
    },
    {
      "Pickup": {
        "bid": 2445,
        "id": 1,
        "price": null,
        "cost": null,
        "direct_dist": 8284,
        "direct_cost": 249,
        "direct_time": 602
      }
    },
    {
      "DriverStart": {
        "arrive_until": 2400,
        "direct_cost": 515
      }
    },
    {
      "DriverEnd": {
        "arrive_until": 2400,
        "direct_cost": 515
      }
    }
  ],
  "node_holes": [],
  "edge_property": "directed",
  "edges": [
    [
      0,
      12,
      {
        "cost": 207.06,
        "seconds": 518
      }
    ],
    [
      0,
      20,
      {
        "cost": 353.61,
        "seconds": 763
      }
    ],
    [
      0,
      2,
      {
        "cost": 211.65,
        "seconds": 454
      }
    ],
    [
      0,
      18,
      {
        "cost": 240.6,
        "seconds": 528
      }
    ],
    [
      0,
      4,
      {
        "cost": 224.79,
        "seconds": 502
      }
    ],
    [
      0,
      32,
      {
        "cost": 129.84,
        "seconds": 282
      }
    ],
    [
      0,
      8,
      {
        "cost": 134.19,
        "seconds": 303
      }
    ],
    [
      1,
      12,
      {
        "cost": 166.29,
        "seconds": 439
      }
    ],
    [
      1,
      6,
      {
        "cost": 51.36,
        "seconds": 151
      }
    ],
    [
      1,
      14,
      {
        "cost": 90.0,
        "seconds": 241
      }
    ],
    [
      1,
      17,
      {
        "cost": 317.43,
        "seconds": 678
      }
    ],
    [
      1,
      20,
      {
        "cost": 86.58,
        "seconds": 257
      }
    ],
    [
      1,
      7,
      {
        "cost": 16.259999999999999,
        "seconds": 42
      }
    ],
    [
      1,
      34,
      {
        "cost": 209.48999999999999,
        "seconds": 499
      }
    ],
    [
      1,
      13,
      {
        "cost": 151.59,
        "seconds": 377
      }
    ],
    [
      1,
      15,
      {
        "cost": 110.91,
        "seconds": 270
      }
    ],
    [
      1,
      30,
      {
        "cost": 207.15,
        "seconds": 494
      }
    ],
    [
      1,
      27,
      {
        "cost": 333.87,
        "seconds": 765
      }
    ],
    [
      1,
      35,
      {
        "cost": 92.39999999999999,
        "seconds": 271
      }
    ],
    [
      1,
      21,
      {
        "cost": 231.12,
        "seconds": 534
      }
    ],
    [
      1,
      31,
      {
        "cost": 306.53999999999999,
        "seconds": 747
      }
    ],
    [
      1,
      18,
      {
        "cost": 269.76,
        "seconds": 627
      }
    ],
    [
      1,
      2,
      {
        "cost": 90.21,
        "seconds": 222
      }
    ],
    [
      1,
      32,
      {
        "cost": 217.76999999999999,
        "seconds": 527
      }
    ],
    [
      1,
      8,
      {
        "cost": 208.76999999999999,
        "seconds": 507
      }
    ],
    [
      1,
      4,
      {
        "cost": 154.5,
        "seconds": 359
      }
    ],
    [
      1,
      3,
      {
        "cost": 239.67,
        "seconds": 608
      }
    ],
    [
      1,
      19,
      {
        "cost": 232.17,
        "seconds": 492
      }
    ],
    [
      1,
      33,
      {
        "cost": 369.9,
        "seconds": 826
      }
    ],
    [
      1,
      5,
      {
        "cost": 172.79999999999999,
        "seconds": 390
      }
    ],
    [
      1,
      29,
      {
        "cost": 350.90999999999999,
        "seconds": 784
      }
    ],
    [
      1,
      9,
      {
        "cost": 294.59999999999999,
        "seconds": 671
      }
    ],
    [
      1,
      0,
      {
        "cost": 294.36,
        "seconds": 648
      }
    ],
    [
      2,
      0,
      {
        "cost": 238.76999999999999,
        "seconds": 522
      }
    ],
    [
      2,
      1,
      {
        "cost": 73.44,
        "seconds": 193
      }
    ],
    [
      2,
      36,
      {
        "cost": 255.29999999999999,
        "seconds": 601
      }
    ],
    [
      2,
      12,
      {
        "cost": 143.13,
        "seconds": 351
      }
    ],
    [
      2,
      10,
      {
        "cost": 233.85,
        "seconds": 514
      }
    ],
    [
      2,
      14,
      {
        "cost": 55.8,
        "seconds": 156
      }
    ],
    [
      2,
      6,
      {
        "cost": 122.64,
        "seconds": 301
      }
    ],
    [
      2,
      15,
      {
        "cost": 86.28,
        "seconds": 204
      }
    ],
    [
      2,
      30,
      {
        "cost": 222.78,
        "seconds": 505
      }
    ],
    [
      2,
      7,
      {
        "cost": 89.7,
        "seconds": 235
      }
    ],
    [
      2,
      34,
      {
        "cost": 244.98,
        "seconds": 513
      }
    ],
    [
      2,
      20,
      {
        "cost": 160.56,
        "seconds": 356
      }
    ],
    [
      2,
      4,
      {
        "cost": 76.5,
        "seconds": 187
      }
    ],
    [
      2,
      8,
      {
        "cost": 132.35999999999999,
        "seconds": 367
      }
    ],
    [
      2,
      18,
      {
        "cost": 245.1,
        "seconds": 560
      }
    ],
    [
      2,
      32,
      {
        "cost": 141.35999999999999,
        "seconds": 387
      }
    ],
    [
      2,
      22,
      {
        "cost": 306.81,
        "seconds": 690
      }
    ],
    [
      2,
      24,
      {
        "cost": 288.53999999999999,
        "seconds": 692
      }
    ],
    [
      3,
      1,
      {
        "cost": 218.13,
        "seconds": 532
      }
    ],
    [
      3,
      0,
      {
        "cost": 469.83,
        "seconds": 1018
      }
    ],
    [
      3,
      36,
      {
        "cost": 47.07,
        "seconds": 131
      }
    ],
    [
      3,
      12,
      {
        "cost": 360.69,
        "seconds": 859
      }
    ],
    [
      3,
      10,
      {
        "cost": 99.24,
        "seconds": 233
      }
    ],
    [
      3,
      14,
      {
        "cost": 224.01,
        "seconds": 505
      }
    ],
    [
      3,
      16,
      {
        "cost": 186.20999999999999,
        "seconds": 382
      }
    ],
    [
      3,
      37,
      {
        "cost": 241.59,
        "seconds": 541
      }
    ],
    [
      3,
      6,
      {
        "cost": 200.85,
        "seconds": 470
      }
    ],
    [
      3,
      13,
      {
        "cost": 203.85,
        "seconds": 515
      }
    ],
    [
      3,
      17,
      {
        "cost": 141.84,
        "seconds": 325
      }
    ],
    [
      3,
      11,
      {
        "cost": 295.32,
        "seconds": 688
      }
    ],
    [
      3,
      34,
      {
        "cost": 358.97999999999998,
        "seconds": 817
      }
    ],
    [
      3,
      15,
      {
        "cost": 303.42,
        "seconds": 692
      }
    ],
    [
      3,
      30,
      {
        "cost": 46.11,
        "seconds": 128
      }
    ],
    [
      3,
      20,
      {
        "cost": 254.73,
        "seconds": 582
      }
    ],
    [
      3,
      8,
      {
        "cost": 360.78,
        "seconds": 819
      }
    ],
    [
      3,
      7,
      {
        "cost": 229.07999999999999,
        "seconds": 539
      }
    ],
    [
      3,
      4,
      {
        "cost": 300.21,
        "seconds": 683
      }
    ],
    [
      3,
      18,
      {
        "cost": 462.27,
        "seconds": 1049
      }
    ],
    [
      3,
      32,
      {
        "cost": 369.75,
        "seconds": 840
      }
    ],
    [
      3,
      35,
      {
        "cost": 260.55,
        "seconds": 596
      }
    ],
    [
      3,
      31,
      {
        "cost": 86.72999999999999,
        "seconds": 238
      }
    ],
    [
      3,
      5,
      {
        "cost": 223.82999999999999,
        "seconds": 574
      }
    ],
    [
      3,
      21,
      {
        "cost": 39.87,
        "seconds": 88
      }
    ],
    [
      3,
      9,
      {
        "cost": 191.43,
        "seconds": 432
      }
    ],
    [
      3,
      26,
      {
        "cost": 202.76999999999999,
        "seconds": 432
      }
    ],
    [
      3,
      22,
      {
        "cost": 99.89999999999999,
        "seconds": 234
      }
    ],
    [
      3,
      28,
      {
        "cost": 290.52,
        "seconds": 650
      }
    ],
    [
      3,
      24,
      {
        "cost": 253.38,
        "seconds": 498
      }
    ],
    [
      3,
      33,
      {
        "cost": 276.71999999999999,
        "seconds": 586
      }
    ],
    [
      3,
      19,
      {
        "cost": 337.2,
        "seconds": 709
      }
    ],
    [
      3,
      23,
      {
        "cost": 218.13,
        "seconds": 470
      }
    ],
    [
      3,
      27,
      {
        "cost": 186.63,
        "seconds": 384
      }
    ],
    [
      3,
      29,
      {
        "cost": 257.73,
        "seconds": 543
      }
    ],
    [
      3,
      25,
      {
        "cost": 47.37,
        "seconds": 118
      }
    ],
    [
      3,
      2,
      {
        "cost": 267.96,
        "seconds": 632
      }
    ],
    [
      4,
      0,
      {
        "cost": 246.03,
        "seconds": 558
      }
    ],
    [
      4,
      1,
      {
        "cost": 127.44,
        "seconds": 315
      }
    ],
    [
      4,
      2,
      {
        "cost": 53.699999999999999,
        "seconds": 138
      }
    ],
    [
      4,
      36,
      {
        "cost": 235.47,
        "seconds": 590
      }
    ],
    [
      4,
      34,
      {
        "cost": 298.97999999999998,
        "seconds": 635
      }
    ],
    [
      4,
      37,
      {
        "cost": 200.31,
        "seconds": 545
      }
    ],
    [
      4,
      22,
      {
        "cost": 286.97999999999998,
        "seconds": 679
      }
    ],
    [
      4,
      32,
      {
        "cost": 132.87,
        "seconds": 322
      }
    ],
    [
      4,
      35,
      {
        "cost": 198.9,
        "seconds": 464
      }
    ],
    [
      4,
      14,
      {
        "cost": 82.28999999999999,
        "seconds": 219
      }
    ],
    [
      4,
      20,
      {
        "cost": 193.07999999999999,
        "seconds": 451
      }
    ],
    [
      4,
      23,
      {
        "cost": 176.43,
        "seconds": 434
      }
    ],
    [
      4,
      24,
      {
        "cost": 278.61,
        "seconds": 690
      }
    ],
    [
      4,
      30,
      {
        "cost": 202.95,
        "seconds": 494
      }
    ],
    [
      4,
      21,
      {
        "cost": 226.95,
        "seconds": 534
      }
    ],
    [
      4,
      15,
      {
        "cost": 129.06,
        "seconds": 301
      }
    ],
    [
      4,
      10,
      {
        "cost": 234.32999999999999,
        "seconds": 515
      }
    ],
    [
      4,
      16,
      {
        "cost": 332.37,
        "seconds": 780
      }
    ],
    [
      4,
      11,
      {
        "cost": 230.60999999999999,
        "seconds": 499
      }
    ],
    [
      4,
      12,
      {
        "cost": 197.13,
        "seconds": 473
      }
    ],
    [
      4,
      18,
      {
        "cost": 289.44,
        "seconds": 667
      }
    ],
    [
      4,
      28,
      {
        "cost": 207.42,
        "seconds": 619
      }
    ],
    [
      4,
      6,
      {
        "cost": 141.29999999999999,
        "seconds": 352
      }
    ],
    [
      4,
      19,
      {
        "cost": 89.72999999999999,
        "seconds": 250
      }
    ],
    [
      4,
      8,
      {
        "cost": 115.71,
        "seconds": 351
      }
    ],
    [
      4,
      13,
      {
        "cost": 114.14999999999999,
        "seconds": 329
      }
    ],
    [
      4,
      7,
      {
        "cost": 143.7,
        "seconds": 357
      }
    ],
    [
      5,
      1,
      {
        "cost": 167.01,
        "seconds": 400
      }
    ],
    [
      5,
      3,
      {
        "cost": 220.29,
        "seconds": 526
      }
    ],
    [
      5,
      2,
      {
        "cost": 123.92999999999999,
        "seconds": 357
      }
    ],
    [
      5,
      37,
      {
        "cost": 105.81,
        "seconds": 357
      }
    ],
    [
      5,
      14,
      {
        "cost": 117.63,
        "seconds": 312
      }
    ],
    [
      5,
      20,
      {
        "cost": 231.42,
        "seconds": 521
      }
    ],
    [
      5,
      35,
      {
        "cost": 237.23999999999999,
        "seconds": 535
      }
    ],
    [
      5,
      23,
      {
        "cost": 110.67,
        "seconds": 284
      }
    ],
    [
      5,
      33,
      {
        "cost": 292.68,
        "seconds": 690
      }
    ],
    [
      5,
      27,
      {
        "cost": 264.71999999999999,
        "seconds": 666
      }
    ],
    [
      5,
      15,
      {
        "cost": 187.92,
        "seconds": 483
      }
    ],
    [
      5,
      30,
      {
        "cost": 165.72,
        "seconds": 401
      }
    ],
    [
      5,
      21,
      {
        "cost": 189.72,
        "seconds": 441
      }
    ],
    [
      5,
      25,
      {
        "cost": 225.75,
        "seconds": 534
      }
    ],
    [
      5,
      12,
      {
        "cost": 244.79999999999999,
        "seconds": 631
      }
    ],
    [
      5,
      11,
      {
        "cost": 270.96,
        "seconds": 626
      }
    ],
    [
      5,
      31,
      {
        "cost": 265.11,
        "seconds": 654
      }
    ],
    [
      5,
      17,
      {
        "cost": 248.28,
        "seconds": 580
      }
    ],
    [
      5,
      6,
      {
        "cost": 179.64,
        "seconds": 422
      }
    ],
    [
      5,
      19,
      {
        "cost": 121.38,
        "seconds": 358
      }
    ],
    [
      5,
      28,
      {
        "cost": 133.10999999999999,
        "seconds": 457
      }
    ],
    [
      5,
      13,
      {
        "cost": 26.459999999999999,
        "seconds": 89
      }
    ],
    [
      5,
      9,
      {
        "cost": 211.17,
        "seconds": 545
      }
    ],
    [
      5,
      7,
      {
        "cost": 183.26999999999999,
        "seconds": 442
      }
    ],
    [
      5,
      29,
      {
        "cost": 273.69,
        "seconds": 648
      }
    ],
    [
      5,
      4,
      {
        "cost": 96.21,
        "seconds": 285
      }
    ],
    [
      6,
      0,
      {
        "cost": 352.83,
        "seconds": 770
      }
    ],
    [
      6,
      1,
      {
        "cost": 56.519999999999999,
        "seconds": 184
      }
    ],
    [
      6,
      2,
      {
        "cost": 156.29999999999999,
        "seconds": 382
      }
    ],
    [
      6,
      3,
      {
        "cost": 207.29999999999999,
        "seconds": 521
      }
    ],
    [
      6,
      5,
      {
        "cost": 167.07,
        "seconds": 450
      }
    ],
    [
      6,
      4,
      {
        "cost": 171.32999999999999,
        "seconds": 420
      }
    ],
    [
      6,
      16,
      {
        "cost": 330.06,
        "seconds": 795
      }
    ],
    [
      6,
      36,
      {
        "cost": 187.38,
        "seconds": 468
      }
    ],
    [
      6,
      34,
      {
        "cost": 180.03,
        "seconds": 453
      }
    ],
    [
      6,
      17,
      {
        "cost": 314.03999999999999,
        "seconds": 710
      }
    ],
    [
      6,
      37,
      {
        "cost": 242.28,
        "seconds": 554
      }
    ],
    [
      6,
      18,
      {
        "cost": 350.64,
        "seconds": 799
      }
    ],
    [
      6,
      12,
      {
        "cost": 239.54999999999999,
        "seconds": 574
      }
    ],
    [
      6,
      28,
      {
        "cost": 288.45,
        "seconds": 677
      }
    ],
    [
      6,
      35,
      {
        "cost": 81.6,
        "seconds": 232
      }
    ],
    [
      6,
      32,
      {
        "cost": 261.9,
        "seconds": 630
      }
    ],
    [
      6,
      19,
      {
        "cost": 243.69,
        "seconds": 522
      }
    ],
    [
      6,
      13,
      {
        "cost": 160.47,
        "seconds": 438
      }
    ],
    [
      6,
      30,
      {
        "cost": 174.93,
        "seconds": 467
      }
    ],
    [
      6,
      8,
      {
        "cost": 252.92999999999999,
        "seconds": 610
      }
    ],
    [
      6,
      20,
      {
        "cost": 75.78,
        "seconds": 218
      }
    ],
    [
      6,
      26,
      {
        "cost": 327.59999999999999,
        "seconds": 799
      }
    ],
    [
      6,
      22,
      {
        "cost": 258.96,
        "seconds": 652
      }
    ],
    [
      6,
      10,
      {
        "cost": 231.98999999999999,
        "seconds": 529
      }
    ],
    [
      6,
      14,
      {
        "cost": 116.19,
        "seconds": 296
      }
    ],
    [
      6,
      24,
      {
        "cost": 290.90999999999999,
        "seconds": 687
      }
    ],
    [
      6,
      31,
      {
        "cost": 269.46,
        "seconds": 682
      }
    ],
    [
      6,
      11,
      {
        "cost": 116.36999999999999,
        "seconds": 324
      }
    ],
    [
      6,
      23,
      {
        "cost": 188.73,
        "seconds": 431
      }
    ],
    [
      6,
      21,
      {
        "cost": 198.93,
        "seconds": 507
      }
    ],
    [
      6,
      15,
      {
        "cost": 191.79,
        "seconds": 443
      }
    ],
    [
      6,
      25,
      {
        "cost": 221.34,
        "seconds": 520
      }
    ],
    [
      6,
      9,
      {
        "cost": 289.26,
        "seconds": 691
      }
    ],
    [
      7,
      1,
      {
        "cost": 16.259999999999999,
        "seconds": 42
      }
    ],
    [
      7,
      3,
      {
        "cost": 243.09,
        "seconds": 597
      }
    ],
    [
      7,
      2,
      {
        "cost": 106.47,
        "seconds": 264
      }
    ],
    [
      7,
      5,
      {
        "cost": 174.35999999999999,
        "seconds": 395
      }
    ],
    [
      7,
      4,
      {
        "cost": 156.03,
        "seconds": 364
      }
    ],
    [
      7,
      34,
      {
        "cost": 193.23,
        "seconds": 457
      }
    ],
    [
      7,
      37,
      {
        "cost": 242.97,
        "seconds": 548
      }
    ],
    [
      7,
      17,
      {
        "cost": 318.96,
        "seconds": 683
      }
    ],
    [
      7,
      35,
      {
        "cost": 94.8,
        "seconds": 236
      }
    ],
    [
      7,
      19,
      {
        "cost": 233.7,
        "seconds": 497
      }
    ],
    [
      7,
      13,
      {
        "cost": 153.12,
        "seconds": 382
      }
    ],
    [
      7,
      33,
      {
        "cost": 371.43,
        "seconds": 832
      }
    ],
    [
      7,
      30,
      {
        "cost": 225.92999999999999,
        "seconds": 497
      }
    ],
    [
      7,
      20,
      {
        "cost": 88.97999999999999,
        "seconds": 222
      }
    ],
    [
      7,
      14,
      {
        "cost": 91.53,
        "seconds": 246
      }
    ],
    [
      7,
      9,
      {
        "cost": 296.13,
        "seconds": 676
      }
    ],
    [
      7,
      23,
      {
        "cost": 189.42,
        "seconds": 426
      }
    ],
    [
      7,
      11,
      {
        "cost": 129.57,
        "seconds": 328
      }
    ],
    [
      7,
      31,
      {
        "cost": 325.32,
        "seconds": 750
      }
    ],
    [
      7,
      25,
      {
        "cost": 257.13,
        "seconds": 596
      }
    ],
    [
      7,
      21,
      {
        "cost": 249.92999999999999,
        "seconds": 537
      }
    ],
    [
      7,
      15,
      {
        "cost": 127.17,
        "seconds": 312
      }
    ],
    [
      7,
      27,
      {
        "cost": 335.4,
        "seconds": 770
      }
    ],
    [
      7,
      6,
      {
        "cost": 35.1,
        "seconds": 109
      }
    ],
    [
      8,
      0,
      {
        "cost": 151.53,
        "seconds": 336
      }
    ],
    [
      8,
      2,
      {
        "cost": 117.72,
        "seconds": 296
      }
    ],
    [
      8,
      20,
      {
        "cost": 256.95,
        "seconds": 606
      }
    ],
    [
      8,
      18,
      {
        "cost": 214.73999999999999,
        "seconds": 491
      }
    ],
    [
      8,
      32,
      {
        "cost": 41.79,
        "seconds": 109
      }
    ],
    [
      8,
      12,
      {
        "cost": 147.32999999999999,
        "seconds": 419
      }
    ],
    [
      9,
      1,
      {
        "cost": 287.21999999999999,
        "seconds": 676
      }
    ],
    [
      9,
      0,
      {
        "cost": 533.55,
        "seconds": 1164
      }
    ],
    [
      9,
      3,
      {
        "cost": 226.35,
        "seconds": 502
      }
    ],
    [
      9,
      2,
      {
        "cost": 337.05,
        "seconds": 776
      }
    ],
    [
      9,
      5,
      {
        "cost": 217.35,
        "seconds": 585
      }
    ],
    [
      9,
      4,
      {
        "cost": 297.65999999999999,
        "seconds": 759
      }
    ],
    [
      9,
      7,
      {
        "cost": 298.17,
        "seconds": 683
      }
    ],
    [
      9,
      6,
      {
        "cost": 269.94,
        "seconds": 614
      }
    ],
    [
      9,
      36,
      {
        "cost": 217.53,
        "seconds": 483
      }
    ],
    [
      9,
      20,
      {
        "cost": 323.82,
        "seconds": 726
      }
    ],
    [
      9,
      24,
      {
        "cost": 59.91,
        "seconds": 144
      }
    ],
    [
      9,
      28,
      {
        "cost": 88.83,
        "seconds": 254
      }
    ],
    [
      9,
      16,
      {
        "cost": 122.19,
        "seconds": 379
      }
    ],
    [
      9,
      37,
      {
        "cost": 96.57,
        "seconds": 240
      }
    ],
    [
      9,
      34,
      {
        "cost": 428.07,
        "seconds": 962
      }
    ],
    [
      9,
      26,
      {
        "cost": 80.13,
        "seconds": 284
      }
    ],
    [
      9,
      21,
      {
        "cost": 195.78,
        "seconds": 417
      }
    ],
    [
      9,
      25,
      {
        "cost": 231.81,
        "seconds": 510
      }
    ],
    [
      9,
      29,
      {
        "cost": 68.75999999999999,
        "seconds": 193
      }
    ],
    [
      9,
      18,
      {
        "cost": 531.36,
        "seconds": 1193
      }
    ],
    [
      9,
      17,
      {
        "cost": 165.15,
        "seconds": 470
      }
    ],
    [
      9,
      22,
      {
        "cost": 176.28,
        "seconds": 502
      }
    ],
    [
      9,
      14,
      {
        "cost": 291.99,
        "seconds": 663
      }
    ],
    [
      9,
      27,
      {
        "cost": 122.61,
        "seconds": 381
      }
    ],
    [
      9,
      32,
      {
        "cost": 402.06,
        "seconds": 902
      }
    ],
    [
      9,
      30,
      {
        "cost": 163.32,
        "seconds": 349
      }
    ],
    [
      9,
      35,
      {
        "cost": 329.64,
        "seconds": 740
      }
    ],
    [
      9,
      12,
      {
        "cost": 429.78,
        "seconds": 1003
      }
    ],
    [
      9,
      10,
      {
        "cost": 118.83,
        "seconds": 277
      }
    ],
    [
      9,
      19,
      {
        "cost": 341.72999999999998,
        "seconds": 771
      }
    ],
    [
      9,
      15,
      {
        "cost": 372.51,
        "seconds": 836
      }
    ],
    [
      9,
      23,
      {
        "cost": 136.65,
        "seconds": 407
      }
    ],
    [
      9,
      33,
      {
        "cost": 87.78,
        "seconds": 236
      }
    ],
    [
      9,
      13,
      {
        "cost": 197.37,
        "seconds": 526
      }
    ],
    [
      9,
      31,
      {
        "cost": 271.2,
        "seconds": 630
      }
    ],
    [
      9,
      11,
      {
        "cost": 364.40999999999999,
        "seconds": 832
      }
    ],
    [
      9,
      8,
      {
        "cost": 404.43,
        "seconds": 931
      }
    ],
    [
      10,
      2,
      {
        "cost": 299.15999999999999,
        "seconds": 648
      }
    ],
    [
      10,
      8,
      {
        "cost": 363.33,
        "seconds": 785
      }
    ],
    [
      10,
      36,
      {
        "cost": 140.4,
        "seconds": 360
      }
    ],
    [
      10,
      24,
      {
        "cost": 201.15,
        "seconds": 434
      }
    ],
    [
      10,
      28,
      {
        "cost": 238.29,
        "seconds": 586
      }
    ],
    [
      10,
      26,
      {
        "cost": 114.53999999999999,
        "seconds": 338
      }
    ],
    [
      10,
      30,
      {
        "cost": 86.19,
        "seconds": 226
      }
    ],
    [
      10,
      12,
      {
        "cost": 377.13,
        "seconds": 862
      }
    ],
    [
      10,
      14,
      {
        "cost": 220.2,
        "seconds": 533
      }
    ],
    [
      10,
      20,
      {
        "cost": 279.09,
        "seconds": 601
      }
    ],
    [
      10,
      22,
      {
        "cost": 108.72,
        "seconds": 301
      }
    ],
    [
      10,
      16,
      {
        "cost": 106.89,
        "seconds": 300
      }
    ],
    [
      10,
      21,
      {
        "cost": 75.45,
        "seconds": 227
      }
    ],
    [
      10,
      17,
      {
        "cost": 99.86999999999999,
        "seconds": 262
      }
    ],
    [
      11,
      3,
      {
        "cost": 292.97999999999998,
        "seconds": 636
      }
    ],
    [
      11,
      2,
      {
        "cost": 156.84,
        "seconds": 318
      }
    ],
    [
      11,
      5,
      {
        "cost": 241.62,
        "seconds": 489
      }
    ],
    [
      11,
      4,
      {
        "cost": 223.32,
        "seconds": 458
      }
    ],
    [
      11,
      7,
      {
        "cost": 78.17999999999999,
        "seconds": 191
      }
    ],
    [
      11,
      6,
      {
        "cost": 91.92,
        "seconds": 248
      }
    ],
    [
      11,
      9,
      {
        "cost": 363.39,
        "seconds": 770
      }
    ],
    [
      11,
      36,
      {
        "cost": 273.06,
        "seconds": 583
      }
    ],
    [
      11,
      34,
      {
        "cost": 100.71,
        "seconds": 260
      }
    ],
    [
      11,
      37,
      {
        "cost": 310.22999999999998,
        "seconds": 642
      }
    ],
    [
      11,
      26,
      {
        "cost": 399.78,
        "seconds": 867
      }
    ],
    [
      11,
      35,
      {
        "cost": 33.96,
        "seconds": 121
      }
    ],
    [
      11,
      12,
      {
        "cost": 196.98,
        "seconds": 440
      }
    ],
    [
      11,
      25,
      {
        "cost": 307.02,
        "seconds": 635
      }
    ],
    [
      11,
      29,
      {
        "cost": 419.7,
        "seconds": 883
      }
    ],
    [
      11,
      30,
      {
        "cost": 303.96,
        "seconds": 599
      }
    ],
    [
      11,
      27,
      {
        "cost": 402.69,
        "seconds": 864
      }
    ],
    [
      11,
      14,
      {
        "cost": 158.82,
        "seconds": 340
      }
    ],
    [
      11,
      20,
      {
        "cost": 53.01,
        "seconds": 183
      }
    ],
    [
      11,
      22,
      {
        "cost": 387.99,
        "seconds": 784
      }
    ],
    [
      11,
      16,
      {
        "cost": 402.24,
        "seconds": 862
      }
    ],
    [
      11,
      31,
      {
        "cost": 355.16999999999998,
        "seconds": 796
      }
    ],
    [
      11,
      13,
      {
        "cost": 220.41,
        "seconds": 476
      }
    ],
    [
      11,
      23,
      {
        "cost": 256.71,
        "seconds": 520
      }
    ],
    [
      11,
      15,
      {
        "cost": 176.45999999999999,
        "seconds": 369
      }
    ],
    [
      11,
      21,
      {
        "cost": 327.96,
        "seconds": 639
      }
    ],
    [
      11,
      17,
      {
        "cost": 386.25,
        "seconds": 778
      }
    ],
    [
      11,
      10,
      {
        "cost": 304.2,
        "seconds": 597
      }
    ],
    [
      12,
      0,
      {
        "cost": 191.76,
        "seconds": 474
      }
    ],
    [
      12,
      2,
      {
        "cost": 127.11,
        "seconds": 304
      }
    ],
    [
      12,
      4,
      {
        "cost": 195.54,
        "seconds": 456
      }
    ],
    [
      12,
      8,
      {
        "cost": 145.53,
        "seconds": 406
      }
    ],
    [
      12,
      10,
      {
        "cost": 349.5,
        "seconds": 752
      }
    ],
    [
      12,
      36,
      {
        "cost": 403.56,
        "seconds": 814
      }
    ],
    [
      12,
      32,
      {
        "cost": 154.53,
        "seconds": 426
      }
    ],
    [
      12,
      18,
      {
        "cost": 161.85,
        "seconds": 418
      }
    ],
    [
      12,
      20,
      {
        "cost": 205.59,
        "seconds": 479
      }
    ],
    [
      12,
      14,
      {
        "cost": 174.81,
        "seconds": 425
      }
    ],
    [
      13,
      1,
      {
        "cost": 139.79999999999999,
        "seconds": 377
      }
    ],
    [
      13,
      0,
      {
        "cost": 364.74,
        "seconds": 823
      }
    ],
    [
      13,
      3,
      {
        "cost": 194.34,
        "seconds": 453
      }
    ],
    [
      13,
      2,
      {
        "cost": 125.72999999999999,
        "seconds": 395
      }
    ],
    [
      13,
      5,
      {
        "cost": 27.66,
        "seconds": 95
      }
    ],
    [
      13,
      4,
      {
        "cost": 117.24,
        "seconds": 341
      }
    ],
    [
      13,
      7,
      {
        "cost": 156.06,
        "seconds": 418
      }
    ],
    [
      13,
      6,
      {
        "cost": 171.75,
        "seconds": 385
      }
    ],
    [
      13,
      9,
      {
        "cost": 185.22,
        "seconds": 472
      }
    ],
    [
      13,
      8,
      {
        "cost": 229.95,
        "seconds": 567
      }
    ],
    [
      13,
      11,
      {
        "cost": 243.75,
        "seconds": 602
      }
    ],
    [
      13,
      10,
      {
        "cost": 140.28,
        "seconds": 326
      }
    ],
    [
      13,
      30,
      {
        "cost": 139.76999999999999,
        "seconds": 328
      }
    ],
    [
      13,
      36,
      {
        "cost": 172.29,
        "seconds": 424
      }
    ],
    [
      13,
      32,
      {
        "cost": 227.57999999999999,
        "seconds": 538
      }
    ],
    [
      13,
      28,
      {
        "cost": 155.37,
        "seconds": 445
      }
    ],
    [
      13,
      27,
      {
        "cost": 238.76999999999999,
        "seconds": 593
      }
    ],
    [
      13,
      37,
      {
        "cost": 109.2,
        "seconds": 322
      }
    ],
    [
      13,
      31,
      {
        "cost": 239.16,
        "seconds": 581
      }
    ],
    [
      13,
      29,
      {
        "cost": 247.73999999999999,
        "seconds": 575
      }
    ],
    [
      13,
      34,
      {
        "cost": 307.40999999999999,
        "seconds": 731
      }
    ],
    [
      13,
      24,
      {
        "cost": 186.9,
        "seconds": 467
      }
    ],
    [
      13,
      33,
      {
        "cost": 266.73,
        "seconds": 617
      }
    ],
    [
      13,
      14,
      {
        "cost": 90.45,
        "seconds": 288
      }
    ],
    [
      13,
      18,
      {
        "cost": 377.61,
        "seconds": 883
      }
    ],
    [
      13,
      20,
      {
        "cost": 204.20999999999999,
        "seconds": 497
      }
    ],
    [
      13,
      35,
      {
        "cost": 210.06,
        "seconds": 511
      }
    ],
    [
      13,
      25,
      {
        "cost": 199.79999999999999,
        "seconds": 461
      }
    ],
    [
      13,
      17,
      {
        "cost": 222.32999999999999,
        "seconds": 507
      }
    ],
    [
      13,
      19,
      {
        "cost": 167.25,
        "seconds": 407
      }
    ],
    [
      13,
      21,
      {
        "cost": 163.76999999999999,
        "seconds": 368
      }
    ],
    [
      13,
      15,
      {
        "cost": 218.79,
        "seconds": 526
      }
    ],
    [
      13,
      12,
      {
        "cost": 276.18,
        "seconds": 675
      }
    ],
    [
      14,
      0,
      {
        "cost": 263.09999999999999,
        "seconds": 564
      }
    ],
    [
      14,
      1,
      {
        "cost": 77.52,
        "seconds": 205
      }
    ],
    [
      14,
      3,
      {
        "cost": 241.70999999999999,
        "seconds": 520
      }
    ],
    [
      14,
      2,
      {
        "cost": 79.11,
        "seconds": 200
      }
    ],
    [
      14,
      4,
      {
        "cost": 95.46,
        "seconds": 232
      }
    ],
    [
      14,
      5,
      {
        "cost": 113.78999999999999,
        "seconds": 263
      }
    ],
    [
      14,
      7,
      {
        "cost": 93.75,
        "seconds": 247
      }
    ],
    [
      14,
      6,
      {
        "cost": 90.14999999999999,
        "seconds": 227
      }
    ],
    [
      14,
      8,
      {
        "cost": 154.04999999999999,
        "seconds": 366
      }
    ],
    [
      14,
      9,
      {
        "cost": 246.6,
        "seconds": 567
      }
    ],
    [
      14,
      10,
      {
        "cost": 187.38,
        "seconds": 394
      }
    ],
    [
      14,
      11,
      {
        "cost": 181.44,
        "seconds": 431
      }
    ],
    [
      14,
      12,
      {
        "cost": 183.63,
        "seconds": 438
      }
    ],
    [
      14,
      13,
      {
        "cost": 103.58999999999999,
        "seconds": 273
      }
    ],
    [
      14,
      22,
      {
        "cost": 271.17,
        "seconds": 581
      }
    ],
    [
      14,
      36,
      {
        "cost": 219.66,
        "seconds": 491
      }
    ],
    [
      14,
      23,
      {
        "cost": 139.89,
        "seconds": 316
      }
    ],
    [
      14,
      37,
      {
        "cost": 193.44,
        "seconds": 439
      }
    ],
    [
      14,
      20,
      {
        "cost": 141.9,
        "seconds": 326
      }
    ],
    [
      14,
      30,
      {
        "cost": 187.14,
        "seconds": 395
      }
    ],
    [
      14,
      16,
      {
        "cost": 285.45,
        "seconds": 659
      }
    ],
    [
      14,
      26,
      {
        "cost": 282.99,
        "seconds": 663
      }
    ],
    [
      14,
      34,
      {
        "cost": 245.1,
        "seconds": 560
      }
    ],
    [
      14,
      18,
      {
        "cost": 285.59999999999999,
        "seconds": 647
      }
    ],
    [
      14,
      21,
      {
        "cost": 211.14,
        "seconds": 435
      }
    ],
    [
      14,
      24,
      {
        "cost": 242.07,
        "seconds": 572
      }
    ],
    [
      14,
      17,
      {
        "cost": 269.43,
        "seconds": 574
      }
    ],
    [
      14,
      35,
      {
        "cost": 147.75,
        "seconds": 340
      }
    ],
    [
      14,
      19,
      {
        "cost": 161.34,
        "seconds": 366
      }
    ],
    [
      14,
      25,
      {
        "cost": 247.17,
        "seconds": 528
      }
    ],
    [
      15,
      1,
      {
        "cost": 116.07,
        "seconds": 286
      }
    ],
    [
      15,
      3,
      {
        "cost": 330.3,
        "seconds": 739
      }
    ],
    [
      15,
      2,
      {
        "cost": 77.7,
        "seconds": 174
      }
    ],
    [
      15,
      5,
      {
        "cost": 198.26999999999999,
        "seconds": 483
      }
    ],
    [
      15,
      4,
      {
        "cost": 146.16,
        "seconds": 326
      }
    ],
    [
      15,
      7,
      {
        "cost": 132.32999999999999,
        "seconds": 328
      }
    ],
    [
      15,
      6,
      {
        "cost": 167.04,
        "seconds": 404
      }
    ],
    [
      15,
      9,
      {
        "cost": 359.31,
        "seconds": 795
      }
    ],
    [
      15,
      11,
      {
        "cost": 148.85999999999999,
        "seconds": 311
      }
    ],
    [
      15,
      10,
      {
        "cost": 300.12,
        "seconds": 622
      }
    ],
    [
      15,
      13,
      {
        "cost": 216.32999999999999,
        "seconds": 501
      }
    ],
    [
      15,
      12,
      {
        "cost": 84.14999999999999,
        "seconds": 238
      }
    ],
    [
      15,
      36,
      {
        "cost": 308.21999999999999,
        "seconds": 710
      }
    ],
    [
      15,
      23,
      {
        "cost": 252.63,
        "seconds": 545
      }
    ],
    [
      15,
      20,
      {
        "cost": 178.29,
        "seconds": 410
      }
    ],
    [
      15,
      30,
      {
        "cost": 275.73,
        "seconds": 614
      }
    ],
    [
      15,
      37,
      {
        "cost": 306.15,
        "seconds": 667
      }
    ],
    [
      15,
      34,
      {
        "cost": 217.23,
        "seconds": 447
      }
    ],
    [
      15,
      18,
      {
        "cost": 193.70999999999999,
        "seconds": 454
      }
    ],
    [
      15,
      21,
      {
        "cost": 299.7,
        "seconds": 654
      }
    ],
    [
      15,
      31,
      {
        "cost": 375.12,
        "seconds": 867
      }
    ],
    [
      15,
      35,
      {
        "cost": 182.04,
        "seconds": 371
      }
    ],
    [
      15,
      25,
      {
        "cost": 335.76,
        "seconds": 747
      }
    ],
    [
      15,
      19,
      {
        "cost": 213.63,
        "seconds": 504
      }
    ],
    [
      15,
      17,
      {
        "cost": 382.14,
        "seconds": 803
      }
    ],
    [
      15,
      27,
      {
        "cost": 398.61,
        "seconds": 889
      }
    ],
    [
      15,
      14,
      {
        "cost": 125.42999999999999,
        "seconds": 295
      }
    ],
    [
      16,
      0,
      {
        "cost": 561.75,
        "seconds": 1227
      }
    ],
    [
      16,
      2,
      {
        "cost": 360.36,
        "seconds": 838
      }
    ],
    [
      16,
      3,
      {
        "cost": 190.89,
        "seconds": 481
      }
    ],
    [
      16,
      4,
      {
        "cost": 317.78999999999999,
        "seconds": 803
      }
    ],
    [
      16,
      6,
      {
        "cost": 298.17,
        "seconds": 677
      }
    ],
    [
      16,
      8,
      {
        "cost": 424.56,
        "seconds": 976
      }
    ],
    [
      16,
      9,
      {
        "cost": 140.79,
        "seconds": 372
      }
    ],
    [
      16,
      10,
      {
        "cost": 113.7,
        "seconds": 296
      }
    ],
    [
      16,
      12,
      {
        "cost": 438.35999999999998,
        "seconds": 1053
      }
    ],
    [
      16,
      13,
      {
        "cost": 217.47,
        "seconds": 571
      }
    ],
    [
      16,
      14,
      {
        "cost": 281.4,
        "seconds": 724
      }
    ],
    [
      16,
      36,
      {
        "cost": 196.04999999999999,
        "seconds": 502
      }
    ],
    [
      16,
      37,
      {
        "cost": 206.79,
        "seconds": 526
      }
    ],
    [
      16,
      28,
      {
        "cost": 202.73999999999999,
        "seconds": 564
      }
    ],
    [
      16,
      30,
      {
        "cost": 158.22,
        "seconds": 368
      }
    ],
    [
      16,
      29,
      {
        "cost": 138.6,
        "seconds": 350
      }
    ],
    [
      16,
      32,
      {
        "cost": 422.15999999999999,
        "seconds": 947
      }
    ],
    [
      16,
      20,
      {
        "cost": 352.05,
        "seconds": 790
      }
    ],
    [
      16,
      22,
      {
        "cost": 104.52,
        "seconds": 258
      }
    ],
    [
      16,
      24,
      {
        "cost": 171.03,
        "seconds": 386
      }
    ],
    [
      16,
      26,
      {
        "cost": 44.01,
        "seconds": 145
      }
    ],
    [
      16,
      33,
      {
        "cost": 172.95,
        "seconds": 433
      }
    ],
    [
      16,
      31,
      {
        "cost": 206.19,
        "seconds": 465
      }
    ],
    [
      16,
      27,
      {
        "cost": 0.42,
        "seconds": 2
      }
    ],
    [
      16,
      21,
      {
        "cost": 138.48,
        "seconds": 347
      }
    ],
    [
      16,
      23,
      {
        "cost": 205.53,
        "seconds": 575
      }
    ],
    [
      16,
      25,
      {
        "cost": 213.15,
        "seconds": 436
      }
    ],
    [
      17,
      3,
      {
        "cost": 150.29999999999999,
        "seconds": 395
      }
    ],
    [
      17,
      5,
      {
        "cost": 242.04,
        "seconds": 582
      }
    ],
    [
      17,
      7,
      {
        "cost": 320.96999999999999,
        "seconds": 693
      }
    ],
    [
      17,
      9,
      {
        "cost": 201.39,
        "seconds": 518
      }
    ],
    [
      17,
      11,
      {
        "cost": 387.21,
        "seconds": 842
      }
    ],
    [
      17,
      10,
      {
        "cost": 90.96,
        "seconds": 264
      }
    ],
    [
      17,
      15,
      {
        "cost": 387.39,
        "seconds": 833
      }
    ],
    [
      17,
      36,
      {
        "cost": 155.46,
        "seconds": 416
      }
    ],
    [
      17,
      30,
      {
        "cost": 135.0,
        "seconds": 318
      }
    ],
    [
      17,
      37,
      {
        "cost": 262.86,
        "seconds": 629
      }
    ],
    [
      17,
      29,
      {
        "cost": 224.85,
        "seconds": 525
      }
    ],
    [
      17,
      22,
      {
        "cost": 60.18,
        "seconds": 196
      }
    ],
    [
      17,
      33,
      {
        "cost": 259.2,
        "seconds": 608
      }
    ],
    [
      17,
      26,
      {
        "cost": 130.23,
        "seconds": 320
      }
    ],
    [
      17,
      24,
      {
        "cost": 257.28,
        "seconds": 561
      }
    ],
    [
      17,
      21,
      {
        "cost": 97.89,
        "seconds": 261
      }
    ],
    [
      17,
      31,
      {
        "cost": 162.12,
        "seconds": 410
      }
    ],
    [
      17,
      23,
      {
        "cost": 258.33,
        "seconds": 568
      }
    ],
    [
      17,
      27,
      {
        "cost": 114.11999999999999,
        "seconds": 272
      }
    ],
    [
      17,
      25,
      {
        "cost": 169.10999999999999,
        "seconds": 381
      }
    ],
    [
      17,
      16,
      {
        "cost": 113.67,
        "seconds": 270
      }
    ],
    [
      18,
      0,
      {
        "cost": 141.48,
        "seconds": 335
      }
    ],
    [
      18,
      2,
      {
        "cost": 211.79999999999999,
        "seconds": 478
      }
    ],
    [
      18,
      8,
      {
        "cost": 193.95,
        "seconds": 455
      }
    ],
    [
      18,
      12,
      {
        "cost": 145.59,
        "seconds": 391
      }
    ],
    [
      18,
      14,
      {
        "cost": 259.53,
        "seconds": 599
      }
    ],
    [
      18,
      20,
      {
        "cost": 312.36,
        "seconds": 713
      }
    ],
    [
      18,
      34,
      {
        "cost": 244.70999999999999,
        "seconds": 593
      }
    ],
    [
      19,
      1,
      {
        "cost": 212.64,
        "seconds": 512
      }
    ],
    [
      19,
      0,
      {
        "cost": 189.78,
        "seconds": 429
      }
    ],
    [
      19,
      3,
      {
        "cost": 428.90999999999999,
        "seconds": 858
      }
    ],
    [
      19,
      2,
      {
        "cost": 138.9,
        "seconds": 334
      }
    ],
    [
      19,
      5,
      {
        "cost": 218.67,
        "seconds": 500
      }
    ],
    [
      19,
      4,
      {
        "cost": 124.28999999999999,
        "seconds": 274
      }
    ],
    [
      19,
      7,
      {
        "cost": 228.9,
        "seconds": 553
      }
    ],
    [
      19,
      6,
      {
        "cost": 243.75,
        "seconds": 567
      }
    ],
    [
      19,
      9,
      {
        "cost": 368.58,
        "seconds": 866
      }
    ],
    [
      19,
      8,
      {
        "cost": 62.699999999999999,
        "seconds": 160
      }
    ],
    [
      19,
      13,
      {
        "cost": 233.7,
        "seconds": 543
      }
    ],
    [
      19,
      12,
      {
        "cost": 210.42,
        "seconds": 543
      }
    ],
    [
      19,
      15,
      {
        "cost": 139.14,
        "seconds": 333
      }
    ],
    [
      19,
      14,
      {
        "cost": 162.96,
        "seconds": 376
      }
    ],
    [
      19,
      20,
      {
        "cost": 295.53,
        "seconds": 666
      }
    ],
    [
      19,
      34,
      {
        "cost": 348.15,
        "seconds": 753
      }
    ],
    [
      19,
      21,
      {
        "cost": 398.31,
        "seconds": 773
      }
    ],
    [
      19,
      35,
      {
        "cost": 312.96,
        "seconds": 676
      }
    ],
    [
      19,
      18,
      {
        "cost": 253.59,
        "seconds": 586
      }
    ],
    [
      20,
      0,
      {
        "cost": 337.86,
        "seconds": 681
      }
    ],
    [
      20,
      1,
      {
        "cost": 71.31,
        "seconds": 171
      }
    ],
    [
      20,
      2,
      {
        "cost": 133.71,
        "seconds": 255
      }
    ],
    [
      20,
      4,
      {
        "cost": 200.19,
        "seconds": 396
      }
    ],
    [
      20,
      7,
      {
        "cost": 55.05,
        "seconds": 129
      }
    ],
    [
      20,
      6,
      {
        "cost": 68.82,
        "seconds": 186
      }
    ],
    [
      20,
      8,
      {
        "cost": 252.26999999999999,
        "seconds": 540
      }
    ],
    [
      20,
      10,
      {
        "cost": 281.07,
        "seconds": 535
      }
    ],
    [
      20,
      11,
      {
        "cost": 47.489999999999998,
        "seconds": 144
      }
    ],
    [
      20,
      12,
      {
        "cost": 174.0,
        "seconds": 433
      }
    ],
    [
      20,
      14,
      {
        "cost": 135.69,
        "seconds": 278
      }
    ],
    [
      20,
      18,
      {
        "cost": 315.53999999999999,
        "seconds": 677
      }
    ],
    [
      20,
      36,
      {
        "cost": 269.07,
        "seconds": 581
      }
    ],
    [
      20,
      30,
      {
        "cost": 280.83,
        "seconds": 537
      }
    ],
    [
      20,
      34,
      {
        "cost": 111.14999999999999,
        "seconds": 273
      }
    ],
    [
      20,
      32,
      {
        "cost": 261.27,
        "seconds": 561
      }
    ],
    [
      20,
      22,
      {
        "cost": 364.86,
        "seconds": 722
      }
    ],
    [
      20,
      24,
      {
        "cost": 335.76,
        "seconds": 713
      }
    ],
    [
      20,
      35,
      {
        "cost": 44.4,
        "seconds": 135
      }
    ],
    [
      21,
      1,
      {
        "cost": 283.14,
        "seconds": 641
      }
    ],
    [
      21,
      3,
      {
        "cost": 78.69,
        "seconds": 216
      }
    ],
    [
      21,
      2,
      {
        "cost": 302.03999999999999,
        "seconds": 746
      }
    ],
    [
      21,
      5,
      {
        "cost": 219.45,
        "seconds": 550
      }
    ],
    [
      21,
      4,
      {
        "cost": 301.53,
        "seconds": 718
      }
    ],
    [
      21,
      7,
      {
        "cost": 263.15999999999999,
        "seconds": 653
      }
    ],
    [
      21,
      6,
      {
        "cost": 234.92999999999999,
        "seconds": 584
      }
    ],
    [
      21,
      9,
      {
        "cost": 191.64,
        "seconds": 478
      }
    ],
    [
      21,
      8,
      {
        "cost": 408.3,
        "seconds": 890
      }
    ],
    [
      21,
      11,
      {
        "cost": 329.4,
        "seconds": 802
      }
    ],
    [
      21,
      10,
      {
        "cost": 68.34,
        "seconds": 202
      }
    ],
    [
      21,
      13,
      {
        "cost": 199.47,
        "seconds": 492
      }
    ],
    [
      21,
      12,
      {
        "cost": 422.09999999999999,
        "seconds": 968
      }
    ],
    [
      21,
      15,
      {
        "cost": 364.83,
        "seconds": 801
      }
    ],
    [
      21,
      14,
      {
        "cost": 256.95,
        "seconds": 634
      }
    ],
    [
      21,
      17,
      {
        "cost": 101.97,
        "seconds": 237
      }
    ],
    [
      21,
      16,
      {
        "cost": 146.34,
        "seconds": 294
      }
    ],
    [
      21,
      19,
      {
        "cost": 345.57,
        "seconds": 730
      }
    ],
    [
      21,
      36,
      {
        "cost": 83.82,
        "seconds": 237
      }
    ],
    [
      21,
      28,
      {
        "cost": 267.06,
        "seconds": 675
      }
    ],
    [
      21,
      30,
      {
        "cost": 70.5,
        "seconds": 218
      }
    ],
    [
      21,
      34,
      {
        "cost": 393.06,
        "seconds": 931
      }
    ],
    [
      21,
      37,
      {
        "cost": 243.6,
        "seconds": 598
      }
    ],
    [
      21,
      24,
      {
        "cost": 229.95,
        "seconds": 523
      }
    ],
    [
      21,
      22,
      {
        "cost": 60.03,
        "seconds": 145
      }
    ],
    [
      21,
      26,
      {
        "cost": 162.9,
        "seconds": 344
      }
    ],
    [
      21,
      33,
      {
        "cost": 253.29,
        "seconds": 611
      }
    ],
    [
      21,
      35,
      {
        "cost": 294.63,
        "seconds": 710
      }
    ],
    [
      21,
      31,
      {
        "cost": 143.16,
        "seconds": 343
      }
    ],
    [
      21,
      29,
      {
        "cost": 257.49,
        "seconds": 549
      }
    ],
    [
      21,
      23,
      {
        "cost": 235.73999999999999,
        "seconds": 536
      }
    ],
    [
      21,
      25,
      {
        "cost": 84.14999999999999,
        "seconds": 224
      }
    ],
    [
      21,
      27,
      {
        "cost": 146.76,
        "seconds": 295
      }
    ],
    [
      21,
      20,
      {
        "cost": 288.81,
        "seconds": 696
      }
    ],
    [
      22,
      2,
      {
        "cost": 397.40999999999999,
        "seconds": 874
      }
    ],
    [
      22,
      8,
      {
        "cost": 461.58,
        "seconds": 1011
      }
    ],
    [
      22,
      10,
      {
        "cost": 130.32,
        "seconds": 387
      }
    ],
    [
      22,
      17,
      {
        "cost": 74.82,
        "seconds": 254
      }
    ],
    [
      22,
      16,
      {
        "cost": 145.23,
        "seconds": 350
      }
    ],
    [
      22,
      20,
      {
        "cost": 377.34,
        "seconds": 826
      }
    ],
    [
      22,
      21,
      {
        "cost": 102.3,
        "seconds": 298
      }
    ],
    [
      22,
      36,
      {
        "cost": 163.85999999999999,
        "seconds": 390
      }
    ],
    [
      22,
      32,
      {
        "cost": 459.21,
        "seconds": 982
      }
    ],
    [
      22,
      30,
      {
        "cost": 165.69,
        "seconds": 408
      }
    ],
    [
      22,
      24,
      {
        "cost": 288.81,
        "seconds": 641
      }
    ],
    [
      22,
      26,
      {
        "cost": 161.79,
        "seconds": 400
      }
    ],
    [
      23,
      3,
      {
        "cost": 240.39,
        "seconds": 528
      }
    ],
    [
      23,
      2,
      {
        "cost": 284.46,
        "seconds": 610
      }
    ],
    [
      23,
      5,
      {
        "cost": 99.96,
        "seconds": 352
      }
    ],
    [
      23,
      4,
      {
        "cost": 189.39,
        "seconds": 570
      }
    ],
    [
      23,
      7,
      {
        "cost": 245.57999999999999,
        "seconds": 517
      }
    ],
    [
      23,
      6,
      {
        "cost": 217.35,
        "seconds": 448
      }
    ],
    [
      23,
      9,
      {
        "cost": 106.38,
        "seconds": 277
      }
    ],
    [
      23,
      11,
      {
        "cost": 311.82,
        "seconds": 666
      }
    ],
    [
      23,
      10,
      {
        "cost": 128.79,
        "seconds": 336
      }
    ],
    [
      23,
      15,
      {
        "cost": 319.92,
        "seconds": 670
      }
    ],
    [
      23,
      14,
      {
        "cost": 239.39999999999999,
        "seconds": 497
      }
    ],
    [
      23,
      17,
      {
        "cost": 226.44,
        "seconds": 527
      }
    ],
    [
      23,
      16,
      {
        "cost": 186.06,
        "seconds": 497
      }
    ],
    [
      23,
      21,
      {
        "cost": 209.82,
        "seconds": 443
      }
    ],
    [
      23,
      20,
      {
        "cost": 271.23,
        "seconds": 560
      }
    ],
    [
      23,
      36,
      {
        "cost": 218.31,
        "seconds": 499
      }
    ],
    [
      23,
      30,
      {
        "cost": 175.29,
        "seconds": 391
      }
    ],
    [
      23,
      26,
      {
        "cost": 147.42,
        "seconds": 434
      }
    ],
    [
      23,
      28,
      {
        "cost": 99.72,
        "seconds": 245
      }
    ],
    [
      23,
      35,
      {
        "cost": 277.05,
        "seconds": 574
      }
    ],
    [
      23,
      24,
      {
        "cost": 108.06,
        "seconds": 273
      }
    ],
    [
      23,
      37,
      {
        "cost": 53.55,
        "seconds": 122
      }
    ],
    [
      23,
      33,
      {
        "cost": 187.89,
        "seconds": 423
      }
    ],
    [
      23,
      31,
      {
        "cost": 285.21,
        "seconds": 656
      }
    ],
    [
      23,
      29,
      {
        "cost": 168.87,
        "seconds": 380
      }
    ],
    [
      23,
      25,
      {
        "cost": 245.85,
        "seconds": 536
      }
    ],
    [
      23,
      27,
      {
        "cost": 186.48,
        "seconds": 499
      }
    ],
    [
      23,
      22,
      {
        "cost": 233.16,
        "seconds": 557
      }
    ],
    [
      24,
      2,
      {
        "cost": 343.53,
        "seconds": 731
      }
    ],
    [
      24,
      8,
      {
        "cost": 353.31,
        "seconds": 890
      }
    ],
    [
      24,
      9,
      {
        "cost": 55.89,
        "seconds": 123
      }
    ],
    [
      24,
      10,
      {
        "cost": 159.48,
        "seconds": 392
      }
    ],
    [
      24,
      12,
      {
        "cost": 436.28999999999999,
        "seconds": 957
      }
    ],
    [
      24,
      16,
      {
        "cost": 197.1,
        "seconds": 439
      }
    ],
    [
      24,
      20,
      {
        "cost": 330.33,
        "seconds": 681
      }
    ],
    [
      24,
      22,
      {
        "cost": 287.03999999999999,
        "seconds": 606
      }
    ],
    [
      24,
      30,
      {
        "cost": 203.97,
        "seconds": 463
      }
    ],
    [
      24,
      32,
      {
        "cost": 370.5,
        "seconds": 860
      }
    ],
    [
      24,
      26,
      {
        "cost": 143.51999999999999,
        "seconds": 405
      }
    ],
    [
      24,
      36,
      {
        "cost": 258.18,
        "seconds": 598
      }
    ],
    [
      24,
      28,
      {
        "cost": 60.72,
        "seconds": 190
      }
    ],
    [
      24,
      37,
      {
        "cost": 69.57,
        "seconds": 182
      }
    ],
    [
      24,
      29,
      {
        "cost": 98.13,
        "seconds": 222
      }
    ],
    [
      25,
      3,
      {
        "cost": 147.06,
        "seconds": 316
      }
    ],
    [
      25,
      2,
      {
        "cost": 410.46,
        "seconds": 859
      }
    ],
    [
      25,
      5,
      {
        "cost": 285.81,
        "seconds": 657
      }
    ],
    [
      25,
      4,
      {
        "cost": 367.89,
        "seconds": 824
      }
    ],
    [
      25,
      7,
      {
        "cost": 364.74,
        "seconds": 768
      }
    ],
    [
      25,
      6,
      {
        "cost": 336.51,
        "seconds": 699
      }
    ],
    [
      25,
      9,
      {
        "cost": 243.57,
        "seconds": 589
      }
    ],
    [
      25,
      10,
      {
        "cost": 143.4,
        "seconds": 371
      }
    ],
    [
      25,
      13,
      {
        "cost": 265.83,
        "seconds": 598
      }
    ],
    [
      25,
      14,
      {
        "cost": 331.5,
        "seconds": 744
      }
    ],
    [
      25,
      17,
      {
        "cost": 114.24,
        "seconds": 269
      }
    ],
    [
      25,
      16,
      {
        "cost": 158.31,
        "seconds": 335
      }
    ],
    [
      25,
      21,
      {
        "cost": 104.78999999999999,
        "seconds": 266
      }
    ],
    [
      25,
      20,
      {
        "cost": 390.39,
        "seconds": 811
      }
    ],
    [
      25,
      23,
      {
        "cost": 302.13,
        "seconds": 642
      }
    ],
    [
      25,
      22,
      {
        "cost": 87.24,
        "seconds": 215
      }
    ],
    [
      25,
      30,
      {
        "cost": 178.76999999999999,
        "seconds": 393
      }
    ],
    [
      25,
      26,
      {
        "cost": 174.84,
        "seconds": 385
      }
    ],
    [
      25,
      36,
      {
        "cost": 152.22,
        "seconds": 336
      }
    ],
    [
      25,
      28,
      {
        "cost": 319.02,
        "seconds": 786
      }
    ],
    [
      25,
      33,
      {
        "cost": 303.81,
        "seconds": 673
      }
    ],
    [
      25,
      31,
      {
        "cost": 126.69,
        "seconds": 299
      }
    ],
    [
      25,
      35,
      {
        "cost": 396.21,
        "seconds": 825
      }
    ],
    [
      25,
      27,
      {
        "cost": 158.73,
        "seconds": 336
      }
    ],
    [
      25,
      37,
      {
        "cost": 306.63,
        "seconds": 703
      }
    ],
    [
      25,
      29,
      {
        "cost": 269.46,
        "seconds": 590
      }
    ],
    [
      25,
      24,
      {
        "cost": 301.89,
        "seconds": 626
      }
    ],
    [
      26,
      0,
      {
        "cost": 569.25,
        "seconds": 1233
      }
    ],
    [
      26,
      2,
      {
        "cost": 367.86,
        "seconds": 844
      }
    ],
    [
      26,
      3,
      {
        "cost": 228.75,
        "seconds": 527
      }
    ],
    [
      26,
      4,
      {
        "cost": 325.26,
        "seconds": 809
      }
    ],
    [
      26,
      5,
      {
        "cost": 244.95,
        "seconds": 635
      }
    ],
    [
      26,
      6,
      {
        "cost": 305.64,
        "seconds": 683
      }
    ],
    [
      26,
      8,
      {
        "cost": 432.03,
        "seconds": 982
      }
    ],
    [
      26,
      9,
      {
        "cost": 112.71,
        "seconds": 336
      }
    ],
    [
      26,
      10,
      {
        "cost": 121.19999999999999,
        "seconds": 302
      }
    ],
    [
      26,
      12,
      {
        "cost": 445.83,
        "seconds": 1059
      }
    ],
    [
      26,
      13,
      {
        "cost": 224.97,
        "seconds": 577
      }
    ],
    [
      26,
      14,
      {
        "cost": 288.9,
        "seconds": 729
      }
    ],
    [
      26,
      17,
      {
        "cost": 117.69,
        "seconds": 285
      }
    ],
    [
      26,
      16,
      {
        "cost": 38.879999999999998,
        "seconds": 149
      }
    ],
    [
      26,
      20,
      {
        "cost": 359.52,
        "seconds": 795
      }
    ],
    [
      26,
      21,
      {
        "cost": 162.81,
        "seconds": 406
      }
    ],
    [
      26,
      22,
      {
        "cost": 128.85,
        "seconds": 317
      }
    ],
    [
      26,
      23,
      {
        "cost": 176.43,
        "seconds": 513
      }
    ],
    [
      26,
      24,
      {
        "cost": 151.47,
        "seconds": 376
      }
    ],
    [
      26,
      25,
      {
        "cost": 237.48,
        "seconds": 495
      }
    ],
    [
      26,
      30,
      {
        "cost": 165.72,
        "seconds": 373
      }
    ],
    [
      26,
      28,
      {
        "cost": 161.60999999999999,
        "seconds": 530
      }
    ],
    [
      26,
      36,
      {
        "cost": 219.92999999999999,
        "seconds": 508
      }
    ],
    [
      26,
      32,
      {
        "cost": 429.65999999999999,
        "seconds": 952
      }
    ],
    [
      26,
      29,
      {
        "cost": 119.03999999999999,
        "seconds": 340
      }
    ],
    [
      26,
      33,
      {
        "cost": 153.42,
        "seconds": 423
      }
    ],
    [
      26,
      31,
      {
        "cost": 230.48999999999999,
        "seconds": 524
      }
    ],
    [
      26,
      37,
      {
        "cost": 177.69,
        "seconds": 463
      }
    ],
    [
      27,
      3,
      {
        "cost": 190.47,
        "seconds": 480
      }
    ],
    [
      27,
      7,
      {
        "cost": 325.95,
        "seconds": 745
      }
    ],
    [
      27,
      9,
      {
        "cost": 140.37,
        "seconds": 370
      }
    ],
    [
      27,
      11,
      {
        "cost": 392.19,
        "seconds": 894
      }
    ],
    [
      27,
      10,
      {
        "cost": 113.28,
        "seconds": 295
      }
    ],
    [
      27,
      15,
      {
        "cost": 380.64,
        "seconds": 885
      }
    ],
    [
      27,
      17,
      {
        "cost": 92.94,
        "seconds": 224
      }
    ],
    [
      27,
      16,
      {
        "cost": 22.349999999999999,
        "seconds": 69
      }
    ],
    [
      27,
      21,
      {
        "cost": 138.06,
        "seconds": 346
      }
    ],
    [
      27,
      23,
      {
        "cost": 205.07999999999999,
        "seconds": 573
      }
    ],
    [
      27,
      22,
      {
        "cost": 104.1,
        "seconds": 256
      }
    ],
    [
      27,
      25,
      {
        "cost": 212.73,
        "seconds": 434
      }
    ],
    [
      27,
      24,
      {
        "cost": 170.60999999999999,
        "seconds": 384
      }
    ],
    [
      27,
      30,
      {
        "cost": 157.79999999999999,
        "seconds": 366
      }
    ],
    [
      27,
      28,
      {
        "cost": 202.32,
        "seconds": 562
      }
    ],
    [
      27,
      37,
      {
        "cost": 206.37,
        "seconds": 524
      }
    ],
    [
      27,
      33,
      {
        "cost": 172.53,
        "seconds": 431
      }
    ],
    [
      27,
      29,
      {
        "cost": 138.18,
        "seconds": 348
      }
    ],
    [
      27,
      31,
      {
        "cost": 205.73999999999999,
        "seconds": 463
      }
    ],
    [
      27,
      26,
      {
        "cost": 43.559999999999998,
        "seconds": 143
      }
    ],
    [
      28,
      0,
      {
        "cost": 436.74,
        "seconds": 1039
      }
    ],
    [
      28,
      2,
      {
        "cost": 260.84999999999999,
        "seconds": 667
      }
    ],
    [
      28,
      5,
      {
        "cost": 139.38,
        "seconds": 476
      }
    ],
    [
      28,
      4,
      {
        "cost": 233.13,
        "seconds": 596
      }
    ],
    [
      28,
      8,
      {
        "cost": 290.09999999999999,
        "seconds": 770
      }
    ],
    [
      28,
      9,
      {
        "cost": 86.7,
        "seconds": 250
      }
    ],
    [
      28,
      10,
      {
        "cost": 170.85,
        "seconds": 476
      }
    ],
    [
      28,
      12,
      {
        "cost": 381.71999999999999,
        "seconds": 941
      }
    ],
    [
      28,
      16,
      {
        "cost": 204.17999999999999,
        "seconds": 535
      }
    ],
    [
      28,
      20,
      {
        "cost": 332.34,
        "seconds": 748
      }
    ],
    [
      28,
      22,
      {
        "cost": 294.12,
        "seconds": 702
      }
    ],
    [
      28,
      23,
      {
        "cost": 129.6,
        "seconds": 382
      }
    ],
    [
      28,
      24,
      {
        "cost": 66.50999999999999,
        "seconds": 234
      }
    ],
    [
      28,
      26,
      {
        "cost": 181.41,
        "seconds": 513
      }
    ],
    [
      28,
      30,
      {
        "cost": 215.37,
        "seconds": 547
      }
    ],
    [
      28,
      36,
      {
        "cost": 269.55,
        "seconds": 682
      }
    ],
    [
      28,
      32,
      {
        "cost": 307.28999999999999,
        "seconds": 741
      }
    ],
    [
      28,
      37,
      {
        "cost": 54.18,
        "seconds": 178
      }
    ],
    [
      28,
      33,
      {
        "cost": 124.19999999999999,
        "seconds": 361
      }
    ],
    [
      29,
      3,
      {
        "cost": 281.19,
        "seconds": 582
      }
    ],
    [
      29,
      5,
      {
        "cost": 297.42,
        "seconds": 689
      }
    ],
    [
      29,
      7,
      {
        "cost": 386.31,
        "seconds": 807
      }
    ],
    [
      29,
      9,
      {
        "cost": 70.53,
        "seconds": 200
      }
    ],
    [
      29,
      10,
      {
        "cost": 173.67,
        "seconds": 357
      }
    ],
    [
      29,
      13,
      {
        "cost": 277.44,
        "seconds": 631
      }
    ],
    [
      29,
      17,
      {
        "cost": 206.76,
        "seconds": 467
      }
    ],
    [
      29,
      16,
      {
        "cost": 127.94999999999999,
        "seconds": 331
      }
    ],
    [
      29,
      21,
      {
        "cost": 250.62,
        "seconds": 497
      }
    ],
    [
      29,
      23,
      {
        "cost": 207.03,
        "seconds": 550
      }
    ],
    [
      29,
      25,
      {
        "cost": 286.65,
        "seconds": 590
      }
    ],
    [
      29,
      24,
      {
        "cost": 69.33,
        "seconds": 189
      }
    ],
    [
      29,
      27,
      {
        "cost": 128.4,
        "seconds": 333
      }
    ],
    [
      29,
      26,
      {
        "cost": 128.37,
        "seconds": 334
      }
    ],
    [
      29,
      30,
      {
        "cost": 218.16,
        "seconds": 428
      }
    ],
    [
      29,
      36,
      {
        "cost": 272.37,
        "seconds": 563
      }
    ],
    [
      29,
      33,
      {
        "cost": 35.61,
        "seconds": 119
      }
    ],
    [
      29,
      37,
      {
        "cost": 138.9,
        "seconds": 371
      }
    ],
    [
      29,
      35,
      {
        "cost": 417.81,
        "seconds": 864
      }
    ],
    [
      29,
      31,
      {
        "cost": 319.56,
        "seconds": 706
      }
    ],
    [
      29,
      28,
      {
        "cost": 130.07999999999999,
        "seconds": 379
      }
    ],
    [
      30,
      0,
      {
        "cost": 452.60999999999998,
        "seconds": 966
      }
    ],
    [
      30,
      1,
      {
        "cost": 200.91,
        "seconds": 481
      }
    ],
    [
      30,
      2,
      {
        "cost": 250.73999999999999,
        "seconds": 580
      }
    ],
    [
      30,
      3,
      {
        "cost": 73.38,
        "seconds": 182
      }
    ],
    [
      30,
      4,
      {
        "cost": 283.02,
        "seconds": 631
      }
    ],
    [
      30,
      5,
      {
        "cost": 215.4,
        "seconds": 509
      }
    ],
    [
      30,
      6,
      {
        "cost": 183.66,
        "seconds": 418
      }
    ],
    [
      30,
      7,
      {
        "cost": 211.85999999999999,
        "seconds": 487
      }
    ],
    [
      30,
      9,
      {
        "cost": 163.23,
        "seconds": 355
      }
    ],
    [
      30,
      8,
      {
        "cost": 343.56,
        "seconds": 768
      }
    ],
    [
      30,
      10,
      {
        "cost": 71.07,
        "seconds": 156
      }
    ],
    [
      30,
      12,
      {
        "cost": 343.5,
        "seconds": 807
      }
    ],
    [
      30,
      13,
      {
        "cost": 195.42,
        "seconds": 451
      }
    ],
    [
      30,
      14,
      {
        "cost": 206.82,
        "seconds": 454
      }
    ],
    [
      30,
      16,
      {
        "cost": 194.91,
        "seconds": 404
      }
    ],
    [
      30,
      17,
      {
        "cost": 150.54,
        "seconds": 348
      }
    ],
    [
      30,
      20,
      {
        "cost": 237.54,
        "seconds": 531
      }
    ],
    [
      30,
      21,
      {
        "cost": 48.6,
        "seconds": 111
      }
    ],
    [
      30,
      22,
      {
        "cost": 108.63,
        "seconds": 256
      }
    ],
    [
      30,
      23,
      {
        "cost": 200.91,
        "seconds": 419
      }
    ],
    [
      30,
      24,
      {
        "cost": 225.20999999999999,
        "seconds": 421
      }
    ],
    [
      30,
      25,
      {
        "cost": 69.57,
        "seconds": 200
      }
    ],
    [
      30,
      26,
      {
        "cost": 172.5,
        "seconds": 438
      }
    ],
    [
      30,
      27,
      {
        "cost": 195.35999999999999,
        "seconds": 406
      }
    ],
    [
      30,
      28,
      {
        "cost": 262.32,
        "seconds": 573
      }
    ],
    [
      30,
      29,
      {
        "cost": 229.56,
        "seconds": 466
      }
    ],
    [
      30,
      34,
      {
        "cost": 341.78999999999999,
        "seconds": 766
      }
    ],
    [
      30,
      32,
      {
        "cost": 352.56,
        "seconds": 788
      }
    ],
    [
      30,
      36,
      {
        "cost": 54.21,
        "seconds": 135
      }
    ],
    [
      30,
      37,
      {
        "cost": 213.42,
        "seconds": 464
      }
    ],
    [
      30,
      33,
      {
        "cost": 248.54999999999999,
        "seconds": 509
      }
    ],
    [
      31,
      1,
      {
        "cost": 294.69,
        "seconds": 685
      }
    ],
    [
      31,
      3,
      {
        "cost": 80.39999999999999,
        "seconds": 210
      }
    ],
    [
      31,
      5,
      {
        "cost": 300.39,
        "seconds": 727
      }
    ],
    [
      31,
      7,
      {
        "cost": 305.64,
        "seconds": 692
      }
    ],
    [
      31,
      6,
      {
        "cost": 277.40999999999999,
        "seconds": 623
      }
    ],
    [
      31,
      9,
      {
        "cost": 271.83,
        "seconds": 642
      }
    ],
    [
      31,
      11,
      {
        "cost": 371.88,
        "seconds": 841
      }
    ],
    [
      31,
      10,
      {
        "cost": 179.64,
        "seconds": 444
      }
    ],
    [
      31,
      13,
      {
        "cost": 280.40999999999999,
        "seconds": 668
      }
    ],
    [
      31,
      15,
      {
        "cost": 379.97999999999998,
        "seconds": 845
      }
    ],
    [
      31,
      14,
      {
        "cost": 300.57,
        "seconds": 658
      }
    ],
    [
      31,
      17,
      {
        "cost": 181.23,
        "seconds": 433
      }
    ],
    [
      31,
      16,
      {
        "cost": 225.29999999999999,
        "seconds": 499
      }
    ],
    [
      31,
      21,
      {
        "cost": 120.27,
        "seconds": 299
      }
    ],
    [
      31,
      23,
      {
        "cost": 294.69,
        "seconds": 623
      }
    ],
    [
      31,
      22,
      {
        "cost": 154.23,
        "seconds": 380
      }
    ],
    [
      31,
      25,
      {
        "cost": 67.02,
        "seconds": 165
      }
    ],
    [
      31,
      24,
      {
        "cost": 333.78,
        "seconds": 709
      }
    ],
    [
      31,
      27,
      {
        "cost": 225.75,
        "seconds": 501
      }
    ],
    [
      31,
      26,
      {
        "cost": 241.85999999999999,
        "seconds": 549
      }
    ],
    [
      31,
      29,
      {
        "cost": 338.13,
        "seconds": 754
      }
    ],
    [
      31,
      36,
      {
        "cost": 85.56,
        "seconds": 231
      }
    ],
    [
      31,
      33,
      {
        "cost": 357.12,
        "seconds": 797
      }
    ],
    [
      31,
      37,
      {
        "cost": 348.24,
        "seconds": 746
      }
    ],
    [
      31,
      35,
      {
        "cost": 337.11,
        "seconds": 749
      }
    ],
    [
      31,
      30,
      {
        "cost": 126.50999999999999,
        "seconds": 338
      }
    ],
    [
      32,
      0,
      {
        "cost": 129.45,
        "seconds": 298
      }
    ],
    [
      32,
      2,
      {
        "cost": 154.65,
        "seconds": 356
      }
    ],
    [
      32,
      8,
      {
        "cost": 47.1,
        "seconds": 115
      }
    ],
    [
      32,
      12,
      {
        "cost": 150.06,
        "seconds": 412
      }
    ],
    [
      33,
      1,
      {
        "cost": 377.34,
        "seconds": 829
      }
    ],
    [
      33,
      0,
      {
        "cost": 624.51,
        "seconds": 1324
      }
    ],
    [
      33,
      3,
      {
        "cost": 299.19,
        "seconds": 623
      }
    ],
    [
      33,
      2,
      {
        "cost": 427.97999999999998,
        "seconds": 936
      }
    ],
    [
      33,
      5,
      {
        "cost": 315.42,
        "seconds": 731
      }
    ],
    [
      33,
      4,
      {
        "cost": 395.72999999999998,
        "seconds": 905
      }
    ],
    [
      33,
      7,
      {
        "cost": 389.09999999999999,
        "seconds": 843
      }
    ],
    [
      33,
      6,
      {
        "cost": 360.9,
        "seconds": 774
      }
    ],
    [
      33,
      9,
      {
        "cost": 88.53,
        "seconds": 242
      }
    ],
    [
      33,
      8,
      {
        "cost": 502.5,
        "seconds": 1078
      }
    ],
    [
      33,
      13,
      {
        "cost": 295.44,
        "seconds": 673
      }
    ],
    [
      33,
      12,
      {
        "cost": 516.3,
        "seconds": 1155
      }
    ],
    [
      33,
      17,
      {
        "cost": 247.76999999999999,
        "seconds": 544
      }
    ],
    [
      33,
      16,
      {
        "cost": 168.95999999999999,
        "seconds": 409
      }
    ],
    [
      33,
      21,
      {
        "cost": 268.62,
        "seconds": 538
      }
    ],
    [
      33,
      20,
      {
        "cost": 414.78,
        "seconds": 887
      }
    ],
    [
      33,
      23,
      {
        "cost": 222.15,
        "seconds": 566
      }
    ],
    [
      33,
      22,
      {
        "cost": 258.9,
        "seconds": 576
      }
    ],
    [
      33,
      25,
      {
        "cost": 304.65,
        "seconds": 631
      }
    ],
    [
      33,
      24,
      {
        "cost": 84.45,
        "seconds": 206
      }
    ],
    [
      33,
      27,
      {
        "cost": 169.38,
        "seconds": 411
      }
    ],
    [
      33,
      26,
      {
        "cost": 147.72,
        "seconds": 389
      }
    ],
    [
      33,
      29,
      {
        "cost": 35.61,
        "seconds": 119
      }
    ],
    [
      33,
      28,
      {
        "cost": 145.2,
        "seconds": 396
      }
    ],
    [
      33,
      31,
      {
        "cost": 344.03999999999999,
        "seconds": 751
      }
    ],
    [
      33,
      30,
      {
        "cost": 236.16,
        "seconds": 470
      }
    ],
    [
      33,
      36,
      {
        "cost": 290.37,
        "seconds": 604
      }
    ],
    [
      33,
      37,
      {
        "cost": 154.01999999999999,
        "seconds": 388
      }
    ],
    [
      33,
      32,
      {
        "cost": 500.13,
        "seconds": 1049
      }
    ],
    [
      34,
      0,
      {
        "cost": 310.28999999999999,
        "seconds": 742
      }
    ],
    [
      34,
      1,
      {
        "cost": 194.37,
        "seconds": 469
      }
    ],
    [
      34,
      2,
      {
        "cost": 214.70999999999999,
        "seconds": 505
      }
    ],
    [
      34,
      4,
      {
        "cost": 283.14,
        "seconds": 657
      }
    ],
    [
      34,
      7,
      {
        "cost": 178.10999999999999,
        "seconds": 427
      }
    ],
    [
      34,
      6,
      {
        "cost": 191.85,
        "seconds": 484
      }
    ],
    [
      34,
      8,
      {
        "cost": 324.96,
        "seconds": 735
      }
    ],
    [
      34,
      10,
      {
        "cost": 404.13,
        "seconds": 833
      }
    ],
    [
      34,
      11,
      {
        "cost": 114.69,
        "seconds": 303
      }
    ],
    [
      34,
      12,
      {
        "cost": 155.01,
        "seconds": 485
      }
    ],
    [
      34,
      14,
      {
        "cost": 258.75,
        "seconds": 576
      }
    ],
    [
      34,
      15,
      {
        "cost": 229.10999999999999,
        "seconds": 508
      }
    ],
    [
      34,
      18,
      {
        "cost": 222.39,
        "seconds": 548
      }
    ],
    [
      34,
      20,
      {
        "cost": 148.26,
        "seconds": 407
      }
    ],
    [
      34,
      22,
      {
        "cost": 458.21999999999999,
        "seconds": 1001
      }
    ],
    [
      34,
      24,
      {
        "cost": 458.82,
        "seconds": 1011
      }
    ],
    [
      34,
      28,
      {
        "cost": 456.35999999999998,
        "seconds": 1001
      }
    ],
    [
      34,
      30,
      {
        "cost": 374.19,
        "seconds": 816
      }
    ],
    [
      34,
      36,
      {
        "cost": 355.14,
        "seconds": 775
      }
    ],
    [
      35,
      1,
      {
        "cost": 82.17,
        "seconds": 225
      }
    ],
    [
      35,
      3,
      {
        "cost": 263.73,
        "seconds": 581
      }
    ],
    [
      35,
      2,
      {
        "cost": 151.89,
        "seconds": 298
      }
    ],
    [
      35,
      5,
      {
        "cost": 229.23,
        "seconds": 506
      }
    ],
    [
      35,
      4,
      {
        "cost": 220.32,
        "seconds": 450
      }
    ],
    [
      35,
      7,
      {
        "cost": 65.91,
        "seconds": 183
      }
    ],
    [
      35,
      6,
      {
        "cost": 79.64999999999999,
        "seconds": 240
      }
    ],
    [
      35,
      9,
      {
        "cost": 351.0,
        "seconds": 787
      }
    ],
    [
      35,
      11,
      {
        "cost": 45.03,
        "seconds": 151
      }
    ],
    [
      35,
      13,
      {
        "cost": 207.98999999999999,
        "seconds": 493
      }
    ],
    [
      35,
      15,
      {
        "cost": 174.9,
        "seconds": 363
      }
    ],
    [
      35,
      14,
      {
        "cost": 146.4,
        "seconds": 357
      }
    ],
    [
      35,
      19,
      {
        "cost": 288.59999999999999,
        "seconds": 608
      }
    ],
    [
      35,
      21,
      {
        "cost": 286.86,
        "seconds": 609
      }
    ],
    [
      35,
      20,
      {
        "cost": 30.0,
        "seconds": 101
      }
    ],
    [
      35,
      31,
      {
        "cost": 325.92,
        "seconds": 741
      }
    ],
    [
      35,
      34,
      {
        "cost": 115.35,
        "seconds": 298
      }
    ],
    [
      36,
      2,
      {
        "cost": 248.34,
        "seconds": 575
      }
    ],
    [
      36,
      3,
      {
        "cost": 34.41,
        "seconds": 86
      }
    ],
    [
      36,
      8,
      {
        "cost": 341.15999999999999,
        "seconds": 762
      }
    ],
    [
      36,
      10,
      {
        "cost": 119.22,
        "seconds": 274
      }
    ],
    [
      36,
      12,
      {
        "cost": 341.09999999999999,
        "seconds": 802
      }
    ],
    [
      36,
      14,
      {
        "cost": 204.42,
        "seconds": 448
      }
    ],
    [
      36,
      16,
      {
        "cost": 219.20999999999999,
        "seconds": 454
      }
    ],
    [
      36,
      20,
      {
        "cost": 235.10999999999999,
        "seconds": 525
      }
    ],
    [
      36,
      21,
      {
        "cost": 74.28,
        "seconds": 175
      }
    ],
    [
      36,
      22,
      {
        "cost": 134.31,
        "seconds": 320
      }
    ],
    [
      36,
      24,
      {
        "cost": 273.36,
        "seconds": 539
      }
    ],
    [
      36,
      25,
      {
        "cost": 60.3,
        "seconds": 130
      }
    ],
    [
      36,
      28,
      {
        "cost": 298.22999999999998,
        "seconds": 659
      }
    ],
    [
      36,
      30,
      {
        "cost": 63.54,
        "seconds": 176
      }
    ],
    [
      36,
      32,
      {
        "cost": 350.15999999999999,
        "seconds": 783
      }
    ],
    [
      37,
      3,
      {
        "cost": 257.34,
        "seconds": 621
      }
    ],
    [
      37,
      2,
      {
        "cost": 223.41,
        "seconds": 667
      }
    ],
    [
      37,
      5,
      {
        "cost": 121.77,
        "seconds": 419
      }
    ],
    [
      37,
      4,
      {
        "cost": 195.69,
        "seconds": 596
      }
    ],
    [
      37,
      7,
      {
        "cost": 285.93,
        "seconds": 622
      }
    ],
    [
      37,
      6,
      {
        "cost": 257.73,
        "seconds": 553
      }
    ],
    [
      37,
      9,
      {
        "cost": 123.63,
        "seconds": 311
      }
    ],
    [
      37,
      11,
      {
        "cost": 352.2,
        "seconds": 771
      }
    ],
    [
      37,
      10,
      {
        "cost": 149.79,
        "seconds": 396
      }
    ],
    [
      37,
      13,
      {
        "cost": 140.19,
        "seconds": 439
      }
    ],
    [
      37,
      15,
      {
        "cost": 308.67,
        "seconds": 771
      }
    ],
    [
      37,
      14,
      {
        "cost": 279.75,
        "seconds": 602
      }
    ],
    [
      37,
      17,
      {
        "cost": 262.53,
        "seconds": 618
      }
    ],
    [
      37,
      16,
      {
        "cost": 207.06,
        "seconds": 557
      }
    ],
    [
      37,
      21,
      {
        "cost": 226.76999999999999,
        "seconds": 536
      }
    ],
    [
      37,
      20,
      {
        "cost": 311.61,
        "seconds": 665
      }
    ],
    [
      37,
      23,
      {
        "cost": 107.28,
        "seconds": 299
      }
    ],
    [
      37,
      22,
      {
        "cost": 269.28,
        "seconds": 648
      }
    ],
    [
      37,
      25,
      {
        "cost": 262.8,
        "seconds": 629
      }
    ],
    [
      37,
      24,
      {
        "cost": 103.44,
        "seconds": 295
      }
    ],
    [
      37,
      27,
      {
        "cost": 207.48,
        "seconds": 559
      }
    ],
    [
      37,
      26,
      {
        "cost": 168.42,
        "seconds": 494
      }
    ],
    [
      37,
      29,
      {
        "cost": 164.28,
        "seconds": 403
      }
    ],
    [
      37,
      28,
      {
        "cost": 46.17,
        "seconds": 123
      }
    ],
    [
      37,
      31,
      {
        "cost": 302.15999999999999,
        "seconds": 749
      }
    ],
    [
      37,
      30,
      {
        "cost": 194.31,
        "seconds": 468
      }
    ],
    [
      37,
      33,
      {
        "cost": 183.29999999999999,
        "seconds": 446
      }
    ],
    [
      37,
      35,
      {
        "cost": 317.43,
        "seconds": 679
      }
    ],
    [
      37,
      36,
      {
        "cost": 248.51999999999999,
        "seconds": 602
      }
    ],
    [
      36,
      39,
      {
        "cost": 421.74,
        "seconds": 931
      }
    ],
    [
      38,
      37,
      {
        "cost": 49.32,
        "seconds": 129
      }
    ],
    [
      36,
      38,
      {
        "cost": 282.3,
        "seconds": 579
      }
    ],
    [
      39,
      37,
      {
        "cost": 446.76,
        "seconds": 958
      }
    ],
    [
      34,
      39,
      {
        "cost": 75.14999999999999,
        "seconds": 196
      }
    ],
    [
      38,
      35,
      {
        "cost": 334.86,
        "seconds": 713
      }
    ],
    [
      34,
      38,
      {
        "cost": 437.58,
        "seconds": 946
      }
    ],
    [
      39,
      35,
      {
        "cost": 192.35999999999999,
        "seconds": 497
      }
    ],
    [
      32,
      39,
      {
        "cost": 267.36,
        "seconds": 580
      }
    ],
    [
      38,
      33,
      {
        "cost": 125.94,
        "seconds": 305
      }
    ],
    [
      32,
      38,
      {
        "cost": 315.03,
        "seconds": 793
      }
    ],
    [
      39,
      33,
      {
        "cost": 575.22,
        "seconds": 1242
      }
    ],
    [
      30,
      39,
      {
        "cost": 424.14,
        "seconds": 937
      }
    ],
    [
      38,
      31,
      {
        "cost": 318.33,
        "seconds": 780
      }
    ],
    [
      30,
      38,
      {
        "cost": 234.14999999999999,
        "seconds": 462
      }
    ],
    [
      39,
      31,
      {
        "cost": 500.4,
        "seconds": 1140
      }
    ],
    [
      28,
      39,
      {
        "cost": 462.35999999999998,
        "seconds": 1071
      }
    ],
    [
      38,
      29,
      {
        "cost": 106.92,
        "seconds": 262
      }
    ],
    [
      28,
      38,
      {
        "cost": 55.83,
        "seconds": 177
      }
    ],
    [
      39,
      29,
      {
        "cost": 556.23,
        "seconds": 1199
      }
    ],
    [
      26,
      39,
      {
        "cost": 526.5,
        "seconds": 1188
      }
    ],
    [
      38,
      27,
      {
        "cost": 206.31,
        "seconds": 481
      }
    ],
    [
      26,
      38,
      {
        "cost": 133.44,
        "seconds": 419
      }
    ],
    [
      39,
      27,
      {
        "cost": 539.1899999999999,
        "seconds": 1180
      }
    ],
    [
      24,
      39,
      {
        "cost": 516.93,
        "seconds": 1087
      }
    ],
    [
      38,
      25,
      {
        "cost": 278.96999999999999,
        "seconds": 660
      }
    ],
    [
      24,
      38,
      {
        "cost": 33.66,
        "seconds": 84
      }
    ],
    [
      39,
      25,
      {
        "cost": 452.25,
        "seconds": 978
      }
    ],
    [
      22,
      39,
      {
        "cost": 556.05,
        "seconds": 1218
      }
    ],
    [
      38,
      23,
      {
        "cost": 124.71,
        "seconds": 333
      }
    ],
    [
      22,
      38,
      {
        "cost": 277.77,
        "seconds": 690
      }
    ],
    [
      39,
      23,
      {
        "cost": 393.21,
        "seconds": 836
      }
    ],
    [
      20,
      39,
      {
        "cost": 180.72,
        "seconds": 461
      }
    ],
    [
      38,
      21,
      {
        "cost": 242.94,
        "seconds": 567
      }
    ],
    [
      20,
      38,
      {
        "cost": 314.52,
        "seconds": 648
      }
    ],
    [
      39,
      21,
      {
        "cost": 440.28,
        "seconds": 945
      }
    ],
    [
      18,
      39,
      {
        "cost": 176.88,
        "seconds": 429
      }
    ],
    [
      38,
      19,
      {
        "cost": 293.28,
        "seconds": 715
      }
    ],
    [
      18,
      38,
      {
        "cost": 467.64,
        "seconds": 1039
      }
    ],
    [
      39,
      19,
      {
        "cost": 354.21,
        "seconds": 795
      }
    ],
    [
      16,
      39,
      {
        "cost": 519.0,
        "seconds": 1183
      }
    ],
    [
      38,
      17,
      {
        "cost": 284.7,
        "seconds": 614
      }
    ],
    [
      16,
      38,
      {
        "cost": 174.57,
        "seconds": 452
      }
    ],
    [
      39,
      17,
      {
        "cost": 522.75,
        "seconds": 1094
      }
    ],
    [
      14,
      39,
      {
        "cost": 264.3,
        "seconds": 568
      }
    ],
    [
      38,
      15,
      {
        "cost": 376.16999999999998,
        "seconds": 809
      }
    ],
    [
      14,
      38,
      {
        "cost": 220.82999999999999,
        "seconds": 507
      }
    ],
    [
      39,
      15,
      {
        "cost": 185.4,
        "seconds": 470
      }
    ],
    [
      12,
      39,
      {
        "cost": 147.15,
        "seconds": 401
      }
    ],
    [
      38,
      13,
      {
        "cost": 157.62,
        "seconds": 473
      }
    ],
    [
      12,
      38,
      {
        "cost": 382.95,
        "seconds": 865
      }
    ],
    [
      39,
      13,
      {
        "cost": 356.90999999999999,
        "seconds": 792
      }
    ],
    [
      10,
      39,
      {
        "cost": 457.8,
        "seconds": 992
      }
    ],
    [
      38,
      11,
      {
        "cost": 369.63,
        "seconds": 805
      }
    ],
    [
      10,
      38,
      {
        "cost": 210.12,
        "seconds": 475
      }
    ],
    [
      39,
      11,
      {
        "cost": 177.84,
        "seconds": 454
      }
    ],
    [
      8,
      39,
      {
        "cost": 272.82,
        "seconds": 613
      }
    ],
    [
      38,
      9,
      {
        "cost": 72.14999999999999,
        "seconds": 180
      }
    ],
    [
      8,
      38,
      {
        "cost": 311.28,
        "seconds": 808
      }
    ],
    [
      39,
      9,
      {
        "cost": 499.91999999999998,
        "seconds": 1086
      }
    ],
    [
      6,
      39,
      {
        "cost": 249.6,
        "seconds": 641
      }
    ],
    [
      38,
      7,
      {
        "cost": 303.39,
        "seconds": 656
      }
    ],
    [
      6,
      38,
      {
        "cost": 269.7,
        "seconds": 622
      }
    ],
    [
      39,
      7,
      {
        "cost": 241.26,
        "seconds": 578
      }
    ],
    [
      4,
      39,
      {
        "cost": 277.8,
        "seconds": 603
      }
    ],
    [
      38,
      5,
      {
        "cost": 152.97,
        "seconds": 476
      }
    ],
    [
      4,
      38,
      {
        "cost": 257.37,
        "seconds": 625
      }
    ],
    [
      39,
      5,
      {
        "cost": 338.88,
        "seconds": 774
      }
    ],
    [
      2,
      39,
      {
        "cost": 223.79999999999999,
        "seconds": 480
      }
    ],
    [
      38,
      3,
      {
        "cost": 273.51,
        "seconds": 652
      }
    ],
    [
      2,
      38,
      {
        "cost": 267.3,
        "seconds": 627
      }
    ],
    [
      39,
      3,
      {
        "cost": 438.21,
        "seconds": 979
      }
    ],
    [
      0,
      39,
      {
        "cost": 294.84,
        "seconds": 638
      }
    ],
    [
      38,
      1,
      {
        "cost": 292.44,
        "seconds": 649
      }
    ],
    [
      0,
      38,
      {
        "cost": 402.12,
        "seconds": 981
      }
    ],
    [
      39,
      1,
      {
        "cost": 256.65,
        "seconds": 577
      }
    ]
  ]
}