[
  {
    "graph_name": "50_0",
    "n_pass": 2,
    "winning_ride": {
      "driver": {
        "arrive_until": 2400,
        "direct_cost": 567
      },
      "passengers": [
        {
          "bid": 4277,
          "id": 26,
          "price": 3805,
          "cost": 975,
          "direct_dist": 14259,
          "direct_cost": 428,
          "direct_time": 970
        },
        {
          "bid": 4343,
          "id": 23,
          "price": 3799,
          "cost": 969,
          "direct_dist": 14478,
          "direct_cost": 435,
          "direct_time": 986
        }
      ],
      "cost": 202,
      "virtual_welfare": 6676
    },
    "profit": 7402,
    "cost_profit": 1742.0,
    "welfare": 8418,
    "virtual_welfare": 6676,
    "running_time": 4
  },
  {
    "graph_name": "50_1",
    "n_pass": 3,
    "winning_ride": {
      "driver": {
        "arrive_until": 2400,
        "direct_cost": 508
      },
      "passengers": [
        {
          "bid": 3365,
          "id": 23,
          "price": 1896,
          "cost": 776,
          "direct_dist": 11217,
          "direct_cost": 337,
          "direct_time": 752
        },
        {
          "bid": 1822,
          "id": 16,
          "price": 1537,
          "cost": 417,
          "direct_dist": 6074,
          "direct_cost": 183,
          "direct_time": 404
        },
        {
          "bid": 4463,
          "id": 8,
          "price": 2784,
          "cost": 919,
          "direct_dist": 14879,
          "direct_cost": 447,
          "direct_time": 1014
        }
      ],
      "cost": 365,
      "virtual_welfare": 7538
    },
    "profit": 5852,
    "cost_profit": 1747.0,
    "welfare": 9285,
    "virtual_welfare": 7538,
    "running_time": 8
  },
  {
    "graph_name": "50_10",
    "n_pass": 2,
    "winning_ride": {
      "driver": {
        "arrive_until": 2400,
        "direct_cost": 461
      },
      "passengers": [
        {
          "bid": 3917,
          "id": 27,
          "price": 3074,
          "cost": 950,
          "direct_dist": 13059,
          "direct_cost": 392,
          "direct_time": 916
        },
        {
          "bid": 2952,
          "id": 24,
          "price": 2109,
          "cost": 652,
          "direct_dist": 9840,
          "direct_cost": 296,
          "direct_time": 706
        }
      ],
      "cost": 517,
      "virtual_welfare": 5267
    },
    "profit": 4666,
    "cost_profit": 1085.0,
    "welfare": 6352,
    "virtual_welfare": 5267,
    "running_time": 2
  },
  {
    "graph_name": "50_11",
    "n_pass": 3,
    "winning_ride": {
      "driver": {
        "arrive_until": 2400,
        "direct_cost": 576
      },
      "passengers": [
        {
          "bid": 4062,
          "id": 46,
          "price": 3587,
          "cost": 994,
          "direct_dist": 13543,
          "direct_cost": 407,
          "direct_time": 894
        },
        {
          "bid": 4467,
          "id": 21,
          "price": 3808,
          "cost": 933,
          "direct_dist": 14890,
          "direct_cost": 447,
          "direct_time": 953
        },
        {
          "bid": 1965,
          "id": 2,
          "price": 1490,
          "cost": 406,
          "direct_dist": 6552,
          "direct_cost": 197,
          "direct_time": 474
        }
      ],
      "cost": 369,
      "virtual_welfare": 8161
    },
    "profit": 8516,
    "cost_profit": 1964.0,
    "welfare": 10125,
    "virtual_welfare": 8161,
    "running_time": 2
  },
  {
    "graph_name": "50_12",
    "n_pass": 2,
    "winning_ride": {
      "driver": {
        "arrive_until": 2400,
        "direct_cost": 429
      },
      "passengers": [
        {
          "bid": 5499,
          "id": 17,
          "price": 3000,
          "cost": 1142,
          "direct_dist": 18330,
          "direct_cost": 550,
          "direct_time": 1221
        },
        {
          "bid": 5465,
          "id": 3,
          "price": 2960,
          "cost": 1102,
          "direct_dist": 18440,
          "direct_cost": 554,
          "direct_time": 1177
        }
      ],
      "cost": 599,
      "virtual_welfare": 8720
    },
    "profit": 5361,
    "cost_profit": 1645.0,
    "welfare": 10365,
    "virtual_welfare": 8720,
    "running_time": 5
  },
  {
    "graph_name": "50_13",
    "n_pass": 2,
    "winning_ride": {
      "driver": {
        "arrive_until": 2400,
        "direct_cost": 410
      },
      "passengers": [
        {
          "bid": 5843,
          "id": 19,
          "price": 5061,
          "cost": 1166,
          "direct_dist": 19477,
          "direct_cost": 585,
          "direct_time": 1293
        },
        {
          "bid": 2464,
          "id": 16,
          "price": 2043,
          "cost": 667,
          "direct_dist": 8214,
          "direct_cost": 247,
          "direct_time": 567
        }
      ],
      "cost": 601,
      "virtual_welfare": 6474
    },
    "profit": 6503,
    "cost_profit": 1232.0,
    "welfare": 7706,
    "virtual_welfare": 6474,
    "running_time": 5
  },
  {
    "graph_name": "50_14",
    "n_pass": 2,
    "winning_ride": {
      "driver": {
        "arrive_until": 2400,
        "direct_cost": 486
      },
      "passengers": [
        {
          "bid": 3752,
          "id": 19,
          "price": 3603,
          "cost": 776,
          "direct_dist": 12508,
          "direct_cost": 376,
          "direct_time": 864
        },
        {
          "bid": 2782,
          "id": 7,
          "price": 2633,
          "cost": 676,
          "direct_dist": 9276,
          "direct_cost": 279,
          "direct_time": 602
        }
      ],
      "cost": 425,
      "virtual_welfare": 5082
    },
    "profit": 5811,
    "cost_profit": 1027.0,
    "welfare": 6109,
    "virtual_welfare": 5082,
    "running_time": 4
  },
  {
    "graph_name": "50_15",
    "n_pass": 2,
    "winning_ride": {
      "driver": {
        "arrive_until": 2400,
        "direct_cost": 524
      },
      "passengers": [
        {
          "bid": 3983,
          "id": 46,
          "price": 3628,
          "cost": 962,
          "direct_dist": 13279,
          "direct_cost": 399,
          "direct_time": 922
        },
        {
          "bid": 3305,
          "id": 2,
          "price": 3040,
          "cost": 874,
          "direct_dist": 11019,
          "direct_cost": 331,
          "direct_time": 796
        }
      ],
      "cost": 203,
      "virtual_welfare": 5452
    },
    "profit": 6465,
    "cost_profit": 1633.0,
    "welfare": 7085,
    "virtual_welfare": 5452,
    "running_time": 9
  },
  {
    "graph_name": "50_16",
    "n_pass": 2,
    "winning_ride": {
      "driver": {
        "arrive_until": 2400,
        "direct_cost": 381
      },
      "passengers": [
        {
          "bid": 3554,
          "id": 24,
          "price": 3107,
          "cost": 711,
          "direct_dist": 11847,
          "direct_cost": 356,
          "direct_time": 929
        },
        {
          "bid": 3769,
          "id": 6,
          "price": 3609,
          "cost": 779,
          "direct_dist": 12564,
          "direct_cost": 377,
          "direct_time": 830
        }
      ],
      "cost": 382,
      "virtual_welfare": 5833
    },
    "profit": 6334,
    "cost_profit": 1108.0,
    "welfare": 6941,
    "virtual_welfare": 5833,
    "running_time": 7
  },
  {
    "graph_name": "50_17",
    "n_pass": 2,
    "winning_ride": {
      "driver": {
        "arrive_until": 2400,
        "direct_cost": 449
      },
      "passengers": [
        {
          "bid": 4610,
          "id": 49,
          "price": 3938,
          "cost": 940,
          "direct_dist": 15727,
          "direct_cost": 472,
          "direct_time": 1002
        },
        {
          "bid": 4527,
          "id": 26,
          "price": 2856,
          "cost": 938,
          "direct_dist": 15091,
          "direct_cost": 453,
          "direct_time": 961
        }
      ],
      "cost": 500,
      "virtual_welfare": 7259
    },
    "profit": 6294,
    "cost_profit": 1378.0,
    "welfare": 8637,
    "virtual_welfare": 7259,
    "running_time": 6
  },
  {
    "graph_name": "50_18",
    "n_pass": 2,
    "winning_ride": {
      "driver": {
        "arrive_until": 2400,
        "direct_cost": 442
      },
      "passengers": [
        {
          "bid": 3043,
          "id": 40,
          "price": 3019,
          "cost": 804,
          "direct_dist": 12601,
          "direct_cost": 379,
          "direct_time": 793
        },
        {
          "bid": 4307,
          "id": 22,
          "price": 4283,
          "cost": 1056,
          "direct_dist": 14359,
          "direct_cost": 431,
          "direct_time": 1053
        }
      ],
      "cost": 547,
      "virtual_welfare": 5490
    },
    "profit": 6755,
    "cost_profit": 1313.0,
    "welfare": 6803,
    "virtual_welfare": 5490,
    "running_time": 3
  },
  {
    "graph_name": "50_19",
    "n_pass": 3,
    "winning_ride": {
      "driver": {
        "arrive_until": 2400,
        "direct_cost": 435
      },
      "passengers": [
        {
          "bid": 1109,
          "id": 44,
          "price": 789,
          "cost": 251,
          "direct_dist": 3698,
          "direct_cost": 111,
          "direct_time": 292
        },
        {
          "bid": 4086,
          "id": 40,
          "price": 2328,
          "cost": 844,
          "direct_dist": 13623,
          "direct_cost": 409,
          "direct_time": 966
        },
        {
          "bid": 3035,
          "id": 26,
          "price": 2314,
          "cost": 694,
          "direct_dist": 10119,
          "direct_cost": 304,
          "direct_time": 732
        }
      ],
      "cost": 479,
      "virtual_welfare": 6441
    },
    "profit": 4952,
    "cost_profit": 1310.0,
    "welfare": 7751,
    "virtual_welfare": 6441,
    "running_time": 7
  },
  {
    "graph_name": "50_2",
    "n_pass": 2,
    "winning_ride": {
      "driver": {
        "arrive_until": 2400,
        "direct_cost": 423
      },
      "passengers": [
        {
          "bid": 4444,
          "id": 45,
          "price": 4027,
          "cost": 903,
          "direct_dist": 14814,
          "direct_cost": 445,
          "direct_time": 994
        },
        {
          "bid": 4239,
          "id": 35,
          "price": 3646,
          "cost": 908,
          "direct_dist": 14130,
          "direct_cost": 424,
          "direct_time": 1031
        }
      ],
      "cost": 520,
      "virtual_welfare": 6872
    },
    "profit": 7153,
    "cost_profit": 1291.0,
    "welfare": 8163,
    "virtual_welfare": 6872,
    "running_time": 5
  },
  {
    "graph_name": "50_20",
    "n_pass": 2,
    "winning_ride": {
      "driver": {
        "arrive_until": 2400,
        "direct_cost": 602
      },
      "passengers": [
        {
          "bid": 3450,
          "id": 39,
          "price": 3398,
          "cost": 941,
          "direct_dist": 11502,
          "direct_cost": 346,
          "direct_time": 741
        },
        {
          "bid": 5013,
          "id": 9,
          "price": 4335,
          "cost": 1215,
          "direct_dist": 16711,
          "direct_cost": 502,
          "direct_time": 1156
        }
      ],
      "cost": 283,
      "virtual_welfare": 6307
    },
    "profit": 7450,
    "cost_profit": 1873.0,
    "welfare": 8180,
    "virtual_welfare": 6307,
    "running_time": 4
  },
  {
    "graph_name": "50_21",
    "n_pass": 2,
    "winning_ride": {
      "driver": {
        "arrive_until": 2400,
        "direct_cost": 475
      },
      "passengers": [
        {
          "bid": 4871,
          "id": 39,
          "price": 3478,
          "cost": 1011,
          "direct_dist": 16239,
          "direct_cost": 488,
          "direct_time": 1021
        },
        {
          "bid": 4451,
          "id": 2,
          "price": 3606,
          "cost": 1004,
          "direct_dist": 14837,
          "direct_cost": 446,
          "direct_time": 939
        }
      ],
      "cost": 417,
      "virtual_welfare": 7307
    },
    "profit": 6667,
    "cost_profit": 1598.0,
    "welfare": 8905,
    "virtual_welfare": 7307,
    "running_time": 5
  },
  {
    "graph_name": "50_22",
    "n_pass": 3,
    "winning_ride": {
      "driver": {
        "arrive_until": 2400,
        "direct_cost": 482
      },
      "passengers": [
        {
          "bid": 4272,
          "id": 38,
          "price": 3466,
          "cost": 885,
          "direct_dist": 14241,
          "direct_cost": 428,
          "direct_time": 942
        },
        {
          "bid": 2852,
          "id": 34,
          "price": 2197,
          "cost": 604,
          "direct_dist": 9509,
          "direct_cost": 286,
          "direct_time": 721
        },
        {
          "bid": 1297,
          "id": 13,
          "price": 491,
          "cost": 304,
          "direct_dist": 4325,
          "direct_cost": 130,
          "direct_time": 349
        }
      ],
      "cost": 477,
      "virtual_welfare": 6628
    },
    "profit": 5677,
    "cost_profit": 1316.0,
    "welfare": 7944,
    "virtual_welfare": 6628,
    "running_time": 6
  },
  {
    "graph_name": "50_23",
    "n_pass": 2,
    "winning_ride": {
      "driver": {
        "arrive_until": 2400,
        "direct_cost": 522
      },
      "passengers": [
        {
          "bid": 4812,
          "id": 36,
          "price": 3481,
          "cost": 983,
          "direct_dist": 16041,
          "direct_cost": 482,
          "direct_time": 1031
        },
        {
          "bid": 4504,
          "id": 3,
          "price": 3808,
          "cost": 971,
          "direct_dist": 15014,
          "direct_cost": 451,
          "direct_time": 1152
        }
      ],
      "cost": 409,
      "virtual_welfare": 7362
    },
    "profit": 6880,
    "cost_profit": 1545.0,
    "welfare": 8907,
    "virtual_welfare": 7362,
    "running_time": 1
  },
  {
    "graph_name": "50_24",
    "n_pass": 2,
    "winning_ride": {
      "driver": {
        "arrive_until": 2400,
        "direct_cost": 405
      },
      "passengers": [
        {
          "bid": 4785,
          "id": 47,
          "price": 4428,
          "cost": 1040,
          "direct_dist": 15951,
          "direct_cost": 479,
          "direct_time": 1060
        },
        {
          "bid": 5766,
          "id": 17,
          "price": 4659,
          "cost": 1169,
          "direct_dist": 19222,
          "direct_cost": 577,
          "direct_time": 1188
        }
      ],
      "cost": 698,
      "virtual_welfare": 8342
    },
    "profit": 8389,
    "cost_profit": 1511.0,
    "welfare": 9853,
    "virtual_welfare": 8342,
    "running_time": 5
  },
  {
    "graph_name": "50_25",
    "n_pass": 2,
    "winning_ride": {
      "driver": {
        "arrive_until": 2400,
        "direct_cost": 442
      },
      "passengers": [
        {
          "bid": 4979,
          "id": 46,
          "price": 4049,
          "cost": 1071,
          "direct_dist": 16597,
          "direct_cost": 498,
          "direct_time": 1044
        },
        {
          "bid": 4370,
          "id": 21,
          "price": 3923,
          "cost": 858,
          "direct_dist": 14568,
          "direct_cost": 438,
          "direct_time": 1063
        }
      ],
      "cost": 609,
      "virtual_welfare": 7420
    },
    "profit": 7363,
    "cost_profit": 1320.0,
    "welfare": 8740,
    "virtual_welfare": 7420,
    "running_time": 5
  },
  {
    "graph_name": "50_26",
    "n_pass": 2,
    "winning_ride": {
      "driver": {
        "arrive_until": 2400,
        "direct_cost": 425
      },
      "passengers": [
        {
          "bid": 4025,
          "id": 42,
          "price": 3847,
          "cost": 815,
          "direct_dist": 13419,
          "direct_cost": 403,
          "direct_time": 862
        },
        {
          "bid": 3591,
          "id": 19,
          "price": 3413,
          "cost": 833,
          "direct_dist": 11972,
          "direct_cost": 360,
          "direct_time": 808
        }
      ],
      "cost": 521,
      "virtual_welfare": 5968
    },
    "profit": 6739,
    "cost_profit": 1127.0,
    "welfare": 7095,
    "virtual_welfare": 5968,
    "running_time": 7
  },
  {
    "graph_name": "50_27",
    "n_pass": 2,
    "winning_ride": {
      "driver": {
        "arrive_until": 2400,
        "direct_cost": 429
      },
      "passengers": [
        {
          "bid": 5535,
          "id": 44,
          "price": 4417,
          "cost": 1168,
          "direct_dist": 18452,
          "direct_cost": 554,
          "direct_time": 1194
        },
        {
          "bid": 3444,
          "id": 21,
          "price": 2174,
          "cost": 748,
          "direct_dist": 11481,
          "direct_cost": 345,
          "direct_time": 841
        }
      ],
      "cost": 553,
      "virtual_welfare": 7063
    },
    "profit": 6038,
    "cost_profit": 1363.0,
    "welfare": 8426,
    "virtual_welfare": 7063,
    "running_time": 8
  },
  {
    "graph_name": "50_28",
    "n_pass": 2,
    "winning_ride": {
      "driver": {
        "arrive_until": 2400,
        "direct_cost": 506
      },
      "passengers": [
        {
          "bid": 3516,
          "id": 45,
          "price": 3017,
          "cost": 964,
          "direct_dist": 13123,
          "direct_cost": 394,
          "direct_time": 925
        },
        {
          "bid": 3843,
          "id": 6,
          "price": 3164,
          "cost": 1043,
          "direct_dist": 12811,
          "direct_cost": 385,
          "direct_time": 896
        }
      ],
      "cost": 390,
      "virtual_welfare": 5352
    },
    "profit": 5791,
    "cost_profit": 1617.0,
    "welfare": 6969,
    "virtual_welfare": 5352,
    "running_time": 2
  },
  {
    "graph_name": "50_29",
    "n_pass": 3,
    "winning_ride": {
      "driver": {
        "arrive_until": 2400,
        "direct_cost": 528
      },
      "passengers": [
        {
          "bid": 4420,
          "id": 40,
          "price": 3894,
          "cost": 983,
          "direct_dist": 14736,
          "direct_cost": 443,
          "direct_time": 950
        },
        {
          "bid": 5023,
          "id": 37,
          "price": 4240,
          "cost": 991,
          "direct_dist": 16745,
          "direct_cost": 503,
          "direct_time": 1143
        },
        {
          "bid": 540,
          "id": 20,
          "price": 358,
          "cost": 139,
          "direct_dist": 1803,
          "direct_cost": 55,
          "direct_time": 151
        }
      ],
      "cost": 336,
      "virtual_welfare": 7870
    },
    "profit": 8156,
    "cost_profit": 1777.0,
    "welfare": 9647,
    "virtual_welfare": 7870,
    "running_time": 2
  },
  {
    "graph_name": "50_3",
    "n_pass": 2,
    "winning_ride": {
      "driver": {
        "arrive_until": 2400,
        "direct_cost": 449
      },
      "passengers": [
        {
          "bid": 4822,
          "id": 38,
          "price": 3679,
          "cost": 1004,
          "direct_dist": 16076,
          "direct_cost": 483,
          "direct_time": 1001
        },
        {
          "bid": 5765,
          "id": 13,
          "price": 4747,
          "cost": 1107,
          "direct_dist": 19217,
          "direct_cost": 577,
          "direct_time": 1186
        }
      ],
      "cost": 424,
      "virtual_welfare": 8476
    },
    "profit": 8002,
    "cost_profit": 1687.0,
    "welfare": 10163,
    "virtual_welfare": 8476,
    "running_time": 4
  },
  {
    "graph_name": "50_30",
    "n_pass": 2,
    "winning_ride": {
      "driver": {
        "arrive_until": 2400,
        "direct_cost": 560
      },
      "passengers": [
        {
          "bid": 5234,
          "id": 29,
          "price": 3572,
          "cost": 1077,
          "direct_dist": 17448,
          "direct_cost": 524,
          "direct_time": 1116
        },
        {
          "bid": 5031,
          "id": 8,
          "price": 3598,
          "cost": 1041,
          "direct_dist": 16773,
          "direct_cost": 504,
          "direct_time": 1132
        }
      ],
      "cost": 320,
      "virtual_welfare": 8147
    },
    "profit": 6850,
    "cost_profit": 1798.0,
    "welfare": 9945,
    "virtual_welfare": 8147,
    "running_time": 3
  },
  {
    "graph_name": "50_31",
    "n_pass": 2,
    "winning_ride": {
      "driver": {
        "arrive_until": 2400,
        "direct_cost": 467
      },
      "passengers": [
        {
          "bid": 4768,
          "id": 34,
          "price": 2361,
          "cost": 1106,
          "direct_dist": 18243,
          "direct_cost": 548,
          "direct_time": 1201
        },
        {
          "bid": 5413,
          "id": 10,
          "price": 4021,
          "cost": 1177,
          "direct_dist": 18045,
          "direct_cost": 542,
          "direct_time": 1123
        }
      ],
      "cost": 590,
      "virtual_welfare": 7898
    },
    "profit": 5792,
    "cost_profit": 1693.0,
    "welfare": 9591,
    "virtual_welfare": 7898,
    "running_time": 5
  },
  {
    "graph_name": "50_32",
    "n_pass": 3,
    "winning_ride": {
      "driver": {
        "arrive_until": 2400,
        "direct_cost": 367
      },
      "passengers": [
        {
          "bid": 2794,
          "id": 32,
          "price": 2476,
          "cost": 715,
          "direct_dist": 9316,
          "direct_cost": 280,
          "direct_time": 617
        },
        {
          "bid": 3158,
          "id": 23,
          "price": 2840,
          "cost": 800,
          "direct_dist": 10527,
          "direct_cost": 316,
          "direct_time": 727
        },
        {
          "bid": 1410,
          "id": 14,
          "price": 1092,
          "cost": 291,
          "direct_dist": 4700,
          "direct_cost": 141,
          "direct_time": 334
        }
      ],
      "cost": 734,
      "virtual_welfare": 5556
    },
    "profit": 5674,
    "cost_profit": 1072.0,
    "welfare": 6628,
    "virtual_welfare": 5556,
    "running_time": 10
  },
  {
    "graph_name": "50_33",
    "n_pass": 2,
    "winning_ride": {
      "driver": {
        "arrive_until": 2400,
        "direct_cost": 463
      },
      "passengers": [
        {
          "bid": 6231,
          "id": 36,
          "price": 4063,
          "cost": 1276,
          "direct_dist": 20770,
          "direct_cost": 624,
          "direct_time": 1399
        },
        {
          "bid": 4799,
          "id": 8,
          "price": 3746,
          "cost": 974,
          "direct_dist": 15999,
          "direct_cost": 480,
          "direct_time": 1044
        }
      ],
      "cost": 480,
      "virtual_welfare": 8780
    },
    "profit": 7329,
    "cost_profit": 1770.0,
    "welfare": 10550,
    "virtual_welfare": 8780,
    "running_time": 4
  },
  {
    "graph_name": "50_34",
    "n_pass": 2,
    "winning_ride": {
      "driver": {
        "arrive_until": 2400,
        "direct_cost": 534
      },
      "passengers": [
        {
          "bid": 3187,
          "id": 33,
          "price": 2871,
          "cost": 608,
          "direct_dist": 10624,
          "direct_cost": 319,
          "direct_time": 713
        },
        {
          "bid": 6021,
          "id": 8,
          "price": 5705,
          "cost": 1230,
          "direct_dist": 20070,
          "direct_cost": 603,
          "direct_time": 1410
        }
      ],
      "cost": 412,
      "virtual_welfare": 7370
    },
    "profit": 8164,
    "cost_profit": 1426.0,
    "welfare": 8796,
    "virtual_welfare": 7370,
    "running_time": 5
  },
  {
    "graph_name": "50_35",
    "n_pass": 2,
    "winning_ride": {
      "driver": {
        "arrive_until": 2400,
        "direct_cost": 434
      },
      "passengers": [
        {
          "bid": 5675,
          "id": 50,
          "price": 5077,
          "cost": 1184,
          "direct_dist": 18917,
          "direct_cost": 568,
          "direct_time": 1304
        },
        {
          "bid": 4288,
          "id": 11,
          "price": 3365,
          "cost": 904,
          "direct_dist": 14295,
          "direct_cost": 429,
          "direct_time": 939
        }
      ],
      "cost": 543,
      "virtual_welfare": 7875
    },
    "profit": 7899,
    "cost_profit": 1545.0,
    "welfare": 9420,
    "virtual_welfare": 7875,
    "running_time": 3
  },
  {
    "graph_name": "50_36",
    "n_pass": 2,
    "winning_ride": {
      "driver": {
        "arrive_until": 2400,
        "direct_cost": 478
      },
      "passengers": [
        {
          "bid": 5407,
          "id": 35,
          "price": 5164,
          "cost": 1091,
          "direct_dist": 18026,
          "direct_cost": 541,
          "direct_time": 1135
        },
        {
          "bid": 4171,
          "id": 18,
          "price": 3936,
          "cost": 933,
          "direct_dist": 13906,
          "direct_cost": 418,
          "direct_time": 923
        }
      ],
      "cost": 473,
      "virtual_welfare": 7554
    },
    "profit": 8627,
    "cost_profit": 1551.0,
    "welfare": 9105,
    "virtual_welfare": 7554,
    "running_time": 6
  },
  {
    "graph_name": "50_37",
    "n_pass": 3,
    "winning_ride": {
      "driver": {
        "arrive_until": 2400,
        "direct_cost": 542
      },
      "passengers": [
        {
          "bid": 328,
          "id": 32,
          "price": 175,
          "cost": 99,
          "direct_dist": 1177,
          "direct_cost": 36,
          "direct_time": 95
        },
        {
          "bid": 4499,
          "id": 11,
          "price": 4234,
          "cost": 1006,
          "direct_dist": 14997,
          "direct_cost": 450,
          "direct_time": 920
        },
        {
          "bid": 4946,
          "id": 7,
          "price": 4793,
          "cost": 1075,
          "direct_dist": 16489,
          "direct_cost": 495,
          "direct_time": 1098
        }
      ],
      "cost": 498,
      "virtual_welfare": 7593
    },
    "profit": 8704,
    "cost_profit": 1682.0,
    "welfare": 9275,
    "virtual_welfare": 7593,
    "running_time": 2
  },
  {
    "graph_name": "50_38",
    "n_pass": 2,
    "winning_ride": {
      "driver": {
        "arrive_until": 2400,
        "direct_cost": 426
      },
      "passengers": [
        {
          "bid": 6272,
          "id": 50,
          "price": 4989,
          "cost": 1258,
          "direct_dist": 20907,
          "direct_cost": 628,
          "direct_time": 1332
        },
        {
          "bid": 3092,
          "id": 44,
          "price": 2020,
          "cost": 629,
          "direct_dist": 10307,
          "direct_cost": 310,
          "direct_time": 746
        }
      ],
      "cost": 549,
      "virtual_welfare": 7477
    },
    "profit": 6460,
    "cost_profit": 1338.0,
    "welfare": 8815,
    "virtual_welfare": 7477,
    "running_time": 11
  },
  {
    "graph_name": "50_39",
    "n_pass": 2,
    "winning_ride": {
      "driver": {
        "arrive_until": 2400,
        "direct_cost": 501
      },
      "passengers": [
        {
          "bid": 4457,
          "id": 26,
          "price": 3322,
          "cost": 928,
          "direct_dist": 15474,
          "direct_cost": 465,
          "direct_time": 972
        },
        {
          "bid": 6118,
          "id": 7,
          "price": 4649,
          "cost": 1232,
          "direct_dist": 20395,
          "direct_cost": 612,
          "direct_time": 1387
        }
      ],
      "cost": 492,
      "virtual_welfare": 8415
    },
    "profit": 7479,
    "cost_profit": 1668.0,
    "welfare": 10083,
    "virtual_welfare": 8415,
    "running_time": 6
  },
  {
    "graph_name": "50_4",
    "n_pass": 2,
    "winning_ride": {
      "driver": {
        "arrive_until": 2400,
        "direct_cost": 470
      },
      "passengers": [
        {
          "bid": 2802,
          "id": 45,
          "price": 2737,
          "cost": 668,
          "direct_dist": 9340,
          "direct_cost": 281,
          "direct_time": 547
        },
        {
          "bid": 3968,
          "id": 21,
          "price": 3138,
          "cost": 884,
          "direct_dist": 13228,
          "direct_cost": 397,
          "direct_time": 823
        }
      ],
      "cost": 432,
      "virtual_welfare": 5218
    },
    "profit": 5443,
    "cost_profit": 1120.0,
    "welfare": 6338,
    "virtual_welfare": 5218,
    "running_time": 6
  },
  {
    "graph_name": "50_40",
    "n_pass": 2,
    "winning_ride": {
      "driver": {
        "arrive_until": 2400,
        "direct_cost": 455
      },
      "passengers": [
        {
          "bid": 2676,
          "id": 43,
          "price": 2101,
          "cost": 763,
          "direct_dist": 9634,
          "direct_cost": 290,
          "direct_time": 736
        },
        {
          "bid": 3519,
          "id": 27,
          "price": 2750,
          "cost": 1087,
          "direct_dist": 16134,
          "direct_cost": 485,
          "direct_time": 1067
        }
      ],
      "cost": 496,
      "virtual_welfare": 4345
    },
    "profit": 4355,
    "cost_profit": 1354.0,
    "welfare": 5699,
    "virtual_welfare": 4345,
    "running_time": 2
  },
  {
    "graph_name": "50_41",
    "n_pass": 3,
    "winning_ride": {
      "driver": {
        "arrive_until": 2400,
        "direct_cost": 509
      },
      "passengers": [
        {
          "bid": 4140,
          "id": 44,
          "price": 4091,
          "cost": 879,
          "direct_dist": 13803,
          "direct_cost": 415,
          "direct_time": 880
        },
        {
          "bid": 5015,
          "id": 16,
          "price": 4771,
          "cost": 1118,
          "direct_dist": 16719,
          "direct_cost": 502,
          "direct_time": 1085
        },
        {
          "bid": 855,
          "id": 10,
          "price": 806,
          "cost": 414,
          "direct_dist": 4880,
          "direct_cost": 147,
          "direct_time": 308
        }
      ],
      "cost": 541,
      "virtual_welfare": 7599
    },
    "profit": 9127,
    "cost_profit": 1870.0,
    "welfare": 9469,
    "virtual_welfare": 7599,
    "running_time": 6
  },
  {
    "graph_name": "50_42",
    "n_pass": 2,
    "winning_ride": {
      "driver": {
        "arrive_until": 2400,
        "direct_cost": 491
      },
      "passengers": [
        {
          "bid": 2674,
          "id": 30,
          "price": 2674,
          "cost": 647,
          "direct_dist": 8914,
          "direct_cost": 268,
          "direct_time": 673
        },
        {
          "bid": 3485,
          "id": 7,
          "price": 3485,
          "cost": 759,
          "direct_dist": 11618,
          "direct_cost": 349,
          "direct_time": 828
        }
      ],
      "cost": 298,
      "virtual_welfare": 4753
    },
    "profit": 5861,
    "cost_profit": 1108.0,
    "welfare": 5861,
    "virtual_welfare": 4753,
    "running_time": 7
  },
  {
    "graph_name": "50_43",
    "n_pass": 3,
    "winning_ride": {
      "driver": {
        "arrive_until": 2400,
        "direct_cost": 429
      },
      "passengers": [
        {
          "bid": 4754,
          "id": 41,
          "price": 4100,
          "cost": 1003,
          "direct_dist": 15847,
          "direct_cost": 476,
          "direct_time": 1021
        },
        {
          "bid": 1251,
          "id": 26,
          "price": 327,
          "cost": 327,
          "direct_dist": 4173,
          "direct_cost": 126,
          "direct_time": 258
        },
        {
          "bid": 4260,
          "id": 2,
          "price": 3566,
          "cost": 967,
          "direct_dist": 14202,
          "direct_cost": 427,
          "direct_time": 950
        }
      ],
      "cost": 528,
      "virtual_welfare": 7968
    },
    "profit": 7465,
    "cost_profit": 1769.0,
    "welfare": 9737,
    "virtual_welfare": 7968,
    "running_time": 10
  },
  {
    "graph_name": "50_44",
    "n_pass": 2,
    "winning_ride": {
      "driver": {
        "arrive_until": 2400,
        "direct_cost": 474
      },
      "passengers": [
        {
          "bid": 5008,
          "id": 44,
          "price": 4524,
          "cost": 1099,
          "direct_dist": 16696,
          "direct_cost": 501,
          "direct_time": 1099
        },
        {
          "bid": 4812,
          "id": 10,
          "price": 4439,
          "cost": 1014,
          "direct_dist": 16042,
          "direct_cost": 482,
          "direct_time": 1043
        }
      ],
      "cost": 509,
      "virtual_welfare": 7707
    },
    "profit": 8454,
    "cost_profit": 1604.0,
    "welfare": 9311,
    "virtual_welfare": 7707,
    "running_time": 6
  },
  {
    "graph_name": "50_45",
    "n_pass": 2,
    "winning_ride": {
      "driver": {
        "arrive_until": 2400,
        "direct_cost": 552
      },
      "passengers": [
        {
          "bid": 2925,
          "id": 33,
          "price": 1731,
          "cost": 673,
          "direct_dist": 9752,
          "direct_cost": 293,
          "direct_time": 678
        },
        {
          "bid": 4558,
          "id": 2,
          "price": 3802,
          "cost": 1220,
          "direct_dist": 15194,
          "direct_cost": 456,
          "direct_time": 990
        }
      ],
      "cost": 455,
      "virtual_welfare": 5590
    },
    "profit": 5078,
    "cost_profit": 1438.0,
    "welfare": 7028,
    "virtual_welfare": 5590,
    "running_time": 2
  },
  {
    "graph_name": "50_46",
    "n_pass": 2,
    "winning_ride": {
      "driver": {
        "arrive_until": 2400,
        "direct_cost": 479
      },
      "passengers": [
        {
          "bid": 2347,
          "id": 47,
          "price": 1937,
          "cost": 771,
          "direct_dist": 7824,
          "direct_cost": 235,
          "direct_time": 602
        },
        {
          "bid": 3867,
          "id": 18,
          "price": 2911,
          "cost": 1075,
          "direct_dist": 12892,
          "direct_cost": 387,
          "direct_time": 789
        }
      ],
      "cost": 489,
      "virtual_welfare": 4368
    },
    "profit": 4359,
    "cost_profit": 1357.0,
    "welfare": 5725,
    "virtual_welfare": 4368,
    "running_time": 3
  },
  {
    "graph_name": "50_47",
    "n_pass": 2,
    "winning_ride": {
      "driver": {
        "arrive_until": 2400,
        "direct_cost": 539
      },
      "passengers": [
        {
          "bid": 3499,
          "id": 37,
          "price": 3456,
          "cost": 854,
          "direct_dist": 11665,
          "direct_cost": 350,
          "direct_time": 750
        },
        {
          "bid": 3301,
          "id": 31,
          "price": 3258,
          "cost": 1037,
          "direct_dist": 14233,
          "direct_cost": 427,
          "direct_time": 923
        }
      ],
      "cost": 343,
      "virtual_welfare": 4909
    },
    "profit": 6371,
    "cost_profit": 1548.0,
    "welfare": 6457,
    "virtual_welfare": 4909,
    "running_time": 2
  },
  {
    "graph_name": "50_48",
    "n_pass": 3,
    "winning_ride": {
      "driver": {
        "arrive_until": 2400,
        "direct_cost": 349
      },
      "passengers": [
        {
          "bid": 296,
          "id": 40,
          "price": 230,
          "cost": 230,
          "direct_dist": 1514,
          "direct_cost": 46,
          "direct_time": 141
        },
        {
          "bid": 2538,
          "id": 29,
          "price": 2433,
          "cost": 1071,
          "direct_dist": 17621,
          "direct_cost": 529,
          "direct_time": 1130
        },
        {
          "bid": 5524,
          "id": 5,
          "price": 5419,
          "cost": 1108,
          "direct_dist": 18414,
          "direct_cost": 553,
          "direct_time": 1203
        }
      ],
      "cost": 582,
      "virtual_welfare": 5949
    },
    "profit": 7500,
    "cost_profit": 1827.0,
    "welfare": 7776,
    "virtual_welfare": 5949,
    "running_time": 7
  },
  {
    "graph_name": "50_49",
    "n_pass": 2,
    "winning_ride": {
      "driver": {
        "arrive_until": 2400,
        "direct_cost": 442
      },
      "passengers": [
        {
          "bid": 4238,
          "id": 45,
          "price": 3521,
          "cost": 955,
          "direct_dist": 14128,
          "direct_cost": 424,
          "direct_time": 942
        },
        {
          "bid": 4422,
          "id": 42,
          "price": 3459,
          "cost": 893,
          "direct_dist": 14740,
          "direct_cost": 443,
          "direct_time": 965
        }
      ],
      "cost": 587,
      "virtual_welfare": 6812
    },
    "profit": 6393,
    "cost_profit": 1261.0,
    "welfare": 8073,
    "virtual_welfare": 6812,
    "running_time": 5
  },
  {
    "graph_name": "50_5",
    "n_pass": 2,
    "winning_ride": {
      "driver": {
        "arrive_until": 2400,
        "direct_cost": 487
      },
      "passengers": [
        {
          "bid": 4736,
          "id": 50,
          "price": 4665,
          "cost": 1042,
          "direct_dist": 15787,
          "direct_cost": 474,
          "direct_time": 1088
        },
        {
          "bid": 5176,
          "id": 43,
          "price": 4527,
          "cost": 1065,
          "direct_dist": 17255,
          "direct_cost": 518,
          "direct_time": 1162
        }
      ],
      "cost": 404,
      "virtual_welfare": 7805
    },
    "profit": 8788,
    "cost_profit": 1703.0,
    "welfare": 9508,
    "virtual_welfare": 7805,
    "running_time": 4
  },
  {
    "graph_name": "50_50",
    "n_pass": 2,
    "winning_ride": {
      "driver": {
        "arrive_until": 2400,
        "direct_cost": 396
      },
      "passengers": [
        {
          "bid": 3829,
          "id": 45,
          "price": 3303,
          "cost": 899,
          "direct_dist": 12764,
          "direct_cost": 383,
          "direct_time": 859
        },
        {
          "bid": 4950,
          "id": 12,
          "price": 4400,
          "cost": 1051,
          "direct_dist": 16501,
          "direct_cost": 496,
          "direct_time": 1035
        }
      ],
      "cost": 472,
      "virtual_welfare": 6829
    },
    "profit": 7231,
    "cost_profit": 1478.0,
    "welfare": 8307,
    "virtual_welfare": 6829,
    "running_time": 7
  },
  {
    "graph_name": "50_51",
    "n_pass": 2,
    "winning_ride": {
      "driver": {
        "arrive_until": 2400,
        "direct_cost": 411
      },
      "passengers": [
        {
          "bid": 4701,
          "id": 36,
          "price": 4169,
          "cost": 1044,
          "direct_dist": 15672,
          "direct_cost": 471,
          "direct_time": 1059
        },
        {
          "bid": 1457,
          "id": 35,
          "price": 1119,
          "cost": 407,
          "direct_dist": 4858,
          "direct_cost": 146,
          "direct_time": 354
        }
      ],
      "cost": 537,
      "virtual_welfare": 4707
    },
    "profit": 4751,
    "cost_profit": 914.0,
    "welfare": 5621,
    "virtual_welfare": 4707,
    "running_time": 6
  },
  {
    "graph_name": "50_52",
    "n_pass": 2,
    "winning_ride": {
      "driver": {
        "arrive_until": 2400,
        "direct_cost": 469
      },
      "passengers": [
        {
          "bid": 3942,
          "id": 24,
          "price": 3535,
          "cost": 866,
          "direct_dist": 13141,
          "direct_cost": 395,
          "direct_time": 954
        },
        {
          "bid": 3977,
          "id": 16,
          "price": 3234,
          "cost": 916,
          "direct_dist": 13258,
          "direct_cost": 398,
          "direct_time": 842
        }
      ],
      "cost": 465,
      "virtual_welfare": 6137
    },
    "profit": 6304,
    "cost_profit": 1317.0,
    "welfare": 7454,
    "virtual_welfare": 6137,
    "running_time": 7
  },
  {
    "graph_name": "50_53",
    "n_pass": 2,
    "winning_ride": {
      "driver": {
        "arrive_until": 2400,
        "direct_cost": 519
      },
      "passengers": [
        {
          "bid": 4082,
          "id": 44,
          "price": 3049,
          "cost": 864,
          "direct_dist": 13609,
          "direct_cost": 409,
          "direct_time": 909
        },
        {
          "bid": 4456,
          "id": 8,
          "price": 4187,
          "cost": 1075,
          "direct_dist": 14979,
          "direct_cost": 450,
          "direct_time": 943
        }
      ],
      "cost": 535,
      "virtual_welfare": 6599
    },
    "profit": 6701,
    "cost_profit": 1404.0,
    "welfare": 8003,
    "virtual_welfare": 6599,
    "running_time": 4
  },
  {
    "graph_name": "50_54",
    "n_pass": 2,
    "winning_ride": {
      "driver": {
        "arrive_until": 2400,
        "direct_cost": 400
      },
      "passengers": [
        {
          "bid": 4633,
          "id": 47,
          "price": 3936,
          "cost": 849,
          "direct_dist": 15445,
          "direct_cost": 464,
          "direct_time": 898
        },
        {
          "bid": 5742,
          "id": 25,
          "price": 4190,
          "cost": 1103,
          "direct_dist": 19140,
          "direct_cost": 575,
          "direct_time": 1279
        }
      ],
      "cost": 520,
      "virtual_welfare": 8423
    },
    "profit": 7606,
    "cost_profit": 1432.0,
    "welfare": 9855,
    "virtual_welfare": 8423,
    "running_time": 4
  },
  {
    "graph_name": "50_55",
    "n_pass": 3,
    "winning_ride": {
      "driver": {
        "arrive_until": 2400,
        "direct_cost": 431
      },
      "passengers": [
        {
          "bid": 964,
          "id": 30,
          "price": 278,
          "cost": 278,
          "direct_dist": 3214,
          "direct_cost": 97,
          "direct_time": 229
        },
        {
          "bid": 4851,
          "id": 20,
          "price": 3385,
          "cost": 964,
          "direct_dist": 16173,
          "direct_cost": 486,
          "direct_time": 1066
        },
        {
          "bid": 5305,
          "id": 16,
          "price": 4729,
          "cost": 1147,
          "direct_dist": 17685,
          "direct_cost": 531,
          "direct_time": 1132
        }
      ],
      "cost": 603,
      "virtual_welfare": 8731
    },
    "profit": 7789,
    "cost_profit": 1786.0,
    "welfare": 10517,
    "virtual_welfare": 8731,
    "running_time": 5
  },
  {
    "graph_name": "50_56",
    "n_pass": 2,
    "winning_ride": {
      "driver": {
        "arrive_until": 2400,
        "direct_cost": 376
      },
      "passengers": [
        {
          "bid": 3874,
          "id": 45,
          "price": 3482,
          "cost": 734,
          "direct_dist": 12914,
          "direct_cost": 388,
          "direct_time": 912
        },
        {
          "bid": 2652,
          "id": 27,
          "price": 2260,
          "cost": 563,
          "direct_dist": 8842,
          "direct_cost": 266,
          "direct_time": 802
        }
      ],
      "cost": 492,
      "virtual_welfare": 5229
    },
    "profit": 5250,
    "cost_profit": 805.0,
    "welfare": 6034,
    "virtual_welfare": 5229,
    "running_time": 5
  },
  {
    "graph_name": "50_57",
    "n_pass": 2,
    "winning_ride": {
      "driver": {
        "arrive_until": 2400,
        "direct_cost": 358
      },
      "passengers": [
        {
          "bid": 3861,
          "id": 48,
          "price": 3394,
          "cost": 845,
          "direct_dist": 12873,
          "direct_cost": 387,
          "direct_time": 806
        },
        {
          "bid": 5792,
          "id": 43,
          "price": 5195,
          "cost": 1158,
          "direct_dist": 19307,
          "direct_cost": 580,
          "direct_time": 1222
        }
      ],
      "cost": 715,
      "virtual_welfare": 7650
    },
    "profit": 7874,
    "cost_profit": 1288.0,
    "welfare": 8938,
    "virtual_welfare": 7650,
    "running_time": 2
  },
  {
    "graph_name": "50_58",
    "n_pass": 2,
    "winning_ride": {
      "driver": {
        "arrive_until": 2400,
        "direct_cost": 510
      },
      "passengers": [
        {
          "bid": 5216,
          "id": 19,
          "price": 3982,
          "cost": 1174,
          "direct_dist": 17389,
          "direct_cost": 522,
          "direct_time": 1096
        },
        {
          "bid": 3981,
          "id": 11,
          "price": 3519,
          "cost": 841,
          "direct_dist": 13271,
          "direct_cost": 399,
          "direct_time": 924
        }
      ],
      "cost": 428,
      "virtual_welfare": 7182
    },
    "profit": 7073,
    "cost_profit": 1587.0,
    "welfare": 8769,
    "virtual_welfare": 7182,
    "running_time": 2
  },
  {
    "graph_name": "50_59",
    "n_pass": 2,
    "winning_ride": {
      "driver": {
        "arrive_until": 2400,
        "direct_cost": 361
      },
      "passengers": [
        {
          "bid": 2910,
          "id": 36,
          "price": 2810,
          "cost": 747,
          "direct_dist": 9701,
          "direct_cost": 292,
          "direct_time": 689
        },
        {
          "bid": 3009,
          "id": 2,
          "price": 2957,
          "cost": 738,
          "direct_dist": 10031,
          "direct_cost": 301,
          "direct_time": 672
        }
      ],
      "cost": 401,
      "virtual_welfare": 4434
    },
    "profit": 5366,
    "cost_profit": 1084.0,
    "welfare": 5518,
    "virtual_welfare": 4434,
    "running_time": 11
  },
  {
    "graph_name": "50_6",
    "n_pass": 2,
    "winning_ride": {
      "driver": {
        "arrive_until": 2400,
        "direct_cost": 428
      },
      "passengers": [
        {
          "bid": 5575,
          "id": 26,
          "price": 4599,
          "cost": 1168,
          "direct_dist": 18585,
          "direct_cost": 558,
          "direct_time": 1228
        },
        {
          "bid": 4267,
          "id": 3,
          "price": 4088,
          "cost": 896,
          "direct_dist": 14226,
          "direct_cost": 427,
          "direct_time": 948
        }
      ],
      "cost": 499,
      "virtual_welfare": 7778
    },
    "profit": 8188,
    "cost_profit": 1565.0,
    "welfare": 9343,
    "virtual_welfare": 7778,
    "running_time": 7
  },
  {
    "graph_name": "50_60",
    "n_pass": 3,
    "winning_ride": {
      "driver": {
        "arrive_until": 2400,
        "direct_cost": 523
      },
      "passengers": [
        {
          "bid": 3545,
          "id": 50,
          "price": 3260,
          "cost": 910,
          "direct_dist": 11819,
          "direct_cost": 355,
          "direct_time": 802
        },
        {
          "bid": 4990,
          "id": 37,
          "price": 3894,
          "cost": 1084,
          "direct_dist": 16636,
          "direct_cost": 500,
          "direct_time": 1027
        },
        {
          "bid": 1433,
          "id": 34,
          "price": 505,
          "cost": 332,
          "direct_dist": 4778,
          "direct_cost": 144,
          "direct_time": 335
        }
      ],
      "cost": 328,
      "virtual_welfare": 7642
    },
    "profit": 7331,
    "cost_profit": 1998.0,
    "welfare": 9640,
    "virtual_welfare": 7642,
    "running_time": 5
  },
  {
    "graph_name": "50_61",
    "n_pass": 2,
    "winning_ride": {
      "driver": {
        "arrive_until": 2400,
        "direct_cost": 446
      },
      "passengers": [
        {
          "bid": 3345,
          "id": 8,
          "price": 2752,
          "cost": 866,
          "direct_dist": 11152,
          "direct_cost": 335,
          "direct_time": 743
        },
        {
          "bid": 5027,
          "id": 3,
          "price": 4434,
          "cost": 1075,
          "direct_dist": 16759,
          "direct_cost": 503,
          "direct_time": 1085
        }
      ],
      "cost": 567,
      "virtual_welfare": 6431
    },
    "profit": 6619,
    "cost_profit": 1374.0,
    "welfare": 7805,
    "virtual_welfare": 6431,
    "running_time": 3
  },
  {
    "graph_name": "50_62",
    "n_pass": 2,
    "winning_ride": {
      "driver": {
        "arrive_until": 2400,
        "direct_cost": 466
      },
      "passengers": [
        {
          "bid": 3272,
          "id": 44,
          "price": 3014,
          "cost": 884,
          "direct_dist": 15210,
          "direct_cost": 457,
          "direct_time": 1083
        },
        {
          "bid": 3596,
          "id": 16,
          "price": 2869,
          "cost": 739,
          "direct_dist": 11987,
          "direct_cost": 360,
          "direct_time": 843
        }
      ],
      "cost": 436,
      "virtual_welfare": 5245
    },
    "profit": 5447,
    "cost_profit": 1187.0,
    "welfare": 6432,
    "virtual_welfare": 5245,
    "running_time": 2
  },
  {
    "graph_name": "50_63",
    "n_pass": 2,
    "winning_ride": {
      "driver": {
        "arrive_until": 2400,
        "direct_cost": 462
      },
      "passengers": [
        {
          "bid": 4478,
          "id": 42,
          "price": 4418,
          "cost": 965,
          "direct_dist": 14927,
          "direct_cost": 448,
          "direct_time": 949
        },
        {
          "bid": 4209,
          "id": 29,
          "price": 4151,
          "cost": 916,
          "direct_dist": 14031,
          "direct_cost": 421,
          "direct_time": 1008
        }
      ],
      "cost": 556,
      "virtual_welfare": 6806
    },
    "profit": 8013,
    "cost_profit": 1325.0,
    "welfare": 8131,
    "virtual_welfare": 6806,
    "running_time": 3
  },
  {
    "graph_name": "50_64",
    "n_pass": 2,
    "winning_ride": {
      "driver": {
        "arrive_until": 2400,
        "direct_cost": 507
      },
      "passengers": [
        {
          "bid": 5044,
          "id": 38,
          "price": 2810,
          "cost": 1084,
          "direct_dist": 16815,
          "direct_cost": 505,
          "direct_time": 1077
        },
        {
          "bid": 4692,
          "id": 7,
          "price": 3705,
          "cost": 1105,
          "direct_dist": 15641,
          "direct_cost": 470,
          "direct_time": 1023
        }
      ],
      "cost": 528,
      "virtual_welfare": 7547
    },
    "profit": 5987,
    "cost_profit": 1661.0,
    "welfare": 9208,
    "virtual_welfare": 7547,
    "running_time": 3
  },
  {
    "graph_name": "50_65",
    "n_pass": 2,
    "winning_ride": {
      "driver": {
        "arrive_until": 2400,
        "direct_cost": 455
      },
      "passengers": [
        {
          "bid": 5315,
          "id": 36,
          "price": 4595,
          "cost": 1139,
          "direct_dist": 17719,
          "direct_cost": 532,
          "direct_time": 1155
        },
        {
          "bid": 4426,
          "id": 26,
          "price": 4390,
          "cost": 934,
          "direct_dist": 14755,
          "direct_cost": 443,
          "direct_time": 990
        }
      ],
      "cost": 462,
      "virtual_welfare": 7668
    },
    "profit": 8523,
    "cost_profit": 1611.0,
    "welfare": 9279,
    "virtual_welfare": 7668,
    "running_time": 3
  },
  {
    "graph_name": "50_66",
    "n_pass": 2,
    "winning_ride": {
      "driver": {
        "arrive_until": 2400,
        "direct_cost": 471
      },
      "passengers": [
        {
          "bid": 3792,
          "id": 22,
          "price": 3570,
          "cost": 902,
          "direct_dist": 12643,
          "direct_cost": 380,
          "direct_time": 929
        },
        {
          "bid": 4179,
          "id": 7,
          "price": 3354,
          "cost": 803,
          "direct_dist": 13931,
          "direct_cost": 418,
          "direct_time": 872
        }
      ],
      "cost": 361,
      "virtual_welfare": 6266
    },
    "profit": 6563,
    "cost_profit": 1344.0,
    "welfare": 7610,
    "virtual_welfare": 6266,
    "running_time": 7
  },
  {
    "graph_name": "50_67",
    "n_pass": 2,
    "winning_ride": {
      "driver": {
        "arrive_until": 2400,
        "direct_cost": 493
      },
      "passengers": [
        {
          "bid": 5163,
          "id": 26,
          "price": 4827,
          "cost": 1112,
          "direct_dist": 17213,
          "direct_cost": 517,
          "direct_time": 1178
        },
        {
          "bid": 4825,
          "id": 18,
          "price": 4817,
          "cost": 1102,
          "direct_dist": 16086,
          "direct_cost": 483,
          "direct_time": 1005
        }
      ],
      "cost": 474,
      "virtual_welfare": 7774
    },
    "profit": 9170,
    "cost_profit": 1740.0,
    "welfare": 9514,
    "virtual_welfare": 7774,
    "running_time": 6
  },
  {
    "graph_name": "50_68",
    "n_pass": 2,
    "winning_ride": {
      "driver": {
        "arrive_until": 2400,
        "direct_cost": 408
      },
      "passengers": [
        {
          "bid": 4116,
          "id": 26,
          "price": 3793,
          "cost": 922,
          "direct_dist": 13721,
          "direct_cost": 412,
          "direct_time": 874
        },
        {
          "bid": 3850,
          "id": 1,
          "price": 3802,
          "cost": 907,
          "direct_dist": 12835,
          "direct_cost": 386,
          "direct_time": 848
        }
      ],
      "cost": 596,
      "virtual_welfare": 6137
    },
    "profit": 6999,
    "cost_profit": 1233.0,
    "welfare": 7370,
    "virtual_welfare": 6137,
    "running_time": 2
  },
  {
    "graph_name": "50_69",
    "n_pass": 2,
    "winning_ride": {
      "driver": {
        "arrive_until": 2400,
        "direct_cost": 458
      },
      "passengers": [
        {
          "bid": 4740,
          "id": 36,
          "price": 4509,
          "cost": 1043,
          "direct_dist": 15803,
          "direct_cost": 475,
          "direct_time": 1071
        },
        {
          "bid": 4333,
          "id": 3,
          "price": 4198,
          "cost": 957,
          "direct_dist": 14444,
          "direct_cost": 434,
          "direct_time": 985
        }
      ],
      "cost": 342,
      "virtual_welfare": 7073
    },
    "profit": 8365,
    "cost_profit": 1658.0,
    "welfare": 8731,
    "virtual_welfare": 7073,
    "running_time": 5
  },
  {
    "graph_name": "50_7",
    "n_pass": 2,
    "winning_ride": {
      "driver": {
        "arrive_until": 2400,
        "direct_cost": 428
      },
      "passengers": [
        {
          "bid": 3843,
          "id": 46,
          "price": 2274,
          "cost": 855,
          "direct_dist": 12812,
          "direct_cost": 385,
          "direct_time": 839
        },
        {
          "bid": 4008,
          "id": 42,
          "price": 3336,
          "cost": 946,
          "direct_dist": 13361,
          "direct_cost": 401,
          "direct_time": 950
        }
      ],
      "cost": 493,
      "virtual_welfare": 6050
    },
    "profit": 5117,
    "cost_profit": 1308.0,
    "welfare": 7358,
    "virtual_welfare": 6050,
    "running_time": 4
  },
  {
    "graph_name": "50_70",
    "n_pass": 2,
    "winning_ride": {
      "driver": {
        "arrive_until": 2400,
        "direct_cost": 553
      },
      "passengers": [
        {
          "bid": 4603,
          "id": 38,
          "price": 4442,
          "cost": 917,
          "direct_dist": 15346,
          "direct_cost": 461,
          "direct_time": 962
        },
        {
          "bid": 4950,
          "id": 16,
          "price": 4608,
          "cost": 1055,
          "direct_dist": 16502,
          "direct_cost": 496,
          "direct_time": 1066
        }
      ],
      "cost": 383,
      "virtual_welfare": 7581
    },
    "profit": 8667,
    "cost_profit": 1589.0,
    "welfare": 9170,
    "virtual_welfare": 7581,
    "running_time": 2
  },
  {
    "graph_name": "50_71",
    "n_pass": 2,
    "winning_ride": {
      "driver": {
        "arrive_until": 2400,
        "direct_cost": 435
      },
      "passengers": [
        {
          "bid": 5198,
          "id": 22,
          "price": 3886,
          "cost": 974,
          "direct_dist": 17329,
          "direct_cost": 520,
          "direct_time": 1143
        },
        {
          "bid": 4381,
          "id": 5,
          "price": 3829,
          "cost": 917,
          "direct_dist": 14604,
          "direct_cost": 439,
          "direct_time": 972
        }
      ],
      "cost": 530,
      "virtual_welfare": 7688
    },
    "profit": 7185,
    "cost_profit": 1361.0,
    "welfare": 9049,
    "virtual_welfare": 7688,
    "running_time": 7
  },
  {
    "graph_name": "50_72",
    "n_pass": 2,
    "winning_ride": {
      "driver": {
        "arrive_until": 2400,
        "direct_cost": 493
      },
      "passengers": [
        {
          "bid": 5396,
          "id": 36,
          "price": 2888,
          "cost": 1098,
          "direct_dist": 17988,
          "direct_cost": 540,
          "direct_time": 1177
        },
        {
          "bid": 4415,
          "id": 3,
          "price": 4252,
          "cost": 1068,
          "direct_dist": 14717,
          "direct_cost": 442,
          "direct_time": 956
        }
      ],
      "cost": 474,
      "virtual_welfare": 7645
    },
    "profit": 6666,
    "cost_profit": 1692.0,
    "welfare": 9337,
    "virtual_welfare": 7645,
    "running_time": 2
  },
  {
    "graph_name": "50_73",
    "n_pass": 2,
    "winning_ride": {
      "driver": {
        "arrive_until": 2400,
        "direct_cost": 394
      },
      "passengers": [
        {
          "bid": 4407,
          "id": 43,
          "price": 3943,
          "cost": 1017,
          "direct_dist": 14692,
          "direct_cost": 441,
          "direct_time": 1058
        },
        {
          "bid": 2361,
          "id": 8,
          "price": 2081,
          "cost": 574,
          "direct_dist": 7873,
          "direct_cost": 237,
          "direct_time": 592
        }
      ],
      "cost": 548,
      "virtual_welfare": 5177
    },
    "profit": 5476,
    "cost_profit": 1043.0,
    "welfare": 6220,
    "virtual_welfare": 5177,
    "running_time": 6
  },
  {
    "graph_name": "50_74",
    "n_pass": 2,
    "winning_ride": {
      "driver": {
        "arrive_until": 2400,
        "direct_cost": 449
      },
      "passengers": [
        {
          "bid": 3866,
          "id": 18,
          "price": 3045,
          "cost": 908,
          "direct_dist": 12887,
          "direct_cost": 387,
          "direct_time": 840
        },
        {
          "bid": 4599,
          "id": 2,
          "price": 3586,
          "cost": 991,
          "direct_dist": 15331,
          "direct_cost": 460,
          "direct_time": 926
        }
      ],
      "cost": 428,
      "virtual_welfare": 6566
    },
    "profit": 6203,
    "cost_profit": 1471.0,
    "welfare": 8037,
    "virtual_welfare": 6566,
    "running_time": 4
  },
  {
    "graph_name": "50_75",
    "n_pass": 2,
    "winning_ride": {
      "driver": {
        "arrive_until": 2400,
        "direct_cost": 417
      },
      "passengers": [
        {
          "bid": 3964,
          "id": 7,
          "price": 3699,
          "cost": 897,
          "direct_dist": 13214,
          "direct_cost": 397,
          "direct_time": 879
        },
        {
          "bid": 3544,
          "id": 2,
          "price": 3279,
          "cost": 835,
          "direct_dist": 11816,
          "direct_cost": 355,
          "direct_time": 783
        }
      ],
      "cost": 547,
      "virtual_welfare": 5776
    },
    "profit": 6431,
    "cost_profit": 1185.0,
    "welfare": 6961,
    "virtual_welfare": 5776,
    "running_time": 4
  },
  {
    "graph_name": "50_76",
    "n_pass": 2,
    "winning_ride": {
      "driver": {
        "arrive_until": 2400,
        "direct_cost": 511
      },
      "passengers": [
        {
          "bid": 2491,
          "id": 12,
          "price": 2448,
          "cost": 649,
          "direct_dist": 8305,
          "direct_cost": 250,
          "direct_time": 530
        },
        {
          "bid": 2671,
          "id": 11,
          "price": 2551,
          "cost": 737,
          "direct_dist": 8906,
          "direct_cost": 268,
          "direct_time": 541
        }
      ],
      "cost": 319,
      "virtual_welfare": 3776
    },
    "profit": 4680,
    "cost_profit": 1067.0,
    "welfare": 4843,
    "virtual_welfare": 3776,
    "running_time": 6
  },
  {
    "graph_name": "50_77",
    "n_pass": 2,
    "winning_ride": {
      "driver": {
        "arrive_until": 2400,
        "direct_cost": 471
      },
      "passengers": [
        {
          "bid": 3879,
          "id": 43,
          "price": 3067,
          "cost": 896,
          "direct_dist": 12931,
          "direct_cost": 388,
          "direct_time": 869
        },
        {
          "bid": 4299,
          "id": 38,
          "price": 3487,
          "cost": 962,
          "direct_dist": 14331,
          "direct_cost": 430,
          "direct_time": 998
        }
      ],
      "cost": 489,
      "virtual_welfare": 6320
    },
    "profit": 6065,
    "cost_profit": 1369.0,
    "welfare": 7689,
    "virtual_welfare": 6320,
    "running_time": 1
  },
  {
    "graph_name": "50_78",
    "n_pass": 2,
    "winning_ride": {
      "driver": {
        "arrive_until": 2400,
        "direct_cost": 507
      },
      "passengers": [
        {
          "bid": 1250,
          "id": 36,
          "price": 1138,
          "cost": 313,
          "direct_dist": 4168,
          "direct_cost": 126,
          "direct_time": 361
        },
        {
          "bid": 3274,
          "id": 26,
          "price": 3162,
          "cost": 652,
          "direct_dist": 10915,
          "direct_cost": 328,
          "direct_time": 804
        }
      ],
      "cost": 391,
      "virtual_welfare": 3559
    },
    "profit": 3909,
    "cost_profit": 574.0,
    "welfare": 4133,
    "virtual_welfare": 3559,
    "running_time": 4
  },
  {
    "graph_name": "50_79",
    "n_pass": 2,
    "winning_ride": {
      "driver": {
        "arrive_until": 2400,
        "direct_cost": 460
      },
      "passengers": [
        {
          "bid": 3996,
          "id": 27,
          "price": 3828,
          "cost": 923,
          "direct_dist": 13323,
          "direct_cost": 400,
          "direct_time": 796
        },
        {
          "bid": 4701,
          "id": 23,
          "price": 3964,
          "cost": 1027,
          "direct_dist": 15673,
          "direct_cost": 471,
          "direct_time": 1038
        }
      ],
      "cost": 486,
      "virtual_welfare": 6747
    },
    "profit": 7306,
    "cost_profit": 1464.0,
    "welfare": 8211,
    "virtual_welfare": 6747,
    "running_time": 8
  },
  {
    "graph_name": "50_8",
    "n_pass": 2,
    "winning_ride": {
      "driver": {
        "arrive_until": 2400,
        "direct_cost": 413
      },
      "passengers": [
        {
          "bid": 1929,
          "id": 32,
          "price": 1529,
          "cost": 531,
          "direct_dist": 6430,
          "direct_cost": 193,
          "direct_time": 461
        },
        {
          "bid": 4218,
          "id": 10,
          "price": 3055,
          "cost": 866,
          "direct_dist": 14061,
          "direct_cost": 422,
          "direct_time": 865
        }
      ],
      "cost": 539,
      "virtual_welfare": 4750
    },
    "profit": 4045,
    "cost_profit": 858.0,
    "welfare": 5608,
    "virtual_welfare": 4750,
    "running_time": 2
  },
  {
    "graph_name": "50_80",
    "n_pass": 2,
    "winning_ride": {
      "driver": {
        "arrive_until": 2400,
        "direct_cost": 470
      },
      "passengers": [
        {
          "bid": 4477,
          "id": 41,
          "price": 3304,
          "cost": 923,
          "direct_dist": 14925,
          "direct_cost": 448,
          "direct_time": 1181
        },
        {
          "bid": 5766,
          "id": 36,
          "price": 3774,
          "cost": 1081,
          "direct_dist": 19223,
          "direct_cost": 577,
          "direct_time": 1167
        }
      ],
      "cost": 609,
      "virtual_welfare": 8239
    },
    "profit": 6469,
    "cost_profit": 1395.0,
    "welfare": 9634,
    "virtual_welfare": 8239,
    "running_time": 9
  },
  {
    "graph_name": "50_81",
    "n_pass": 2,
    "winning_ride": {
      "driver": {
        "arrive_until": 2400,
        "direct_cost": 498
      },
      "passengers": [
        {
          "bid": 5139,
          "id": 45,
          "price": 4045,
          "cost": 1041,
          "direct_dist": 17132,
          "direct_cost": 514,
          "direct_time": 1221
        },
        {
          "bid": 3864,
          "id": 21,
          "price": 3783,
          "cost": 779,
          "direct_dist": 12881,
          "direct_cost": 387,
          "direct_time": 833
        }
      ],
      "cost": 548,
      "virtual_welfare": 7183
    },
    "profit": 7280,
    "cost_profit": 1272.0,
    "welfare": 8455,
    "virtual_welfare": 7183,
    "running_time": 5
  },
  {
    "graph_name": "50_82",
    "n_pass": 3,
    "winning_ride": {
      "driver": {
        "arrive_until": 2400,
        "direct_cost": 436
      },
      "passengers": [
        {
          "bid": 4128,
          "id": 47,
          "price": 1762,
          "cost": 867,
          "direct_dist": 13760,
          "direct_cost": 413,
          "direct_time": 896
        },
        {
          "bid": 4141,
          "id": 39,
          "price": 2057,
          "cost": 1058,
          "direct_dist": 15243,
          "direct_cost": 458,
          "direct_time": 974
        },
        {
          "bid": 1995,
          "id": 2,
          "price": 489,
          "cost": 489,
          "direct_dist": 6652,
          "direct_cost": 200,
          "direct_time": 403
        }
      ],
      "cost": 537,
      "virtual_welfare": 7850
    },
    "profit": 3771,
    "cost_profit": 1877.0,
    "welfare": 9727,
    "virtual_welfare": 7850,
    "running_time": 5
  },
  {
    "graph_name": "50_83",
    "n_pass": 3,
    "winning_ride": {
      "driver": {
        "arrive_until": 2400,
        "direct_cost": 378
      },
      "passengers": [
        {
          "bid": 4273,
          "id": 49,
          "price": 2654,
          "cost": 889,
          "direct_dist": 14245,
          "direct_cost": 428,
          "direct_time": 1018
        },
        {
          "bid": 3941,
          "id": 42,
          "price": 1866,
          "cost": 911,
          "direct_dist": 13139,
          "direct_cost": 395,
          "direct_time": 860
        },
        {
          "bid": 1617,
          "id": 17,
          "price": 1174,
          "cost": 364,
          "direct_dist": 6111,
          "direct_cost": 184,
          "direct_time": 391
        }
      ],
      "cost": 507,
      "virtual_welfare": 7667
    },
    "profit": 5187,
    "cost_profit": 1657.0,
    "welfare": 9324,
    "virtual_welfare": 7667,
    "running_time": 2
  },
  {
    "graph_name": "50_84",
    "n_pass": 3,
    "winning_ride": {
      "driver": {
        "arrive_until": 2400,
        "direct_cost": 467
      },
      "passengers": [
        {
          "bid": 4939,
          "id": 44,
          "price": 4620,
          "cost": 991,
          "direct_dist": 16466,
          "direct_cost": 494,
          "direct_time": 1086
        },
        {
          "bid": 1240,
          "id": 19,
          "price": 921,
          "cost": 281,
          "direct_dist": 4135,
          "direct_cost": 125,
          "direct_time": 304
        },
        {
          "bid": 4076,
          "id": 18,
          "price": 3798,
          "cost": 1086,
          "direct_dist": 13589,
          "direct_cost": 408,
          "direct_time": 854
        }
      ],
      "cost": 553,
      "virtual_welfare": 7897
    },
    "profit": 8786,
    "cost_profit": 1805.0,
    "welfare": 9702,
    "virtual_welfare": 7897,
    "running_time": 6
  },
  {
    "graph_name": "50_85",
    "n_pass": 3,
    "winning_ride": {
      "driver": {
        "arrive_until": 2400,
        "direct_cost": 428
      },
      "passengers": [
        {
          "bid": 1807,
          "id": 48,
          "price": 1408,
          "cost": 447,
          "direct_dist": 6025,
          "direct_cost": 181,
          "direct_time": 394
        },
        {
          "bid": 3311,
          "id": 43,
          "price": 2912,
          "cost": 750,
          "direct_dist": 11272,
          "direct_cost": 339,
          "direct_time": 733
        },
        {
          "bid": 2891,
          "id": 24,
          "price": 2492,
          "cost": 610,
          "direct_dist": 9638,
          "direct_cost": 290,
          "direct_time": 658
        }
      ],
      "cost": 350,
      "virtual_welfare": 6202
    },
    "profit": 6462,
    "cost_profit": 1457.0,
    "welfare": 7659,
    "virtual_welfare": 6202,
    "running_time": 6
  },
  {
    "graph_name": "50_86",
    "n_pass": 2,
    "winning_ride": {
      "driver": {
        "arrive_until": 2400,
        "direct_cost": 498
      },
      "passengers": [
        {
          "bid": 3649,
          "id": 26,
          "price": 3073,
          "cost": 910,
          "direct_dist": 12164,
          "direct_cost": 365,
          "direct_time": 754
        },
        {
          "bid": 4681,
          "id": 1,
          "price": 3259,
          "cost": 981,
          "direct_dist": 15604,
          "direct_cost": 469,
          "direct_time": 1026
        }
      ],
      "cost": 401,
      "virtual_welfare": 6439
    },
    "profit": 5931,
    "cost_profit": 1490.0,
    "welfare": 7929,
    "virtual_welfare": 6439,
    "running_time": 2
  },
  {
    "graph_name": "50_87",
    "n_pass": 2,
    "winning_ride": {
      "driver": {
        "arrive_until": 2400,
        "direct_cost": 434
      },
      "passengers": [
        {
          "bid": 3954,
          "id": 44,
          "price": 3937,
          "cost": 833,
          "direct_dist": 13180,
          "direct_cost": 396,
          "direct_time": 843
        },
        {
          "bid": 5762,
          "id": 28,
          "price": 4358,
          "cost": 1177,
          "direct_dist": 19207,
          "direct_cost": 577,
          "direct_time": 1174
        }
      ],
      "cost": 485,
      "virtual_welfare": 7706
    },
    "profit": 7810,
    "cost_profit": 1525.0,
    "welfare": 9231,
    "virtual_welfare": 7706,
    "running_time": 6
  },
  {
    "graph_name": "50_88",
    "n_pass": 2,
    "winning_ride": {
      "driver": {
        "arrive_until": 2400,
        "direct_cost": 444
      },
      "passengers": [
        {
          "bid": 3682,
          "id": 33,
          "price": 2892,
          "cost": 898,
          "direct_dist": 12274,
          "direct_cost": 369,
          "direct_time": 722
        },
        {
          "bid": 3950,
          "id": 29,
          "price": 3945,
          "cost": 1023,
          "direct_dist": 13169,
          "direct_cost": 396,
          "direct_time": 807
        }
      ],
      "cost": 449,
      "virtual_welfare": 5711
    },
    "profit": 6388,
    "cost_profit": 1472.0,
    "welfare": 7183,
    "virtual_welfare": 5711,
    "running_time": 5
  },
  {
    "graph_name": "50_89",
    "n_pass": 2,
    "winning_ride": {
      "driver": {
        "arrive_until": 2400,
        "direct_cost": 522
      },
      "passengers": [
        {
          "bid": 3614,
          "id": 37,
          "price": 2201,
          "cost": 871,
          "direct_dist": 12048,
          "direct_cost": 362,
          "direct_time": 845
        },
        {
          "bid": 4216,
          "id": 11,
          "price": 3278,
          "cost": 929,
          "direct_dist": 14054,
          "direct_cost": 422,
          "direct_time": 987
        }
      ],
      "cost": 316,
      "virtual_welfare": 6030
    },
    "profit": 5163,
    "cost_profit": 1484.0,
    "welfare": 7514,
    "virtual_welfare": 6030,
    "running_time": 2
  },
  {
    "graph_name": "50_9",
    "n_pass": 2,
    "winning_ride": {
      "driver": {
        "arrive_until": 2400,
        "direct_cost": 463
      },
      "passengers": [
        {
          "bid": 2819,
          "id": 48,
          "price": 2534,
          "cost": 697,
          "direct_dist": 9398,
          "direct_cost": 282,
          "direct_time": 623
        },
        {
          "bid": 4033,
          "id": 12,
          "price": 3587,
          "cost": 949,
          "direct_dist": 13444,
          "direct_cost": 404,
          "direct_time": 814
        }
      ],
      "cost": 420,
      "virtual_welfare": 5206
    },
    "profit": 5701,
    "cost_profit": 1226.0,
    "welfare": 6432,
    "virtual_welfare": 5206,
    "running_time": 7
  },
  {
    "graph_name": "50_90",
    "n_pass": 3,
    "winning_ride": {
      "driver": {
        "arrive_until": 2400,
        "direct_cost": 475
      },
      "passengers": [
        {
          "bid": 3303,
          "id": 50,
          "price": 2829,
          "cost": 860,
          "direct_dist": 11013,
          "direct_cost": 331,
          "direct_time": 767
        },
        {
          "bid": 4846,
          "id": 30,
          "price": 3502,
          "cost": 1039,
          "direct_dist": 16156,
          "direct_cost": 485,
          "direct_time": 1077
        },
        {
          "bid": 2094,
          "id": 4,
          "price": 464,
          "cost": 444,
          "direct_dist": 6980,
          "direct_cost": 210,
          "direct_time": 394
        }
      ],
      "cost": 530,
      "virtual_welfare": 7900
    },
    "profit": 6265,
    "cost_profit": 1813.0,
    "welfare": 9713,
    "virtual_welfare": 7900,
    "running_time": 3
  },
  {
    "graph_name": "50_91",
    "n_pass": 3,
    "winning_ride": {
      "driver": {
        "arrive_until": 2400,
        "direct_cost": 439
      },
      "passengers": [
        {
          "bid": 1324,
          "id": 24,
          "price": 1082,
          "cost": 398,
          "direct_dist": 4414,
          "direct_cost": 133,
          "direct_time": 328
        },
        {
          "bid": 4319,
          "id": 20,
          "price": 4077,
          "cost": 948,
          "direct_dist": 14399,
          "direct_cost": 432,
          "direct_time": 1002
        },
        {
          "bid": 4838,
          "id": 6,
          "price": 4365,
          "cost": 975,
          "direct_dist": 16129,
          "direct_cost": 484,
          "direct_time": 936
        }
      ],
      "cost": 422,
      "virtual_welfare": 8160
    },
    "profit": 9102,
    "cost_profit": 1899.0,
    "welfare": 10059,
    "virtual_welfare": 8160,
    "running_time": 6
  },
  {
    "graph_name": "50_92",
    "n_pass": 2,
    "winning_ride": {
      "driver": {
        "arrive_until": 2400,
        "direct_cost": 395
      },
      "passengers": [
        {
          "bid": 3442,
          "id": 26,
          "price": 2035,
          "cost": 829,
          "direct_dist": 11474,
          "direct_cost": 345,
          "direct_time": 764
        },
        {
          "bid": 2781,
          "id": 20,
          "price": 2493,
          "cost": 580,
          "direct_dist": 9272,
          "direct_cost": 279,
          "direct_time": 676
        }
      ],
      "cost": 570,
      "virtual_welfare": 4814
    },
    "profit": 3958,
    "cost_profit": 839.0,
    "welfare": 5653,
    "virtual_welfare": 4814,
    "running_time": 7
  },
  {
    "graph_name": "50_93",
    "n_pass": 2,
    "winning_ride": {
      "driver": {
        "arrive_until": 2400,
        "direct_cost": 529
      },
      "passengers": [
        {
          "bid": 2764,
          "id": 27,
          "price": 2093,
          "cost": 697,
          "direct_dist": 9214,
          "direct_cost": 277,
          "direct_time": 653
        },
        {
          "bid": 3817,
          "id": 25,
          "price": 2681,
          "cost": 824,
          "direct_dist": 12725,
          "direct_cost": 382,
          "direct_time": 821
        }
      ],
      "cost": 359,
      "virtual_welfare": 5060
    },
    "profit": 4415,
    "cost_profit": 1162.0,
    "welfare": 6222,
    "virtual_welfare": 5060,
    "running_time": 6
  },
  {
    "graph_name": "50_94",
    "n_pass": 2,
    "winning_ride": {
      "driver": {
        "arrive_until": 2400,
        "direct_cost": 444
      },
      "passengers": [
        {
          "bid": 5208,
          "id": 47,
          "price": 3862,
          "cost": 1062,
          "direct_dist": 17361,
          "direct_cost": 521,
          "direct_time": 1175
        },
        {
          "bid": 4839,
          "id": 13,
          "price": 3799,
          "cost": 999,
          "direct_dist": 16133,
          "direct_cost": 484,
          "direct_time": 1081
        }
      ],
      "cost": 229,
      "virtual_welfare": 7986
    },
    "profit": 7432,
    "cost_profit": 1832.0,
    "welfare": 9818,
    "virtual_welfare": 7986,
    "running_time": 6
  },
  {
    "graph_name": "50_95",
    "n_pass": 2,
    "winning_ride": {
      "driver": {
        "arrive_until": 2400,
        "direct_cost": 408
      },
      "passengers": [
        {
          "bid": 4875,
          "id": 30,
          "price": 3750,
          "cost": 1001,
          "direct_dist": 16252,
          "direct_cost": 488,
          "direct_time": 1049
        },
        {
          "bid": 4456,
          "id": 2,
          "price": 3594,
          "cost": 892,
          "direct_dist": 14854,
          "direct_cost": 446,
          "direct_time": 1030
        }
      ],
      "cost": 395,
      "virtual_welfare": 7438
    },
    "profit": 6949,
    "cost_profit": 1498.0,
    "welfare": 8936,
    "virtual_welfare": 7438,
    "running_time": 2
  },
  {
    "graph_name": "50_96",
    "n_pass": 2,
    "winning_ride": {
      "driver": {
        "arrive_until": 2400,
        "direct_cost": 447
      },
      "passengers": [
        {
          "bid": 3249,
          "id": 13,
          "price": 3064,
          "cost": 803,
          "direct_dist": 10833,
          "direct_cost": 325,
          "direct_time": 805
        },
        {
          "bid": 3597,
          "id": 10,
          "price": 3595,
          "cost": 983,
          "direct_dist": 11990,
          "direct_cost": 360,
          "direct_time": 931
        }
      ],
      "cost": 447,
      "virtual_welfare": 5060
    },
    "profit": 6212,
    "cost_profit": 1339.0,
    "welfare": 6399,
    "virtual_welfare": 5060,
    "running_time": 6
  },
  {
    "graph_name": "50_97",
    "n_pass": 3,
    "winning_ride": {
      "driver": {
        "arrive_until": 2400,
        "direct_cost": 473
      },
      "passengers": [
        {
          "bid": 3596,
          "id": 35,
          "price": 2818,
          "cost": 766,
          "direct_dist": 11989,
          "direct_cost": 360,
          "direct_time": 686
        },
        {
          "bid": 435,
          "id": 16,
          "price": 360,
          "cost": 360,
          "direct_dist": 4270,
          "direct_cost": 129,
          "direct_time": 291
        },
        {
          "bid": 2839,
          "id": 4,
          "price": 2766,
          "cost": 735,
          "direct_dist": 10859,
          "direct_cost": 326,
          "direct_time": 717
        }
      ],
      "cost": 287,
      "virtual_welfare": 5009
    },
    "profit": 5657,
    "cost_profit": 1574.0,
    "welfare": 6583,
    "virtual_welfare": 5009,
    "running_time": 9
  },
  {
    "graph_name": "50_98",
    "n_pass": 3,
    "winning_ride": {
      "driver": {
        "arrive_until": 2400,
        "direct_cost": 456
      },
      "passengers": [
        {
          "bid": 4440,
          "id": 32,
          "price": 4134,
          "cost": 913,
          "direct_dist": 14802,
          "direct_cost": 445,
          "direct_time": 895
        },
        {
          "bid": 4420,
          "id": 25,
          "price": 4135,
          "cost": 914,
          "direct_dist": 16571,
          "direct_cost": 498,
          "direct_time": 967
        },
        {
          "bid": 518,
          "id": 19,
          "price": 453,
          "cost": 181,
          "direct_dist": 1727,
          "direct_cost": 52,
          "direct_time": 116
        }
      ],
      "cost": 450,
      "virtual_welfare": 7370
    },
    "profit": 8272,
    "cost_profit": 1558.0,
    "welfare": 8928,
    "virtual_welfare": 7370,
    "running_time": 7
  },
  {
    "graph_name": "50_99",
    "n_pass": 3,
    "winning_ride": {
      "driver": {
        "arrive_until": 2400,
        "direct_cost": 478
      },
      "passengers": [
        {
          "bid": 905,
          "id": 48,
          "price": 632,
          "cost": 344,
          "direct_dist": 3018,
          "direct_cost": 91,
          "direct_time": 213
        },
        {
          "bid": 3299,
          "id": 19,
          "price": 3026,
          "cost": 793,
          "direct_dist": 10999,
          "direct_cost": 330,
          "direct_time": 724
        },
        {
          "bid": 3772,
          "id": 3,
          "price": 3550,
          "cost": 924,
          "direct_dist": 12576,
          "direct_cost": 378,
          "direct_time": 837
        }
      ],
      "cost": 466,
      "virtual_welfare": 5915
    },
    "profit": 6742,
    "cost_profit": 1595.0,
    "welfare": 7510,
    "virtual_welfare": 5915,
    "running_time": 4
  }
]