[
  {
    "graph_name": "50_0",
    "n_pass": 2,
    "winning_ride": {
      "driver": {
        "arrive_until": 2400,
        "direct_cost": 567
      },
      "passengers": [
        {
          "bid": 4277,
          "id": 26,
          "price": 3060,
          "cost": 0,
          "direct_dist": 14259,
          "direct_cost": 428,
          "direct_time": 970
        },
        {
          "bid": 4343,
          "id": 23,
          "price": 3155,
          "cost": 0,
          "direct_dist": 14478,
          "direct_cost": 435,
          "direct_time": 986
        }
      ],
      "cost": 202,
      "virtual_welfare": 8418
    },
    "profit": 6013,
    "cost_profit": 0.0,
    "welfare": 8418,
    "virtual_welfare": 8418,
    "running_time": 0
  },
  {
    "graph_name": "50_1",
    "n_pass": 2,
    "winning_ride": {
      "driver": {
        "arrive_until": 2400,
        "direct_cost": 508
      },
      "passengers": [
        {
          "bid": 4463,
          "id": 8,
          "price": 3365,
          "cost": 0,
          "direct_dist": 14879,
          "direct_cost": 447,
          "direct_time": 1014
        },
        {
          "bid": 3522,
          "id": 5,
          "price": 3365,
          "cost": 0,
          "direct_dist": 11741,
          "direct_cost": 353,
          "direct_time": 903
        }
      ],
      "cost": 404,
      "virtual_welfare": 7581
    },
    "profit": 6326,
    "cost_profit": 0.0,
    "welfare": 7581,
    "virtual_welfare": 7581,
    "running_time": 1
  },
  {
    "graph_name": "50_10",
    "n_pass": 2,
    "winning_ride": {
      "driver": {
        "arrive_until": 2400,
        "direct_cost": 461
      },
      "passengers": [
        {
          "bid": 3917,
          "id": 27,
          "price": 2858,
          "cost": 0,
          "direct_dist": 13059,
          "direct_cost": 392,
          "direct_time": 916
        },
        {
          "bid": 2952,
          "id": 24,
          "price": 2858,
          "cost": 0,
          "direct_dist": 9840,
          "direct_cost": 296,
          "direct_time": 706
        }
      ],
      "cost": 517,
      "virtual_welfare": 6352
    },
    "profit": 5199,
    "cost_profit": 0.0,
    "welfare": 6352,
    "virtual_welfare": 6352,
    "running_time": 2
  },
  {
    "graph_name": "50_11",
    "n_pass": 2,
    "winning_ride": {
      "driver": {
        "arrive_until": 2400,
        "direct_cost": 576
      },
      "passengers": [
        {
          "bid": 4467,
          "id": 21,
          "price": 4062,
          "cost": 0,
          "direct_dist": 14890,
          "direct_cost": 447,
          "direct_time": 953
        },
        {
          "bid": 4488,
          "id": 14,
          "price": 4467,
          "cost": 0,
          "direct_dist": 14960,
          "direct_cost": 449,
          "direct_time": 960
        }
      ],
      "cost": 341,
      "virtual_welfare": 8614
    },
    "profit": 8188,
    "cost_profit": 0.0,
    "welfare": 8614,
    "virtual_welfare": 8614,
    "running_time": 1
  },
  {
    "graph_name": "50_12",
    "n_pass": 2,
    "winning_ride": {
      "driver": {
        "arrive_until": 2400,
        "direct_cost": 429
      },
      "passengers": [
        {
          "bid": 5499,
          "id": 17,
          "price": 2946,
          "cost": 0,
          "direct_dist": 18330,
          "direct_cost": 550,
          "direct_time": 1221
        },
        {
          "bid": 5465,
          "id": 3,
          "price": 2946,
          "cost": 0,
          "direct_dist": 18440,
          "direct_cost": 554,
          "direct_time": 1177
        }
      ],
      "cost": 599,
      "virtual_welfare": 10365
    },
    "profit": 5293,
    "cost_profit": 0.0,
    "welfare": 10365,
    "virtual_welfare": 10365,
    "running_time": 3
  },
  {
    "graph_name": "50_13",
    "n_pass": 1,
    "winning_ride": {
      "driver": {
        "arrive_until": 2400,
        "direct_cost": 410
      },
      "passengers": [
        {
          "bid": 5843,
          "id": 19,
          "price": 5754,
          "cost": 0,
          "direct_dist": 19477,
          "direct_cost": 585,
          "direct_time": 1293
        }
      ],
      "cost": 443,
      "virtual_welfare": 5400
    },
    "profit": 5311,
    "cost_profit": 0.0,
    "welfare": 5400,
    "virtual_welfare": 5400,
    "running_time": 6
  },
  {
    "graph_name": "50_14",
    "n_pass": 2,
    "winning_ride": {
      "driver": {
        "arrive_until": 2400,
        "direct_cost": 486
      },
      "passengers": [
        {
          "bid": 3752,
          "id": 19,
          "price": 2665,
          "cost": 0,
          "direct_dist": 12508,
          "direct_cost": 376,
          "direct_time": 864
        },
        {
          "bid": 2782,
          "id": 7,
          "price": 2665,
          "cost": 0,
          "direct_dist": 9276,
          "direct_cost": 279,
          "direct_time": 602
        }
      ],
      "cost": 425,
      "virtual_welfare": 6109
    },
    "profit": 4905,
    "cost_profit": 0.0,
    "welfare": 6109,
    "virtual_welfare": 6109,
    "running_time": 3
  },
  {
    "graph_name": "50_15",
    "n_pass": 2,
    "winning_ride": {
      "driver": {
        "arrive_until": 2400,
        "direct_cost": 524
      },
      "passengers": [
        {
          "bid": 3983,
          "id": 46,
          "price": 3268,
          "cost": 0,
          "direct_dist": 13279,
          "direct_cost": 399,
          "direct_time": 922
        },
        {
          "bid": 3305,
          "id": 2,
          "price": 3268,
          "cost": 0,
          "direct_dist": 11019,
          "direct_cost": 331,
          "direct_time": 796
        }
      ],
      "cost": 203,
      "virtual_welfare": 7085
    },
    "profit": 6333,
    "cost_profit": 0.0,
    "welfare": 7085,
    "virtual_welfare": 7085,
    "running_time": 6
  },
  {
    "graph_name": "50_16",
    "n_pass": 2,
    "winning_ride": {
      "driver": {
        "arrive_until": 2400,
        "direct_cost": 381
      },
      "passengers": [
        {
          "bid": 3554,
          "id": 24,
          "price": 2746,
          "cost": 0,
          "direct_dist": 11847,
          "direct_cost": 356,
          "direct_time": 929
        },
        {
          "bid": 3769,
          "id": 6,
          "price": 2746,
          "cost": 0,
          "direct_dist": 12564,
          "direct_cost": 377,
          "direct_time": 830
        }
      ],
      "cost": 382,
      "virtual_welfare": 6941
    },
    "profit": 5110,
    "cost_profit": 0.0,
    "welfare": 6941,
    "virtual_welfare": 6941,
    "running_time": 5
  },
  {
    "graph_name": "50_17",
    "n_pass": 2,
    "winning_ride": {
      "driver": {
        "arrive_until": 2400,
        "direct_cost": 449
      },
      "passengers": [
        {
          "bid": 4610,
          "id": 49,
          "price": 3863,
          "cost": 0,
          "direct_dist": 15727,
          "direct_cost": 472,
          "direct_time": 1002
        },
        {
          "bid": 4527,
          "id": 26,
          "price": 3435,
          "cost": 0,
          "direct_dist": 15091,
          "direct_cost": 453,
          "direct_time": 961
        }
      ],
      "cost": 500,
      "virtual_welfare": 8637
    },
    "profit": 6798,
    "cost_profit": 0.0,
    "welfare": 8637,
    "virtual_welfare": 8637,
    "running_time": 2
  },
  {
    "graph_name": "50_18",
    "n_pass": 2,
    "winning_ride": {
      "driver": {
        "arrive_until": 2400,
        "direct_cost": 442
      },
      "passengers": [
        {
          "bid": 3043,
          "id": 40,
          "price": 2878,
          "cost": 0,
          "direct_dist": 12601,
          "direct_cost": 379,
          "direct_time": 793
        },
        {
          "bid": 4307,
          "id": 22,
          "price": 3043,
          "cost": 0,
          "direct_dist": 14359,
          "direct_cost": 431,
          "direct_time": 1053
        }
      ],
      "cost": 547,
      "virtual_welfare": 6803
    },
    "profit": 5374,
    "cost_profit": 0.0,
    "welfare": 6803,
    "virtual_welfare": 6803,
    "running_time": 5
  },
  {
    "graph_name": "50_19",
    "n_pass": 2,
    "winning_ride": {
      "driver": {
        "arrive_until": 2400,
        "direct_cost": 435
      },
      "passengers": [
        {
          "bid": 4086,
          "id": 40,
          "price": 3035,
          "cost": 0,
          "direct_dist": 13623,
          "direct_cost": 409,
          "direct_time": 966
        },
        {
          "bid": 3140,
          "id": 6,
          "price": 3035,
          "cost": 0,
          "direct_dist": 10467,
          "direct_cost": 315,
          "direct_time": 664
        }
      ],
      "cost": 393,
      "virtual_welfare": 6833
    },
    "profit": 5677,
    "cost_profit": 0.0,
    "welfare": 6833,
    "virtual_welfare": 6833,
    "running_time": 2
  },
  {
    "graph_name": "50_2",
    "n_pass": 2,
    "winning_ride": {
      "driver": {
        "arrive_until": 2400,
        "direct_cost": 423
      },
      "passengers": [
        {
          "bid": 4444,
          "id": 45,
          "price": 3558,
          "cost": 0,
          "direct_dist": 14814,
          "direct_cost": 445,
          "direct_time": 994
        },
        {
          "bid": 4239,
          "id": 35,
          "price": 3558,
          "cost": 0,
          "direct_dist": 14130,
          "direct_cost": 424,
          "direct_time": 1031
        }
      ],
      "cost": 520,
      "virtual_welfare": 8163
    },
    "profit": 6596,
    "cost_profit": 0.0,
    "welfare": 8163,
    "virtual_welfare": 8163,
    "running_time": 2
  },
  {
    "graph_name": "50_20",
    "n_pass": 2,
    "winning_ride": {
      "driver": {
        "arrive_until": 2400,
        "direct_cost": 602
      },
      "passengers": [
        {
          "bid": 3450,
          "id": 39,
          "price": 3328,
          "cost": 0,
          "direct_dist": 11502,
          "direct_cost": 346,
          "direct_time": 741
        },
        {
          "bid": 5013,
          "id": 9,
          "price": 3326,
          "cost": 0,
          "direct_dist": 16711,
          "direct_cost": 502,
          "direct_time": 1156
        }
      ],
      "cost": 283,
      "virtual_welfare": 8180
    },
    "profit": 6371,
    "cost_profit": 0.0,
    "welfare": 8180,
    "virtual_welfare": 8180,
    "running_time": 3
  },
  {
    "graph_name": "50_21",
    "n_pass": 2,
    "winning_ride": {
      "driver": {
        "arrive_until": 2400,
        "direct_cost": 475
      },
      "passengers": [
        {
          "bid": 4871,
          "id": 39,
          "price": 3293,
          "cost": 0,
          "direct_dist": 16239,
          "direct_cost": 488,
          "direct_time": 1021
        },
        {
          "bid": 4451,
          "id": 2,
          "price": 3572,
          "cost": 0,
          "direct_dist": 14837,
          "direct_cost": 446,
          "direct_time": 939
        }
      ],
      "cost": 417,
      "virtual_welfare": 8905
    },
    "profit": 6448,
    "cost_profit": 0.0,
    "welfare": 8905,
    "virtual_welfare": 8905,
    "running_time": 1
  },
  {
    "graph_name": "50_22",
    "n_pass": 2,
    "winning_ride": {
      "driver": {
        "arrive_until": 2400,
        "direct_cost": 482
      },
      "passengers": [
        {
          "bid": 3298,
          "id": 47,
          "price": 2955,
          "cost": 0,
          "direct_dist": 10995,
          "direct_cost": 330,
          "direct_time": 869
        },
        {
          "bid": 4272,
          "id": 38,
          "price": 2955,
          "cost": 0,
          "direct_dist": 14241,
          "direct_cost": 428,
          "direct_time": 942
        }
      ],
      "cost": 459,
      "virtual_welfare": 7111
    },
    "profit": 5451,
    "cost_profit": 0.0,
    "welfare": 7111,
    "virtual_welfare": 7111,
    "running_time": 6
  },
  {
    "graph_name": "50_23",
    "n_pass": 2,
    "winning_ride": {
      "driver": {
        "arrive_until": 2400,
        "direct_cost": 522
      },
      "passengers": [
        {
          "bid": 4812,
          "id": 36,
          "price": 3511,
          "cost": 0,
          "direct_dist": 16041,
          "direct_cost": 482,
          "direct_time": 1031
        },
        {
          "bid": 4504,
          "id": 3,
          "price": 3511,
          "cost": 0,
          "direct_dist": 15014,
          "direct_cost": 451,
          "direct_time": 1152
        }
      ],
      "cost": 409,
      "virtual_welfare": 8907
    },
    "profit": 6613,
    "cost_profit": 0.0,
    "welfare": 8907,
    "virtual_welfare": 8907,
    "running_time": 2
  },
  {
    "graph_name": "50_24",
    "n_pass": 2,
    "winning_ride": {
      "driver": {
        "arrive_until": 2400,
        "direct_cost": 405
      },
      "passengers": [
        {
          "bid": 4785,
          "id": 47,
          "price": 4347,
          "cost": 0,
          "direct_dist": 15951,
          "direct_cost": 479,
          "direct_time": 1060
        },
        {
          "bid": 5766,
          "id": 17,
          "price": 4375,
          "cost": 0,
          "direct_dist": 19222,
          "direct_cost": 577,
          "direct_time": 1188
        }
      ],
      "cost": 698,
      "virtual_welfare": 9853
    },
    "profit": 8024,
    "cost_profit": 0.0,
    "welfare": 9853,
    "virtual_welfare": 9853,
    "running_time": 2
  },
  {
    "graph_name": "50_25",
    "n_pass": 2,
    "winning_ride": {
      "driver": {
        "arrive_until": 2400,
        "direct_cost": 442
      },
      "passengers": [
        {
          "bid": 4979,
          "id": 46,
          "price": 3740,
          "cost": 0,
          "direct_dist": 16597,
          "direct_cost": 498,
          "direct_time": 1044
        },
        {
          "bid": 4370,
          "id": 21,
          "price": 4029,
          "cost": 0,
          "direct_dist": 14568,
          "direct_cost": 438,
          "direct_time": 1063
        }
      ],
      "cost": 609,
      "virtual_welfare": 8740
    },
    "profit": 7160,
    "cost_profit": 0.0,
    "welfare": 8740,
    "virtual_welfare": 8740,
    "running_time": 1
  },
  {
    "graph_name": "50_26",
    "n_pass": 2,
    "winning_ride": {
      "driver": {
        "arrive_until": 2400,
        "direct_cost": 425
      },
      "passengers": [
        {
          "bid": 3700,
          "id": 44,
          "price": 3591,
          "cost": 0,
          "direct_dist": 16900,
          "direct_cost": 507,
          "direct_time": 1092
        },
        {
          "bid": 3911,
          "id": 17,
          "price": 3591,
          "cost": 0,
          "direct_dist": 13039,
          "direct_cost": 392,
          "direct_time": 987
        }
      ],
      "cost": 477,
      "virtual_welfare": 7134
    },
    "profit": 6705,
    "cost_profit": 0.0,
    "welfare": 7134,
    "virtual_welfare": 7134,
    "running_time": 3
  },
  {
    "graph_name": "50_27",
    "n_pass": 2,
    "winning_ride": {
      "driver": {
        "arrive_until": 2400,
        "direct_cost": 429
      },
      "passengers": [
        {
          "bid": 5535,
          "id": 44,
          "price": 3444,
          "cost": 0,
          "direct_dist": 18452,
          "direct_cost": 554,
          "direct_time": 1194
        },
        {
          "bid": 3444,
          "id": 21,
          "price": 2779,
          "cost": 0,
          "direct_dist": 11481,
          "direct_cost": 345,
          "direct_time": 841
        }
      ],
      "cost": 553,
      "virtual_welfare": 8426
    },
    "profit": 5670,
    "cost_profit": 0.0,
    "welfare": 8426,
    "virtual_welfare": 8426,
    "running_time": 10
  },
  {
    "graph_name": "50_28",
    "n_pass": 2,
    "winning_ride": {
      "driver": {
        "arrive_until": 2400,
        "direct_cost": 506
      },
      "passengers": [
        {
          "bid": 3516,
          "id": 45,
          "price": 2467,
          "cost": 0,
          "direct_dist": 13123,
          "direct_cost": 394,
          "direct_time": 925
        },
        {
          "bid": 3843,
          "id": 6,
          "price": 2467,
          "cost": 0,
          "direct_dist": 12811,
          "direct_cost": 385,
          "direct_time": 896
        }
      ],
      "cost": 390,
      "virtual_welfare": 6969
    },
    "profit": 4544,
    "cost_profit": 0.0,
    "welfare": 6969,
    "virtual_welfare": 6969,
    "running_time": 3
  },
  {
    "graph_name": "50_29",
    "n_pass": 2,
    "winning_ride": {
      "driver": {
        "arrive_until": 2400,
        "direct_cost": 528
      },
      "passengers": [
        {
          "bid": 4420,
          "id": 40,
          "price": 3612,
          "cost": 0,
          "direct_dist": 14736,
          "direct_cost": 443,
          "direct_time": 950
        },
        {
          "bid": 5023,
          "id": 37,
          "price": 4420,
          "cost": 0,
          "direct_dist": 16745,
          "direct_cost": 503,
          "direct_time": 1143
        }
      ],
      "cost": 273,
      "virtual_welfare": 9170
    },
    "profit": 7759,
    "cost_profit": 0.0,
    "welfare": 9170,
    "virtual_welfare": 9170,
    "running_time": 0
  },
  {
    "graph_name": "50_3",
    "n_pass": 2,
    "winning_ride": {
      "driver": {
        "arrive_until": 2400,
        "direct_cost": 449
      },
      "passengers": [
        {
          "bid": 4822,
          "id": 38,
          "price": 3516,
          "cost": 0,
          "direct_dist": 16076,
          "direct_cost": 483,
          "direct_time": 1001
        },
        {
          "bid": 5765,
          "id": 13,
          "price": 4656,
          "cost": 0,
          "direct_dist": 19217,
          "direct_cost": 577,
          "direct_time": 1186
        }
      ],
      "cost": 424,
      "virtual_welfare": 10163
    },
    "profit": 7748,
    "cost_profit": 0.0,
    "welfare": 10163,
    "virtual_welfare": 10163,
    "running_time": 1
  },
  {
    "graph_name": "50_30",
    "n_pass": 2,
    "winning_ride": {
      "driver": {
        "arrive_until": 2400,
        "direct_cost": 560
      },
      "passengers": [
        {
          "bid": 5234,
          "id": 29,
          "price": 3232,
          "cost": 0,
          "direct_dist": 17448,
          "direct_cost": 524,
          "direct_time": 1116
        },
        {
          "bid": 5031,
          "id": 8,
          "price": 3298,
          "cost": 0,
          "direct_dist": 16773,
          "direct_cost": 504,
          "direct_time": 1132
        }
      ],
      "cost": 320,
      "virtual_welfare": 9945
    },
    "profit": 6210,
    "cost_profit": 0.0,
    "welfare": 9945,
    "virtual_welfare": 9945,
    "running_time": 1
  },
  {
    "graph_name": "50_31",
    "n_pass": 2,
    "winning_ride": {
      "driver": {
        "arrive_until": 2400,
        "direct_cost": 467
      },
      "passengers": [
        {
          "bid": 4768,
          "id": 34,
          "price": 3053,
          "cost": 0,
          "direct_dist": 18243,
          "direct_cost": 548,
          "direct_time": 1201
        },
        {
          "bid": 5413,
          "id": 10,
          "price": 3668,
          "cost": 0,
          "direct_dist": 18045,
          "direct_cost": 542,
          "direct_time": 1123
        }
      ],
      "cost": 590,
      "virtual_welfare": 9591
    },
    "profit": 6131,
    "cost_profit": 0.0,
    "welfare": 9591,
    "virtual_welfare": 9591,
    "running_time": 2
  },
  {
    "graph_name": "50_32",
    "n_pass": 2,
    "winning_ride": {
      "driver": {
        "arrive_until": 2400,
        "direct_cost": 367
      },
      "passengers": [
        {
          "bid": 2794,
          "id": 32,
          "price": 2359,
          "cost": 0,
          "direct_dist": 9316,
          "direct_cost": 280,
          "direct_time": 617
        },
        {
          "bid": 2963,
          "id": 11,
          "price": 2794,
          "cost": 0,
          "direct_dist": 9879,
          "direct_cost": 297,
          "direct_time": 621
        }
      ],
      "cost": 630,
      "virtual_welfare": 5127
    },
    "profit": 4523,
    "cost_profit": 0.0,
    "welfare": 5127,
    "virtual_welfare": 5127,
    "running_time": 10
  },
  {
    "graph_name": "50_33",
    "n_pass": 2,
    "winning_ride": {
      "driver": {
        "arrive_until": 2400,
        "direct_cost": 463
      },
      "passengers": [
        {
          "bid": 6231,
          "id": 36,
          "price": 4266,
          "cost": 0,
          "direct_dist": 20770,
          "direct_cost": 624,
          "direct_time": 1399
        },
        {
          "bid": 4799,
          "id": 8,
          "price": 4266,
          "cost": 0,
          "direct_dist": 15999,
          "direct_cost": 480,
          "direct_time": 1044
        }
      ],
      "cost": 480,
      "virtual_welfare": 10550
    },
    "profit": 8052,
    "cost_profit": 0.0,
    "welfare": 10550,
    "virtual_welfare": 10550,
    "running_time": 0
  },
  {
    "graph_name": "50_34",
    "n_pass": 2,
    "winning_ride": {
      "driver": {
        "arrive_until": 2400,
        "direct_cost": 534
      },
      "passengers": [
        {
          "bid": 5362,
          "id": 22,
          "price": 3187,
          "cost": 0,
          "direct_dist": 17874,
          "direct_cost": 537,
          "direct_time": 1180
        },
        {
          "bid": 3519,
          "id": 10,
          "price": 3187,
          "cost": 0,
          "direct_dist": 11731,
          "direct_cost": 352,
          "direct_time": 716
        }
      ],
      "cost": 459,
      "virtual_welfare": 8422
    },
    "profit": 5915,
    "cost_profit": 0.0,
    "welfare": 8422,
    "virtual_welfare": 8422,
    "running_time": 3
  },
  {
    "graph_name": "50_35",
    "n_pass": 2,
    "winning_ride": {
      "driver": {
        "arrive_until": 2400,
        "direct_cost": 434
      },
      "passengers": [
        {
          "bid": 4322,
          "id": 16,
          "price": 4288,
          "cost": 0,
          "direct_dist": 14409,
          "direct_cost": 433,
          "direct_time": 918
        },
        {
          "bid": 4543,
          "id": 12,
          "price": 4322,
          "cost": 0,
          "direct_dist": 15144,
          "direct_cost": 455,
          "direct_time": 958
        }
      ],
      "cost": 515,
      "virtual_welfare": 8350
    },
    "profit": 8095,
    "cost_profit": 0.0,
    "welfare": 8350,
    "virtual_welfare": 8350,
    "running_time": 1
  },
  {
    "graph_name": "50_36",
    "n_pass": 2,
    "winning_ride": {
      "driver": {
        "arrive_until": 2400,
        "direct_cost": 478
      },
      "passengers": [
        {
          "bid": 5407,
          "id": 35,
          "price": 3775,
          "cost": 0,
          "direct_dist": 18026,
          "direct_cost": 541,
          "direct_time": 1135
        },
        {
          "bid": 4171,
          "id": 18,
          "price": 3958,
          "cost": 0,
          "direct_dist": 13906,
          "direct_cost": 418,
          "direct_time": 923
        }
      ],
      "cost": 473,
      "virtual_welfare": 9105
    },
    "profit": 7260,
    "cost_profit": 0.0,
    "welfare": 9105,
    "virtual_welfare": 9105,
    "running_time": 2
  },
  {
    "graph_name": "50_37",
    "n_pass": 2,
    "winning_ride": {
      "driver": {
        "arrive_until": 2400,
        "direct_cost": 542
      },
      "passengers": [
        {
          "bid": 4499,
          "id": 11,
          "price": 3448,
          "cost": 0,
          "direct_dist": 14997,
          "direct_cost": 450,
          "direct_time": 920
        },
        {
          "bid": 4946,
          "id": 7,
          "price": 4499,
          "cost": 0,
          "direct_dist": 16489,
          "direct_cost": 495,
          "direct_time": 1098
        }
      ],
      "cost": 489,
      "virtual_welfare": 8956
    },
    "profit": 7458,
    "cost_profit": 0.0,
    "welfare": 8956,
    "virtual_welfare": 8956,
    "running_time": 1
  },
  {
    "graph_name": "50_38",
    "n_pass": 1,
    "winning_ride": {
      "driver": {
        "arrive_until": 2400,
        "direct_cost": 426
      },
      "passengers": [
        {
          "bid": 6272,
          "id": 50,
          "price": 3044,
          "cost": 0,
          "direct_dist": 20907,
          "direct_cost": 628,
          "direct_time": 1332
        }
      ],
      "cost": 494,
      "virtual_welfare": 5778
    },
    "profit": 2550,
    "cost_profit": 0.0,
    "welfare": 5778,
    "virtual_welfare": 5778,
    "running_time": 6
  },
  {
    "graph_name": "50_39",
    "n_pass": 2,
    "winning_ride": {
      "driver": {
        "arrive_until": 2400,
        "direct_cost": 501
      },
      "passengers": [
        {
          "bid": 4457,
          "id": 26,
          "price": 3145,
          "cost": 0,
          "direct_dist": 15474,
          "direct_cost": 465,
          "direct_time": 972
        },
        {
          "bid": 6118,
          "id": 7,
          "price": 4457,
          "cost": 0,
          "direct_dist": 20395,
          "direct_cost": 612,
          "direct_time": 1387
        }
      ],
      "cost": 492,
      "virtual_welfare": 10083
    },
    "profit": 7110,
    "cost_profit": 0.0,
    "welfare": 10083,
    "virtual_welfare": 10083,
    "running_time": 3
  },
  {
    "graph_name": "50_4",
    "n_pass": 2,
    "winning_ride": {
      "driver": {
        "arrive_until": 2400,
        "direct_cost": 470
      },
      "passengers": [
        {
          "bid": 2835,
          "id": 37,
          "price": 2802,
          "cost": 0,
          "direct_dist": 9453,
          "direct_cost": 284,
          "direct_time": 610
        },
        {
          "bid": 3968,
          "id": 21,
          "price": 2802,
          "cost": 0,
          "direct_dist": 13228,
          "direct_cost": 397,
          "direct_time": 823
        }
      ],
      "cost": 367,
      "virtual_welfare": 6436
    },
    "profit": 5237,
    "cost_profit": 0.0,
    "welfare": 6436,
    "virtual_welfare": 6436,
    "running_time": 5
  },
  {
    "graph_name": "50_40",
    "n_pass": 2,
    "winning_ride": {
      "driver": {
        "arrive_until": 2400,
        "direct_cost": 455
      },
      "passengers": [
        {
          "bid": 2676,
          "id": 43,
          "price": 2303,
          "cost": 0,
          "direct_dist": 9634,
          "direct_cost": 290,
          "direct_time": 736
        },
        {
          "bid": 3519,
          "id": 27,
          "price": 2426,
          "cost": 0,
          "direct_dist": 16134,
          "direct_cost": 485,
          "direct_time": 1067
        }
      ],
      "cost": 496,
      "virtual_welfare": 5699
    },
    "profit": 4233,
    "cost_profit": 0.0,
    "welfare": 5699,
    "virtual_welfare": 5699,
    "running_time": 1
  },
  {
    "graph_name": "50_41",
    "n_pass": 2,
    "winning_ride": {
      "driver": {
        "arrive_until": 2400,
        "direct_cost": 509
      },
      "passengers": [
        {
          "bid": 4574,
          "id": 40,
          "price": 4140,
          "cost": 0,
          "direct_dist": 15248,
          "direct_cost": 458,
          "direct_time": 1049
        },
        {
          "bid": 5015,
          "id": 16,
          "price": 4529,
          "cost": 0,
          "direct_dist": 16719,
          "direct_cost": 502,
          "direct_time": 1085
        }
      ],
      "cost": 401,
      "virtual_welfare": 9188
    },
    "profit": 8268,
    "cost_profit": 0.0,
    "welfare": 9188,
    "virtual_welfare": 9188,
    "running_time": 1
  },
  {
    "graph_name": "50_42",
    "n_pass": 2,
    "winning_ride": {
      "driver": {
        "arrive_until": 2400,
        "direct_cost": 491
      },
      "passengers": [
        {
          "bid": 2754,
          "id": 19,
          "price": 2674,
          "cost": 0,
          "direct_dist": 9183,
          "direct_cost": 276,
          "direct_time": 680
        },
        {
          "bid": 3485,
          "id": 7,
          "price": 2674,
          "cost": 0,
          "direct_dist": 11618,
          "direct_cost": 349,
          "direct_time": 828
        }
      ],
      "cost": 195,
      "virtual_welfare": 6044
    },
    "profit": 5153,
    "cost_profit": 0.0,
    "welfare": 6044,
    "virtual_welfare": 6044,
    "running_time": 3
  },
  {
    "graph_name": "50_43",
    "n_pass": 2,
    "winning_ride": {
      "driver": {
        "arrive_until": 2400,
        "direct_cost": 429
      },
      "passengers": [
        {
          "bid": 4754,
          "id": 41,
          "price": 4025,
          "cost": 0,
          "direct_dist": 15847,
          "direct_cost": 476,
          "direct_time": 1021
        },
        {
          "bid": 4260,
          "id": 2,
          "price": 4025,
          "cost": 0,
          "direct_dist": 14202,
          "direct_cost": 427,
          "direct_time": 950
        }
      ],
      "cost": 374,
      "virtual_welfare": 8640
    },
    "profit": 7676,
    "cost_profit": 0.0,
    "welfare": 8640,
    "virtual_welfare": 8640,
    "running_time": 1
  },
  {
    "graph_name": "50_44",
    "n_pass": 2,
    "winning_ride": {
      "driver": {
        "arrive_until": 2400,
        "direct_cost": 474
      },
      "passengers": [
        {
          "bid": 5008,
          "id": 44,
          "price": 4510,
          "cost": 0,
          "direct_dist": 16696,
          "direct_cost": 501,
          "direct_time": 1099
        },
        {
          "bid": 4812,
          "id": 10,
          "price": 4510,
          "cost": 0,
          "direct_dist": 16042,
          "direct_cost": 482,
          "direct_time": 1043
        }
      ],
      "cost": 509,
      "virtual_welfare": 9311
    },
    "profit": 8511,
    "cost_profit": 0.0,
    "welfare": 9311,
    "virtual_welfare": 9311,
    "running_time": 1
  },
  {
    "graph_name": "50_45",
    "n_pass": 2,
    "winning_ride": {
      "driver": {
        "arrive_until": 2400,
        "direct_cost": 552
      },
      "passengers": [
        {
          "bid": 2925,
          "id": 33,
          "price": 2375,
          "cost": 0,
          "direct_dist": 9752,
          "direct_cost": 293,
          "direct_time": 678
        },
        {
          "bid": 3246,
          "id": 21,
          "price": 2925,
          "cost": 0,
          "direct_dist": 10823,
          "direct_cost": 325,
          "direct_time": 704
        }
      ],
      "cost": 380,
      "virtual_welfare": 5791
    },
    "profit": 4920,
    "cost_profit": 0.0,
    "welfare": 5791,
    "virtual_welfare": 5791,
    "running_time": 1
  },
  {
    "graph_name": "50_46",
    "n_pass": 2,
    "winning_ride": {
      "driver": {
        "arrive_until": 2400,
        "direct_cost": 479
      },
      "passengers": [
        {
          "bid": 2347,
          "id": 47,
          "price": 2018,
          "cost": 0,
          "direct_dist": 7824,
          "direct_cost": 235,
          "direct_time": 602
        },
        {
          "bid": 3867,
          "id": 18,
          "price": 2018,
          "cost": 0,
          "direct_dist": 12892,
          "direct_cost": 387,
          "direct_time": 789
        }
      ],
      "cost": 489,
      "virtual_welfare": 5725
    },
    "profit": 3547,
    "cost_profit": 0.0,
    "welfare": 5725,
    "virtual_welfare": 5725,
    "running_time": 5
  },
  {
    "graph_name": "50_47",
    "n_pass": 2,
    "winning_ride": {
      "driver": {
        "arrive_until": 2400,
        "direct_cost": 539
      },
      "passengers": [
        {
          "bid": 3499,
          "id": 37,
          "price": 2646,
          "cost": 0,
          "direct_dist": 11665,
          "direct_cost": 350,
          "direct_time": 750
        },
        {
          "bid": 3301,
          "id": 31,
          "price": 2531,
          "cost": 0,
          "direct_dist": 14233,
          "direct_cost": 427,
          "direct_time": 923
        }
      ],
      "cost": 343,
      "virtual_welfare": 6457
    },
    "profit": 4834,
    "cost_profit": 0.0,
    "welfare": 6457,
    "virtual_welfare": 6457,
    "running_time": 1
  },
  {
    "graph_name": "50_48",
    "n_pass": 2,
    "winning_ride": {
      "driver": {
        "arrive_until": 2400,
        "direct_cost": 349
      },
      "passengers": [
        {
          "bid": 3120,
          "id": 19,
          "price": 2762,
          "cost": 0,
          "direct_dist": 10400,
          "direct_cost": 312,
          "direct_time": 633
        },
        {
          "bid": 4153,
          "id": 14,
          "price": 2762,
          "cost": 0,
          "direct_dist": 13846,
          "direct_cost": 416,
          "direct_time": 1032
        }
      ],
      "cost": 604,
      "virtual_welfare": 6669
    },
    "profit": 4920,
    "cost_profit": 0.0,
    "welfare": 6669,
    "virtual_welfare": 6669,
    "running_time": 4
  },
  {
    "graph_name": "50_49",
    "n_pass": 2,
    "winning_ride": {
      "driver": {
        "arrive_until": 2400,
        "direct_cost": 442
      },
      "passengers": [
        {
          "bid": 4238,
          "id": 45,
          "price": 3306,
          "cost": 0,
          "direct_dist": 14128,
          "direct_cost": 424,
          "direct_time": 942
        },
        {
          "bid": 4422,
          "id": 42,
          "price": 3306,
          "cost": 0,
          "direct_dist": 14740,
          "direct_cost": 443,
          "direct_time": 965
        }
      ],
      "cost": 587,
      "virtual_welfare": 8073
    },
    "profit": 6025,
    "cost_profit": 0.0,
    "welfare": 8073,
    "virtual_welfare": 8073,
    "running_time": 1
  },
  {
    "graph_name": "50_5",
    "n_pass": 2,
    "winning_ride": {
      "driver": {
        "arrive_until": 2400,
        "direct_cost": 487
      },
      "passengers": [
        {
          "bid": 4736,
          "id": 50,
          "price": 4402,
          "cost": 0,
          "direct_dist": 15787,
          "direct_cost": 474,
          "direct_time": 1088
        },
        {
          "bid": 5176,
          "id": 43,
          "price": 4402,
          "cost": 0,
          "direct_dist": 17255,
          "direct_cost": 518,
          "direct_time": 1162
        }
      ],
      "cost": 404,
      "virtual_welfare": 9508
    },
    "profit": 8400,
    "cost_profit": 0.0,
    "welfare": 9508,
    "virtual_welfare": 9508,
    "running_time": 0
  },
  {
    "graph_name": "50_50",
    "n_pass": 2,
    "winning_ride": {
      "driver": {
        "arrive_until": 2400,
        "direct_cost": 396
      },
      "passengers": [
        {
          "bid": 3829,
          "id": 45,
          "price": 3115,
          "cost": 0,
          "direct_dist": 12764,
          "direct_cost": 383,
          "direct_time": 859
        },
        {
          "bid": 4950,
          "id": 12,
          "price": 3115,
          "cost": 0,
          "direct_dist": 16501,
          "direct_cost": 496,
          "direct_time": 1035
        }
      ],
      "cost": 472,
      "virtual_welfare": 8307
    },
    "profit": 5758,
    "cost_profit": 0.0,
    "welfare": 8307,
    "virtual_welfare": 8307,
    "running_time": 3
  },
  {
    "graph_name": "50_51",
    "n_pass": 1,
    "winning_ride": {
      "driver": {
        "arrive_until": 2400,
        "direct_cost": 411
      },
      "passengers": [
        {
          "bid": 4701,
          "id": 36,
          "price": 4644,
          "cost": 0,
          "direct_dist": 15672,
          "direct_cost": 471,
          "direct_time": 1059
        }
      ],
      "cost": 449,
      "virtual_welfare": 4252
    },
    "profit": 4195,
    "cost_profit": 0.0,
    "welfare": 4252,
    "virtual_welfare": 4252,
    "running_time": 6
  },
  {
    "graph_name": "50_52",
    "n_pass": 2,
    "winning_ride": {
      "driver": {
        "arrive_until": 2400,
        "direct_cost": 469
      },
      "passengers": [
        {
          "bid": 3942,
          "id": 24,
          "price": 3535,
          "cost": 0,
          "direct_dist": 13141,
          "direct_cost": 395,
          "direct_time": 954
        },
        {
          "bid": 3977,
          "id": 16,
          "price": 2958,
          "cost": 0,
          "direct_dist": 13258,
          "direct_cost": 398,
          "direct_time": 842
        }
      ],
      "cost": 465,
      "virtual_welfare": 7454
    },
    "profit": 6028,
    "cost_profit": 0.0,
    "welfare": 7454,
    "virtual_welfare": 7454,
    "running_time": 5
  },
  {
    "graph_name": "50_53",
    "n_pass": 2,
    "winning_ride": {
      "driver": {
        "arrive_until": 2400,
        "direct_cost": 519
      },
      "passengers": [
        {
          "bid": 4082,
          "id": 44,
          "price": 3475,
          "cost": 0,
          "direct_dist": 13609,
          "direct_cost": 409,
          "direct_time": 909
        },
        {
          "bid": 4456,
          "id": 8,
          "price": 4082,
          "cost": 0,
          "direct_dist": 14979,
          "direct_cost": 450,
          "direct_time": 943
        }
      ],
      "cost": 535,
      "virtual_welfare": 8003
    },
    "profit": 7022,
    "cost_profit": 0.0,
    "welfare": 8003,
    "virtual_welfare": 8003,
    "running_time": 2
  },
  {
    "graph_name": "50_54",
    "n_pass": 2,
    "winning_ride": {
      "driver": {
        "arrive_until": 2400,
        "direct_cost": 400
      },
      "passengers": [
        {
          "bid": 4633,
          "id": 47,
          "price": 3937,
          "cost": 0,
          "direct_dist": 15445,
          "direct_cost": 464,
          "direct_time": 898
        },
        {
          "bid": 5742,
          "id": 25,
          "price": 3937,
          "cost": 0,
          "direct_dist": 19140,
          "direct_cost": 575,
          "direct_time": 1279
        }
      ],
      "cost": 520,
      "virtual_welfare": 9855
    },
    "profit": 7354,
    "cost_profit": 0.0,
    "welfare": 9855,
    "virtual_welfare": 9855,
    "running_time": 1
  },
  {
    "graph_name": "50_55",
    "n_pass": 2,
    "winning_ride": {
      "driver": {
        "arrive_until": 2400,
        "direct_cost": 431
      },
      "passengers": [
        {
          "bid": 4851,
          "id": 20,
          "price": 4512,
          "cost": 0,
          "direct_dist": 16173,
          "direct_cost": 486,
          "direct_time": 1066
        },
        {
          "bid": 5305,
          "id": 16,
          "price": 4776,
          "cost": 0,
          "direct_dist": 17685,
          "direct_cost": 531,
          "direct_time": 1132
        }
      ],
      "cost": 513,
      "virtual_welfare": 9643
    },
    "profit": 8775,
    "cost_profit": 0.0,
    "welfare": 9643,
    "virtual_welfare": 9643,
    "running_time": 0
  },
  {
    "graph_name": "50_56",
    "n_pass": 2,
    "winning_ride": {
      "driver": {
        "arrive_until": 2400,
        "direct_cost": 376
      },
      "passengers": [
        {
          "bid": 2769,
          "id": 24,
          "price": 2652,
          "cost": 0,
          "direct_dist": 9231,
          "direct_cost": 277,
          "direct_time": 665
        },
        {
          "bid": 2788,
          "id": 12,
          "price": 2673,
          "cost": 0,
          "direct_dist": 9295,
          "direct_cost": 279,
          "direct_time": 641
        }
      ],
      "cost": 589,
      "virtual_welfare": 4968
    },
    "profit": 4736,
    "cost_profit": 0.0,
    "welfare": 4968,
    "virtual_welfare": 4968,
    "running_time": 5
  },
  {
    "graph_name": "50_57",
    "n_pass": 2,
    "winning_ride": {
      "driver": {
        "arrive_until": 2400,
        "direct_cost": 358
      },
      "passengers": [
        {
          "bid": 4127,
          "id": 20,
          "price": 3861,
          "cost": 0,
          "direct_dist": 13757,
          "direct_cost": 413,
          "direct_time": 1003
        },
        {
          "bid": 4832,
          "id": 10,
          "price": 3861,
          "cost": 0,
          "direct_dist": 16109,
          "direct_cost": 484,
          "direct_time": 1014
        }
      ],
      "cost": 535,
      "virtual_welfare": 8424
    },
    "profit": 7187,
    "cost_profit": 0.0,
    "welfare": 8424,
    "virtual_welfare": 8424,
    "running_time": 1
  },
  {
    "graph_name": "50_58",
    "n_pass": 2,
    "winning_ride": {
      "driver": {
        "arrive_until": 2400,
        "direct_cost": 510
      },
      "passengers": [
        {
          "bid": 5216,
          "id": 19,
          "price": 3653,
          "cost": 0,
          "direct_dist": 17389,
          "direct_cost": 522,
          "direct_time": 1096
        },
        {
          "bid": 3981,
          "id": 11,
          "price": 3653,
          "cost": 0,
          "direct_dist": 13271,
          "direct_cost": 399,
          "direct_time": 924
        }
      ],
      "cost": 428,
      "virtual_welfare": 8769
    },
    "profit": 6878,
    "cost_profit": 0.0,
    "welfare": 8769,
    "virtual_welfare": 8769,
    "running_time": 1
  },
  {
    "graph_name": "50_59",
    "n_pass": 2,
    "winning_ride": {
      "driver": {
        "arrive_until": 2400,
        "direct_cost": 361
      },
      "passengers": [
        {
          "bid": 2910,
          "id": 36,
          "price": 2658,
          "cost": 0,
          "direct_dist": 9701,
          "direct_cost": 292,
          "direct_time": 689
        },
        {
          "bid": 3009,
          "id": 2,
          "price": 2792,
          "cost": 0,
          "direct_dist": 10031,
          "direct_cost": 301,
          "direct_time": 672
        }
      ],
      "cost": 401,
      "virtual_welfare": 5518
    },
    "profit": 5049,
    "cost_profit": 0.0,
    "welfare": 5518,
    "virtual_welfare": 5518,
    "running_time": 12
  },
  {
    "graph_name": "50_6",
    "n_pass": 2,
    "winning_ride": {
      "driver": {
        "arrive_until": 2400,
        "direct_cost": 428
      },
      "passengers": [
        {
          "bid": 5575,
          "id": 26,
          "price": 4267,
          "cost": 0,
          "direct_dist": 18585,
          "direct_cost": 558,
          "direct_time": 1228
        },
        {
          "bid": 4267,
          "id": 3,
          "price": 4246,
          "cost": 0,
          "direct_dist": 14226,
          "direct_cost": 427,
          "direct_time": 948
        }
      ],
      "cost": 499,
      "virtual_welfare": 9343
    },
    "profit": 8014,
    "cost_profit": 0.0,
    "welfare": 9343,
    "virtual_welfare": 9343,
    "running_time": 1
  },
  {
    "graph_name": "50_60",
    "n_pass": 2,
    "winning_ride": {
      "driver": {
        "arrive_until": 2400,
        "direct_cost": 523
      },
      "passengers": [
        {
          "bid": 4990,
          "id": 37,
          "price": 3545,
          "cost": 0,
          "direct_dist": 16636,
          "direct_cost": 500,
          "direct_time": 1027
        },
        {
          "bid": 3577,
          "id": 13,
          "price": 3545,
          "cost": 0,
          "direct_dist": 11924,
          "direct_cost": 358,
          "direct_time": 763
        }
      ],
      "cost": 326,
      "virtual_welfare": 8241
    },
    "profit": 6764,
    "cost_profit": 0.0,
    "welfare": 8241,
    "virtual_welfare": 8241,
    "running_time": 1
  },
  {
    "graph_name": "50_61",
    "n_pass": 2,
    "winning_ride": {
      "driver": {
        "arrive_until": 2400,
        "direct_cost": 446
      },
      "passengers": [
        {
          "bid": 3812,
          "id": 18,
          "price": 3345,
          "cost": 0,
          "direct_dist": 12709,
          "direct_cost": 382,
          "direct_time": 913
        },
        {
          "bid": 3463,
          "id": 2,
          "price": 3345,
          "cost": 0,
          "direct_dist": 11546,
          "direct_cost": 347,
          "direct_time": 850
        }
      ],
      "cost": 424,
      "virtual_welfare": 6851
    },
    "profit": 6266,
    "cost_profit": 0.0,
    "welfare": 6851,
    "virtual_welfare": 6851,
    "running_time": 2
  },
  {
    "graph_name": "50_62",
    "n_pass": 2,
    "winning_ride": {
      "driver": {
        "arrive_until": 2400,
        "direct_cost": 466
      },
      "passengers": [
        {
          "bid": 3272,
          "id": 44,
          "price": 2980,
          "cost": 0,
          "direct_dist": 15210,
          "direct_cost": 457,
          "direct_time": 1083
        },
        {
          "bid": 3596,
          "id": 16,
          "price": 2980,
          "cost": 0,
          "direct_dist": 11987,
          "direct_cost": 360,
          "direct_time": 843
        }
      ],
      "cost": 436,
      "virtual_welfare": 6432
    },
    "profit": 5524,
    "cost_profit": 0.0,
    "welfare": 6432,
    "virtual_welfare": 6432,
    "running_time": 0
  },
  {
    "graph_name": "50_63",
    "n_pass": 2,
    "winning_ride": {
      "driver": {
        "arrive_until": 2400,
        "direct_cost": 462
      },
      "passengers": [
        {
          "bid": 4713,
          "id": 40,
          "price": 4209,
          "cost": 0,
          "direct_dist": 18174,
          "direct_cost": 546,
          "direct_time": 1218
        },
        {
          "bid": 4241,
          "id": 8,
          "price": 4209,
          "cost": 0,
          "direct_dist": 14139,
          "direct_cost": 425,
          "direct_time": 961
        }
      ],
      "cost": 529,
      "virtual_welfare": 8425
    },
    "profit": 7889,
    "cost_profit": 0.0,
    "welfare": 8425,
    "virtual_welfare": 8425,
    "running_time": 0
  },
  {
    "graph_name": "50_64",
    "n_pass": 2,
    "winning_ride": {
      "driver": {
        "arrive_until": 2400,
        "direct_cost": 507
      },
      "passengers": [
        {
          "bid": 5044,
          "id": 38,
          "price": 2368,
          "cost": 0,
          "direct_dist": 16815,
          "direct_cost": 505,
          "direct_time": 1077
        },
        {
          "bid": 4692,
          "id": 7,
          "price": 3243,
          "cost": 0,
          "direct_dist": 15641,
          "direct_cost": 470,
          "direct_time": 1023
        }
      ],
      "cost": 528,
      "virtual_welfare": 9208
    },
    "profit": 5083,
    "cost_profit": 0.0,
    "welfare": 9208,
    "virtual_welfare": 9208,
    "running_time": 4
  },
  {
    "graph_name": "50_65",
    "n_pass": 2,
    "winning_ride": {
      "driver": {
        "arrive_until": 2400,
        "direct_cost": 455
      },
      "passengers": [
        {
          "bid": 5315,
          "id": 36,
          "price": 4408,
          "cost": 0,
          "direct_dist": 17719,
          "direct_cost": 532,
          "direct_time": 1155
        },
        {
          "bid": 4426,
          "id": 26,
          "price": 4408,
          "cost": 0,
          "direct_dist": 14755,
          "direct_cost": 443,
          "direct_time": 990
        }
      ],
      "cost": 462,
      "virtual_welfare": 9279
    },
    "profit": 8354,
    "cost_profit": 0.0,
    "welfare": 9279,
    "virtual_welfare": 9279,
    "running_time": 0
  },
  {
    "graph_name": "50_66",
    "n_pass": 2,
    "winning_ride": {
      "driver": {
        "arrive_until": 2400,
        "direct_cost": 471
      },
      "passengers": [
        {
          "bid": 3792,
          "id": 22,
          "price": 3618,
          "cost": 0,
          "direct_dist": 12643,
          "direct_cost": 380,
          "direct_time": 929
        },
        {
          "bid": 4179,
          "id": 7,
          "price": 3416,
          "cost": 0,
          "direct_dist": 13931,
          "direct_cost": 418,
          "direct_time": 872
        }
      ],
      "cost": 361,
      "virtual_welfare": 7610
    },
    "profit": 6673,
    "cost_profit": 0.0,
    "welfare": 7610,
    "virtual_welfare": 7610,
    "running_time": 3
  },
  {
    "graph_name": "50_67",
    "n_pass": 2,
    "winning_ride": {
      "driver": {
        "arrive_until": 2400,
        "direct_cost": 493
      },
      "passengers": [
        {
          "bid": 5163,
          "id": 26,
          "price": 4762,
          "cost": 0,
          "direct_dist": 17213,
          "direct_cost": 517,
          "direct_time": 1178
        },
        {
          "bid": 4825,
          "id": 18,
          "price": 4762,
          "cost": 0,
          "direct_dist": 16086,
          "direct_cost": 483,
          "direct_time": 1005
        }
      ],
      "cost": 474,
      "virtual_welfare": 9514
    },
    "profit": 9050,
    "cost_profit": 0.0,
    "welfare": 9514,
    "virtual_welfare": 9514,
    "running_time": 1
  },
  {
    "graph_name": "50_68",
    "n_pass": 2,
    "winning_ride": {
      "driver": {
        "arrive_until": 2400,
        "direct_cost": 408
      },
      "passengers": [
        {
          "bid": 4116,
          "id": 26,
          "price": 2928,
          "cost": 0,
          "direct_dist": 13721,
          "direct_cost": 412,
          "direct_time": 874
        },
        {
          "bid": 3850,
          "id": 1,
          "price": 3752,
          "cost": 0,
          "direct_dist": 12835,
          "direct_cost": 386,
          "direct_time": 848
        }
      ],
      "cost": 596,
      "virtual_welfare": 7370
    },
    "profit": 6084,
    "cost_profit": 0.0,
    "welfare": 7370,
    "virtual_welfare": 7370,
    "running_time": 2
  },
  {
    "graph_name": "50_69",
    "n_pass": 2,
    "winning_ride": {
      "driver": {
        "arrive_until": 2400,
        "direct_cost": 458
      },
      "passengers": [
        {
          "bid": 4740,
          "id": 36,
          "price": 4139,
          "cost": 0,
          "direct_dist": 15803,
          "direct_cost": 475,
          "direct_time": 1071
        },
        {
          "bid": 4333,
          "id": 3,
          "price": 4139,
          "cost": 0,
          "direct_dist": 14444,
          "direct_cost": 434,
          "direct_time": 985
        }
      ],
      "cost": 342,
      "virtual_welfare": 8731
    },
    "profit": 7936,
    "cost_profit": 0.0,
    "welfare": 8731,
    "virtual_welfare": 8731,
    "running_time": 1
  },
  {
    "graph_name": "50_7",
    "n_pass": 2,
    "winning_ride": {
      "driver": {
        "arrive_until": 2400,
        "direct_cost": 428
      },
      "passengers": [
        {
          "bid": 3843,
          "id": 46,
          "price": 2834,
          "cost": 0,
          "direct_dist": 12812,
          "direct_cost": 385,
          "direct_time": 839
        },
        {
          "bid": 4008,
          "id": 42,
          "price": 3117,
          "cost": 0,
          "direct_dist": 13361,
          "direct_cost": 401,
          "direct_time": 950
        }
      ],
      "cost": 493,
      "virtual_welfare": 7358
    },
    "profit": 5458,
    "cost_profit": 0.0,
    "welfare": 7358,
    "virtual_welfare": 7358,
    "running_time": 3
  },
  {
    "graph_name": "50_70",
    "n_pass": 2,
    "winning_ride": {
      "driver": {
        "arrive_until": 2400,
        "direct_cost": 553
      },
      "passengers": [
        {
          "bid": 4603,
          "id": 38,
          "price": 4410,
          "cost": 0,
          "direct_dist": 15346,
          "direct_cost": 461,
          "direct_time": 962
        },
        {
          "bid": 4950,
          "id": 16,
          "price": 4458,
          "cost": 0,
          "direct_dist": 16502,
          "direct_cost": 496,
          "direct_time": 1066
        }
      ],
      "cost": 383,
      "virtual_welfare": 9170
    },
    "profit": 8485,
    "cost_profit": 0.0,
    "welfare": 9170,
    "virtual_welfare": 9170,
    "running_time": 0
  },
  {
    "graph_name": "50_71",
    "n_pass": 2,
    "winning_ride": {
      "driver": {
        "arrive_until": 2400,
        "direct_cost": 435
      },
      "passengers": [
        {
          "bid": 5198,
          "id": 22,
          "price": 3659,
          "cost": 0,
          "direct_dist": 17329,
          "direct_cost": 520,
          "direct_time": 1143
        },
        {
          "bid": 4381,
          "id": 5,
          "price": 3659,
          "cost": 0,
          "direct_dist": 14604,
          "direct_cost": 439,
          "direct_time": 972
        }
      ],
      "cost": 530,
      "virtual_welfare": 9049
    },
    "profit": 6788,
    "cost_profit": 0.0,
    "welfare": 9049,
    "virtual_welfare": 9049,
    "running_time": 0
  },
  {
    "graph_name": "50_72",
    "n_pass": 2,
    "winning_ride": {
      "driver": {
        "arrive_until": 2400,
        "direct_cost": 493
      },
      "passengers": [
        {
          "bid": 5396,
          "id": 36,
          "price": 2740,
          "cost": 0,
          "direct_dist": 17988,
          "direct_cost": 540,
          "direct_time": 1177
        },
        {
          "bid": 4415,
          "id": 3,
          "price": 3927,
          "cost": 0,
          "direct_dist": 14717,
          "direct_cost": 442,
          "direct_time": 956
        }
      ],
      "cost": 474,
      "virtual_welfare": 9337
    },
    "profit": 6193,
    "cost_profit": 0.0,
    "welfare": 9337,
    "virtual_welfare": 9337,
    "running_time": 2
  },
  {
    "graph_name": "50_73",
    "n_pass": 2,
    "winning_ride": {
      "driver": {
        "arrive_until": 2400,
        "direct_cost": 394
      },
      "passengers": [
        {
          "bid": 2652,
          "id": 42,
          "price": 2647,
          "cost": 0,
          "direct_dist": 8989,
          "direct_cost": 270,
          "direct_time": 602
        },
        {
          "bid": 3064,
          "id": 11,
          "price": 2647,
          "cost": 0,
          "direct_dist": 10214,
          "direct_cost": 307,
          "direct_time": 643
        }
      ],
      "cost": 407,
      "virtual_welfare": 5309
    },
    "profit": 4887,
    "cost_profit": 0.0,
    "welfare": 5309,
    "virtual_welfare": 5309,
    "running_time": 7
  },
  {
    "graph_name": "50_74",
    "n_pass": 2,
    "winning_ride": {
      "driver": {
        "arrive_until": 2400,
        "direct_cost": 449
      },
      "passengers": [
        {
          "bid": 3866,
          "id": 18,
          "price": 3157,
          "cost": 0,
          "direct_dist": 12887,
          "direct_cost": 387,
          "direct_time": 840
        },
        {
          "bid": 4599,
          "id": 2,
          "price": 3353,
          "cost": 0,
          "direct_dist": 15331,
          "direct_cost": 460,
          "direct_time": 926
        }
      ],
      "cost": 428,
      "virtual_welfare": 8037
    },
    "profit": 6082,
    "cost_profit": 0.0,
    "welfare": 8037,
    "virtual_welfare": 8037,
    "running_time": 3
  },
  {
    "graph_name": "50_75",
    "n_pass": 2,
    "winning_ride": {
      "driver": {
        "arrive_until": 2400,
        "direct_cost": 417
      },
      "passengers": [
        {
          "bid": 3964,
          "id": 7,
          "price": 3091,
          "cost": 0,
          "direct_dist": 13214,
          "direct_cost": 397,
          "direct_time": 879
        },
        {
          "bid": 3544,
          "id": 2,
          "price": 3088,
          "cost": 0,
          "direct_dist": 11816,
          "direct_cost": 355,
          "direct_time": 783
        }
      ],
      "cost": 547,
      "virtual_welfare": 6961
    },
    "profit": 5632,
    "cost_profit": 0.0,
    "welfare": 6961,
    "virtual_welfare": 6961,
    "running_time": 3
  },
  {
    "graph_name": "50_76",
    "n_pass": 2,
    "winning_ride": {
      "driver": {
        "arrive_until": 2400,
        "direct_cost": 511
      },
      "passengers": [
        {
          "bid": 2491,
          "id": 12,
          "price": 2419,
          "cost": 0,
          "direct_dist": 8305,
          "direct_cost": 250,
          "direct_time": 530
        },
        {
          "bid": 2671,
          "id": 11,
          "price": 2419,
          "cost": 0,
          "direct_dist": 8906,
          "direct_cost": 268,
          "direct_time": 541
        }
      ],
      "cost": 319,
      "virtual_welfare": 4843
    },
    "profit": 4519,
    "cost_profit": 0.0,
    "welfare": 4843,
    "virtual_welfare": 4843,
    "running_time": 5
  },
  {
    "graph_name": "50_77",
    "n_pass": 2,
    "winning_ride": {
      "driver": {
        "arrive_until": 2400,
        "direct_cost": 471
      },
      "passengers": [
        {
          "bid": 3879,
          "id": 43,
          "price": 3141,
          "cost": 0,
          "direct_dist": 12931,
          "direct_cost": 388,
          "direct_time": 869
        },
        {
          "bid": 4299,
          "id": 38,
          "price": 3141,
          "cost": 0,
          "direct_dist": 14331,
          "direct_cost": 430,
          "direct_time": 998
        }
      ],
      "cost": 489,
      "virtual_welfare": 7689
    },
    "profit": 5793,
    "cost_profit": 0.0,
    "welfare": 7689,
    "virtual_welfare": 7689,
    "running_time": 0
  },
  {
    "graph_name": "50_78",
    "n_pass": 1,
    "winning_ride": {
      "driver": {
        "arrive_until": 2400,
        "direct_cost": 507
      },
      "passengers": [
        {
          "bid": 4313,
          "id": 39,
          "price": 4098,
          "cost": 0,
          "direct_dist": 14379,
          "direct_cost": 432,
          "direct_time": 917
        }
      ],
      "cost": 513,
      "virtual_welfare": 3800
    },
    "profit": 3585,
    "cost_profit": 0.0,
    "welfare": 3800,
    "virtual_welfare": 3800,
    "running_time": 3
  },
  {
    "graph_name": "50_79",
    "n_pass": 2,
    "winning_ride": {
      "driver": {
        "arrive_until": 2400,
        "direct_cost": 460
      },
      "passengers": [
        {
          "bid": 3996,
          "id": 27,
          "price": 3919,
          "cost": 0,
          "direct_dist": 13323,
          "direct_cost": 400,
          "direct_time": 796
        },
        {
          "bid": 4701,
          "id": 23,
          "price": 3919,
          "cost": 0,
          "direct_dist": 15673,
          "direct_cost": 471,
          "direct_time": 1038
        }
      ],
      "cost": 486,
      "virtual_welfare": 8211
    },
    "profit": 7352,
    "cost_profit": 0.0,
    "welfare": 8211,
    "virtual_welfare": 8211,
    "running_time": 2
  },
  {
    "graph_name": "50_8",
    "n_pass": 1,
    "winning_ride": {
      "driver": {
        "arrive_until": 2400,
        "direct_cost": 413
      },
      "passengers": [
        {
          "bid": 4471,
          "id": 12,
          "price": 4218,
          "cost": 0,
          "direct_dist": 14904,
          "direct_cost": 448,
          "direct_time": 903
        }
      ],
      "cost": 552,
      "virtual_welfare": 3919
    },
    "profit": 3666,
    "cost_profit": 0.0,
    "welfare": 3919,
    "virtual_welfare": 3919,
    "running_time": 3
  },
  {
    "graph_name": "50_80",
    "n_pass": 2,
    "winning_ride": {
      "driver": {
        "arrive_until": 2400,
        "direct_cost": 470
      },
      "passengers": [
        {
          "bid": 4477,
          "id": 41,
          "price": 3007,
          "cost": 0,
          "direct_dist": 14925,
          "direct_cost": 448,
          "direct_time": 1181
        },
        {
          "bid": 5766,
          "id": 36,
          "price": 3007,
          "cost": 0,
          "direct_dist": 19223,
          "direct_cost": 577,
          "direct_time": 1167
        }
      ],
      "cost": 609,
      "virtual_welfare": 9634
    },
    "profit": 5405,
    "cost_profit": 0.0,
    "welfare": 9634,
    "virtual_welfare": 9634,
    "running_time": 7
  },
  {
    "graph_name": "50_81",
    "n_pass": 2,
    "winning_ride": {
      "driver": {
        "arrive_until": 2400,
        "direct_cost": 498
      },
      "passengers": [
        {
          "bid": 5139,
          "id": 45,
          "price": 3864,
          "cost": 0,
          "direct_dist": 17132,
          "direct_cost": 514,
          "direct_time": 1221
        },
        {
          "bid": 3939,
          "id": 22,
          "price": 3864,
          "cost": 0,
          "direct_dist": 13132,
          "direct_cost": 394,
          "direct_time": 862
        }
      ],
      "cost": 409,
      "virtual_welfare": 8669
    },
    "profit": 7319,
    "cost_profit": 0.0,
    "welfare": 8669,
    "virtual_welfare": 8669,
    "running_time": 0
  },
  {
    "graph_name": "50_82",
    "n_pass": 2,
    "winning_ride": {
      "driver": {
        "arrive_until": 2400,
        "direct_cost": 436
      },
      "passengers": [
        {
          "bid": 4128,
          "id": 47,
          "price": 3264,
          "cost": 0,
          "direct_dist": 13760,
          "direct_cost": 413,
          "direct_time": 896
        },
        {
          "bid": 4141,
          "id": 39,
          "price": 3264,
          "cost": 0,
          "direct_dist": 15243,
          "direct_cost": 458,
          "direct_time": 974
        }
      ],
      "cost": 477,
      "virtual_welfare": 7792
    },
    "profit": 6051,
    "cost_profit": 0.0,
    "welfare": 7792,
    "virtual_welfare": 7792,
    "running_time": 1
  },
  {
    "graph_name": "50_83",
    "n_pass": 2,
    "winning_ride": {
      "driver": {
        "arrive_until": 2400,
        "direct_cost": 378
      },
      "passengers": [
        {
          "bid": 4273,
          "id": 49,
          "price": 3047,
          "cost": 0,
          "direct_dist": 14245,
          "direct_cost": 428,
          "direct_time": 1018
        },
        {
          "bid": 3941,
          "id": 42,
          "price": 3067,
          "cost": 0,
          "direct_dist": 13139,
          "direct_cost": 395,
          "direct_time": 860
        }
      ],
      "cost": 393,
      "virtual_welfare": 7821
    },
    "profit": 5721,
    "cost_profit": 0.0,
    "welfare": 7821,
    "virtual_welfare": 7821,
    "running_time": 2
  },
  {
    "graph_name": "50_84",
    "n_pass": 2,
    "winning_ride": {
      "driver": {
        "arrive_until": 2400,
        "direct_cost": 467
      },
      "passengers": [
        {
          "bid": 4939,
          "id": 44,
          "price": 3702,
          "cost": 0,
          "direct_dist": 16466,
          "direct_cost": 494,
          "direct_time": 1086
        },
        {
          "bid": 4511,
          "id": 36,
          "price": 4076,
          "cost": 0,
          "direct_dist": 15039,
          "direct_cost": 452,
          "direct_time": 1002
        }
      ],
      "cost": 484,
      "virtual_welfare": 8966
    },
    "profit": 7294,
    "cost_profit": 0.0,
    "welfare": 8966,
    "virtual_welfare": 8966,
    "running_time": 1
  },
  {
    "graph_name": "50_85",
    "n_pass": 2,
    "winning_ride": {
      "driver": {
        "arrive_until": 2400,
        "direct_cost": 428
      },
      "passengers": [
        {
          "bid": 3770,
          "id": 29,
          "price": 3311,
          "cost": 0,
          "direct_dist": 12568,
          "direct_cost": 378,
          "direct_time": 781
        },
        {
          "bid": 3741,
          "id": 16,
          "price": 3311,
          "cost": 0,
          "direct_dist": 12473,
          "direct_cost": 375,
          "direct_time": 837
        }
      ],
      "cost": 584,
      "virtual_welfare": 6927
    },
    "profit": 6038,
    "cost_profit": 0.0,
    "welfare": 6927,
    "virtual_welfare": 6927,
    "running_time": 3
  },
  {
    "graph_name": "50_86",
    "n_pass": 2,
    "winning_ride": {
      "driver": {
        "arrive_until": 2400,
        "direct_cost": 498
      },
      "passengers": [
        {
          "bid": 3649,
          "id": 26,
          "price": 3160,
          "cost": 0,
          "direct_dist": 12164,
          "direct_cost": 365,
          "direct_time": 754
        },
        {
          "bid": 4681,
          "id": 1,
          "price": 3160,
          "cost": 0,
          "direct_dist": 15604,
          "direct_cost": 469,
          "direct_time": 1026
        }
      ],
      "cost": 401,
      "virtual_welfare": 7929
    },
    "profit": 5919,
    "cost_profit": 0.0,
    "welfare": 7929,
    "virtual_welfare": 7929,
    "running_time": 2
  },
  {
    "graph_name": "50_87",
    "n_pass": 2,
    "winning_ride": {
      "driver": {
        "arrive_until": 2400,
        "direct_cost": 434
      },
      "passengers": [
        {
          "bid": 3959,
          "id": 32,
          "price": 3954,
          "cost": 0,
          "direct_dist": 13199,
          "direct_cost": 396,
          "direct_time": 900
        },
        {
          "bid": 5762,
          "id": 28,
          "price": 3954,
          "cost": 0,
          "direct_dist": 19207,
          "direct_cost": 577,
          "direct_time": 1174
        }
      ],
      "cost": 522,
      "virtual_welfare": 9199
    },
    "profit": 7386,
    "cost_profit": 0.0,
    "welfare": 9199,
    "virtual_welfare": 9199,
    "running_time": 2
  },
  {
    "graph_name": "50_88",
    "n_pass": 2,
    "winning_ride": {
      "driver": {
        "arrive_until": 2400,
        "direct_cost": 444
      },
      "passengers": [
        {
          "bid": 3682,
          "id": 33,
          "price": 2889,
          "cost": 0,
          "direct_dist": 12274,
          "direct_cost": 369,
          "direct_time": 722
        },
        {
          "bid": 3950,
          "id": 29,
          "price": 3682,
          "cost": 0,
          "direct_dist": 13169,
          "direct_cost": 396,
          "direct_time": 807
        }
      ],
      "cost": 449,
      "virtual_welfare": 7183
    },
    "profit": 6122,
    "cost_profit": 0.0,
    "welfare": 7183,
    "virtual_welfare": 7183,
    "running_time": 2
  },
  {
    "graph_name": "50_89",
    "n_pass": 2,
    "winning_ride": {
      "driver": {
        "arrive_until": 2400,
        "direct_cost": 522
      },
      "passengers": [
        {
          "bid": 3614,
          "id": 37,
          "price": 2630,
          "cost": 0,
          "direct_dist": 12048,
          "direct_cost": 362,
          "direct_time": 845
        },
        {
          "bid": 4216,
          "id": 11,
          "price": 2630,
          "cost": 0,
          "direct_dist": 14054,
          "direct_cost": 422,
          "direct_time": 987
        }
      ],
      "cost": 316,
      "virtual_welfare": 7514
    },
    "profit": 4944,
    "cost_profit": 0.0,
    "welfare": 7514,
    "virtual_welfare": 7514,
    "running_time": 0
  },
  {
    "graph_name": "50_9",
    "n_pass": 2,
    "winning_ride": {
      "driver": {
        "arrive_until": 2400,
        "direct_cost": 463
      },
      "passengers": [
        {
          "bid": 2819,
          "id": 48,
          "price": 2445,
          "cost": 0,
          "direct_dist": 9398,
          "direct_cost": 282,
          "direct_time": 623
        },
        {
          "bid": 2973,
          "id": 35,
          "price": 2819,
          "cost": 0,
          "direct_dist": 9910,
          "direct_cost": 298,
          "direct_time": 714
        }
      ],
      "cost": 477,
      "virtual_welfare": 5315
    },
    "profit": 4787,
    "cost_profit": 0.0,
    "welfare": 5315,
    "virtual_welfare": 5315,
    "running_time": 6
  },
  {
    "graph_name": "50_90",
    "n_pass": 2,
    "winning_ride": {
      "driver": {
        "arrive_until": 2400,
        "direct_cost": 475
      },
      "passengers": [
        {
          "bid": 3340,
          "id": 42,
          "price": 3303,
          "cost": 0,
          "direct_dist": 13926,
          "direct_cost": 418,
          "direct_time": 920
        },
        {
          "bid": 4846,
          "id": 30,
          "price": 3303,
          "cost": 0,
          "direct_dist": 16156,
          "direct_cost": 485,
          "direct_time": 1077
        }
      ],
      "cost": 492,
      "virtual_welfare": 7694
    },
    "profit": 6114,
    "cost_profit": 0.0,
    "welfare": 7694,
    "virtual_welfare": 7694,
    "running_time": 0
  },
  {
    "graph_name": "50_91",
    "n_pass": 2,
    "winning_ride": {
      "driver": {
        "arrive_until": 2400,
        "direct_cost": 439
      },
      "passengers": [
        {
          "bid": 4863,
          "id": 45,
          "price": 4319,
          "cost": 0,
          "direct_dist": 16213,
          "direct_cost": 487,
          "direct_time": 1118
        },
        {
          "bid": 5008,
          "id": 39,
          "price": 4838,
          "cost": 0,
          "direct_dist": 16695,
          "direct_cost": 501,
          "direct_time": 1123
        }
      ],
      "cost": 563,
      "virtual_welfare": 9308
    },
    "profit": 8594,
    "cost_profit": 0.0,
    "welfare": 9308,
    "virtual_welfare": 9308,
    "running_time": 0
  },
  {
    "graph_name": "50_92",
    "n_pass": 2,
    "winning_ride": {
      "driver": {
        "arrive_until": 2400,
        "direct_cost": 395
      },
      "passengers": [
        {
          "bid": 3442,
          "id": 26,
          "price": 2187,
          "cost": 0,
          "direct_dist": 11474,
          "direct_cost": 345,
          "direct_time": 764
        },
        {
          "bid": 2781,
          "id": 20,
          "price": 2519,
          "cost": 0,
          "direct_dist": 9272,
          "direct_cost": 279,
          "direct_time": 676
        }
      ],
      "cost": 570,
      "virtual_welfare": 5653
    },
    "profit": 4136,
    "cost_profit": 0.0,
    "welfare": 5653,
    "virtual_welfare": 5653,
    "running_time": 4
  },
  {
    "graph_name": "50_93",
    "n_pass": 2,
    "winning_ride": {
      "driver": {
        "arrive_until": 2400,
        "direct_cost": 529
      },
      "passengers": [
        {
          "bid": 2764,
          "id": 27,
          "price": 2525,
          "cost": 0,
          "direct_dist": 9214,
          "direct_cost": 277,
          "direct_time": 653
        },
        {
          "bid": 3817,
          "id": 25,
          "price": 2677,
          "cost": 0,
          "direct_dist": 12725,
          "direct_cost": 382,
          "direct_time": 821
        }
      ],
      "cost": 359,
      "virtual_welfare": 6222
    },
    "profit": 4843,
    "cost_profit": 0.0,
    "welfare": 6222,
    "virtual_welfare": 6222,
    "running_time": 4
  },
  {
    "graph_name": "50_94",
    "n_pass": 2,
    "winning_ride": {
      "driver": {
        "arrive_until": 2400,
        "direct_cost": 444
      },
      "passengers": [
        {
          "bid": 5208,
          "id": 47,
          "price": 3543,
          "cost": 0,
          "direct_dist": 17361,
          "direct_cost": 521,
          "direct_time": 1175
        },
        {
          "bid": 4839,
          "id": 13,
          "price": 3543,
          "cost": 0,
          "direct_dist": 16133,
          "direct_cost": 484,
          "direct_time": 1081
        }
      ],
      "cost": 229,
      "virtual_welfare": 9818
    },
    "profit": 6857,
    "cost_profit": 0.0,
    "welfare": 9818,
    "virtual_welfare": 9818,
    "running_time": 2
  },
  {
    "graph_name": "50_95",
    "n_pass": 2,
    "winning_ride": {
      "driver": {
        "arrive_until": 2400,
        "direct_cost": 408
      },
      "passengers": [
        {
          "bid": 4875,
          "id": 30,
          "price": 3579,
          "cost": 0,
          "direct_dist": 16252,
          "direct_cost": 488,
          "direct_time": 1049
        },
        {
          "bid": 4456,
          "id": 2,
          "price": 3579,
          "cost": 0,
          "direct_dist": 14854,
          "direct_cost": 446,
          "direct_time": 1030
        }
      ],
      "cost": 395,
      "virtual_welfare": 8936
    },
    "profit": 6763,
    "cost_profit": 0.0,
    "welfare": 8936,
    "virtual_welfare": 8936,
    "running_time": 1
  },
  {
    "graph_name": "50_96",
    "n_pass": 2,
    "winning_ride": {
      "driver": {
        "arrive_until": 2400,
        "direct_cost": 447
      },
      "passengers": [
        {
          "bid": 3249,
          "id": 13,
          "price": 2969,
          "cost": 0,
          "direct_dist": 10833,
          "direct_cost": 325,
          "direct_time": 805
        },
        {
          "bid": 3597,
          "id": 10,
          "price": 3249,
          "cost": 0,
          "direct_dist": 11990,
          "direct_cost": 360,
          "direct_time": 931
        }
      ],
      "cost": 447,
      "virtual_welfare": 6399
    },
    "profit": 5771,
    "cost_profit": 0.0,
    "welfare": 6399,
    "virtual_welfare": 6399,
    "running_time": 3
  },
  {
    "graph_name": "50_97",
    "n_pass": 2,
    "winning_ride": {
      "driver": {
        "arrive_until": 2400,
        "direct_cost": 473
      },
      "passengers": [
        {
          "bid": 3596,
          "id": 35,
          "price": 2786,
          "cost": 0,
          "direct_dist": 11989,
          "direct_cost": 360,
          "direct_time": 686
        },
        {
          "bid": 2839,
          "id": 4,
          "price": 2786,
          "cost": 0,
          "direct_dist": 10859,
          "direct_cost": 326,
          "direct_time": 717
        }
      ],
      "cost": 213,
      "virtual_welfare": 6222
    },
    "profit": 5359,
    "cost_profit": 0.0,
    "welfare": 6222,
    "virtual_welfare": 6222,
    "running_time": 6
  },
  {
    "graph_name": "50_98",
    "n_pass": 2,
    "winning_ride": {
      "driver": {
        "arrive_until": 2400,
        "direct_cost": 456
      },
      "passengers": [
        {
          "bid": 4440,
          "id": 32,
          "price": 4148,
          "cost": 0,
          "direct_dist": 14802,
          "direct_cost": 445,
          "direct_time": 895
        },
        {
          "bid": 4420,
          "id": 25,
          "price": 4148,
          "cost": 0,
          "direct_dist": 16571,
          "direct_cost": 498,
          "direct_time": 967
        }
      ],
      "cost": 349,
      "virtual_welfare": 8511
    },
    "profit": 7947,
    "cost_profit": 0.0,
    "welfare": 8511,
    "virtual_welfare": 8511,
    "running_time": 1
  },
  {
    "graph_name": "50_99",
    "n_pass": 2,
    "winning_ride": {
      "driver": {
        "arrive_until": 2400,
        "direct_cost": 478
      },
      "passengers": [
        {
          "bid": 3567,
          "id": 32,
          "price": 3399,
          "cost": 0,
          "direct_dist": 11890,
          "direct_cost": 357,
          "direct_time": 796
        },
        {
          "bid": 3772,
          "id": 3,
          "price": 3299,
          "cost": 0,
          "direct_dist": 12576,
          "direct_cost": 378,
          "direct_time": 837
        }
      ],
      "cost": 362,
      "virtual_welfare": 6977
    },
    "profit": 6336,
    "cost_profit": 0.0,
    "welfare": 6977,
    "virtual_welfare": 6977,
    "running_time": 0
  }
]